13p4MHz_10s_1100.csv

X,CH1,CH2,Start,Increment,
Sequence,Volt,Volt,3.720000e+00,1.000000e-02
0,8.96e-01,2.78e-02,
1,9.20e-01,2.74e-02,
2,9.20e-01,2.80e-02,
3,9.04e-01,2.74e-02,
4,9.20e-01,2.72e-02,
5,9.04e-01,2.78e-02,
6,9.12e-01,2.74e-02,
7,9.28e-01,2.78e-02,
8,9.04e-01,2.72e-02,
9,9.28e-01,2.78e-02,
10,9.28e-01,2.76e-02,
11,9.12e-01,2.70e-02,
12,9.28e-01,2.78e-02,
13,9.04e-01,2.72e-02,
14,9.20e-01,2.80e-02,
15,9.36e-01,2.74e-02,
16,9.36e-01,2.70e-02,
17,9.12e-01,2.78e-02,
18,9.20e-01,2.74e-02,
19,9.36e-01,2.78e-02,
20,9.12e-01,2.70e-02,
21,9.36e-01,2.80e-02,
22,9.36e-01,2.70e-02,
23,9.20e-01,2.78e-02,
24,9.28e-01,2.78e-02,
25,9.36e-01,2.72e-02,
26,9.20e-01,2.78e-02,
27,9.44e-01,2.74e-02,
28,9.20e-01,2.74e-02,
29,9.44e-01,2.80e-02,
30,9.44e-01,2.72e-02,
31,9.20e-01,2.78e-02,
32,9.36e-01,2.76e-02,
33,9.52e-01,2.70e-02,
34,9.36e-01,2.76e-02,
35,9.52e-01,2.72e-02,
36,9.44e-01,2.70e-02,
37,9.36e-01,2.76e-02,
38,9.60e-01,2.76e-02,
39,9.36e-01,2.72e-02,
40,9.60e-01,2.72e-02,
41,9.36e-01,2.78e-02,
42,9.36e-01,2.78e-02,
43,9.60e-01,2.70e-02,
44,9.60e-01,2.76e-02,
45,9.36e-01,2.70e-02,
46,9.44e-01,2.78e-02,
47,9.60e-01,2.68e-02,
48,9.44e-01,2.70e-02,
49,9.68e-01,2.76e-02,
50,9.68e-01,2.76e-02,
51,9.44e-01,2.68e-02,
52,9.44e-01,2.76e-02,
53,9.68e-01,2.68e-02,
54,9.44e-01,2.76e-02,
55,9.68e-01,2.68e-02,
56,9.68e-01,2.76e-02,
57,9.52e-01,2.68e-02,
58,9.52e-01,2.78e-02,
59,9.76e-01,2.68e-02,
60,9.52e-01,2.68e-02,
61,9.76e-01,2.74e-02,
62,9.76e-01,2.66e-02,
63,9.52e-01,2.76e-02,
64,9.76e-01,2.68e-02,
65,9.68e-01,2.76e-02,
66,9.60e-01,2.74e-02,
67,9.84e-01,2.66e-02,
68,9.60e-01,2.74e-02,
69,9.84e-01,2.68e-02,
70,9.68e-01,2.74e-02,
71,9.84e-01,2.68e-02,
72,9.60e-01,2.70e-02,
73,9.84e-01,2.74e-02,
74,9.84e-01,2.72e-02,
75,9.68e-01,2.68e-02,
76,9.92e-01,2.68e-02,
77,9.68e-01,2.72e-02,
78,1.00e+00,2.76e-02,
79,9.68e-01,2.68e-02,
80,9.76e-01,2.76e-02,
81,9.92e-01,2.66e-02,
82,9.68e-01,2.74e-02,
83,9.92e-01,2.66e-02,
84,9.92e-01,2.66e-02,
85,9.84e-01,2.74e-02,
86,9.92e-01,2.66e-02,
87,-8.00e-03,2.96e-02,
88,-8.00e-03,2.98e-02,
89,8.00e-03,3.16e-02,
90,0.00e+00,3.20e-02,
91,8.00e-03,3.44e-02,
92,0.00e+00,3.42e-02,
93,8.00e-03,3.54e-02,
94,0.00e+00,3.54e-02,
95,1.60e-02,3.44e-02,
96,0.00e+00,3.52e-02,
97,1.60e-02,3.48e-02,
98,1.60e-02,3.46e-02,
99,8.00e-03,3.52e-02,
100,1.60e-02,3.50e-02,
101,8.00e-03,3.46e-02,
102,1.60e-02,3.54e-02,
103,8.00e-03,3.48e-02,
104,2.40e-02,3.52e-02,
105,8.00e-03,3.46e-02,
106,1.60e-02,3.54e-02,
107,2.40e-02,3.46e-02,
108,2.40e-02,3.46e-02,
109,1.60e-02,3.52e-02,
110,2.40e-02,3.46e-02,
111,2.40e-02,3.52e-02,
112,2.40e-02,3.50e-02,
113,3.20e-02,3.46e-02,
114,2.40e-02,3.46e-02,
115,1.60e-02,3.52e-02,
116,1.60e-02,3.50e-02,
117,3.20e-02,3.46e-02,
118,3.20e-02,3.52e-02,
119,3.20e-02,3.46e-02,
120,4.00e-02,3.52e-02,
121,3.20e-02,3.46e-02,
122,3.20e-02,3.44e-02,
123,4.00e-02,3.50e-02,
124,3.20e-02,3.44e-02,
125,3.20e-02,3.50e-02,
126,3.20e-02,3.50e-02,
127,4.00e-02,3.44e-02,
128,3.20e-02,3.52e-02,
129,4.80e-02,3.48e-02,
130,4.00e-02,3.44e-02,
131,4.00e-02,3.50e-02,
132,4.00e-02,3.42e-02,
133,4.00e-02,3.52e-02,
134,4.00e-02,3.42e-02,
135,4.80e-02,3.50e-02,
136,4.00e-02,3.44e-02,
137,5.60e-02,3.52e-02,
138,4.00e-02,3.42e-02,
139,5.60e-02,3.50e-02,
140,4.80e-02,3.44e-02,
141,5.60e-02,3.50e-02,
142,5.60e-02,3.40e-02,
143,4.80e-02,3.48e-02,
144,4.80e-02,3.44e-02,
145,6.40e-02,3.50e-02,
146,4.80e-02,3.50e-02,
147,6.40e-02,3.42e-02,
148,4.80e-02,3.44e-02,
149,6.40e-02,3.50e-02,
150,5.60e-02,3.42e-02,
151,6.40e-02,3.50e-02,
152,6.40e-02,3.42e-02,
153,5.60e-02,3.48e-02,
154,5.60e-02,3.42e-02,
155,6.40e-02,3.46e-02,
156,5.60e-02,3.42e-02,
157,7.20e-02,3.48e-02,
158,5.60e-02,3.46e-02,
159,7.20e-02,3.40e-02,
160,7.20e-02,3.42e-02,
161,6.40e-02,3.46e-02,
162,7.20e-02,3.48e-02,
163,6.40e-02,3.40e-02,
164,8.00e-02,3.40e-02,
165,6.40e-02,3.48e-02,
166,6.40e-02,3.46e-02,
167,8.00e-02,3.40e-02,
168,8.00e-02,3.46e-02,
169,6.40e-02,3.40e-02,
170,8.00e-02,3.48e-02,
171,7.20e-02,3.36e-02,
172,8.00e-02,3.40e-02,
173,8.00e-02,3.48e-02,
174,7.20e-02,3.38e-02,
175,8.80e-02,3.46e-02,
176,8.00e-02,3.40e-02,
177,8.80e-02,3.46e-02,
178,7.20e-02,3.38e-02,
179,8.80e-02,3.46e-02,
180,8.80e-02,3.46e-02,
181,8.80e-02,3.38e-02,
182,8.80e-02,3.40e-02,
183,9.60e-02,3.46e-02,
184,9.60e-02,3.36e-02,
185,8.80e-02,3.46e-02,
186,8.80e-02,3.44e-02,
187,9.60e-02,3.38e-02,
188,9.60e-02,3.40e-02,
189,8.80e-02,3.44e-02,
190,8.80e-02,3.46e-02,
191,1.04e-01,3.38e-02,
192,1.04e-01,3.38e-02,
193,9.60e-02,3.46e-02,
194,9.60e-02,3.40e-02,
195,1.04e-01,3.46e-02,
196,9.60e-02,3.38e-02,
197,1.04e-01,3.46e-02,
198,9.60e-02,3.38e-02,
199,1.04e-01,3.46e-02,
200,1.12e-01,3.38e-02,
201,9.60e-02,3.42e-02,
202,1.04e-01,3.46e-02,
203,1.12e-01,3.38e-02,
204,1.04e-01,3.42e-02,
205,1.20e-01,3.36e-02,
206,1.04e-01,3.42e-02,
207,1.20e-01,3.38e-02,
208,1.12e-01,3.46e-02,
209,1.20e-01,3.38e-02,
210,1.04e-01,3.38e-02,
211,1.20e-01,3.44e-02,
212,1.20e-01,3.36e-02,
213,1.12e-01,3.46e-02,
214,1.20e-01,3.38e-02,
215,1.12e-01,3.44e-02,
216,1.12e-01,3.36e-02,
217,1.28e-01,3.42e-02,
218,1.12e-01,3.44e-02,
219,1.28e-01,3.38e-02,
220,1.28e-01,3.38e-02,
221,1.12e-01,3.44e-02,
222,1.28e-01,3.34e-02,
223,1.20e-01,3.46e-02,
224,1.28e-01,3.44e-02,
225,1.20e-01,3.38e-02,
226,1.20e-01,3.38e-02,
227,1.36e-01,3.42e-02,
228,1.36e-01,3.36e-02,
229,1.20e-01,3.44e-02,
230,1.36e-01,3.34e-02,
231,1.28e-01,3.44e-02,
232,1.36e-01,3.44e-02,
233,1.28e-01,3.34e-02,
234,1.36e-01,3.40e-02,
235,1.36e-01,3.34e-02,
236,1.36e-01,3.42e-02,
237,1.36e-01,3.32e-02,
238,1.36e-01,3.36e-02,
239,1.52e-01,3.42e-02,
240,1.44e-01,3.36e-02,
241,1.28e-01,3.42e-02,
242,1.44e-01,3.40e-02,
243,1.52e-01,3.36e-02,
244,1.44e-01,3.40e-02,
245,1.52e-01,3.32e-02,
246,1.44e-01,3.40e-02,
247,1.44e-01,3.30e-02,
248,1.44e-01,3.44e-02,
249,1.60e-01,3.36e-02,
250,1.52e-01,3.36e-02,
251,1.44e-01,3.42e-02,
252,1.52e-01,3.34e-02,
253,1.60e-01,3.40e-02,
254,1.52e-01,3.32e-02,
255,1.60e-01,3.42e-02,
256,1.52e-01,3.40e-02,
257,1.60e-01,3.32e-02,
258,1.52e-01,3.36e-02,
259,1.68e-01,3.34e-02,
260,1.52e-01,3.40e-02,
261,1.68e-01,3.32e-02,
262,1.68e-01,3.40e-02,
263,1.60e-01,3.32e-02,
264,1.68e-01,3.32e-02,
265,1.60e-01,3.38e-02,
266,1.60e-01,3.38e-02,
267,1.76e-01,3.34e-02,
268,1.68e-01,3.36e-02,
269,1.60e-01,3.34e-02,
270,1.76e-01,3.38e-02,
271,1.60e-01,3.32e-02,
272,1.76e-01,3.32e-02,
273,1.68e-01,3.42e-02,
274,1.76e-01,3.38e-02,
275,1.76e-01,3.30e-02,
276,1.76e-01,3.36e-02,
277,1.68e-01,3.38e-02,
278,1.68e-01,3.40e-02,
279,1.84e-01,3.34e-02,
280,1.84e-01,3.26e-02,
281,1.76e-01,3.36e-02,
282,1.84e-01,3.32e-02,
283,1.76e-01,3.40e-02,
284,1.84e-01,3.40e-02,
285,1.76e-01,3.32e-02,
286,1.76e-01,3.38e-02,
287,1.92e-01,3.30e-02,
288,1.76e-01,3.38e-02,
289,1.92e-01,3.30e-02,
290,1.92e-01,3.30e-02,
291,1.92e-01,3.38e-02,
292,1.92e-01,3.28e-02,
293,1.92e-01,3.38e-02,
294,1.92e-01,3.26e-02,
295,2.00e-01,3.36e-02,
296,1.92e-01,3.36e-02,
297,2.08e-01,3.32e-02,
298,1.92e-01,3.32e-02,
299,2.00e-01,3.36e-02,
300,1.92e-01,3.36e-02,
301,2.08e-01,3.30e-02,
302,1.92e-01,3.30e-02,
303,2.00e-01,3.40e-02,
304,2.00e-01,3.28e-02,
305,2.08e-01,3.36e-02,
306,2.00e-01,3.32e-02,
307,2.16e-01,3.36e-02,
308,2.16e-01,3.30e-02,
309,2.00e-01,3.38e-02,
310,2.00e-01,3.36e-02,
311,2.16e-01,3.30e-02,
312,2.00e-01,3.30e-02,
313,2.16e-01,3.38e-02,
314,2.08e-01,3.28e-02,
315,2.16e-01,3.36e-02,
316,2.08e-01,3.30e-02,
317,2.16e-01,3.36e-02,
318,2.08e-01,3.30e-02,
319,2.24e-01,3.38e-02,
320,2.24e-01,3.34e-02,
321,2.16e-01,3.30e-02,
322,2.24e-01,3.36e-02,
323,2.08e-01,3.30e-02,
324,2.24e-01,3.30e-02,
325,2.16e-01,3.34e-02,
326,2.16e-01,3.34e-02,
327,2.24e-01,3.28e-02,
328,2.16e-01,3.28e-02,
329,2.32e-01,3.36e-02,
330,2.16e-01,3.34e-02,
331,2.32e-01,3.26e-02,
332,2.16e-01,3.32e-02,
333,2.32e-01,3.28e-02,
334,2.32e-01,3.34e-02,
335,2.16e-01,3.28e-02,
336,2.24e-01,3.30e-02,
337,2.32e-01,3.36e-02,
338,2.32e-01,3.36e-02,
339,2.40e-01,3.26e-02,
340,2.40e-01,3.34e-02,
341,2.24e-01,3.28e-02,
342,2.24e-01,3.36e-02,
343,2.40e-01,3.28e-02,
344,2.40e-01,3.34e-02,
345,2.32e-01,3.28e-02,
346,2.40e-01,3.34e-02,
347,2.32e-01,3.28e-02,
348,2.40e-01,3.28e-02,
349,2.48e-01,3.34e-02,
350,2.48e-01,3.32e-02,
351,2.40e-01,3.28e-02,
352,2.56e-01,3.32e-02,
353,2.48e-01,3.24e-02,
354,2.48e-01,3.34e-02,
355,2.48e-01,3.28e-02,
356,2.48e-01,3.28e-02,
357,2.56e-01,3.34e-02,
358,2.48e-01,3.24e-02,
359,2.56e-01,3.32e-02,
360,2.56e-01,3.26e-02,
361,2.48e-01,3.32e-02,
362,2.64e-01,3.32e-02,
363,2.48e-01,3.22e-02,
364,2.56e-01,3.28e-02,
365,2.64e-01,3.36e-02,
366,2.56e-01,3.26e-02,
367,2.64e-01,3.34e-02,
368,2.56e-01,3.32e-02,
369,2.72e-01,3.24e-02,
370,2.56e-01,3.32e-02,
371,2.72e-01,3.24e-02,
372,2.72e-01,3.32e-02,
373,2.56e-01,3.24e-02,
374,2.72e-01,3.26e-02,
375,2.56e-01,3.30e-02,
376,2.72e-01,3.30e-02,
377,2.64e-01,3.26e-02,
378,2.72e-01,3.30e-02,
379,2.64e-01,3.24e-02,
380,2.64e-01,3.30e-02,
381,2.80e-01,3.26e-02,
382,2.80e-01,3.30e-02,
383,2.64e-01,3.24e-02,
384,2.80e-01,3.22e-02,
385,2.72e-01,3.32e-02,
386,2.80e-01,3.28e-02,
387,2.72e-01,3.26e-02,
388,2.80e-01,3.30e-02,
389,2.72e-01,3.24e-02,
390,2.88e-01,3.20e-02,
391,2.72e-01,3.32e-02,
392,2.88e-01,3.22e-02,
393,2.72e-01,3.30e-02,
394,2.72e-01,3.32e-02,
395,2.88e-01,3.24e-02,
396,2.88e-01,3.22e-02,
397,2.88e-01,3.30e-02,
398,2.88e-01,3.22e-02,
399,2.96e-01,3.28e-02,
400,2.88e-01,3.24e-02,
401,2.96e-01,3.30e-02,
402,2.96e-01,3.28e-02,
403,2.88e-01,3.24e-02,
404,2.96e-01,3.30e-02,
405,2.88e-01,3.24e-02,
406,2.96e-01,3.30e-02,
407,3.04e-01,3.24e-02,
408,2.96e-01,3.32e-02,
409,2.96e-01,3.22e-02,
410,3.12e-01,3.24e-02,
411,2.96e-01,3.30e-02,
412,2.96e-01,3.22e-02,
413,3.04e-01,3.30e-02,
414,3.12e-01,3.24e-02,
415,2.96e-01,3.30e-02,
416,3.04e-01,3.22e-02,
417,3.04e-01,3.30e-02,
418,3.04e-01,3.32e-02,
419,3.12e-01,3.24e-02,
420,3.04e-01,3.32e-02,
421,3.12e-01,3.22e-02,
422,3.20e-01,3.30e-02,
423,3.04e-01,3.22e-02,
424,3.20e-01,3.22e-02,
425,3.04e-01,3.30e-02,
426,3.20e-01,3.20e-02,
427,3.12e-01,3.28e-02,
428,3.20e-01,3.26e-02,
429,3.04e-01,3.22e-02,
430,3.20e-01,3.26e-02,
431,3.12e-01,3.20e-02,
432,3.12e-01,3.24e-02,
433,3.28e-01,3.20e-02,
434,3.12e-01,3.20e-02,
435,3.28e-01,3.26e-02,
436,3.36e-01,3.22e-02,
437,3.20e-01,3.26e-02,
438,3.20e-01,3.26e-02,
439,3.28e-01,3.20e-02,
440,3.20e-01,3.20e-02,
441,3.28e-01,3.26e-02,
442,3.36e-01,3.28e-02,
443,3.20e-01,3.18e-02,
444,3.36e-01,3.20e-02,
445,3.20e-01,3.28e-02,
446,3.20e-01,3.22e-02,
447,3.36e-01,3.28e-02,
448,3.36e-01,3.20e-02,
449,3.20e-01,3.28e-02,
450,3.44e-01,3.26e-02,
451,3.28e-01,3.18e-02,
452,3.44e-01,3.28e-02,
453,3.28e-01,3.20e-02,
454,3.44e-01,3.28e-02,
455,3.28e-01,3.18e-02,
456,3.44e-01,3.26e-02,
457,3.36e-01,3.20e-02,
458,3.44e-01,3.26e-02,
459,3.52e-01,3.20e-02,
460,3.36e-01,3.18e-02,
461,3.52e-01,3.28e-02,
462,3.52e-01,3.20e-02,
463,3.36e-01,3.26e-02,
464,3.52e-01,3.22e-02,
465,3.36e-01,3.26e-02,
466,3.52e-01,3.20e-02,
467,3.52e-01,3.26e-02,
468,3.52e-01,3.26e-02,
469,3.68e-01,3.18e-02,
470,3.52e-01,3.24e-02,
471,3.60e-01,3.20e-02,
472,3.68e-01,3.26e-02,
473,3.52e-01,3.18e-02,
474,3.52e-01,3.26e-02,
475,3.68e-01,3.18e-02,
476,3.60e-01,3.18e-02,
477,3.68e-01,3.24e-02,
478,3.60e-01,3.20e-02,
479,3.76e-01,3.26e-02,
480,3.76e-01,3.18e-02,
481,3.60e-01,3.22e-02,
482,3.60e-01,3.18e-02,
483,3.76e-01,3.24e-02,
484,3.76e-01,3.26e-02,
485,3.68e-01,3.16e-02,
486,3.68e-01,3.18e-02,
487,3.76e-01,3.24e-02,
488,3.68e-01,3.24e-02,
489,3.84e-01,3.16e-02,
490,3.84e-01,3.20e-02,
491,3.68e-01,3.24e-02,
492,3.84e-01,3.16e-02,
493,3.68e-01,3.24e-02,
494,3.84e-01,3.22e-02,
495,3.68e-01,3.14e-02,
496,3.76e-01,3.22e-02,
497,3.84e-01,3.16e-02,
498,3.84e-01,3.16e-02,
499,3.76e-01,3.24e-02,
500,3.76e-01,3.16e-02,
501,3.92e-01,3.26e-02,
502,3.92e-01,3.16e-02,
503,3.76e-01,3.24e-02,
504,3.92e-01,3.22e-02,
505,3.84e-01,3.16e-02,
506,3.76e-01,3.22e-02,
507,3.92e-01,3.16e-02,
508,3.92e-01,3.16e-02,
509,3.84e-01,3.22e-02,
510,3.84e-01,3.24e-02,
511,4.00e-01,3.14e-02,
512,3.84e-01,3.20e-02,
513,4.00e-01,3.14e-02,
514,4.00e-01,3.22e-02,
515,3.84e-01,3.16e-02,
516,3.84e-01,3.22e-02,
517,4.00e-01,3.14e-02,
518,4.16e-01,3.18e-02,
519,3.92e-01,3.12e-02,
520,4.00e-01,3.14e-02,
521,4.08e-01,3.20e-02,
522,4.00e-01,3.14e-02,
523,4.08e-01,3.20e-02,
524,4.00e-01,3.12e-02,
525,4.16e-01,3.22e-02,
526,4.08e-01,3.10e-02,
527,4.24e-01,3.20e-02,
528,4.08e-01,3.14e-02,
529,4.16e-01,3.20e-02,
530,4.16e-01,3.18e-02,
531,4.08e-01,3.14e-02,
532,4.08e-01,3.14e-02,
533,4.16e-01,3.22e-02,
534,4.08e-01,3.14e-02,
535,4.24e-01,3.20e-02,
536,4.16e-01,3.14e-02,
537,4.24e-01,3.24e-02,
538,4.08e-01,3.20e-02,
539,4.24e-01,3.12e-02,
540,4.16e-01,3.12e-02,
541,4.32e-01,3.24e-02,
542,4.32e-01,3.12e-02,
543,4.16e-01,3.18e-02,
544,4.16e-01,3.18e-02,
545,4.32e-01,3.10e-02,
546,4.24e-01,3.18e-02,
547,4.32e-01,3.12e-02,
548,4.24e-01,3.12e-02,
549,4.40e-01,3.16e-02,
550,4.40e-01,3.12e-02,
551,4.24e-01,3.16e-02,
552,4.24e-01,3.16e-02,
553,4.40e-01,3.10e-02,
554,4.40e-01,3.20e-02,
555,4.24e-01,3.10e-02,
556,4.32e-01,3.12e-02,
557,4.40e-01,3.18e-02,
558,4.40e-01,3.12e-02,
559,4.24e-01,3.18e-02,
560,4.32e-01,3.14e-02,
561,4.48e-01,3.20e-02,
562,4.48e-01,3.18e-02,
563,4.32e-01,3.10e-02,
564,4.48e-01,3.18e-02,
565,4.32e-01,3.08e-02,
566,4.48e-01,3.18e-02,
567,4.32e-01,3.12e-02,
568,4.48e-01,3.10e-02,
569,4.48e-01,3.18e-02,
570,4.48e-01,3.08e-02,
571,4.56e-01,3.16e-02,
572,4.40e-01,3.16e-02,
573,4.56e-01,3.10e-02,
574,4.48e-01,3.16e-02,
575,4.56e-01,3.08e-02,
576,4.56e-01,3.16e-02,
577,4.48e-01,3.10e-02,
578,4.56e-01,3.16e-02,
579,4.48e-01,3.08e-02,
580,4.64e-01,3.16e-02,
581,4.56e-01,3.06e-02,
582,4.64e-01,3.12e-02,
583,4.56e-01,3.16e-02,
584,4.56e-01,3.08e-02,
585,4.72e-01,3.18e-02,
586,4.80e-01,3.18e-02,
587,4.56e-01,3.10e-02,
588,4.64e-01,3.08e-02,
589,4.72e-01,3.16e-02,
590,4.72e-01,3.14e-02,
591,4.64e-01,3.08e-02,
592,4.80e-01,3.16e-02,
593,4.64e-01,3.08e-02,
594,4.64e-01,3.08e-02,
595,4.80e-01,3.16e-02,
596,4.64e-01,3.08e-02,
597,4.80e-01,3.14e-02,
598,4.80e-01,3.08e-02,
599,4.64e-01,3.14e-02,
600,4.72e-01,3.06e-02,
601,4.88e-01,3.12e-02,
602,4.72e-01,3.14e-02,
603,4.88e-01,3.06e-02,
604,4.88e-01,3.14e-02,
605,4.72e-01,3.08e-02,
606,4.88e-01,3.10e-02,
607,4.72e-01,3.16e-02,
608,4.88e-01,3.06e-02,
609,4.80e-01,3.14e-02,
610,4.96e-01,3.08e-02,
611,4.80e-01,3.16e-02,
612,4.80e-01,3.04e-02,
613,4.96e-01,3.14e-02,
614,4.96e-01,3.08e-02,
615,4.80e-01,3.16e-02,
616,4.96e-01,3.12e-02,
617,4.80e-01,3.06e-02,
618,4.96e-01,3.08e-02,
619,4.96e-01,3.14e-02,
620,5.04e-01,3.14e-02,
621,4.88e-01,3.08e-02,
622,5.04e-01,3.06e-02,
623,4.88e-01,3.12e-02,
624,5.04e-01,3.04e-02,
625,4.96e-01,3.14e-02,
626,4.88e-01,3.12e-02,
627,5.12e-01,3.04e-02,
628,4.96e-01,3.08e-02,
629,5.04e-01,3.12e-02,
630,4.96e-01,3.10e-02,
631,5.12e-01,3.04e-02,
632,5.04e-01,3.12e-02,
633,5.12e-01,3.06e-02,
634,5.12e-01,3.02e-02,
635,4.96e-01,3.10e-02,
636,5.12e-01,3.12e-02,
637,5.04e-01,3.02e-02,
638,5.20e-01,3.10e-02,
639,5.04e-01,3.04e-02,
640,5.20e-01,3.06e-02,
641,5.04e-01,2.92e-02,
642,5.12e-01,2.94e-02,
643,5.28e-01,2.84e-02,
644,5.12e-01,2.84e-02,
645,5.20e-01,2.92e-02,
646,5.12e-01,2.90e-02,
647,5.28e-01,2.98e-02,
648,5.28e-01,2.98e-02,
649,5.12e-01,3.06e-02,
650,5.12e-01,3.00e-02,
651,5.28e-01,3.08e-02,
652,5.12e-01,3.10e-02,
653,5.36e-01,3.02e-02,
654,5.20e-01,3.04e-02,
655,5.36e-01,3.10e-02,
656,5.20e-01,3.12e-02,
657,5.36e-01,3.04e-02,
658,5.36e-01,3.04e-02,
659,5.20e-01,3.10e-02,
660,5.36e-01,3.04e-02,
661,5.20e-01,3.12e-02,
662,5.36e-01,3.10e-02,
663,5.28e-01,3.04e-02,
664,5.44e-01,3.12e-02,
665,5.28e-01,3.02e-02,
666,5.44e-01,3.10e-02,
667,5.28e-01,3.02e-02,
668,5.44e-01,3.08e-02,
669,5.28e-01,3.00e-02,
670,5.52e-01,3.08e-02,
671,5.36e-01,3.02e-02,
672,5.36e-01,3.14e-02,
673,5.52e-01,3.04e-02,
674,5.52e-01,3.02e-02,
675,5.36e-01,3.10e-02,
676,5.44e-01,3.08e-02,
677,5.52e-01,3.06e-02,
678,5.36e-01,3.04e-02,
679,5.60e-01,3.10e-02,
680,5.52e-01,3.04e-02,
681,5.44e-01,3.10e-02,
682,5.60e-01,3.02e-02,
683,5.36e-01,3.08e-02,
684,5.60e-01,3.08e-02,
685,5.44e-01,3.00e-02,
686,5.60e-01,3.08e-02,
687,5.44e-01,3.02e-02,
688,5.60e-01,3.02e-02,
689,5.60e-01,3.08e-02,
690,5.60e-01,3.06e-02,
691,5.60e-01,3.02e-02,
692,5.52e-01,3.02e-02,
693,5.76e-01,3.10e-02,
694,5.68e-01,3.10e-02,
695,5.60e-01,3.00e-02,
696,5.52e-01,3.02e-02,
697,5.68e-01,3.10e-02,
698,5.76e-01,3.00e-02,
699,5.60e-01,3.06e-02,
700,5.76e-01,3.02e-02,
701,5.60e-01,3.06e-02,
702,5.68e-01,3.02e-02,
703,5.76e-01,3.08e-02,
704,5.76e-01,3.02e-02,
705,5.68e-01,3.08e-02,
706,5.68e-01,2.98e-02,
707,5.84e-01,3.06e-02,
708,5.68e-01,3.06e-02,
709,5.84e-01,2.98e-02,
710,5.68e-01,3.02e-02,
711,5.84e-01,3.06e-02,
712,5.76e-01,3.06e-02,
713,5.92e-01,3.00e-02,
714,5.92e-01,3.06e-02,
715,5.76e-01,2.96e-02,
716,5.76e-01,3.04e-02,
717,5.92e-01,2.98e-02,
718,5.92e-01,3.08e-02,
719,5.76e-01,2.98e-02,
720,5.92e-01,2.98e-02,
721,5.76e-01,3.04e-02,
722,5.84e-01,2.96e-02,
723,6.00e-01,3.08e-02,
724,5.84e-01,3.04e-02,
725,6.00e-01,2.98e-02,
726,6.00e-01,2.98e-02,
727,5.84e-01,3.04e-02,
728,5.92e-01,3.06e-02,
729,6.00e-01,2.96e-02,
730,6.00e-01,2.98e-02,
731,5.92e-01,3.04e-02,
732,6.08e-01,2.98e-02,
733,5.92e-01,3.04e-02,
734,6.08e-01,2.96e-02,
735,5.92e-01,3.08e-02,
736,6.08e-01,3.02e-02,
737,5.92e-01,2.96e-02,
738,5.92e-01,2.98e-02,
739,6.08e-01,3.02e-02,
740,6.08e-01,3.02e-02,
741,6.00e-01,2.98e-02,
742,6.08e-01,3.06e-02,
743,6.16e-01,2.98e-02,
744,6.16e-01,3.00e-02,
745,6.00e-01,2.98e-02,
746,6.08e-01,2.96e-02,
747,6.16e-01,3.06e-02,
748,6.16e-01,2.98e-02,
749,6.08e-01,3.02e-02,
750,6.16e-01,2.98e-02,
751,6.00e-01,3.04e-02,
752,6.16e-01,3.02e-02,
753,6.24e-01,2.96e-02,
754,6.32e-01,2.98e-02,
755,6.08e-01,3.02e-02,
756,6.32e-01,2.98e-02,
757,6.16e-01,3.00e-02,
758,6.16e-01,2.94e-02,
759,6.32e-01,3.00e-02,
760,6.32e-01,2.94e-02,
761,6.16e-01,3.04e-02,
762,6.24e-01,2.90e-02,
763,6.32e-01,3.02e-02,
764,6.24e-01,2.96e-02,
765,6.40e-01,3.00e-02,
766,6.24e-01,3.00e-02,
767,6.32e-01,2.92e-02,
768,6.24e-01,2.92e-02,
769,6.32e-01,3.00e-02,
770,6.40e-01,2.90e-02,
771,6.32e-01,2.98e-02,
772,6.32e-01,2.92e-02,
773,6.48e-01,2.74e-02,
774,6.32e-01,2.72e-02,
775,6.48e-01,2.54e-02,
776,6.48e-01,2.54e-02,
777,6.32e-01,2.62e-02,
778,6.32e-01,2.62e-02,
779,6.48e-01,2.78e-02,
780,6.48e-01,2.76e-02,
781,6.32e-01,2.92e-02,
782,6.40e-01,2.90e-02,
783,6.56e-01,2.98e-02,
784,6.40e-01,2.90e-02,
785,6.56e-01,2.98e-02,
786,6.56e-01,2.94e-02,
787,6.40e-01,3.02e-02,
788,6.40e-01,2.92e-02,
789,6.56e-01,3.04e-02,
790,6.64e-01,3.02e-02,
791,6.48e-01,2.90e-02,
792,6.48e-01,2.94e-02,
793,6.64e-01,2.98e-02,
794,6.40e-01,2.90e-02,
795,6.64e-01,3.00e-02,
796,6.64e-01,2.92e-02,
797,6.48e-01,2.98e-02,
798,6.56e-01,2.92e-02,
799,6.72e-01,3.00e-02,
800,6.56e-01,2.94e-02,
801,6.72e-01,3.00e-02,
802,6.56e-01,2.98e-02,
803,6.72e-01,2.90e-02,
804,6.64e-01,2.92e-02,
805,6.80e-01,2.98e-02,
806,6.72e-01,2.94e-02,
807,6.64e-01,2.98e-02,
808,6.80e-01,2.96e-02,
809,6.64e-01,2.92e-02,
810,6.64e-01,2.98e-02,
811,6.88e-01,2.92e-02,
812,6.64e-01,2.90e-02,
813,6.88e-01,2.98e-02,
814,6.64e-01,2.96e-02,
815,6.88e-01,2.90e-02,
816,6.80e-01,2.96e-02,
817,6.72e-01,2.92e-02,
818,6.88e-01,2.94e-02,
819,6.72e-01,2.90e-02,
820,6.80e-01,2.96e-02,
821,6.88e-01,2.90e-02,
822,6.72e-01,2.90e-02,
823,6.96e-01,2.98e-02,
824,6.80e-01,2.90e-02,
825,6.96e-01,2.98e-02,
826,6.80e-01,2.88e-02,
827,6.96e-01,2.96e-02,
828,6.96e-01,2.96e-02,
829,6.80e-01,2.88e-02,
830,6.80e-01,2.88e-02,
831,6.96e-01,2.96e-02,
832,6.80e-01,2.96e-02,
833,7.04e-01,2.90e-02,
834,6.88e-01,2.96e-02,
835,7.04e-01,2.88e-02,
836,7.04e-01,2.94e-02,
837,6.88e-01,2.88e-02,
838,6.88e-01,2.96e-02,
839,7.04e-01,2.90e-02,
840,6.88e-01,2.88e-02,
841,7.04e-01,2.94e-02,
842,7.12e-01,2.96e-02,
843,6.88e-01,2.88e-02,
844,6.96e-01,2.94e-02,
845,7.12e-01,2.88e-02,
846,7.12e-01,2.90e-02,
847,6.96e-01,2.96e-02,
848,6.96e-01,2.96e-02,
849,7.12e-01,2.90e-02,
850,7.20e-01,2.94e-02,
851,6.96e-01,2.90e-02,
852,7.04e-01,2.86e-02,
853,7.20e-01,2.94e-02,
854,7.20e-01,2.92e-02,
855,6.96e-01,2.86e-02,
856,7.20e-01,2.88e-02,
857,7.12e-01,2.98e-02,
858,7.20e-01,2.86e-02,
859,7.04e-01,2.96e-02,
860,7.28e-01,2.86e-02,
861,7.12e-01,2.94e-02,
862,7.12e-01,2.96e-02,
863,7.36e-01,2.88e-02,
864,7.20e-01,2.86e-02,
865,7.28e-01,2.94e-02,
866,7.36e-01,2.96e-02,
867,7.12e-01,2.88e-02,
868,7.28e-01,2.86e-02,
869,7.20e-01,2.94e-02,
870,7.20e-01,2.92e-02,
