195kHz_10s_0V.csv

X,CH1,CH2,Start,Increment,
Sequence,Volt,Volt,-6.400000e-01,1.000000e-02
0,9.20e-01,-5.16e-01,
1,9.36e-01,-5.12e-01,
2,9.36e-01,-5.12e-01,
3,9.20e-01,-5.16e-01,
4,9.20e-01,-5.12e-01,
5,9.44e-01,-5.20e-01,
6,9.44e-01,-5.20e-01,
7,9.28e-01,-5.20e-01,
8,9.20e-01,-5.20e-01,
9,9.44e-01,-5.20e-01,
10,9.36e-01,-5.20e-01,
11,9.52e-01,-5.20e-01,
12,9.52e-01,-5.16e-01,
13,9.28e-01,-5.24e-01,
14,9.28e-01,-5.24e-01,
15,9.52e-01,-5.24e-01,
16,9.28e-01,-5.24e-01,
17,9.52e-01,-5.28e-01,
18,9.52e-01,-5.24e-01,
19,9.28e-01,-5.32e-01,
20,9.52e-01,-5.32e-01,
21,9.36e-01,-5.40e-01,
22,9.44e-01,-5.40e-01,
23,9.68e-01,-5.48e-01,
24,9.36e-01,-5.48e-01,
25,9.60e-01,-5.60e-01,
26,9.52e-01,-5.60e-01,
27,9.60e-01,-5.84e-01,
28,9.60e-01,-5.88e-01,
29,9.44e-01,-6.24e-01,
30,9.44e-01,-6.32e-01,
31,9.60e-01,-6.80e-01,
32,9.60e-01,-6.92e-01,
33,9.52e-01,-7.28e-01,
34,9.44e-01,-7.40e-01,
35,9.68e-01,-7.28e-01,
36,9.52e-01,-7.24e-01,
37,9.68e-01,-6.84e-01,
38,9.68e-01,-6.80e-01,
39,9.52e-01,-6.24e-01,
40,9.68e-01,-6.20e-01,
41,9.60e-01,-5.88e-01,
42,9.60e-01,-5.84e-01,
43,9.68e-01,-5.60e-01,
44,9.60e-01,-5.60e-01,
45,9.76e-01,-5.44e-01,
46,9.84e-01,-5.48e-01,
47,9.60e-01,-5.36e-01,
48,9.84e-01,-5.40e-01,
49,9.60e-01,-5.32e-01,
50,9.68e-01,-5.36e-01,
51,9.76e-01,-5.28e-01,
52,9.68e-01,-5.28e-01,
53,9.84e-01,-5.24e-01,
54,9.68e-01,-5.20e-01,
55,9.92e-01,-5.24e-01,
56,9.92e-01,-5.20e-01,
57,9.68e-01,-5.24e-01,
58,9.92e-01,-5.20e-01,
59,9.76e-01,-5.16e-01,
60,9.76e-01,-5.16e-01,
61,9.92e-01,-5.20e-01,
62,1.00e+00,-5.20e-01,
63,-8.00e-03,-5.12e-01,
64,-8.00e-03,-5.16e-01,
65,8.00e-03,-6.08e-01,
66,8.00e-03,-6.20e-01,
67,8.00e-03,-6.04e-01,
68,8.00e-03,-6.00e-01,
69,1.60e-02,-5.48e-01,
70,8.00e-03,-5.44e-01,
71,1.60e-02,-5.16e-01,
72,8.00e-03,-5.12e-01,
73,2.40e-02,-5.00e-01,
74,8.00e-03,-5.00e-01,
75,2.40e-02,-5.00e-01,
76,1.60e-02,-5.00e-01,
77,2.40e-02,-5.04e-01,
78,1.60e-02,-5.04e-01,
79,2.40e-02,-5.04e-01,
80,2.40e-02,-5.04e-01,
81,1.60e-02,-5.08e-01,
82,3.20e-02,-5.04e-01,
83,1.60e-02,-5.08e-01,
84,1.60e-02,-5.04e-01,
85,3.20e-02,-5.04e-01,
86,2.40e-02,-5.04e-01,
87,3.20e-02,-5.08e-01,
88,3.20e-02,-5.04e-01,
89,2.40e-02,-5.04e-01,
90,3.20e-02,-5.04e-01,
91,2.40e-02,-5.04e-01,
92,4.00e-02,-5.04e-01,
93,2.40e-02,-5.04e-01,
94,4.00e-02,-5.08e-01,
95,2.40e-02,-5.04e-01,
96,4.00e-02,-5.04e-01,
97,3.20e-02,-5.04e-01,
98,3.20e-02,-5.04e-01,
99,4.00e-02,-5.04e-01,
100,3.20e-02,-5.04e-01,
101,4.80e-02,-5.04e-01,
102,3.20e-02,-5.04e-01,
103,4.80e-02,-5.08e-01,
104,4.80e-02,-5.04e-01,
105,3.20e-02,-5.04e-01,
106,4.80e-02,-5.04e-01,
107,4.80e-02,-5.04e-01,
108,4.80e-02,-5.04e-01,
109,4.00e-02,-5.08e-01,
110,4.00e-02,-5.04e-01,
111,5.60e-02,-5.08e-01,
112,5.60e-02,-5.04e-01,
113,4.00e-02,-5.04e-01,
114,5.60e-02,-5.04e-01,
115,4.00e-02,-5.04e-01,
116,4.80e-02,-5.04e-01,
117,5.60e-02,-5.08e-01,
118,5.60e-02,-5.04e-01,
119,5.60e-02,-5.04e-01,
120,5.60e-02,-5.04e-01,
121,6.40e-02,-5.04e-01,
122,4.80e-02,-5.04e-01,
123,6.40e-02,-5.08e-01,
124,5.60e-02,-5.04e-01,
125,6.40e-02,-5.04e-01,
126,7.20e-02,-5.04e-01,
127,6.40e-02,-5.04e-01,
128,6.40e-02,-5.04e-01,
129,6.40e-02,-5.04e-01,
130,6.40e-02,-5.04e-01,
131,6.40e-02,-5.08e-01,
132,7.20e-02,-5.04e-01,
133,6.40e-02,-5.08e-01,
134,8.00e-02,-5.04e-01,
135,6.40e-02,-5.04e-01,
136,7.20e-02,-5.04e-01,
137,8.00e-02,-5.08e-01,
138,7.20e-02,-5.04e-01,
139,8.00e-02,-5.04e-01,
140,7.20e-02,-5.04e-01,
141,8.00e-02,-5.08e-01,
142,7.20e-02,-5.04e-01,
143,8.80e-02,-5.08e-01,
144,7.20e-02,-5.04e-01,
145,8.80e-02,-5.08e-01,
146,8.80e-02,-5.08e-01,
147,8.00e-02,-5.04e-01,
148,8.00e-02,-5.04e-01,
149,8.80e-02,-5.04e-01,
150,8.00e-02,-5.04e-01,
151,9.60e-02,-5.04e-01,
152,8.00e-02,-5.04e-01,
153,9.60e-02,-5.04e-01,
154,8.00e-02,-5.04e-01,
155,9.60e-02,-5.04e-01,
156,9.60e-02,-5.04e-01,
157,8.00e-02,-5.04e-01,
158,9.60e-02,-5.08e-01,
159,8.80e-02,-5.04e-01,
160,9.60e-02,-5.04e-01,
161,8.80e-02,-5.08e-01,
162,8.80e-02,-5.04e-01,
163,1.04e-01,-5.04e-01,
164,9.60e-02,-5.04e-01,
165,1.04e-01,-5.04e-01,
166,1.04e-01,-5.04e-01,
167,9.60e-02,-5.04e-01,
168,1.04e-01,-5.04e-01,
169,9.60e-02,-5.04e-01,
170,1.04e-01,-5.04e-01,
171,9.60e-02,-5.04e-01,
172,1.04e-01,-5.04e-01,
173,1.12e-01,-5.04e-01,
174,1.04e-01,-5.04e-01,
175,1.20e-01,-5.04e-01,
176,1.12e-01,-5.04e-01,
177,1.04e-01,-5.04e-01,
178,1.12e-01,-5.04e-01,
179,1.12e-01,-5.08e-01,
180,1.12e-01,-5.04e-01,
181,1.12e-01,-5.04e-01,
182,1.12e-01,-5.04e-01,
183,1.20e-01,-5.04e-01,
184,1.12e-01,-5.04e-01,
185,1.20e-01,-5.08e-01,
186,1.12e-01,-5.04e-01,
187,1.28e-01,-5.04e-01,
188,1.28e-01,-5.04e-01,
189,1.20e-01,-5.04e-01,
190,1.20e-01,-5.04e-01,
191,1.28e-01,-5.04e-01,
192,1.20e-01,-5.04e-01,
193,1.28e-01,-5.04e-01,
194,1.20e-01,-5.08e-01,
195,1.36e-01,-5.04e-01,
196,1.36e-01,-5.04e-01,
197,1.20e-01,-5.04e-01,
198,1.36e-01,-5.08e-01,
199,1.20e-01,-5.04e-01,
200,1.28e-01,-5.08e-01,
201,1.36e-01,-5.04e-01,
202,1.28e-01,-5.04e-01,
203,1.36e-01,-5.04e-01,
204,1.28e-01,-5.04e-01,
205,1.36e-01,-5.04e-01,
206,1.44e-01,-5.04e-01,
207,1.28e-01,-5.04e-01,
208,1.36e-01,-5.04e-01,
209,1.44e-01,-5.04e-01,
210,1.44e-01,-5.04e-01,
211,1.36e-01,-5.08e-01,
212,1.36e-01,-5.08e-01,
213,1.44e-01,-5.04e-01,
214,1.44e-01,-5.04e-01,
215,1.52e-01,-5.08e-01,
216,1.52e-01,-5.08e-01,
217,1.36e-01,-5.04e-01,
218,1.44e-01,-5.04e-01,
219,1.52e-01,-5.12e-01,
220,1.52e-01,-5.04e-01,
221,1.44e-01,-5.12e-01,
222,1.44e-01,-5.04e-01,
223,1.60e-01,-5.04e-01,
224,1.60e-01,-5.04e-01,
225,1.52e-01,-5.08e-01,
226,1.60e-01,-5.04e-01,
227,1.44e-01,-5.12e-01,
228,1.60e-01,-5.12e-01,
229,1.44e-01,-5.04e-01,
230,1.60e-01,-5.04e-01,
231,1.60e-01,-5.12e-01,
232,1.60e-01,-5.04e-01,
233,1.60e-01,-5.08e-01,
234,1.52e-01,-5.12e-01,
235,1.68e-01,-5.04e-01,
236,1.52e-01,-5.08e-01,
237,1.68e-01,-5.12e-01,
238,1.60e-01,-5.04e-01,
239,1.76e-01,-5.12e-01,
240,1.68e-01,-5.08e-01,
241,1.76e-01,-5.12e-01,
242,1.68e-01,-5.12e-01,
243,1.68e-01,-5.08e-01,
244,1.68e-01,-5.12e-01,
245,1.68e-01,-5.08e-01,
246,1.68e-01,-5.08e-01,
247,1.76e-01,-5.12e-01,
248,1.68e-01,-5.08e-01,
249,1.76e-01,-5.12e-01,
250,1.76e-01,-5.08e-01,
251,1.84e-01,-5.12e-01,
252,1.84e-01,-5.08e-01,
253,1.76e-01,-5.12e-01,
254,1.76e-01,-5.08e-01,
255,1.84e-01,-5.12e-01,
256,1.76e-01,-5.08e-01,
257,1.92e-01,-5.12e-01,
258,1.92e-01,-5.12e-01,
259,1.76e-01,-5.08e-01,
260,1.92e-01,-5.08e-01,
261,1.76e-01,-5.08e-01,
262,1.84e-01,-5.12e-01,
263,1.92e-01,-5.08e-01,
264,1.84e-01,-5.12e-01,
265,1.92e-01,-5.08e-01,
266,1.84e-01,-5.08e-01,
267,2.00e-01,-5.12e-01,
268,1.84e-01,-5.08e-01,
269,2.00e-01,-5.12e-01,
270,1.92e-01,-5.08e-01,
271,2.00e-01,-5.12e-01,
272,2.00e-01,-5.08e-01,
273,1.92e-01,-5.16e-01,
274,1.92e-01,-5.08e-01,
275,2.08e-01,-5.16e-01,
276,1.92e-01,-5.12e-01,
277,2.08e-01,-5.16e-01,
278,2.00e-01,-5.16e-01,
279,2.08e-01,-5.12e-01,
280,2.08e-01,-5.12e-01,
281,2.00e-01,-5.16e-01,
282,2.08e-01,-5.16e-01,
283,2.00e-01,-5.12e-01,
284,2.00e-01,-5.12e-01,
285,2.16e-01,-5.16e-01,
286,2.08e-01,-5.12e-01,
287,2.16e-01,-5.16e-01,
288,2.16e-01,-5.16e-01,
289,2.08e-01,-5.12e-01,
290,2.16e-01,-5.12e-01,
291,2.00e-01,-5.16e-01,
292,2.16e-01,-5.16e-01,
293,2.16e-01,-5.12e-01,
294,2.16e-01,-5.12e-01,
295,2.24e-01,-5.20e-01,
296,2.16e-01,-5.20e-01,
297,2.32e-01,-5.12e-01,
298,2.16e-01,-5.20e-01,
299,2.24e-01,-5.16e-01,
300,2.24e-01,-5.20e-01,
301,2.16e-01,-5.16e-01,
302,2.32e-01,-5.16e-01,
303,2.24e-01,-5.20e-01,
304,2.24e-01,-5.20e-01,
305,2.32e-01,-5.16e-01,
306,2.24e-01,-5.16e-01,
307,2.32e-01,-5.20e-01,
308,2.24e-01,-5.24e-01,
309,2.40e-01,-5.16e-01,
310,2.24e-01,-5.20e-01,
311,2.40e-01,-5.24e-01,
312,2.40e-01,-5.24e-01,
313,2.32e-01,-5.20e-01,
314,2.32e-01,-5.24e-01,
315,2.40e-01,-5.24e-01,
316,2.40e-01,-5.24e-01,
317,2.32e-01,-5.28e-01,
318,2.48e-01,-5.28e-01,
319,2.32e-01,-5.24e-01,
320,2.40e-01,-5.24e-01,
321,2.48e-01,-5.36e-01,
322,2.40e-01,-5.28e-01,
323,2.48e-01,-5.36e-01,
324,2.48e-01,-5.32e-01,
325,2.40e-01,-5.36e-01,
326,2.40e-01,-5.36e-01,
327,2.56e-01,-5.40e-01,
328,2.56e-01,-5.36e-01,
329,2.40e-01,-5.44e-01,
330,2.56e-01,-5.44e-01,
331,2.48e-01,-5.40e-01,
332,2.56e-01,-5.40e-01,
333,2.48e-01,-5.48e-01,
334,2.48e-01,-5.44e-01,
335,2.56e-01,-5.52e-01,
336,2.48e-01,-5.52e-01,
337,2.64e-01,-5.56e-01,
338,2.48e-01,-5.56e-01,
339,2.64e-01,-5.60e-01,
340,2.56e-01,-5.60e-01,
341,2.64e-01,-5.68e-01,
342,2.64e-01,-5.68e-01,
343,2.56e-01,-5.76e-01,
344,2.64e-01,-5.72e-01,
345,2.64e-01,-5.84e-01,
346,2.64e-01,-5.84e-01,
347,2.72e-01,-5.92e-01,
348,2.64e-01,-5.92e-01,
349,2.72e-01,-6.04e-01,
350,2.64e-01,-6.04e-01,
351,2.72e-01,-6.16e-01,
352,2.64e-01,-6.16e-01,
353,2.80e-01,-6.32e-01,
354,2.72e-01,-6.28e-01,
355,2.64e-01,-6.48e-01,
356,2.72e-01,-6.48e-01,
357,2.88e-01,-6.68e-01,
358,2.72e-01,-6.68e-01,
359,2.88e-01,-6.92e-01,
360,2.88e-01,-6.88e-01,
361,2.72e-01,-7.16e-01,
362,2.88e-01,-7.20e-01,
363,2.72e-01,-7.44e-01,
364,2.80e-01,-7.40e-01,
365,2.88e-01,-7.72e-01,
366,2.88e-01,-7.72e-01,
367,2.80e-01,-7.92e-01,
368,2.96e-01,-7.96e-01,
369,2.80e-01,-8.16e-01,
370,2.96e-01,-8.16e-01,
371,2.80e-01,-8.28e-01,
372,2.80e-01,-8.28e-01,
373,2.96e-01,-8.32e-01,
374,2.88e-01,-8.32e-01,
375,2.96e-01,-8.24e-01,
376,3.04e-01,-8.24e-01,
377,2.88e-01,-8.08e-01,
378,2.88e-01,-8.08e-01,
379,3.04e-01,-7.88e-01,
380,3.04e-01,-7.84e-01,
381,2.88e-01,-7.60e-01,
382,3.04e-01,-7.60e-01,
383,2.88e-01,-7.36e-01,
384,3.04e-01,-7.32e-01,
385,2.96e-01,-7.08e-01,
386,3.12e-01,-7.12e-01,
387,2.96e-01,-6.84e-01,
388,2.96e-01,-6.84e-01,
389,3.12e-01,-6.68e-01,
390,2.96e-01,-6.64e-01,
391,3.12e-01,-6.48e-01,
392,3.04e-01,-6.48e-01,
393,3.12e-01,-6.32e-01,
394,3.12e-01,-6.32e-01,
395,3.04e-01,-6.16e-01,
396,3.04e-01,-6.16e-01,
397,3.20e-01,-6.04e-01,
398,3.20e-01,-6.08e-01,
399,3.04e-01,-5.96e-01,
400,3.20e-01,-5.92e-01,
401,3.12e-01,-5.88e-01,
402,3.20e-01,-5.88e-01,
403,3.12e-01,-5.76e-01,
404,3.20e-01,-5.80e-01,
405,3.20e-01,-5.72e-01,
406,3.28e-01,-5.72e-01,
407,3.20e-01,-5.64e-01,
408,3.20e-01,-5.64e-01,
409,3.36e-01,-5.60e-01,
410,3.12e-01,-5.60e-01,
411,3.36e-01,-5.56e-01,
412,3.20e-01,-5.56e-01,
413,3.36e-01,-5.48e-01,
414,3.28e-01,-5.52e-01,
415,3.36e-01,-5.52e-01,
416,3.28e-01,-5.48e-01,
417,3.44e-01,-5.48e-01,
418,3.28e-01,-5.48e-01,
419,3.36e-01,-5.40e-01,
420,3.44e-01,-5.40e-01,
421,3.28e-01,-5.44e-01,
422,3.36e-01,-5.44e-01,
423,3.28e-01,-5.36e-01,
424,3.36e-01,-5.40e-01,
425,3.36e-01,-5.36e-01,
426,3.36e-01,-5.40e-01,
427,3.36e-01,-5.32e-01,
428,3.36e-01,-5.32e-01,
429,3.44e-01,-5.32e-01,
430,3.52e-01,-5.32e-01,
431,3.36e-01,-5.36e-01,
432,3.36e-01,-5.28e-01,
433,3.52e-01,-5.28e-01,
434,3.36e-01,-5.28e-01,
435,3.52e-01,-5.28e-01,
436,3.36e-01,-5.28e-01,
437,3.52e-01,-5.28e-01,
438,3.52e-01,-5.28e-01,
439,3.44e-01,-5.20e-01,
440,3.44e-01,-5.24e-01,
441,3.60e-01,-5.20e-01,
442,3.60e-01,-5.24e-01,
443,3.44e-01,-5.20e-01,
444,3.52e-01,-5.20e-01,
445,3.60e-01,-5.24e-01,
446,3.68e-01,-5.24e-01,
447,3.52e-01,-5.24e-01,
448,3.60e-01,-5.24e-01,
449,3.68e-01,-5.20e-01,
450,3.52e-01,-5.16e-01,
451,3.68e-01,-5.20e-01,
452,3.68e-01,-5.16e-01,
453,3.60e-01,-5.20e-01,
454,3.68e-01,-5.16e-01,
455,3.52e-01,-5.20e-01,
456,3.76e-01,-5.20e-01,
457,3.60e-01,-5.16e-01,
458,3.68e-01,-5.20e-01,
459,3.76e-01,-5.16e-01,
460,3.76e-01,-5.16e-01,
461,3.68e-01,-5.20e-01,
462,3.76e-01,-5.20e-01,
463,3.60e-01,-5.16e-01,
464,3.76e-01,-5.20e-01,
465,3.76e-01,-5.16e-01,
466,3.76e-01,-5.16e-01,
467,3.60e-01,-5.20e-01,
468,3.76e-01,-5.20e-01,
469,3.84e-01,-5.12e-01,
470,3.76e-01,-5.12e-01,
471,3.92e-01,-5.16e-01,
472,3.76e-01,-5.12e-01,
473,3.92e-01,-5.20e-01,
474,3.92e-01,-5.12e-01,
475,3.76e-01,-5.16e-01,
476,3.84e-01,-5.12e-01,
477,3.92e-01,-5.16e-01,
478,3.92e-01,-5.12e-01,
479,3.84e-01,-5.16e-01,
480,3.84e-01,-5.12e-01,
481,4.00e-01,-5.16e-01,
482,3.84e-01,-5.12e-01,
483,4.00e-01,-5.16e-01,
484,4.00e-01,-5.12e-01,
485,3.84e-01,-5.16e-01,
486,3.92e-01,-5.12e-01,
487,3.84e-01,-5.16e-01,
488,3.92e-01,-5.12e-01,
489,4.00e-01,-5.16e-01,
490,4.08e-01,-5.16e-01,
491,3.92e-01,-5.12e-01,
492,4.08e-01,-5.12e-01,
493,3.92e-01,-5.16e-01,
494,4.08e-01,-5.12e-01,
495,3.92e-01,-5.16e-01,
496,4.08e-01,-5.16e-01,
497,4.00e-01,-5.12e-01,
498,4.00e-01,-5.16e-01,
499,4.16e-01,-5.12e-01,
500,4.16e-01,-5.12e-01,
501,4.00e-01,-5.16e-01,
502,4.16e-01,-5.12e-01,
503,4.00e-01,-5.16e-01,
504,4.00e-01,-5.12e-01,
505,4.16e-01,-5.16e-01,
506,4.08e-01,-5.16e-01,
507,4.16e-01,-5.08e-01,
508,4.16e-01,-5.16e-01,
509,4.08e-01,-5.08e-01,
510,4.08e-01,-5.16e-01,
511,4.24e-01,-5.08e-01,
512,4.24e-01,-5.16e-01,
513,4.08e-01,-5.08e-01,
514,4.16e-01,-5.16e-01,
515,4.24e-01,-5.08e-01,
516,4.08e-01,-5.08e-01,
517,4.24e-01,-5.12e-01,
518,4.24e-01,-5.08e-01,
519,4.16e-01,-5.16e-01,
520,4.24e-01,-5.08e-01,
521,4.32e-01,-5.12e-01,
522,4.24e-01,-5.08e-01,
523,4.40e-01,-5.12e-01,
524,4.40e-01,-5.08e-01,
525,4.24e-01,-5.12e-01,
526,4.24e-01,-5.12e-01,
527,4.32e-01,-5.08e-01,
528,4.32e-01,-5.08e-01,
529,4.32e-01,-5.12e-01,
530,4.32e-01,-5.08e-01,
531,4.48e-01,-5.12e-01,
532,4.32e-01,-5.08e-01,
533,4.48e-01,-5.12e-01,
534,4.32e-01,-5.08e-01,
535,4.48e-01,-5.12e-01,
536,4.40e-01,-5.08e-01,
537,4.48e-01,-5.12e-01,
538,4.40e-01,-5.08e-01,
539,4.48e-01,-5.12e-01,
540,4.40e-01,-5.12e-01,
541,4.56e-01,-5.08e-01,
542,4.40e-01,-5.08e-01,
543,4.56e-01,-5.12e-01,
544,4.56e-01,-5.12e-01,
545,4.40e-01,-5.08e-01,
546,4.40e-01,-5.08e-01,
547,4.56e-01,-5.12e-01,
548,4.48e-01,-5.08e-01,
549,4.64e-01,-5.12e-01,
550,4.48e-01,-5.12e-01,
551,4.64e-01,-5.08e-01,
552,4.48e-01,-5.12e-01,
553,4.64e-01,-5.08e-01,
554,4.48e-01,-5.08e-01,
555,4.64e-01,-5.12e-01,
556,4.64e-01,-5.08e-01,
557,4.48e-01,-5.12e-01,
558,4.56e-01,-5.08e-01,
559,4.64e-01,-5.12e-01,
560,4.56e-01,-5.08e-01,
561,4.72e-01,-5.12e-01,
562,4.72e-01,-5.08e-01,
563,4.56e-01,-5.08e-01,
564,4.72e-01,-5.08e-01,
565,4.56e-01,-5.08e-01,
566,4.72e-01,-5.12e-01,
567,4.56e-01,-5.08e-01,
568,4.72e-01,-5.08e-01,
569,4.64e-01,-5.12e-01,
570,4.72e-01,-5.12e-01,
571,4.80e-01,-5.08e-01,
572,4.72e-01,-5.08e-01,
573,4.80e-01,-5.12e-01,
574,4.80e-01,-5.08e-01,
575,4.64e-01,-5.12e-01,
576,4.80e-01,-5.08e-01,
577,4.72e-01,-5.12e-01,
578,4.64e-01,-5.08e-01,
579,4.80e-01,-5.12e-01,
580,4.80e-01,-5.12e-01,
581,4.88e-01,-5.08e-01,
582,4.80e-01,-5.08e-01,
583,4.88e-01,-5.12e-01,
584,4.80e-01,-5.08e-01,
585,4.88e-01,-5.12e-01,
586,4.80e-01,-5.08e-01,
587,4.96e-01,-5.12e-01,
588,4.80e-01,-5.12e-01,
589,4.96e-01,-5.08e-01,
590,4.88e-01,-5.08e-01,
591,5.04e-01,-5.08e-01,
592,4.88e-01,-5.08e-01,
593,4.96e-01,-5.12e-01,
594,4.88e-01,-5.12e-01,
595,5.04e-01,-5.08e-01,
596,4.88e-01,-5.08e-01,
597,5.04e-01,-5.12e-01,
598,5.04e-01,-5.08e-01,
599,4.88e-01,-5.08e-01,
600,4.88e-01,-5.08e-01,
601,5.12e-01,-5.12e-01,
602,4.96e-01,-5.08e-01,
603,5.12e-01,-5.12e-01,
604,4.96e-01,-5.08e-01,
605,5.12e-01,-5.12e-01,
606,4.96e-01,-5.08e-01,
607,5.12e-01,-5.12e-01,
608,5.12e-01,-5.08e-01,
609,5.04e-01,-5.12e-01,
610,5.12e-01,-5.08e-01,
611,5.04e-01,-5.12e-01,
612,5.04e-01,-5.08e-01,
613,5.12e-01,-5.12e-01,
614,5.20e-01,-5.12e-01,
615,5.04e-01,-5.08e-01,
616,5.12e-01,-5.08e-01,
617,5.20e-01,-5.12e-01,
618,5.20e-01,-5.08e-01,
619,5.04e-01,-5.12e-01,
620,5.12e-01,-5.08e-01,
621,5.28e-01,-5.12e-01,
622,5.12e-01,-5.12e-01,
623,5.28e-01,-5.08e-01,
624,5.28e-01,-5.08e-01,
625,5.20e-01,-5.12e-01,
626,5.28e-01,-5.08e-01,
627,5.12e-01,-5.12e-01,
628,5.28e-01,-5.08e-01,
629,5.12e-01,-5.12e-01,
630,5.20e-01,-5.08e-01,
631,5.36e-01,-5.12e-01,
632,5.36e-01,-5.08e-01,
633,5.20e-01,-5.08e-01,
634,5.36e-01,-5.08e-01,
635,5.28e-01,-5.12e-01,
636,5.36e-01,-5.12e-01,
637,5.28e-01,-5.08e-01,
638,5.36e-01,-5.12e-01,
639,5.20e-01,-5.08e-01,
640,5.28e-01,-5.08e-01,
641,5.44e-01,-5.12e-01,
642,5.36e-01,-5.08e-01,
643,5.52e-01,-5.12e-01,
644,5.36e-01,-5.08e-01,
645,5.44e-01,-5.08e-01,
646,5.36e-01,-5.12e-01,
647,5.52e-01,-5.08e-01,
648,5.36e-01,-5.08e-01,
649,5.44e-01,-5.12e-01,
650,5.52e-01,-5.08e-01,
651,5.36e-01,-5.12e-01,
652,5.44e-01,-5.12e-01,
653,5.60e-01,-5.08e-01,
654,5.44e-01,-5.08e-01,
655,5.60e-01,-5.12e-01,
656,5.44e-01,-5.12e-01,
657,5.60e-01,-5.08e-01,
658,5.60e-01,-5.08e-01,
659,5.44e-01,-5.12e-01,
660,5.60e-01,-5.08e-01,
661,5.44e-01,-5.12e-01,
662,5.52e-01,-5.08e-01,
663,5.68e-01,-5.12e-01,
664,5.52e-01,-5.12e-01,
665,5.68e-01,-5.08e-01,
666,5.68e-01,-5.08e-01,
667,5.52e-01,-5.12e-01,
668,5.52e-01,-5.08e-01,
669,5.76e-01,-5.12e-01,
670,5.76e-01,-5.08e-01,
671,5.52e-01,-5.12e-01,
672,5.60e-01,-5.12e-01,
673,5.76e-01,-5.08e-01,
674,5.76e-01,-5.08e-01,
675,5.60e-01,-5.12e-01,
676,5.76e-01,-5.12e-01,
677,5.60e-01,-5.08e-01,
678,5.76e-01,-5.08e-01,
679,5.60e-01,-5.12e-01,
680,5.60e-01,-5.08e-01,
681,5.76e-01,-5.12e-01,
682,5.84e-01,-5.12e-01,
683,5.68e-01,-5.08e-01,
684,5.68e-01,-5.08e-01,
685,5.84e-01,-5.12e-01,
686,5.68e-01,-5.12e-01,
687,5.84e-01,-5.08e-01,
688,5.84e-01,-5.08e-01,
689,5.76e-01,-5.12e-01,
690,5.68e-01,-5.12e-01,
691,5.84e-01,-5.08e-01,
692,5.76e-01,-5.08e-01,
693,5.92e-01,-5.08e-01,
694,5.76e-01,-5.12e-01,
695,5.92e-01,-5.08e-01,
696,5.84e-01,-5.08e-01,
697,6.00e-01,-5.12e-01,
698,5.84e-01,-5.08e-01,
699,5.92e-01,-5.12e-01,
700,5.84e-01,-5.08e-01,
701,6.00e-01,-5.12e-01,
702,5.92e-01,-5.08e-01,
703,6.08e-01,-5.12e-01,
704,5.92e-01,-5.08e-01,
705,6.00e-01,-5.12e-01,
706,5.92e-01,-5.08e-01,
707,6.08e-01,-5.12e-01,
708,5.92e-01,-5.12e-01,
709,6.08e-01,-5.08e-01,
710,5.92e-01,-5.08e-01,
711,6.08e-01,-5.12e-01,
712,6.16e-01,-5.08e-01,
713,5.92e-01,-5.12e-01,
714,6.00e-01,-5.08e-01,
715,6.16e-01,-5.08e-01,
716,6.00e-01,-5.12e-01,
717,6.16e-01,-5.08e-01,
718,6.16e-01,-5.08e-01,
719,6.00e-01,-5.12e-01,
720,6.16e-01,-5.08e-01,
721,6.00e-01,-5.08e-01,
722,6.00e-01,-5.08e-01,
723,6.24e-01,-5.12e-01,
724,6.08e-01,-5.12e-01,
725,6.24e-01,-5.08e-01,
726,6.24e-01,-5.08e-01,
727,6.08e-01,-5.12e-01,
728,6.24e-01,-5.12e-01,
729,6.08e-01,-5.08e-01,
730,6.24e-01,-5.08e-01,
731,6.08e-01,-5.12e-01,
732,6.16e-01,-5.08e-01,
733,6.32e-01,-5.12e-01,
734,6.16e-01,-5.08e-01,
735,6.32e-01,-5.12e-01,
736,6.32e-01,-5.12e-01,
737,6.24e-01,-5.08e-01,
738,6.32e-01,-5.08e-01,
739,6.16e-01,-5.12e-01,
740,6.32e-01,-5.08e-01,
741,6.24e-01,-5.08e-01,
742,6.16e-01,-5.08e-01,
743,6.40e-01,-5.12e-01,
744,6.24e-01,-5.12e-01,
745,6.40e-01,-5.08e-01,
746,6.40e-01,-5.12e-01,
747,6.24e-01,-5.08e-01,
748,6.40e-01,-5.08e-01,
749,6.32e-01,-5.12e-01,
750,6.40e-01,-5.08e-01,
751,6.32e-01,-5.12e-01,
752,6.32e-01,-5.08e-01,
753,6.48e-01,-5.12e-01,
754,6.24e-01,-5.08e-01,
755,6.48e-01,-5.12e-01,
756,6.40e-01,-5.08e-01,
757,6.48e-01,-5.12e-01,
758,6.48e-01,-5.08e-01,
759,6.40e-01,-5.12e-01,
760,6.40e-01,-5.08e-01,
761,6.48e-01,-5.12e-01,
762,6.48e-01,-5.08e-01,
763,6.40e-01,-5.12e-01,
764,6.56e-01,-5.08e-01,
765,6.48e-01,-5.12e-01,
766,6.48e-01,-5.08e-01,
767,6.56e-01,-5.12e-01,
768,6.48e-01,-5.08e-01,
769,6.64e-01,-5.08e-01,
770,6.64e-01,-5.08e-01,
771,6.48e-01,-5.12e-01,
772,6.64e-01,-5.08e-01,
773,6.48e-01,-5.12e-01,
774,6.48e-01,-5.12e-01,
775,6.72e-01,-5.08e-01,
776,6.48e-01,-5.12e-01,
777,6.72e-01,-5.08e-01,
778,6.72e-01,-5.08e-01,
779,6.56e-01,-5.12e-01,
780,6.56e-01,-5.08e-01,
781,6.72e-01,-5.12e-01,
782,6.56e-01,-5.08e-01,
783,6.80e-01,-5.12e-01,
784,6.56e-01,-5.08e-01,
785,6.80e-01,-5.12e-01,
786,6.80e-01,-5.08e-01,
787,6.64e-01,-5.12e-01,
788,6.80e-01,-5.08e-01,
789,6.64e-01,-5.12e-01,
790,6.64e-01,-5.12e-01,
791,6.80e-01,-5.08e-01,
792,6.80e-01,-5.08e-01,
793,6.64e-01,-5.12e-01,
794,6.72e-01,-5.08e-01,
795,6.88e-01,-5.08e-01,
796,6.88e-01,-5.08e-01,
797,6.64e-01,-5.08e-01,
798,6.88e-01,-5.12e-01,
799,6.72e-01,-5.08e-01,
800,6.88e-01,-5.12e-01,
801,6.80e-01,-5.08e-01,
802,6.88e-01,-5.08e-01,
803,6.80e-01,-5.12e-01,
804,6.88e-01,-5.08e-01,
805,6.88e-01,-5.12e-01,
806,6.88e-01,-5.12e-01,
807,6.80e-01,-5.08e-01,
808,6.88e-01,-5.08e-01,
809,7.04e-01,-5.12e-01,
810,6.96e-01,-5.08e-01,
811,6.88e-01,-5.08e-01,
812,6.96e-01,-5.08e-01,
813,6.88e-01,-5.08e-01,
814,7.04e-01,-5.12e-01,
815,6.80e-01,-5.08e-01,
816,6.88e-01,-5.12e-01,
817,7.12e-01,-5.08e-01,
818,7.12e-01,-5.08e-01,
819,6.96e-01,-5.08e-01,
820,6.96e-01,-5.08e-01,
821,7.12e-01,-5.12e-01,
822,6.96e-01,-5.08e-01,
823,7.20e-01,-5.12e-01,
824,6.96e-01,-5.08e-01,
825,7.12e-01,-5.12e-01,
826,7.04e-01,-5.08e-01,
827,7.20e-01,-5.16e-01,
828,7.20e-01,-5.16e-01,
829,7.04e-01,-5.08e-01,
830,7.20e-01,-5.08e-01,
831,7.04e-01,-5.12e-01,
832,7.12e-01,-5.12e-01,
833,7.04e-01,-5.16e-01,
