2p5mHz_5s_197.csv

X,CH1,CH2,Start,Increment,
Sequence,Volt,Volt,-3.170000e+00,5.000000e-03
0,6.06e-01,4.60e-02,
1,5.94e-01,4.68e-02,
2,5.95e-01,4.56e-02,
3,6.09e-01,4.64e-02,
4,6.07e-01,4.60e-02,
5,5.94e-01,4.68e-02,
6,5.99e-01,4.60e-02,
7,6.10e-01,4.68e-02,
8,5.94e-01,4.60e-02,
9,6.09e-01,4.68e-02,
10,5.98e-01,4.64e-02,
11,6.06e-01,4.56e-02,
12,6.10e-01,4.56e-02,
13,5.97e-01,4.68e-02,
14,5.98e-01,4.68e-02,
15,6.07e-01,4.60e-02,
16,6.10e-01,4.60e-02,
17,5.99e-01,4.64e-02,
18,5.98e-01,4.64e-02,
19,6.11e-01,4.56e-02,
20,5.98e-01,4.68e-02,
21,6.10e-01,4.60e-02,
22,6.10e-01,4.64e-02,
23,5.96e-01,4.56e-02,
24,5.98e-01,4.64e-02,
25,6.10e-01,4.56e-02,
26,6.10e-01,4.60e-02,
27,6.01e-01,4.68e-02,
28,5.97e-01,4.64e-02,
29,6.10e-01,4.60e-02,
30,6.00e-01,4.56e-02,
31,6.11e-01,4.68e-02,
32,5.98e-01,4.56e-02,
33,6.10e-01,4.64e-02,
34,6.02e-01,4.64e-02,
35,6.11e-01,4.60e-02,
36,6.00e-01,4.56e-02,
37,6.10e-01,4.64e-02,
38,6.00e-01,4.64e-02,
39,6.13e-01,4.56e-02,
40,6.01e-01,4.60e-02,
41,6.11e-01,4.68e-02,
42,6.01e-01,4.64e-02,
43,6.15e-01,4.56e-02,
44,6.01e-01,4.64e-02,
45,6.10e-01,4.56e-02,
46,6.13e-01,4.56e-02,
47,6.02e-01,4.64e-02,
48,6.15e-01,4.56e-02,
49,6.03e-01,4.64e-02,
50,6.14e-01,4.60e-02,
51,6.03e-01,4.64e-02,
52,6.01e-01,4.64e-02,
53,6.11e-01,4.56e-02,
54,6.14e-01,4.64e-02,
55,6.01e-01,4.56e-02,
56,6.02e-01,4.60e-02,
57,6.14e-01,4.64e-02,
58,6.02e-01,4.68e-02,
59,6.11e-01,4.56e-02,
60,6.12e-01,4.60e-02,
61,6.03e-01,4.68e-02,
62,6.00e-01,4.60e-02,
63,6.12e-01,4.68e-02,
64,6.17e-01,4.68e-02,
65,6.00e-01,4.56e-02,
66,6.14e-01,4.56e-02,
67,6.03e-01,4.64e-02,
68,6.04e-01,4.56e-02,
69,6.14e-01,4.64e-02,
70,6.14e-01,4.56e-02,
71,6.03e-01,4.68e-02,
72,6.03e-01,4.64e-02,
73,6.17e-01,4.56e-02,
74,6.06e-01,4.64e-02,
75,6.15e-01,4.60e-02,
76,6.14e-01,4.60e-02,
77,6.06e-01,4.64e-02,
78,6.02e-01,4.64e-02,
79,6.16e-01,4.60e-02,
80,6.16e-01,4.64e-02,
81,6.03e-01,4.56e-02,
82,6.18e-01,4.56e-02,
83,6.03e-01,4.68e-02,
84,6.14e-01,4.68e-02,
85,6.07e-01,4.56e-02,
86,6.03e-01,4.64e-02,
87,6.17e-01,4.56e-02,
88,6.06e-01,4.56e-02,
89,6.16e-01,4.64e-02,
90,6.07e-01,4.64e-02,
91,6.16e-01,4.56e-02,
92,6.06e-01,4.64e-02,
93,6.16e-01,4.56e-02,
94,6.04e-01,4.64e-02,
95,6.18e-01,4.56e-02,
96,6.08e-01,4.56e-02,
97,6.17e-01,4.68e-02,
98,6.18e-01,4.64e-02,
99,6.06e-01,4.60e-02,
100,6.06e-01,4.64e-02,
101,6.18e-01,4.56e-02,
102,6.18e-01,4.56e-02,
103,6.06e-01,4.64e-02,
104,6.18e-01,4.64e-02,
105,6.07e-01,4.56e-02,
106,6.06e-01,4.64e-02,
107,6.17e-01,4.56e-02,
108,6.15e-01,4.56e-02,
109,6.08e-01,4.64e-02,
110,6.09e-01,4.64e-02,
111,6.21e-01,4.56e-02,
112,6.07e-01,4.56e-02,
113,6.19e-01,4.64e-02,
114,6.09e-01,4.64e-02,
115,6.17e-01,4.56e-02,
116,6.07e-01,4.56e-02,
117,6.22e-01,4.68e-02,
118,6.20e-01,4.60e-02,
119,6.10e-01,4.64e-02,
120,6.18e-01,4.60e-02,
121,6.06e-01,4.68e-02,
122,6.10e-01,4.60e-02,
123,6.19e-01,4.64e-02,
124,6.10e-01,4.64e-02,
125,6.20e-01,4.56e-02,
126,6.08e-01,4.56e-02,
127,6.19e-01,4.64e-02,
128,6.22e-01,4.64e-02,
129,6.09e-01,4.52e-02,
130,6.10e-01,4.56e-02,
131,6.19e-01,4.64e-02,
132,6.12e-01,4.64e-02,
133,6.22e-01,4.56e-02,
134,6.10e-01,4.64e-02,
135,6.23e-01,4.60e-02,
136,5.03e-01,4.60e-02,
137,5.13e-01,4.68e-02,
138,5.02e-01,4.68e-02,
139,5.12e-01,4.64e-02,
140,5.00e-01,4.64e-02,
141,5.14e-01,4.72e-02,
142,5.00e-01,4.64e-02,
143,5.15e-01,4.72e-02,
144,5.01e-01,4.72e-02,
145,5.13e-01,4.64e-02,
146,5.00e-01,4.72e-02,
147,5.10e-01,4.60e-02,
148,5.11e-01,4.60e-02,
149,5.01e-01,4.72e-02,
150,4.99e-01,4.72e-02,
151,5.12e-01,4.64e-02,
152,5.02e-01,4.60e-02,
153,5.14e-01,4.68e-02,
154,5.01e-01,4.64e-02,
155,5.10e-01,4.72e-02,
156,5.00e-01,4.64e-02,
157,5.13e-01,4.72e-02,
158,5.04e-01,4.64e-02,
159,5.16e-01,4.72e-02,
160,5.02e-01,4.64e-02,
161,5.14e-01,4.76e-02,
162,5.16e-01,4.60e-02,
163,5.02e-01,4.72e-02,
164,5.04e-01,4.72e-02,
165,5.16e-01,4.64e-02,
166,5.14e-01,4.64e-02,
167,5.03e-01,4.72e-02,
168,5.04e-01,4.64e-02,
169,5.14e-01,4.72e-02,
170,5.04e-01,4.72e-02,
171,5.17e-01,4.64e-02,
172,5.06e-01,4.60e-02,
173,5.15e-01,4.72e-02,
174,5.06e-01,4.72e-02,
175,5.16e-01,4.64e-02,
176,5.05e-01,4.64e-02,
177,5.18e-01,4.72e-02,
178,5.05e-01,4.64e-02,
179,5.16e-01,4.72e-02,
180,5.17e-01,4.64e-02,
181,5.03e-01,4.72e-02,
182,5.04e-01,4.60e-02,
183,5.16e-01,4.68e-02,
184,5.17e-01,4.72e-02,
185,5.04e-01,4.64e-02,
186,5.07e-01,4.68e-02,
187,5.18e-01,4.72e-02,
188,5.14e-01,4.64e-02,
189,5.06e-01,4.68e-02,
190,5.05e-01,4.72e-02,
191,5.18e-01,4.64e-02,
192,5.18e-01,4.68e-02,
193,5.05e-01,4.72e-02,
194,5.19e-01,4.64e-02,
195,5.05e-01,4.72e-02,
196,5.05e-01,4.64e-02,
197,5.18e-01,4.72e-02,
198,5.05e-01,4.68e-02,
199,5.18e-01,4.64e-02,
200,5.06e-01,4.72e-02,
201,5.18e-01,4.64e-02,
202,5.06e-01,4.64e-02,
203,5.17e-01,4.72e-02,
204,5.06e-01,4.72e-02,
205,5.19e-01,4.60e-02,
206,5.08e-01,4.68e-02,
207,5.18e-01,4.60e-02,
208,5.18e-01,4.64e-02,
209,5.08e-01,4.68e-02,
210,5.22e-01,4.68e-02,
211,5.03e-01,4.72e-02,
212,5.09e-01,4.60e-02,
213,5.22e-01,4.72e-02,
214,5.22e-01,4.72e-02,
215,5.08e-01,4.64e-02,
216,5.09e-01,4.64e-02,
217,5.22e-01,4.72e-02,
218,5.08e-01,4.60e-02,
219,5.18e-01,4.68e-02,
220,5.11e-01,4.72e-02,
221,5.22e-01,4.64e-02,
222,5.09e-01,4.68e-02,
223,5.20e-01,4.60e-02,
224,5.19e-01,4.64e-02,
225,5.10e-01,4.72e-02,
226,5.10e-01,4.72e-02,
227,5.20e-01,4.64e-02,
228,5.21e-01,4.68e-02,
229,5.10e-01,4.60e-02,
230,5.10e-01,4.64e-02,
231,5.24e-01,4.72e-02,
232,5.21e-01,4.68e-02,
233,5.10e-01,4.64e-02,
234,5.23e-01,4.68e-02,
235,5.10e-01,4.60e-02,
236,5.11e-01,4.72e-02,
237,5.25e-01,4.64e-02,
238,5.08e-01,4.64e-02,
239,5.22e-01,4.68e-02,
240,5.13e-01,4.64e-02,
241,5.20e-01,4.72e-02,
242,5.14e-01,4.68e-02,
243,5.24e-01,4.60e-02,
244,5.12e-01,4.72e-02,
245,5.25e-01,4.60e-02,
246,5.22e-01,4.64e-02,
247,5.12e-01,4.72e-02,
248,5.12e-01,4.72e-02,
249,5.23e-01,4.64e-02,
250,5.23e-01,4.64e-02,
251,5.11e-01,4.72e-02,
252,5.11e-01,4.60e-02,
253,5.24e-01,4.72e-02,
254,5.11e-01,4.68e-02,
255,5.25e-01,4.60e-02,
256,5.24e-01,4.60e-02,
257,5.13e-01,4.72e-02,
258,5.26e-01,4.68e-02,
259,5.14e-01,4.60e-02,
260,5.14e-01,4.72e-02,
261,5.26e-01,4.60e-02,
262,5.13e-01,4.64e-02,
263,5.23e-01,4.72e-02,
264,5.24e-01,4.64e-02,
265,5.14e-01,4.68e-02,
266,5.26e-01,4.64e-02,
267,5.14e-01,4.72e-02,
268,5.15e-01,4.68e-02,
269,5.24e-01,4.60e-02,
270,5.16e-01,4.64e-02,
271,5.22e-01,4.72e-02,
272,5.26e-01,4.64e-02,
273,5.13e-01,4.72e-02,
274,5.14e-01,4.72e-02,
275,5.26e-01,4.60e-02,
276,5.14e-01,4.68e-02,
277,5.26e-01,4.64e-02,
278,5.17e-01,4.64e-02,
279,5.26e-01,4.68e-02,
280,5.16e-01,4.64e-02,
281,5.25e-01,4.68e-02,
282,5.15e-01,4.60e-02,
283,5.25e-01,4.72e-02,
284,5.16e-01,4.68e-02,
285,5.26e-01,4.60e-02,
286,5.17e-01,4.64e-02,
287,5.26e-01,4.72e-02,
288,5.29e-01,4.68e-02,
289,5.16e-01,4.64e-02,
290,5.28e-01,4.72e-02,
291,5.16e-01,4.60e-02,
292,5.26e-01,4.60e-02,
293,5.16e-01,4.68e-02,
294,5.18e-01,4.72e-02,
295,5.29e-01,4.60e-02,
296,5.16e-01,4.72e-02,
297,5.28e-01,4.60e-02,
298,5.16e-01,4.64e-02,
299,5.26e-01,4.72e-02,
300,5.28e-01,4.72e-02,
301,5.18e-01,4.60e-02,
302,5.30e-01,4.60e-02,
303,5.15e-01,4.72e-02,
304,5.29e-01,4.72e-02,
305,5.18e-01,4.64e-02,
306,5.28e-01,4.60e-02,
307,5.18e-01,4.72e-02,
308,5.18e-01,4.68e-02,
309,5.30e-01,4.64e-02,
310,5.18e-01,4.64e-02,
311,5.30e-01,4.72e-02,
312,5.30e-01,4.68e-02,
313,5.18e-01,4.60e-02,
314,5.17e-01,4.72e-02,
315,5.30e-01,4.60e-02,
316,5.20e-01,4.60e-02,
317,5.30e-01,4.72e-02,
318,5.18e-01,4.68e-02,
319,5.28e-01,4.60e-02,
320,5.17e-01,4.68e-02,
321,5.30e-01,4.60e-02,
322,5.32e-01,4.60e-02,
323,5.18e-01,4.68e-02,
324,5.30e-01,4.64e-02,
325,5.18e-01,4.72e-02,
326,5.30e-01,4.60e-02,
327,5.22e-01,4.68e-02,
328,5.31e-01,4.68e-02,
329,5.18e-01,4.60e-02,
330,5.20e-01,4.64e-02,
331,5.33e-01,4.68e-02,
332,5.30e-01,4.68e-02,
333,5.21e-01,4.60e-02,
334,5.20e-01,4.72e-02,
335,5.31e-01,4.64e-02,
336,5.21e-01,4.64e-02,
337,5.35e-01,4.72e-02,
338,5.32e-01,4.68e-02,
339,5.21e-01,4.64e-02,
340,5.21e-01,4.68e-02,
341,5.35e-01,4.64e-02,
342,5.22e-01,4.72e-02,
343,5.32e-01,4.60e-02,
344,5.34e-01,4.72e-02,
345,5.18e-01,4.60e-02,
346,5.18e-01,4.72e-02,
347,5.34e-01,4.64e-02,
348,5.30e-01,4.60e-02,
349,5.22e-01,4.68e-02,
350,5.22e-01,4.64e-02,
351,5.34e-01,4.68e-02,
352,5.22e-01,4.60e-02,
353,5.34e-01,4.68e-02,
354,5.22e-01,4.68e-02,
355,5.34e-01,4.60e-02,
356,5.22e-01,4.64e-02,
357,5.34e-01,4.68e-02,
358,5.32e-01,4.68e-02,
359,5.20e-01,4.60e-02,
360,5.22e-01,4.60e-02,
361,5.38e-01,4.68e-02,
362,5.23e-01,4.64e-02,
363,5.34e-01,4.68e-02,
364,5.22e-01,4.68e-02,
365,5.37e-01,4.64e-02,
366,5.34e-01,4.68e-02,
367,5.24e-01,4.60e-02,
368,5.22e-01,4.68e-02,
369,5.35e-01,4.60e-02,
370,5.34e-01,4.72e-02,
371,5.24e-01,4.64e-02,
372,5.25e-01,4.72e-02,
373,5.38e-01,4.60e-02,
374,5.25e-01,4.64e-02,
375,5.36e-01,4.68e-02,
376,5.22e-01,4.60e-02,
377,5.38e-01,4.68e-02,
378,5.33e-01,4.64e-02,
379,5.25e-01,4.60e-02,
380,5.37e-01,4.60e-02,
381,5.22e-01,4.68e-02,
382,5.26e-01,4.60e-02,
383,5.37e-01,4.68e-02,
384,5.27e-01,4.72e-02,
385,5.38e-01,4.60e-02,
386,5.26e-01,4.60e-02,
387,5.39e-01,4.64e-02,
388,5.28e-01,4.60e-02,
389,5.36e-01,4.72e-02,
390,5.23e-01,4.60e-02,
391,5.36e-01,4.72e-02,
392,5.38e-01,4.68e-02,
393,5.26e-01,4.60e-02,
394,5.26e-01,4.68e-02,
395,5.36e-01,4.60e-02,
396,5.26e-01,4.64e-02,
397,5.38e-01,4.68e-02,
398,5.27e-01,4.68e-02,
399,5.36e-01,4.60e-02,
400,5.37e-01,4.60e-02,
401,5.29e-01,4.72e-02,
402,5.38e-01,4.68e-02,
403,5.28e-01,4.64e-02,
404,5.26e-01,4.68e-02,
405,5.39e-01,4.60e-02,
406,5.29e-01,4.60e-02,
407,5.39e-01,4.68e-02,
408,5.40e-01,4.68e-02,
409,5.28e-01,4.60e-02,
410,5.38e-01,4.60e-02,
411,5.30e-01,4.68e-02,
412,5.28e-01,4.64e-02,
413,5.41e-01,4.68e-02,
414,5.29e-01,4.68e-02,
415,5.41e-01,4.56e-02,
416,5.29e-01,4.56e-02,
417,5.38e-01,4.68e-02,
418,5.30e-01,4.56e-02,
419,5.42e-01,4.64e-02,
420,5.42e-01,4.60e-02,
421,5.30e-01,4.68e-02,
422,5.29e-01,4.56e-02,
423,5.41e-01,4.64e-02,
424,5.41e-01,4.60e-02,
425,5.29e-01,4.64e-02,
426,5.30e-01,4.56e-02,
427,5.38e-01,4.68e-02,
428,5.42e-01,4.68e-02,
429,5.30e-01,4.56e-02,
430,5.41e-01,4.60e-02,
431,5.31e-01,4.68e-02,
432,5.32e-01,4.56e-02,
433,5.39e-01,4.68e-02,
434,5.32e-01,4.68e-02,
435,5.44e-01,4.56e-02,
436,5.42e-01,4.60e-02,
437,5.30e-01,4.68e-02,
438,5.44e-01,4.68e-02,
439,5.30e-01,4.60e-02,
440,5.30e-01,4.68e-02,
441,5.42e-01,4.64e-02,
442,5.30e-01,4.60e-02,
443,5.43e-01,4.68e-02,
444,5.34e-01,4.68e-02,
445,5.42e-01,4.56e-02,
446,5.33e-01,4.60e-02,
447,5.42e-01,4.68e-02,
448,5.33e-01,4.68e-02,
449,5.43e-01,4.60e-02,
450,5.32e-01,4.60e-02,
451,5.47e-01,4.68e-02,
452,5.45e-01,4.60e-02,
453,5.34e-01,4.68e-02,
454,5.32e-01,4.60e-02,
455,5.46e-01,4.68e-02,
456,5.30e-01,4.68e-02,
457,5.45e-01,4.60e-02,
458,5.43e-01,4.60e-02,
459,5.33e-01,4.68e-02,
460,5.45e-01,4.60e-02,
461,5.34e-01,4.68e-02,
462,5.34e-01,4.60e-02,
463,5.46e-01,4.68e-02,
464,5.46e-01,4.60e-02,
465,5.34e-01,4.68e-02,
466,5.34e-01,4.68e-02,
467,5.48e-01,4.60e-02,
468,5.34e-01,4.60e-02,
469,5.42e-01,4.68e-02,
470,5.46e-01,4.68e-02,
471,5.34e-01,4.64e-02,
472,5.47e-01,4.56e-02,
473,5.34e-01,4.64e-02,
474,5.46e-01,4.68e-02,
475,5.35e-01,4.60e-02,
476,5.34e-01,4.64e-02,
477,5.46e-01,4.60e-02,
478,5.46e-01,4.60e-02,
479,5.34e-01,4.64e-02,
480,5.34e-01,4.60e-02,
481,5.48e-01,4.68e-02,
482,5.47e-01,4.60e-02,
483,5.35e-01,4.68e-02,
484,5.46e-01,4.60e-02,
485,5.35e-01,4.68e-02,
486,5.46e-01,4.60e-02,
487,5.36e-01,4.68e-02,
488,5.37e-01,4.68e-02,
489,5.50e-01,4.60e-02,
490,5.34e-01,4.60e-02,
491,5.49e-01,4.68e-02,
492,5.46e-01,4.68e-02,
493,5.35e-01,4.56e-02,
494,5.37e-01,4.68e-02,
495,5.45e-01,4.60e-02,
496,5.46e-01,4.60e-02,
497,5.36e-01,4.68e-02,
498,5.50e-01,4.68e-02,
499,5.35e-01,4.56e-02,
500,5.37e-01,4.68e-02,
501,5.50e-01,4.60e-02,
502,5.45e-01,4.60e-02,
503,5.37e-01,4.68e-02,
504,5.38e-01,4.68e-02,
505,5.50e-01,4.60e-02,
506,5.38e-01,4.68e-02,
507,5.46e-01,4.60e-02,
508,5.38e-01,4.68e-02,
509,5.50e-01,4.60e-02,
510,5.51e-01,4.64e-02,
511,5.37e-01,4.60e-02,
512,5.49e-01,4.60e-02,
513,5.38e-01,4.68e-02,
514,5.47e-01,4.60e-02,
515,5.40e-01,4.68e-02,
516,5.51e-01,4.64e-02,
517,5.41e-01,4.60e-02,
518,5.53e-01,4.68e-02,
519,5.39e-01,4.56e-02,
520,5.52e-01,4.60e-02,
521,5.38e-01,4.64e-02,
522,5.40e-01,4.60e-02,
523,5.53e-01,4.68e-02,
524,5.51e-01,4.68e-02,
525,5.38e-01,4.56e-02,
526,5.51e-01,4.60e-02,
527,5.41e-01,4.68e-02,
528,5.42e-01,4.64e-02,
529,5.53e-01,4.56e-02,
530,5.40e-01,4.68e-02,
531,5.51e-01,4.56e-02,
532,5.42e-01,4.64e-02,
533,5.52e-01,4.56e-02,
534,5.43e-01,4.64e-02,
535,5.53e-01,4.56e-02,
536,5.42e-01,4.60e-02,
537,5.52e-01,4.68e-02,
538,5.53e-01,4.64e-02,
539,5.42e-01,4.56e-02,
540,5.42e-01,4.56e-02,
541,5.57e-01,4.64e-02,
542,5.44e-01,4.60e-02,
543,5.50e-01,4.52e-02,
544,5.51e-01,4.64e-02,
545,5.39e-01,4.52e-02,
546,5.52e-01,4.56e-02,
547,5.43e-01,4.60e-02,
548,5.43e-01,4.56e-02,
549,5.54e-01,4.48e-02,
550,5.53e-01,4.48e-02,
551,5.42e-01,4.52e-02,
552,5.55e-01,4.44e-02,
553,5.42e-01,4.56e-02,
554,5.42e-01,4.52e-02,
555,5.54e-01,4.44e-02,
556,5.56e-01,4.44e-02,
557,5.44e-01,4.52e-02,
558,5.53e-01,4.44e-02,
559,5.45e-01,4.48e-02,
560,5.44e-01,4.52e-02,
561,5.54e-01,4.44e-02,
562,5.42e-01,4.52e-02,
563,5.53e-01,4.44e-02,
564,5.46e-01,4.56e-02,
565,5.58e-01,4.48e-02,
566,5.57e-01,4.48e-02,
567,5.43e-01,4.56e-02,
568,5.42e-01,4.52e-02,
569,5.57e-01,4.56e-02,
570,5.42e-01,4.52e-02,
571,5.54e-01,4.60e-02,
572,5.58e-01,4.52e-02,
573,5.45e-01,4.64e-02,
574,5.56e-01,4.60e-02,
575,5.44e-01,4.56e-02,
576,5.45e-01,4.52e-02,
577,5.55e-01,4.64e-02,
578,5.56e-01,4.52e-02,
579,5.44e-01,4.60e-02,
580,5.49e-01,4.60e-02,
581,5.58e-01,4.52e-02,
582,5.45e-01,4.56e-02,
583,5.58e-01,4.52e-02,
584,5.57e-01,4.56e-02,
585,5.45e-01,4.44e-02,
586,5.58e-01,4.52e-02,
587,5.47e-01,4.44e-02,
588,5.45e-01,4.44e-02,
589,5.60e-01,4.40e-02,
590,5.45e-01,4.44e-02,
591,5.58e-01,4.36e-02,
592,5.46e-01,4.28e-02,
593,5.56e-01,4.36e-02,
594,5.48e-01,4.36e-02,
595,5.59e-01,4.28e-02,
596,5.61e-01,4.28e-02,
597,5.50e-01,4.36e-02,
598,5.46e-01,4.28e-02,
599,5.58e-01,4.36e-02,
600,5.60e-01,4.28e-02,
601,5.45e-01,4.36e-02,
602,5.61e-01,4.24e-02,
603,5.46e-01,4.36e-02,
604,5.48e-01,4.32e-02,
605,5.58e-01,4.40e-02,
606,5.49e-01,4.36e-02,
607,5.61e-01,4.44e-02,
608,5.47e-01,4.40e-02,
609,5.60e-01,4.44e-02,
610,5.62e-01,4.44e-02,
611,5.50e-01,4.52e-02,
612,5.59e-01,4.44e-02,
613,5.48e-01,4.52e-02,
614,5.49e-01,4.48e-02,
615,5.61e-01,4.56e-02,
616,5.50e-01,4.48e-02,
617,5.62e-01,4.56e-02,
618,5.63e-01,4.52e-02,
619,5.52e-01,4.56e-02,
620,5.50e-01,4.60e-02,
621,5.61e-01,4.48e-02,
622,5.50e-01,4.52e-02,
623,5.61e-01,4.48e-02,
624,5.61e-01,4.52e-02,
625,5.50e-01,4.44e-02,
626,5.59e-01,4.48e-02,
627,5.49e-01,4.40e-02,
628,5.62e-01,4.40e-02,
629,5.51e-01,4.28e-02,
630,5.51e-01,4.32e-02,
631,5.64e-01,4.20e-02,
632,5.62e-01,4.24e-02,
633,5.49e-01,4.16e-02,
634,5.63e-01,4.24e-02,
635,5.48e-01,4.12e-02,
636,5.52e-01,4.08e-02,
637,5.64e-01,4.16e-02,
638,5.51e-01,4.08e-02,
639,5.62e-01,4.16e-02,
640,5.65e-01,4.20e-02,
641,5.53e-01,4.08e-02,
642,5.51e-01,4.08e-02,
643,5.64e-01,4.20e-02,
644,5.63e-01,4.12e-02,
645,5.54e-01,4.24e-02,
646,5.52e-01,4.24e-02,
647,5.62e-01,4.28e-02,
648,5.63e-01,4.24e-02,
649,5.52e-01,4.36e-02,
650,5.50e-01,4.28e-02,
651,5.65e-01,4.36e-02,
652,5.63e-01,4.36e-02,
653,5.54e-01,4.44e-02,
654,5.66e-01,4.44e-02,
655,5.54e-01,4.44e-02,
656,5.67e-01,4.52e-02,
657,5.54e-01,4.44e-02,
658,5.54e-01,4.52e-02,
659,5.66e-01,4.44e-02,
660,5.66e-01,4.48e-02,
661,5.53e-01,4.56e-02,
662,5.55e-01,4.48e-02,
663,5.66e-01,4.48e-02,
664,5.62e-01,4.52e-02,
665,5.51e-01,4.44e-02,
666,5.64e-01,4.48e-02,
667,5.57e-01,4.44e-02,
668,5.66e-01,4.44e-02,
669,5.54e-01,4.32e-02,
670,5.66e-01,4.36e-02,
671,5.56e-01,4.20e-02,
672,5.55e-01,4.20e-02,
673,5.66e-01,4.08e-02,
674,5.54e-01,4.12e-02,
675,5.64e-01,4.00e-02,
676,5.55e-01,4.00e-02,
677,5.66e-01,3.96e-02,
678,5.56e-01,3.92e-02,
679,5.67e-01,3.84e-02,
680,5.66e-01,3.92e-02,
681,5.54e-01,3.84e-02,
682,5.67e-01,3.88e-02,
683,5.54e-01,3.80e-02,
684,5.66e-01,3.84e-02,
685,5.58e-01,3.96e-02,
686,5.56e-01,3.88e-02,
687,5.66e-01,4.04e-02,
688,5.54e-01,4.00e-02,
689,5.70e-01,4.08e-02,
690,5.57e-01,4.12e-02,
691,5.66e-01,4.16e-02,
692,5.58e-01,4.16e-02,
693,5.69e-01,4.32e-02,
694,5.58e-01,4.28e-02,
695,5.69e-01,4.36e-02,
696,5.69e-01,4.32e-02,
697,5.56e-01,4.48e-02,
698,5.70e-01,4.44e-02,
699,5.58e-01,4.56e-02,
700,5.70e-01,4.48e-02,
701,5.58e-01,4.56e-02,
702,5.58e-01,4.52e-02,
703,5.70e-01,4.60e-02,
704,5.57e-01,4.60e-02,
705,5.70e-01,4.52e-02,
706,5.68e-01,4.64e-02,
707,5.58e-01,4.56e-02,
708,5.58e-01,4.64e-02,
709,5.70e-01,4.56e-02,
710,5.69e-01,4.56e-02,
711,5.58e-01,4.68e-02,
712,5.58e-01,4.56e-02,
713,5.70e-01,4.64e-02,
714,5.72e-01,4.52e-02,
715,5.58e-01,4.60e-02,
716,5.69e-01,4.56e-02,
717,5.61e-01,4.64e-02,
718,5.72e-01,4.56e-02,
719,5.59e-01,4.64e-02,
720,5.72e-01,4.56e-02,
721,5.59e-01,4.68e-02,
722,5.73e-01,4.56e-02,
723,5.58e-01,4.68e-02,
724,5.73e-01,4.64e-02,
725,5.58e-01,4.52e-02,
726,5.70e-01,4.68e-02,
727,5.59e-01,4.56e-02,
728,5.71e-01,4.64e-02,
729,5.60e-01,4.52e-02,
730,5.60e-01,4.56e-02,
731,5.72e-01,4.64e-02,
732,5.60e-01,4.64e-02,
733,5.70e-01,4.52e-02,
734,5.62e-01,4.64e-02,
735,5.74e-01,4.56e-02,
736,5.60e-01,4.56e-02,
737,5.71e-01,4.64e-02,
738,5.73e-01,4.64e-02,
739,5.62e-01,4.56e-02,
740,5.62e-01,4.56e-02,
741,5.73e-01,4.68e-02,
742,5.73e-01,4.56e-02,
743,5.61e-01,4.64e-02,
744,5.62e-01,4.64e-02,
745,5.71e-01,4.56e-02,
746,5.62e-01,4.56e-02,
747,5.74e-01,4.64e-02,
748,5.61e-01,4.56e-02,
749,5.74e-01,4.64e-02,
750,5.62e-01,4.56e-02,
751,5.73e-01,4.68e-02,
752,5.62e-01,4.56e-02,
753,5.77e-01,4.64e-02,
754,5.74e-01,4.64e-02,
755,5.63e-01,4.60e-02,
756,5.75e-01,4.60e-02,
757,5.63e-01,4.64e-02,
758,5.76e-01,4.64e-02,
759,5.62e-01,4.56e-02,
760,5.74e-01,4.64e-02,
761,5.64e-01,4.56e-02,
762,5.63e-01,4.52e-02,
763,5.78e-01,4.64e-02,
764,5.76e-01,4.64e-02,
765,5.62e-01,4.52e-02,
766,5.66e-01,4.52e-02,
767,5.75e-01,4.68e-02,
768,5.65e-01,4.60e-02,
769,5.78e-01,4.52e-02,
770,5.63e-01,4.56e-02,
771,5.77e-01,4.64e-02,
772,5.66e-01,4.60e-02,
773,5.76e-01,4.56e-02,
774,5.64e-01,4.56e-02,
775,5.78e-01,4.64e-02,
776,5.67e-01,4.56e-02,
777,5.76e-01,4.64e-02,
778,5.63e-01,4.64e-02,
779,5.78e-01,4.56e-02,
780,5.78e-01,4.64e-02,
781,5.63e-01,4.56e-02,
782,5.80e-01,4.64e-02,
783,5.66e-01,4.52e-02,
784,5.79e-01,4.64e-02,
785,5.66e-01,4.56e-02,
786,5.66e-01,4.56e-02,
787,5.78e-01,4.64e-02,
788,5.77e-01,4.60e-02,
789,5.66e-01,4.56e-02,
790,5.67e-01,4.56e-02,
791,5.77e-01,4.68e-02,
792,5.69e-01,4.56e-02,
793,5.76e-01,4.64e-02,
794,5.68e-01,4.64e-02,
795,5.79e-01,4.56e-02,
796,5.66e-01,4.60e-02,
797,5.78e-01,4.56e-02,
798,5.67e-01,4.56e-02,
799,5.78e-01,4.64e-02,
800,5.79e-01,4.56e-02,
801,5.69e-01,4.64e-02,
802,5.67e-01,4.52e-02,
803,5.80e-01,4.64e-02,
804,5.69e-01,4.56e-02,
805,5.79e-01,4.60e-02,
806,5.70e-01,4.56e-02,
807,5.80e-01,4.64e-02,
808,5.79e-01,4.60e-02,
809,5.69e-01,4.52e-02,
810,5.68e-01,4.64e-02,
811,5.80e-01,4.56e-02,
812,5.82e-01,4.52e-02,
813,5.67e-01,4.60e-02,
814,5.70e-01,4.64e-02,
815,5.82e-01,4.56e-02,
816,5.67e-01,4.56e-02,
817,5.82e-01,4.64e-02,
818,5.81e-01,4.56e-02,
819,5.70e-01,4.60e-02,
820,5.84e-01,4.64e-02,
821,5.70e-01,4.52e-02,
822,5.81e-01,4.56e-02,
823,5.68e-01,4.64e-02,
824,5.71e-01,4.64e-02,
825,5.82e-01,4.56e-02,
826,5.81e-01,4.60e-02,
827,5.70e-01,4.56e-02,
828,5.69e-01,4.56e-02,
829,5.80e-01,4.64e-02,
830,5.68e-01,4.64e-02,
831,5.82e-01,4.52e-02,
832,5.73e-01,4.60e-02,
833,5.84e-01,4.52e-02,
834,5.70e-01,4.64e-02,
835,5.82e-01,4.56e-02,
836,5.81e-01,4.56e-02,
837,5.70e-01,4.64e-02,
838,5.81e-01,4.56e-02,
839,5.73e-01,4.64e-02,
840,5.84e-01,4.64e-02,
841,5.70e-01,4.52e-02,
842,5.74e-01,4.52e-02,
843,5.85e-01,4.60e-02,
844,5.71e-01,4.60e-02,
845,5.85e-01,4.52e-02,
846,5.84e-01,4.64e-02,
847,5.72e-01,4.52e-02,
848,5.73e-01,4.60e-02,
849,5.81e-01,4.52e-02,
850,5.74e-01,4.56e-02,
851,5.86e-01,4.64e-02,
852,5.73e-01,4.64e-02,
853,5.82e-01,4.52e-02,
854,5.86e-01,4.60e-02,
855,5.70e-01,4.52e-02,
856,5.74e-01,4.60e-02,
857,5.84e-01,4.56e-02,
858,5.82e-01,4.56e-02,
859,5.73e-01,4.64e-02,
860,5.84e-01,4.56e-02,
861,5.74e-01,4.64e-02,
862,5.86e-01,4.52e-02,
863,5.74e-01,4.60e-02,
864,5.74e-01,4.60e-02,
865,5.88e-01,4.52e-02,
866,5.84e-01,4.60e-02,
867,5.74e-01,4.52e-02,
868,5.88e-01,4.52e-02,
869,5.74e-01,4.60e-02,
870,5.75e-01,4.52e-02,
