7mHz_10s_578.csv

X,CH1,CH2,Start,Increment,
Sequence,Volt,Volt,-2.800000e-01,1.000000e-02
0,5.60e-01,6.02e-02,
1,5.68e-01,5.96e-02,
2,5.76e-01,6.02e-02,
3,5.60e-01,5.96e-02,
4,5.60e-01,6.02e-02,
5,5.68e-01,5.94e-02,
6,5.60e-01,6.02e-02,
7,5.76e-01,5.96e-02,
8,5.68e-01,6.02e-02,
9,5.60e-01,5.94e-02,
10,5.68e-01,6.02e-02,
11,5.52e-01,5.96e-02,
12,5.76e-01,5.94e-02,
13,5.60e-01,6.02e-02,
14,5.60e-01,5.94e-02,
15,5.76e-01,6.02e-02,
16,5.68e-01,6.00e-02,
17,5.60e-01,5.94e-02,
18,5.84e-01,5.92e-02,
19,5.60e-01,6.02e-02,
20,5.60e-01,5.94e-02,
21,5.76e-01,6.00e-02,
22,5.68e-01,5.94e-02,
23,5.84e-01,6.04e-02,
24,5.68e-01,5.98e-02,
25,5.76e-01,6.02e-02,
26,5.84e-01,5.98e-02,
27,5.68e-01,6.02e-02,
28,5.68e-01,6.02e-02,
29,5.76e-01,5.96e-02,
30,5.68e-01,6.02e-02,
31,5.84e-01,5.96e-02,
32,5.84e-01,6.02e-02,
33,5.68e-01,5.92e-02,
34,5.68e-01,6.04e-02,
35,5.84e-01,5.94e-02,
36,5.84e-01,6.02e-02,
37,5.68e-01,5.96e-02,
38,5.84e-01,6.00e-02,
39,5.68e-01,5.96e-02,
40,5.68e-01,6.00e-02,
41,5.84e-01,5.94e-02,
42,5.68e-01,5.94e-02,
43,5.84e-01,6.02e-02,
44,5.76e-01,5.94e-02,
45,5.84e-01,6.02e-02,
46,5.84e-01,6.00e-02,
47,5.68e-01,5.96e-02,
48,5.76e-01,6.02e-02,
49,5.92e-01,5.96e-02,
50,5.84e-01,6.00e-02,
51,5.76e-01,5.94e-02,
52,5.76e-01,6.00e-02,
53,5.84e-01,5.96e-02,
54,5.76e-01,6.02e-02,
55,5.92e-01,5.92e-02,
56,5.76e-01,6.00e-02,
57,5.92e-01,5.94e-02,
58,5.76e-01,5.94e-02,
59,5.92e-01,6.00e-02,
60,5.76e-01,5.96e-02,
61,5.92e-01,5.98e-02,
62,5.76e-01,6.00e-02,
63,5.92e-01,5.94e-02,
64,5.76e-01,6.00e-02,
65,5.92e-01,5.94e-02,
66,5.76e-01,5.94e-02,
67,5.92e-01,6.00e-02,
68,5.92e-01,5.94e-02,
69,5.84e-01,6.02e-02,
70,5.76e-01,5.92e-02,
71,6.00e-01,6.00e-02,
72,5.92e-01,6.00e-02,
73,5.76e-01,5.94e-02,
74,5.84e-01,6.00e-02,
75,5.92e-01,5.94e-02,
76,6.00e-01,5.92e-02,
77,5.84e-01,6.00e-02,
78,5.84e-01,6.00e-02,
79,6.00e-01,5.94e-02,
80,5.84e-01,5.98e-02,
81,6.00e-01,5.94e-02,
82,5.84e-01,6.00e-02,
83,6.00e-01,5.94e-02,
84,6.00e-01,5.94e-02,
85,5.84e-01,5.98e-02,
86,6.00e-01,6.00e-02,
87,5.84e-01,5.94e-02,
88,6.00e-01,5.94e-02,
89,2.08e-01,6.08e-02,
90,2.08e-01,6.12e-02,
91,2.24e-01,6.20e-02,
92,2.24e-01,6.20e-02,
93,2.08e-01,6.28e-02,
94,2.24e-01,6.30e-02,
95,2.08e-01,6.24e-02,
96,2.08e-01,6.26e-02,
97,2.24e-01,6.30e-02,
98,2.24e-01,6.24e-02,
99,2.08e-01,6.28e-02,
100,2.08e-01,6.30e-02,
101,2.24e-01,6.22e-02,
102,2.08e-01,6.30e-02,
103,2.24e-01,6.24e-02,
104,2.24e-01,6.28e-02,
105,2.08e-01,6.24e-02,
106,2.24e-01,6.24e-02,
107,2.08e-01,6.30e-02,
108,2.16e-01,6.30e-02,
109,2.32e-01,6.24e-02,
110,2.24e-01,6.28e-02,
111,2.16e-01,6.22e-02,
112,2.16e-01,6.22e-02,
113,2.24e-01,6.28e-02,
114,2.16e-01,6.24e-02,
115,2.32e-01,6.30e-02,
116,2.16e-01,6.30e-02,
117,2.32e-01,6.24e-02,
118,2.16e-01,6.30e-02,
119,2.32e-01,6.24e-02,
120,2.32e-01,6.22e-02,
121,2.16e-01,6.28e-02,
122,2.32e-01,6.24e-02,
123,2.16e-01,6.28e-02,
124,2.32e-01,6.22e-02,
125,2.16e-01,6.30e-02,
126,2.32e-01,6.20e-02,
127,2.16e-01,6.30e-02,
128,2.24e-01,6.22e-02,
129,2.32e-01,6.28e-02,
130,2.24e-01,6.28e-02,
131,2.32e-01,6.24e-02,
132,2.32e-01,6.24e-02,
133,2.24e-01,6.28e-02,
134,2.32e-01,6.28e-02,
135,2.24e-01,6.22e-02,
136,2.32e-01,6.22e-02,
137,2.24e-01,6.28e-02,
138,2.24e-01,6.22e-02,
139,2.40e-01,6.30e-02,
140,2.32e-01,6.28e-02,
141,2.24e-01,6.22e-02,
142,2.40e-01,6.22e-02,
143,2.24e-01,6.28e-02,
144,2.40e-01,6.28e-02,
145,2.32e-01,6.22e-02,
146,2.40e-01,6.20e-02,
147,2.24e-01,6.26e-02,
148,2.40e-01,6.22e-02,
149,2.24e-01,6.28e-02,
150,2.40e-01,6.28e-02,
151,2.32e-01,6.22e-02,
152,2.40e-01,6.22e-02,
153,2.32e-01,6.28e-02,
154,2.40e-01,6.28e-02,
155,2.32e-01,6.22e-02,
156,2.40e-01,6.22e-02,
157,2.32e-01,6.30e-02,
158,2.40e-01,6.24e-02,
159,2.40e-01,6.28e-02,
160,2.40e-01,6.26e-02,
161,2.40e-01,6.20e-02,
162,2.40e-01,6.22e-02,
163,2.40e-01,6.28e-02,
164,2.40e-01,6.20e-02,
165,2.40e-01,6.28e-02,
166,2.40e-01,6.24e-02,
167,2.40e-01,6.18e-02,
168,2.32e-01,6.26e-02,
169,2.48e-01,6.22e-02,
170,2.40e-01,6.22e-02,
171,2.56e-01,6.24e-02,
172,2.40e-01,6.20e-02,
173,2.48e-01,6.28e-02,
174,2.56e-01,6.22e-02,
175,2.32e-01,6.26e-02,
176,2.40e-01,6.20e-02,
177,2.56e-01,6.28e-02,
178,2.40e-01,6.24e-02,
179,2.48e-01,6.20e-02,
180,2.48e-01,6.20e-02,
181,2.40e-01,6.26e-02,
182,2.48e-01,6.20e-02,
183,2.48e-01,6.26e-02,
184,2.48e-01,6.22e-02,
185,2.40e-01,6.26e-02,
186,2.48e-01,6.22e-02,
187,2.48e-01,6.26e-02,
188,2.48e-01,6.26e-02,
189,2.48e-01,6.22e-02,
190,2.48e-01,6.16e-02,
191,2.56e-01,6.24e-02,
192,2.48e-01,6.22e-02,
193,2.56e-01,6.26e-02,
194,2.48e-01,6.24e-02,
195,2.56e-01,6.22e-02,
196,2.48e-01,6.20e-02,
197,2.56e-01,6.24e-02,
198,2.48e-01,6.20e-02,
199,2.56e-01,6.26e-02,
200,2.48e-01,6.26e-02,
201,2.56e-01,6.20e-02,
202,2.48e-01,6.18e-02,
203,2.64e-01,6.24e-02,
204,2.64e-01,6.24e-02,
205,2.48e-01,6.20e-02,
206,2.64e-01,6.22e-02,
207,2.48e-01,6.26e-02,
208,2.64e-01,6.24e-02,
209,2.48e-01,6.18e-02,
210,2.48e-01,6.26e-02,
211,2.64e-01,6.18e-02,
212,2.56e-01,6.24e-02,
213,2.56e-01,6.18e-02,
214,2.56e-01,6.16e-02,
215,2.56e-01,6.30e-02,
216,2.56e-01,6.22e-02,
217,2.64e-01,6.26e-02,
218,2.56e-01,6.18e-02,
219,2.72e-01,6.24e-02,
220,2.64e-01,6.24e-02,
221,2.56e-01,6.18e-02,
222,2.56e-01,6.24e-02,
223,2.72e-01,6.20e-02,
224,2.56e-01,6.24e-02,
225,2.72e-01,6.18e-02,
226,2.56e-01,6.24e-02,
227,2.72e-01,6.20e-02,
228,2.56e-01,6.20e-02,
229,2.72e-01,6.26e-02,
230,2.72e-01,6.24e-02,
231,2.56e-01,6.18e-02,
232,2.64e-01,6.26e-02,
233,2.56e-01,6.22e-02,
234,2.72e-01,6.26e-02,
235,2.56e-01,6.16e-02,
236,2.72e-01,6.24e-02,
237,2.56e-01,6.20e-02,
238,2.56e-01,6.20e-02,
239,2.72e-01,6.24e-02,
240,2.64e-01,6.18e-02,
241,2.72e-01,6.24e-02,
242,2.72e-01,6.20e-02,
243,2.64e-01,6.26e-02,
244,2.64e-01,6.16e-02,
245,2.72e-01,6.24e-02,
246,2.72e-01,6.24e-02,
247,2.64e-01,6.18e-02,
248,2.64e-01,6.22e-02,
249,2.72e-01,6.20e-02,
250,2.80e-01,6.24e-02,
251,2.64e-01,6.16e-02,
252,2.64e-01,6.26e-02,
253,2.80e-01,6.20e-02,
254,2.80e-01,6.16e-02,
255,2.72e-01,6.24e-02,
256,2.80e-01,6.22e-02,
257,2.72e-01,6.18e-02,
258,2.80e-01,6.26e-02,
259,2.64e-01,6.16e-02,
260,2.80e-01,6.20e-02,
261,2.64e-01,6.24e-02,
262,2.80e-01,6.18e-02,
263,2.64e-01,6.22e-02,
264,2.80e-01,6.22e-02,
265,2.72e-01,6.16e-02,
266,2.80e-01,6.22e-02,
267,2.72e-01,6.16e-02,
268,2.88e-01,6.16e-02,
269,2.72e-01,6.22e-02,
270,2.80e-01,6.22e-02,
271,2.72e-01,6.16e-02,
272,2.72e-01,6.18e-02,
273,2.88e-01,6.22e-02,
274,2.72e-01,6.18e-02,
275,2.88e-01,6.24e-02,
276,2.72e-01,6.18e-02,
277,2.88e-01,6.22e-02,
278,2.88e-01,6.16e-02,
279,2.72e-01,6.22e-02,
280,2.72e-01,6.20e-02,
281,2.88e-01,6.24e-02,
282,2.88e-01,6.22e-02,
283,2.72e-01,6.14e-02,
284,2.72e-01,6.20e-02,
285,2.88e-01,6.14e-02,
286,2.80e-01,6.22e-02,
287,2.88e-01,6.14e-02,
288,2.88e-01,6.14e-02,
289,2.72e-01,6.22e-02,
290,2.88e-01,6.16e-02,
291,2.80e-01,6.20e-02,
292,2.72e-01,6.16e-02,
293,2.96e-01,6.22e-02,
294,2.88e-01,6.20e-02,
295,2.88e-01,6.16e-02,
296,2.80e-01,6.20e-02,
297,2.88e-01,6.16e-02,
298,2.96e-01,6.20e-02,
299,2.80e-01,6.14e-02,
300,2.80e-01,6.16e-02,
301,2.96e-01,6.22e-02,
302,2.88e-01,6.22e-02,
303,2.96e-01,6.14e-02,
304,2.96e-01,6.22e-02,
305,2.80e-01,6.16e-02,
306,2.80e-01,6.16e-02,
307,2.96e-01,6.22e-02,
308,2.96e-01,6.14e-02,
309,2.88e-01,6.22e-02,
310,2.96e-01,6.16e-02,
311,2.80e-01,6.22e-02,
312,2.96e-01,6.20e-02,
313,2.88e-01,6.16e-02,
314,2.96e-01,6.22e-02,
315,2.80e-01,6.16e-02,
316,2.96e-01,6.22e-02,
317,2.96e-01,6.14e-02,
318,2.96e-01,6.20e-02,
319,2.96e-01,6.12e-02,
320,2.96e-01,6.18e-02,
321,2.96e-01,6.22e-02,
322,2.96e-01,6.20e-02,
323,2.96e-01,6.14e-02,
324,2.96e-01,6.16e-02,
325,2.96e-01,6.24e-02,
326,2.96e-01,6.20e-02,
327,3.04e-01,6.14e-02,
328,2.96e-01,6.16e-02,
329,3.04e-01,6.20e-02,
330,2.96e-01,6.18e-02,
331,3.12e-01,6.22e-02,
332,2.96e-01,6.14e-02,
333,3.04e-01,6.22e-02,
334,3.12e-01,6.22e-02,
335,2.96e-01,6.14e-02,
336,2.96e-01,6.20e-02,
337,3.04e-01,6.14e-02,
338,3.12e-01,6.18e-02,
339,2.96e-01,6.12e-02,
340,3.04e-01,6.14e-02,
341,3.12e-01,6.22e-02,
342,2.96e-01,6.18e-02,
343,3.04e-01,6.14e-02,
344,3.04e-01,6.20e-02,
345,3.12e-01,6.14e-02,
346,3.04e-01,6.12e-02,
347,3.04e-01,6.20e-02,
348,3.12e-01,6.12e-02,
349,3.04e-01,6.20e-02,
350,3.04e-01,6.22e-02,
351,3.04e-01,6.14e-02,
352,3.04e-01,6.16e-02,
353,3.12e-01,6.22e-02,
354,3.04e-01,6.12e-02,
355,3.20e-01,6.20e-02,
356,3.20e-01,6.20e-02,
357,3.04e-01,6.12e-02,
358,3.04e-01,6.16e-02,
359,3.12e-01,6.20e-02,
360,3.04e-01,6.14e-02,
361,3.12e-01,6.22e-02,
362,3.04e-01,6.14e-02,
363,3.12e-01,6.18e-02,
364,3.20e-01,6.16e-02,
365,3.04e-01,6.18e-02,
366,3.20e-01,6.20e-02,
367,3.12e-01,6.14e-02,
368,3.20e-01,6.16e-02,
369,3.12e-01,6.20e-02,
370,3.20e-01,6.20e-02,
371,3.12e-01,6.14e-02,
372,3.20e-01,6.20e-02,
373,3.12e-01,6.14e-02,
374,3.12e-01,6.12e-02,
375,3.28e-01,6.20e-02,
376,3.28e-01,6.14e-02,
377,3.12e-01,6.20e-02,
378,3.12e-01,6.18e-02,
379,3.28e-01,6.14e-02,
380,3.28e-01,6.16e-02,
381,3.12e-01,6.22e-02,
382,3.12e-01,6.20e-02,
383,3.28e-01,6.14e-02,
384,3.28e-01,6.18e-02,
385,3.12e-01,6.10e-02,
386,3.28e-01,6.16e-02,
387,3.12e-01,6.10e-02,
388,3.12e-01,6.14e-02,
389,3.28e-01,6.18e-02,
390,3.28e-01,6.18e-02,
391,3.12e-01,6.10e-02,
392,3.28e-01,6.12e-02,
393,3.12e-01,6.20e-02,
394,3.20e-01,6.12e-02,
395,3.28e-01,6.16e-02,
396,3.28e-01,6.12e-02,
397,3.20e-01,6.18e-02,
398,3.20e-01,6.18e-02,
399,3.28e-01,6.12e-02,
400,3.20e-01,6.14e-02,
401,3.36e-01,6.18e-02,
402,3.20e-01,6.10e-02,
403,3.28e-01,6.18e-02,
404,3.20e-01,6.12e-02,
405,3.36e-01,6.18e-02,
406,3.36e-01,6.18e-02,
407,3.20e-01,6.10e-02,
408,3.20e-01,6.18e-02,
409,3.36e-01,6.10e-02,
410,3.20e-01,6.18e-02,
411,3.36e-01,6.10e-02,
412,3.36e-01,6.16e-02,
413,3.20e-01,6.10e-02,
414,3.20e-01,6.16e-02,
415,3.36e-01,6.10e-02,
416,3.36e-01,6.12e-02,
417,3.20e-01,6.04e-02,
418,3.28e-01,6.02e-02,
419,3.36e-01,5.92e-02,
420,3.28e-01,5.92e-02,
421,3.36e-01,5.98e-02,
422,3.36e-01,5.92e-02,
423,3.28e-01,6.02e-02,
424,3.36e-01,6.06e-02,
425,3.28e-01,5.98e-02,
426,3.36e-01,6.04e-02,
427,3.28e-01,6.10e-02,
428,3.36e-01,6.12e-02,
429,3.28e-01,6.04e-02,
430,3.28e-01,6.06e-02,
431,3.36e-01,6.12e-02,
432,3.36e-01,6.06e-02,
433,3.28e-01,6.14e-02,
434,3.44e-01,6.16e-02,
435,3.28e-01,6.06e-02,
436,3.28e-01,6.18e-02,
437,3.44e-01,6.10e-02,
438,3.44e-01,6.10e-02,
439,3.28e-01,6.16e-02,
440,3.44e-01,6.16e-02,
441,3.28e-01,6.10e-02,
442,3.44e-01,6.08e-02,
443,3.28e-01,6.16e-02,
444,3.28e-01,6.18e-02,
445,3.44e-01,6.10e-02,
446,3.44e-01,6.16e-02,
447,3.36e-01,6.12e-02,
448,3.44e-01,6.16e-02,
449,3.36e-01,6.12e-02,
450,3.44e-01,6.16e-02,
451,3.44e-01,6.12e-02,
452,3.36e-01,6.18e-02,
453,3.44e-01,6.10e-02,
454,3.44e-01,6.10e-02,
455,3.52e-01,6.18e-02,
456,3.36e-01,6.16e-02,
457,3.52e-01,6.10e-02,
458,3.52e-01,6.16e-02,
459,3.44e-01,6.12e-02,
460,3.52e-01,6.16e-02,
461,3.44e-01,6.10e-02,
462,3.36e-01,6.10e-02,
463,3.52e-01,6.18e-02,
464,3.44e-01,6.10e-02,
465,3.52e-01,6.16e-02,
466,3.44e-01,6.10e-02,
467,3.52e-01,6.18e-02,
468,3.52e-01,6.10e-02,
469,3.60e-01,6.16e-02,
470,3.44e-01,6.12e-02,
471,3.52e-01,6.18e-02,
472,3.52e-01,6.12e-02,
473,3.52e-01,6.16e-02,
474,3.52e-01,6.16e-02,
475,3.60e-01,6.08e-02,
476,3.52e-01,6.10e-02,
477,3.60e-01,6.14e-02,
478,3.44e-01,6.18e-02,
479,3.60e-01,6.10e-02,
480,3.52e-01,6.16e-02,
481,3.60e-01,6.10e-02,
482,3.60e-01,6.16e-02,
483,3.52e-01,6.10e-02,
484,3.52e-01,6.14e-02,
485,3.60e-01,6.10e-02,
486,3.52e-01,6.16e-02,
487,3.52e-01,6.06e-02,
488,3.60e-01,6.14e-02,
489,3.52e-01,6.10e-02,
490,3.52e-01,6.14e-02,
491,3.60e-01,6.10e-02,
492,3.52e-01,6.16e-02,
493,3.60e-01,6.08e-02,
494,3.52e-01,6.14e-02,
495,3.68e-01,6.08e-02,
496,3.68e-01,6.12e-02,
497,3.52e-01,6.08e-02,
498,3.60e-01,6.06e-02,
499,3.68e-01,6.16e-02,
500,3.68e-01,6.08e-02,
501,3.52e-01,6.16e-02,
502,3.60e-01,6.12e-02,
503,3.68e-01,6.06e-02,
504,3.60e-01,6.08e-02,
505,3.52e-01,6.12e-02,
506,3.60e-01,6.12e-02,
507,3.76e-01,6.02e-02,
508,3.60e-01,6.08e-02,
509,3.68e-01,5.98e-02,
510,3.60e-01,5.98e-02,
511,3.68e-01,5.88e-02,
512,3.76e-01,5.86e-02,
513,3.60e-01,5.74e-02,
514,3.76e-01,5.74e-02,
515,3.60e-01,5.68e-02,
516,3.60e-01,5.74e-02,
517,3.76e-01,5.82e-02,
518,3.60e-01,5.84e-02,
519,3.76e-01,5.96e-02,
520,3.60e-01,5.92e-02,
521,3.76e-01,6.04e-02,
522,3.60e-01,6.04e-02,
523,3.76e-01,6.08e-02,
524,3.76e-01,6.08e-02,
525,3.60e-01,6.04e-02,
526,3.76e-01,6.12e-02,
527,3.60e-01,6.04e-02,
528,3.76e-01,6.04e-02,
529,3.60e-01,6.10e-02,
530,3.76e-01,6.06e-02,
531,3.60e-01,6.14e-02,
532,3.68e-01,6.12e-02,
533,3.76e-01,6.08e-02,
534,3.68e-01,6.12e-02,
535,3.84e-01,6.08e-02,
536,3.68e-01,6.08e-02,
537,3.84e-01,6.14e-02,
538,3.68e-01,6.14e-02,
539,3.84e-01,6.06e-02,
540,3.84e-01,6.06e-02,
541,3.68e-01,6.14e-02,
542,3.68e-01,6.14e-02,
543,3.84e-01,6.08e-02,
544,3.68e-01,6.14e-02,
545,3.84e-01,6.08e-02,
546,3.84e-01,6.12e-02,
547,3.68e-01,6.06e-02,
548,3.84e-01,6.08e-02,
549,3.76e-01,6.14e-02,
550,3.84e-01,6.06e-02,
551,3.68e-01,6.16e-02,
552,3.76e-01,6.08e-02,
553,3.84e-01,6.14e-02,
554,3.76e-01,6.08e-02,
555,3.84e-01,6.14e-02,
556,3.84e-01,6.14e-02,
557,3.76e-01,6.06e-02,
558,3.84e-01,6.08e-02,
559,3.76e-01,6.14e-02,
560,3.84e-01,6.04e-02,
561,3.76e-01,6.14e-02,
562,3.76e-01,6.08e-02,
563,3.92e-01,6.14e-02,
564,3.76e-01,6.08e-02,
565,3.92e-01,6.14e-02,
566,3.76e-01,6.14e-02,
567,3.92e-01,6.06e-02,
568,3.92e-01,6.08e-02,
569,3.76e-01,6.16e-02,
570,3.92e-01,6.14e-02,
571,3.76e-01,6.06e-02,
572,3.92e-01,6.12e-02,
573,3.76e-01,6.06e-02,
574,3.76e-01,6.12e-02,
575,3.92e-01,6.06e-02,
576,3.76e-01,6.06e-02,
577,3.92e-01,6.14e-02,
578,3.76e-01,6.14e-02,
579,3.92e-01,6.06e-02,
580,3.92e-01,6.12e-02,
581,3.84e-01,6.08e-02,
582,3.76e-01,6.08e-02,
583,3.92e-01,6.14e-02,
584,3.92e-01,6.06e-02,
585,3.84e-01,6.10e-02,
586,3.92e-01,6.14e-02,
587,3.84e-01,6.06e-02,
588,4.00e-01,6.04e-02,
589,3.84e-01,6.12e-02,
590,3.84e-01,6.04e-02,
591,4.00e-01,6.08e-02,
592,4.00e-01,6.04e-02,
593,3.84e-01,6.10e-02,
594,3.84e-01,6.04e-02,
595,4.00e-01,6.12e-02,
596,3.84e-01,6.08e-02,
597,4.00e-01,6.02e-02,
598,4.00e-01,6.04e-02,
599,3.84e-01,6.08e-02,
600,4.00e-01,6.00e-02,
601,3.84e-01,6.04e-02,
602,4.00e-01,6.00e-02,
603,3.92e-01,5.84e-02,
604,3.92e-01,5.84e-02,
605,4.00e-01,5.66e-02,
606,4.00e-01,5.62e-02,
607,3.92e-01,5.44e-02,
608,4.00e-01,5.48e-02,
609,3.92e-01,5.54e-02,
610,4.00e-01,5.52e-02,
611,3.92e-01,5.72e-02,
612,3.92e-01,5.70e-02,
613,4.08e-01,5.88e-02,
614,3.92e-01,5.88e-02,
615,4.08e-01,5.98e-02,
616,4.00e-01,5.94e-02,
617,4.08e-01,6.02e-02,
618,4.08e-01,6.00e-02,
619,4.00e-01,6.06e-02,
620,4.00e-01,6.06e-02,
621,4.08e-01,6.00e-02,
622,4.08e-01,6.08e-02,
623,3.92e-01,6.02e-02,
624,4.08e-01,6.00e-02,
625,4.00e-01,6.06e-02,
626,4.00e-01,6.04e-02,
627,4.08e-01,6.10e-02,
628,4.08e-01,6.10e-02,
629,4.00e-01,6.04e-02,
630,4.08e-01,6.00e-02,
631,4.00e-01,6.10e-02,
632,4.08e-01,6.08e-02,
633,4.08e-01,6.02e-02,
634,3.92e-01,6.08e-02,
635,4.16e-01,6.04e-02,
636,4.16e-01,6.04e-02,
637,4.08e-01,6.10e-02,
638,4.08e-01,6.04e-02,
639,4.16e-01,6.08e-02,
640,4.08e-01,6.10e-02,
641,4.24e-01,6.00e-02,
642,4.08e-01,6.04e-02,
643,4.16e-01,6.08e-02,
644,4.16e-01,6.02e-02,
645,4.08e-01,6.10e-02,
646,4.08e-01,6.04e-02,
647,4.24e-01,6.08e-02,
648,4.24e-01,6.04e-02,
649,4.08e-01,6.12e-02,
650,4.24e-01,6.08e-02,
651,4.08e-01,6.04e-02,
652,4.16e-01,6.02e-02,
653,4.08e-01,6.06e-02,
654,4.24e-01,6.04e-02,
655,4.08e-01,6.08e-02,
656,4.16e-01,6.02e-02,
657,4.24e-01,6.08e-02,
658,4.08e-01,6.00e-02,
659,4.24e-01,6.08e-02,
660,4.24e-01,6.02e-02,
661,4.16e-01,6.08e-02,
662,4.16e-01,6.02e-02,
663,4.32e-01,6.08e-02,
664,4.24e-01,6.00e-02,
665,4.16e-01,6.04e-02,
666,4.16e-01,6.02e-02,
667,4.16e-01,6.10e-02,
668,4.32e-01,6.00e-02,
669,4.16e-01,6.10e-02,
670,4.16e-01,6.02e-02,
671,4.24e-01,6.06e-02,
672,4.16e-01,6.08e-02,
673,4.32e-01,6.02e-02,
674,4.32e-01,6.06e-02,
675,4.16e-01,6.02e-02,
676,4.32e-01,6.00e-02,
677,4.16e-01,6.08e-02,
678,4.16e-01,6.04e-02,
679,4.32e-01,6.10e-02,
680,4.16e-01,5.98e-02,
681,4.32e-01,6.08e-02,
682,4.24e-01,6.08e-02,
683,4.32e-01,6.00e-02,
684,4.24e-01,6.06e-02,
685,4.32e-01,6.04e-02,
686,4.32e-01,6.08e-02,
687,4.24e-01,6.00e-02,
688,4.32e-01,6.06e-02,
689,4.24e-01,6.00e-02,
690,4.32e-01,6.08e-02,
691,4.24e-01,5.98e-02,
692,4.24e-01,6.06e-02,
693,4.40e-01,5.96e-02,
694,4.24e-01,5.96e-02,
695,4.32e-01,6.04e-02,
696,4.24e-01,5.94e-02,
697,4.40e-01,5.82e-02,
698,4.24e-01,5.82e-02,
699,4.40e-01,5.46e-02,
700,4.40e-01,5.40e-02,
701,4.24e-01,5.14e-02,
702,4.24e-01,5.12e-02,
703,4.40e-01,5.20e-02,
704,4.40e-01,5.18e-02,
705,4.24e-01,5.44e-02,
706,4.24e-01,5.46e-02,
707,4.40e-01,5.74e-02,
708,4.40e-01,5.76e-02,
709,4.24e-01,5.90e-02,
710,4.24e-01,5.88e-02,
711,4.40e-01,5.96e-02,
712,4.40e-01,5.94e-02,
713,4.24e-01,5.98e-02,
714,4.24e-01,6.02e-02,
715,4.40e-01,5.96e-02,
716,4.24e-01,6.04e-02,
717,4.40e-01,5.94e-02,
718,4.40e-01,6.04e-02,
719,4.32e-01,5.96e-02,
720,4.48e-01,6.04e-02,
721,4.32e-01,5.98e-02,
722,4.32e-01,6.04e-02,
723,4.48e-01,5.98e-02,
724,4.32e-01,6.02e-02,
725,4.48e-01,5.98e-02,
726,4.32e-01,6.00e-02,
727,4.48e-01,6.06e-02,
728,4.48e-01,6.04e-02,
729,4.32e-01,6.00e-02,
730,4.32e-01,5.98e-02,
731,4.48e-01,6.04e-02,
732,4.40e-01,5.98e-02,
733,4.48e-01,6.04e-02,
734,4.48e-01,6.00e-02,
735,4.32e-01,6.08e-02,
736,4.48e-01,5.96e-02,
737,4.40e-01,6.06e-02,
738,4.48e-01,5.98e-02,
739,4.56e-01,6.06e-02,
740,4.48e-01,5.98e-02,
741,4.40e-01,6.04e-02,
742,4.40e-01,6.00e-02,
743,4.56e-01,6.04e-02,
744,4.56e-01,6.06e-02,
745,4.40e-01,6.00e-02,
746,4.48e-01,5.98e-02,
747,4.40e-01,6.06e-02,
748,4.48e-01,5.98e-02,
749,4.56e-01,6.06e-02,
750,4.48e-01,6.04e-02,
751,4.56e-01,5.98e-02,
752,4.48e-01,6.04e-02,
753,4.56e-01,5.98e-02,
754,4.48e-01,6.04e-02,
755,4.56e-01,5.98e-02,
756,4.56e-01,5.98e-02,
757,4.40e-01,6.04e-02,
758,4.48e-01,6.00e-02,
759,4.56e-01,6.04e-02,
760,4.56e-01,5.96e-02,
761,4.40e-01,6.06e-02,
762,4.56e-01,6.04e-02,
763,4.48e-01,5.96e-02,
764,4.56e-01,6.04e-02,
765,4.48e-01,6.00e-02,
766,4.56e-01,6.00e-02,
767,4.56e-01,6.04e-02,
768,4.56e-01,6.04e-02,
769,4.48e-01,5.96e-02,
770,4.56e-01,5.98e-02,
771,4.56e-01,6.04e-02,
772,4.56e-01,6.04e-02,
773,4.56e-01,6.00e-02,
774,4.56e-01,6.04e-02,
775,4.72e-01,5.98e-02,
776,4.56e-01,6.06e-02,
777,4.72e-01,6.00e-02,
778,4.56e-01,6.04e-02,
779,4.72e-01,5.96e-02,
780,4.56e-01,5.98e-02,
781,4.72e-01,6.04e-02,
782,4.56e-01,5.98e-02,
783,4.64e-01,6.04e-02,
784,4.56e-01,6.00e-02,
785,4.72e-01,6.04e-02,
786,4.56e-01,6.04e-02,
787,4.72e-01,5.98e-02,
788,4.56e-01,6.04e-02,
789,4.72e-01,5.98e-02,
790,4.72e-01,5.98e-02,
791,4.56e-01,6.08e-02,
792,4.72e-01,6.04e-02,
793,4.56e-01,5.98e-02,
794,4.64e-01,5.98e-02,
795,4.72e-01,6.06e-02,
796,4.72e-01,6.02e-02,
797,4.64e-01,5.96e-02,
798,4.64e-01,5.96e-02,
799,4.80e-01,6.02e-02,
800,4.64e-01,5.98e-02,
801,4.64e-01,6.04e-02,
802,4.80e-01,6.02e-02,
803,4.64e-01,5.94e-02,
804,4.64e-01,6.04e-02,
805,4.80e-01,5.96e-02,
806,4.64e-01,5.96e-02,
807,4.80e-01,6.04e-02,
808,4.64e-01,6.02e-02,
809,4.80e-01,5.94e-02,
810,4.64e-01,5.98e-02,
811,4.80e-01,6.04e-02,
812,4.80e-01,6.04e-02,
813,4.64e-01,5.98e-02,
814,4.80e-01,6.04e-02,
815,4.64e-01,5.98e-02,
816,4.72e-01,5.96e-02,
817,4.64e-01,6.02e-02,
818,4.72e-01,5.96e-02,
819,4.80e-01,6.04e-02,
820,4.80e-01,6.04e-02,
821,4.64e-01,6.00e-02,
822,4.72e-01,5.98e-02,
823,4.88e-01,6.06e-02,
824,4.72e-01,5.96e-02,
825,4.80e-01,6.08e-02,
826,4.72e-01,5.94e-02,
827,4.88e-01,6.02e-02,
828,4.72e-01,6.02e-02,
829,4.80e-01,5.96e-02,
830,4.72e-01,5.98e-02,
831,4.88e-01,6.02e-02,
832,4.72e-01,6.06e-02,
833,4.88e-01,5.98e-02,
834,4.72e-01,5.94e-02,
835,4.88e-01,6.00e-02,
836,4.88e-01,5.96e-02,
837,4.72e-01,6.02e-02,
838,4.72e-01,6.02e-02,
839,4.88e-01,5.96e-02,
840,4.88e-01,6.00e-02,
841,4.72e-01,6.02e-02,
842,4.72e-01,5.94e-02,
843,4.88e-01,6.02e-02,
844,4.80e-01,5.92e-02,
845,4.88e-01,6.00e-02,
846,4.88e-01,5.96e-02,
847,4.80e-01,6.00e-02,
848,4.80e-01,6.02e-02,
849,4.96e-01,5.92e-02,
850,4.80e-01,5.98e-02,
851,4.88e-01,6.02e-02,
852,4.88e-01,5.98e-02,
853,4.80e-01,6.04e-02,
854,4.80e-01,6.00e-02,
855,4.96e-01,5.96e-02,
856,4.80e-01,5.98e-02,
857,4.96e-01,5.96e-02,
858,4.96e-01,6.04e-02,
859,4.80e-01,5.94e-02,
860,4.96e-01,5.94e-02,
861,4.80e-01,6.04e-02,
862,4.96e-01,5.96e-02,
863,4.80e-01,6.00e-02,
864,4.96e-01,6.00e-02,
865,4.80e-01,5.98e-02,
866,4.96e-01,6.02e-02,
867,4.80e-01,5.94e-02,
868,4.96e-01,5.96e-02,
869,4.88e-01,6.00e-02,
870,4.96e-01,6.00e-02,
