c2-335kHz_24mV.csv

X,CH1,CH2,Start,Increment,
Sequence,Volt,Volt,-2.114000e+00,2.000000e-03
0,7.84e-01,-2.40e-02,
1,7.68e-01,-2.20e-02,
2,7.84e-01,-2.20e-02,
3,7.68e-01,-2.60e-02,
4,7.84e-01,-2.60e-02,
5,7.68e-01,-2.40e-02,
6,7.88e-01,-2.40e-02,
7,7.76e-01,-2.80e-02,
8,7.76e-01,-2.80e-02,
9,7.84e-01,-3.20e-02,
10,7.76e-01,-3.20e-02,
11,7.88e-01,-3.40e-02,
12,7.88e-01,-3.40e-02,
13,7.76e-01,-3.80e-02,
14,7.88e-01,-3.60e-02,
15,7.76e-01,-4.20e-02,
16,7.80e-01,-4.40e-02,
17,7.92e-01,-5.20e-02,
18,7.92e-01,-5.40e-02,
19,7.80e-01,-6.00e-02,
20,7.80e-01,-6.20e-02,
21,7.92e-01,-7.20e-02,
22,7.88e-01,-7.40e-02,
23,7.80e-01,-9.20e-02,
24,7.92e-01,-1.00e-01,
25,7.80e-01,-1.46e-01,
26,7.96e-01,-1.52e-01,
27,7.84e-01,-1.92e-01,
28,7.84e-01,-2.00e-01,
29,7.96e-01,-2.32e-01,
30,7.84e-01,-2.34e-01,
31,7.96e-01,-2.52e-01,
32,7.84e-01,-2.50e-01,
33,7.96e-01,-2.24e-01,
34,7.88e-01,-2.18e-01,
35,8.00e-01,-1.86e-01,
36,7.84e-01,-1.80e-01,
37,7.96e-01,-1.54e-01,
38,7.88e-01,-1.50e-01,
39,8.00e-01,-1.34e-01,
40,8.00e-01,-1.30e-01,
41,7.84e-01,-1.08e-01,
42,7.88e-01,-1.06e-01,
43,8.04e-01,-9.40e-02,
44,8.00e-01,-9.20e-02,
45,7.88e-01,-7.80e-02,
46,8.04e-01,-8.00e-02,
47,7.92e-01,-7.00e-02,
48,8.04e-01,-6.80e-02,
49,7.92e-01,-6.00e-02,
50,8.04e-01,-6.00e-02,
51,7.92e-01,-5.40e-02,
52,7.92e-01,-5.20e-02,
53,8.04e-01,-4.80e-02,
54,8.04e-01,-4.80e-02,
55,7.92e-01,-4.20e-02,
56,7.96e-01,-4.40e-02,
57,8.04e-01,-3.80e-02,
58,7.88e-01,-3.80e-02,
59,8.08e-01,-3.40e-02,
60,7.92e-01,-3.40e-02,
61,8.08e-01,-3.00e-02,
62,8.16e-01,-3.20e-02,
63,7.96e-01,-2.80e-02,
64,7.96e-01,-2.80e-02,
65,8.08e-01,-3.00e-02,
66,8.16e-01,-2.80e-02,
67,7.96e-01,-2.40e-02,
68,8.08e-01,-2.60e-02,
69,8.04e-01,-2.20e-02,
70,8.00e-01,-2.20e-02,
71,8.12e-01,-2.40e-02,
72,8.00e-01,-2.20e-02,
73,8.16e-01,-2.40e-02,
74,8.00e-01,-2.00e-02,
75,8.16e-01,-1.80e-02,
76,8.12e-01,-2.00e-02,
77,8.00e-01,-1.80e-02,
78,8.20e-01,-2.00e-02,
79,8.04e-01,-1.60e-02,
80,8.04e-01,-2.00e-02,
81,8.20e-01,-1.60e-02,
82,8.08e-01,-1.60e-02,
83,8.20e-01,-1.80e-02,
84,8.24e-01,-1.80e-02,
85,3.60e-01,-1.60e-02,
86,3.68e-01,-1.60e-02,
87,3.56e-01,-4.40e-02,
88,3.60e-01,-5.60e-02,
89,3.72e-01,-8.40e-02,
90,3.60e-01,-7.80e-02,
91,3.64e-01,-5.60e-02,
92,3.72e-01,-5.20e-02,
93,3.64e-01,-3.60e-02,
94,3.60e-01,-3.40e-02,
95,3.72e-01,-2.80e-02,
96,3.72e-01,-2.60e-02,
97,3.68e-01,-2.20e-02,
98,3.64e-01,-2.00e-02,
99,3.76e-01,-1.80e-02,
100,3.76e-01,-1.80e-02,
101,3.64e-01,-1.40e-02,
102,3.68e-01,-1.40e-02,
103,3.76e-01,-1.20e-02,
104,3.68e-01,-1.40e-02,
105,3.76e-01,-1.00e-02,
106,3.76e-01,-1.20e-02,
107,3.68e-01,-1.00e-02,
108,3.68e-01,-1.20e-02,
109,3.76e-01,-1.00e-02,
110,3.80e-01,-1.00e-02,
111,3.68e-01,-1.20e-02,
112,3.76e-01,-1.20e-02,
113,3.72e-01,-8.00e-03,
114,3.72e-01,-1.00e-02,
115,3.80e-01,-8.00e-03,
116,3.80e-01,-8.00e-03,
117,3.68e-01,-1.20e-02,
118,3.72e-01,-1.20e-02,
119,3.80e-01,-8.00e-03,
120,3.84e-01,-8.00e-03,
121,3.72e-01,-1.00e-02,
122,3.72e-01,-8.00e-03,
123,3.84e-01,-8.00e-03,
124,3.72e-01,-8.00e-03,
125,3.84e-01,-1.20e-02,
126,3.76e-01,-1.20e-02,
127,3.88e-01,-8.00e-03,
128,3.76e-01,-1.20e-02,
129,3.88e-01,-8.00e-03,
130,3.76e-01,-1.20e-02,
131,3.92e-01,-8.00e-03,
132,3.80e-01,-1.00e-02,
133,3.88e-01,-1.20e-02,
134,3.76e-01,-1.00e-02,
135,3.92e-01,-1.20e-02,
136,3.92e-01,-1.20e-02,
137,3.80e-01,-1.00e-02,
138,3.84e-01,-1.00e-02,
139,3.92e-01,-1.20e-02,
140,3.84e-01,-1.00e-02,
141,3.92e-01,-1.20e-02,
142,3.84e-01,-1.20e-02,
143,3.92e-01,-1.00e-02,
144,3.84e-01,-1.00e-02,
145,3.92e-01,-1.40e-02,
146,3.84e-01,-1.00e-02,
147,3.96e-01,-1.40e-02,
148,3.84e-01,-1.20e-02,
149,3.96e-01,-1.40e-02,
150,3.88e-01,-1.40e-02,
151,3.96e-01,-1.20e-02,
152,3.88e-01,-1.80e-02,
153,3.96e-01,-1.40e-02,
154,3.88e-01,-1.60e-02,
155,4.00e-01,-1.80e-02,
156,4.00e-01,-1.60e-02,
157,3.88e-01,-2.00e-02,
158,3.88e-01,-2.00e-02,
159,4.00e-01,-2.20e-02,
160,4.04e-01,-2.20e-02,
161,3.88e-01,-2.60e-02,
162,4.00e-01,-2.40e-02,
163,3.92e-01,-2.80e-02,
164,3.92e-01,-2.80e-02,
165,4.00e-01,-3.80e-02,
166,3.92e-01,-3.80e-02,
167,4.04e-01,-5.20e-02,
168,3.92e-01,-5.80e-02,
169,4.04e-01,-8.60e-02,
170,4.04e-01,-9.20e-02,
171,3.92e-01,-1.20e-01,
172,3.96e-01,-1.26e-01,
173,4.04e-01,-1.08e-01,
174,3.96e-01,-1.06e-01,
175,4.04e-01,-7.80e-02,
176,3.96e-01,-7.20e-02,
177,4.08e-01,-5.00e-02,
178,3.96e-01,-5.20e-02,
179,4.08e-01,-4.20e-02,
180,4.08e-01,-4.00e-02,
181,4.00e-01,-3.00e-02,
182,4.08e-01,-3.20e-02,
183,4.00e-01,-2.80e-02,
184,4.08e-01,-2.60e-02,
185,4.00e-01,-2.20e-02,
186,4.08e-01,-2.40e-02,
187,4.04e-01,-2.00e-02,
188,4.04e-01,-2.00e-02,
189,4.12e-01,-1.80e-02,
190,4.04e-01,-1.60e-02,
191,4.12e-01,-1.80e-02,
192,4.04e-01,-1.80e-02,
193,4.12e-01,-1.40e-02,
194,4.12e-01,-1.40e-02,
195,4.00e-01,-1.40e-02,
196,4.08e-01,-1.40e-02,
197,4.16e-01,-1.40e-02,
198,4.12e-01,-1.40e-02,
199,4.08e-01,-1.00e-02,
200,4.04e-01,-1.40e-02,
201,4.16e-01,-1.00e-02,
202,4.16e-01,-1.20e-02,
203,4.04e-01,-1.00e-02,
204,4.08e-01,-1.20e-02,
205,4.20e-01,-1.00e-02,
206,4.08e-01,-1.20e-02,
207,4.24e-01,-1.00e-02,
208,4.24e-01,-1.20e-02,
209,4.08e-01,-1.00e-02,
210,4.12e-01,-1.00e-02,
211,4.20e-01,-1.20e-02,
212,4.24e-01,-1.20e-02,
213,4.12e-01,-8.00e-03,
214,4.12e-01,-1.20e-02,
215,4.24e-01,-8.00e-03,
216,4.24e-01,-1.20e-02,
217,4.12e-01,-8.00e-03,
218,4.12e-01,-8.00e-03,
219,4.24e-01,-1.20e-02,
220,4.16e-01,-8.00e-03,
221,4.28e-01,-8.00e-03,
222,4.24e-01,-8.00e-03,
223,4.16e-01,-1.00e-02,
224,4.16e-01,-8.00e-03,
225,4.24e-01,-1.00e-02,
226,4.28e-01,-8.00e-03,
227,4.16e-01,-8.00e-03,
228,4.16e-01,-8.00e-03,
229,4.28e-01,-8.00e-03,
230,4.20e-01,-8.00e-03,
231,4.32e-01,-1.00e-02,
232,4.20e-01,-8.00e-03,
233,4.28e-01,-8.00e-03,
234,4.32e-01,-8.00e-03,
235,4.20e-01,-8.00e-03,
236,4.24e-01,-8.00e-03,
237,4.32e-01,-1.00e-02,
238,4.24e-01,-8.00e-03,
239,4.32e-01,-8.00e-03,
240,4.24e-01,-8.00e-03,
241,4.32e-01,-8.00e-03,
242,4.20e-01,-8.00e-03,
243,4.32e-01,-8.00e-03,
244,4.24e-01,-8.00e-03,
245,4.36e-01,-1.00e-02,
246,4.24e-01,-8.00e-03,
247,4.36e-01,-8.00e-03,
248,4.36e-01,-8.00e-03,
249,4.24e-01,-1.00e-02,
250,4.24e-01,-8.00e-03,
251,4.36e-01,-8.00e-03,
252,4.36e-01,-8.00e-03,
253,4.28e-01,-8.00e-03,
254,4.32e-01,-8.00e-03,
255,4.36e-01,-1.00e-02,
256,4.40e-01,-8.00e-03,
257,4.32e-01,-8.00e-03,
258,4.28e-01,-8.00e-03,
259,4.40e-01,-8.00e-03,
260,4.32e-01,-8.00e-03,
261,4.44e-01,-1.00e-02,
262,4.44e-01,-8.00e-03,
263,4.32e-01,-1.00e-02,
264,4.44e-01,-8.00e-03,
265,4.36e-01,-8.00e-03,
266,4.36e-01,-8.00e-03,
267,4.48e-01,-8.00e-03,
268,4.44e-01,-8.00e-03,
269,4.36e-01,-1.00e-02,
270,4.36e-01,-1.00e-02,
271,4.48e-01,-8.00e-03,
272,4.36e-01,-8.00e-03,
273,4.48e-01,-8.00e-03,
274,4.44e-01,-8.00e-03,
275,4.36e-01,-8.00e-03,
276,4.52e-01,-8.00e-03,
277,4.40e-01,-8.00e-03,
278,4.40e-01,-8.00e-03,
279,4.48e-01,-1.00e-02,
280,4.48e-01,-8.00e-03,
281,4.40e-01,-1.00e-02,
282,4.40e-01,-8.00e-03,
283,4.52e-01,-8.00e-03,
284,4.52e-01,-8.00e-03,
285,4.44e-01,-8.00e-03,
286,4.40e-01,-8.00e-03,
287,4.52e-01,-8.00e-03,
288,4.44e-01,-8.00e-03,
289,4.52e-01,-1.00e-02,
290,4.44e-01,-8.00e-03,
291,4.56e-01,-8.00e-03,
292,4.52e-01,-8.00e-03,
293,4.44e-01,-8.00e-03,
294,4.44e-01,-8.00e-03,
295,4.56e-01,-1.00e-02,
296,4.52e-01,-1.00e-02,
297,4.44e-01,-8.00e-03,
298,4.44e-01,-8.00e-03,
299,4.56e-01,-8.00e-03,
300,4.48e-01,-8.00e-03,
301,4.56e-01,-8.00e-03,
302,4.48e-01,-8.00e-03,
303,4.52e-01,-1.00e-02,
304,4.60e-01,-1.00e-02,
305,4.48e-01,-8.00e-03,
306,4.48e-01,-8.00e-03,
307,4.60e-01,-8.00e-03,
308,4.60e-01,-8.00e-03,
309,4.52e-01,-1.00e-02,
310,4.64e-01,-8.00e-03,
311,4.52e-01,-1.00e-02,
312,4.56e-01,-8.00e-03,
313,4.64e-01,-8.00e-03,
314,4.64e-01,-8.00e-03,
315,4.52e-01,-1.00e-02,
316,4.64e-01,-8.00e-03,
317,4.52e-01,-8.00e-03,
318,4.52e-01,-8.00e-03,
319,4.64e-01,-1.00e-02,
320,4.52e-01,-8.00e-03,
321,4.64e-01,-1.00e-02,
322,4.60e-01,-8.00e-03,
323,4.72e-01,-1.00e-02,
324,4.52e-01,-8.00e-03,
325,4.64e-01,-1.00e-02,
326,4.56e-01,-1.00e-02,
327,4.72e-01,-8.00e-03,
328,4.56e-01,-8.00e-03,
329,4.68e-01,-8.00e-03,
330,4.72e-01,-8.00e-03,
331,4.64e-01,-8.00e-03,
332,4.64e-01,-8.00e-03,
333,4.72e-01,-8.00e-03,
334,4.76e-01,-1.00e-02,
335,4.64e-01,-8.00e-03,
336,4.64e-01,-8.00e-03,
337,4.76e-01,-8.00e-03,
338,4.64e-01,-8.00e-03,
339,4.76e-01,-1.00e-02,
340,4.64e-01,-8.00e-03,
341,4.76e-01,-8.00e-03,
342,4.76e-01,-8.00e-03,
343,4.68e-01,-1.00e-02,
344,4.76e-01,-8.00e-03,
345,4.64e-01,-8.00e-03,
346,4.76e-01,-8.00e-03,
347,4.64e-01,-1.00e-02,
348,4.64e-01,-8.00e-03,
349,4.80e-01,-8.00e-03,
350,4.68e-01,-8.00e-03,
351,4.76e-01,-1.00e-02,
352,4.80e-01,-8.00e-03,
353,4.72e-01,-8.00e-03,
354,4.72e-01,-8.00e-03,
355,4.84e-01,-8.00e-03,
356,4.72e-01,-8.00e-03,
357,4.80e-01,-1.00e-02,
358,4.72e-01,-8.00e-03,
359,4.84e-01,-8.00e-03,
360,4.84e-01,-8.00e-03,
361,4.72e-01,-8.00e-03,
362,4.72e-01,-8.00e-03,
363,4.84e-01,-1.00e-02,
364,4.84e-01,-8.00e-03,
365,4.72e-01,-8.00e-03,
366,4.76e-01,-8.00e-03,
367,4.84e-01,-8.00e-03,
368,4.76e-01,-8.00e-03,
369,4.88e-01,-8.00e-03,
370,4.76e-01,-8.00e-03,
371,4.88e-01,-8.00e-03,
372,4.76e-01,-8.00e-03,
373,4.88e-01,-8.00e-03,
374,4.88e-01,-8.00e-03,
375,4.76e-01,-8.00e-03,
376,4.88e-01,-8.00e-03,
377,4.76e-01,-8.00e-03,
378,4.88e-01,-8.00e-03,
379,4.80e-01,-8.00e-03,
380,4.80e-01,-8.00e-03,
381,4.88e-01,-1.00e-02,
382,4.84e-01,-8.00e-03,
383,4.92e-01,-8.00e-03,
384,4.84e-01,-8.00e-03,
385,4.96e-01,-8.00e-03,
386,4.80e-01,-8.00e-03,
387,4.96e-01,-8.00e-03,
388,4.92e-01,-8.00e-03,
389,4.88e-01,-8.00e-03,
390,4.88e-01,-8.00e-03,
391,4.96e-01,-1.00e-02,
392,4.96e-01,-8.00e-03,
393,4.88e-01,-8.00e-03,
394,4.88e-01,-8.00e-03,
395,5.00e-01,-8.00e-03,
396,4.92e-01,-8.00e-03,
397,4.84e-01,-1.00e-02,
398,4.84e-01,-8.00e-03,
399,5.00e-01,-1.00e-02,
400,4.84e-01,-8.00e-03,
401,5.00e-01,-1.00e-02,
402,4.92e-01,-8.00e-03,
403,5.00e-01,-8.00e-03,
404,5.04e-01,-8.00e-03,
405,4.92e-01,-1.00e-02,
406,4.92e-01,-8.00e-03,
407,5.00e-01,-1.00e-02,
408,5.04e-01,-8.00e-03,
409,4.92e-01,-8.00e-03,
410,5.04e-01,-8.00e-03,
411,4.92e-01,-1.00e-02,
412,5.04e-01,-8.00e-03,
413,4.96e-01,-1.00e-02,
414,4.96e-01,-8.00e-03,
415,5.08e-01,-8.00e-03,
416,4.96e-01,-8.00e-03,
417,5.04e-01,-1.00e-02,
418,4.96e-01,-8.00e-03,
419,5.08e-01,-8.00e-03,
420,4.96e-01,-8.00e-03,
421,5.08e-01,-1.00e-02,
422,5.08e-01,-8.00e-03,
423,5.00e-01,-8.00e-03,
424,5.12e-01,-8.00e-03,
425,5.00e-01,-1.00e-02,
426,5.08e-01,-8.00e-03,
427,5.00e-01,-8.00e-03,
428,5.12e-01,-1.00e-02,
429,5.00e-01,-8.00e-03,
430,5.00e-01,-8.00e-03,
431,5.12e-01,-8.00e-03,
432,5.12e-01,-8.00e-03,
433,5.08e-01,-8.00e-03,
434,5.00e-01,-8.00e-03,
435,5.16e-01,-8.00e-03,
436,5.04e-01,-8.00e-03,
437,5.16e-01,-1.00e-02,
438,5.08e-01,-8.00e-03,
439,5.16e-01,-8.00e-03,
440,5.08e-01,-8.00e-03,
441,5.16e-01,-1.00e-02,
442,5.04e-01,-8.00e-03,
443,5.16e-01,-8.00e-03,
444,5.16e-01,-8.00e-03,
445,5.08e-01,-8.00e-03,
446,5.12e-01,-8.00e-03,
447,5.16e-01,-8.00e-03,
448,5.20e-01,-8.00e-03,
449,5.08e-01,-1.00e-02,
450,5.12e-01,-8.00e-03,
451,5.24e-01,-8.00e-03,
452,5.24e-01,-8.00e-03,
453,5.12e-01,-1.00e-02,
454,5.16e-01,-8.00e-03,
455,5.20e-01,-8.00e-03,
456,5.16e-01,-8.00e-03,
457,5.24e-01,-8.00e-03,
458,5.28e-01,-8.00e-03,
459,5.12e-01,-1.00e-02,
460,5.16e-01,-8.00e-03,
461,5.28e-01,-8.00e-03,
462,5.16e-01,-8.00e-03,
463,5.24e-01,-8.00e-03,
464,5.24e-01,-8.00e-03,
465,5.16e-01,-8.00e-03,
466,5.20e-01,-8.00e-03,
467,5.28e-01,-1.00e-02,
468,5.32e-01,-8.00e-03,
469,5.20e-01,-8.00e-03,
470,5.20e-01,-8.00e-03,
471,5.32e-01,-8.00e-03,
472,5.20e-01,-8.00e-03,
473,5.28e-01,-8.00e-03,
474,5.20e-01,-8.00e-03,
475,5.36e-01,-1.00e-02,
476,5.24e-01,-8.00e-03,
477,5.32e-01,-8.00e-03,
478,5.24e-01,-8.00e-03,
479,5.36e-01,-8.00e-03,
480,5.32e-01,-8.00e-03,
481,5.24e-01,-8.00e-03,
482,5.24e-01,-8.00e-03,
483,5.32e-01,-1.00e-02,
484,5.36e-01,-8.00e-03,
485,5.24e-01,-8.00e-03,
486,5.28e-01,-8.00e-03,
487,5.36e-01,-8.00e-03,
488,5.24e-01,-8.00e-03,
489,5.36e-01,-8.00e-03,
490,5.36e-01,-8.00e-03,
491,5.24e-01,-8.00e-03,
492,5.40e-01,-8.00e-03,
493,5.28e-01,-8.00e-03,
494,5.40e-01,-8.00e-03,
495,5.24e-01,-8.00e-03,
496,5.40e-01,-8.00e-03,
497,5.32e-01,-8.00e-03,
498,5.28e-01,-8.00e-03,
499,5.40e-01,-1.00e-02,
500,5.32e-01,-1.00e-02,
501,5.36e-01,-8.00e-03,
502,5.32e-01,-1.00e-02,
503,5.40e-01,-8.00e-03,
504,5.36e-01,-8.00e-03,
505,5.44e-01,-1.00e-02,
506,5.44e-01,-8.00e-03,
507,5.32e-01,-8.00e-03,
508,5.44e-01,-1.00e-02,
509,5.36e-01,-8.00e-03,
510,5.32e-01,-8.00e-03,
511,5.44e-01,-8.00e-03,
512,5.44e-01,-8.00e-03,
513,5.36e-01,-8.00e-03,
514,5.52e-01,-8.00e-03,
515,5.40e-01,-1.00e-02,
516,5.40e-01,-8.00e-03,
517,5.52e-01,-1.00e-02,
518,5.48e-01,-8.00e-03,
519,5.36e-01,-8.00e-03,
520,5.52e-01,-1.00e-02,
521,5.44e-01,-8.00e-03,
522,5.36e-01,-8.00e-03,
523,5.52e-01,-8.00e-03,
524,5.44e-01,-8.00e-03,
525,5.52e-01,-8.00e-03,
526,5.52e-01,-8.00e-03,
527,5.44e-01,-1.00e-02,
528,5.44e-01,-8.00e-03,
529,5.56e-01,-8.00e-03,
530,5.44e-01,-8.00e-03,
531,5.56e-01,-1.00e-02,
532,5.52e-01,-8.00e-03,
533,5.44e-01,-8.00e-03,
534,5.44e-01,-8.00e-03,
535,5.56e-01,-8.00e-03,
536,5.56e-01,-8.00e-03,
537,5.44e-01,-8.00e-03,
538,5.56e-01,-8.00e-03,
539,5.48e-01,-8.00e-03,
540,5.48e-01,-8.00e-03,
541,5.52e-01,-8.00e-03,
542,5.48e-01,-8.00e-03,
543,5.60e-01,-1.00e-02,
544,5.60e-01,-8.00e-03,
545,5.52e-01,-8.00e-03,
546,5.48e-01,-8.00e-03,
547,5.64e-01,-8.00e-03,
548,5.60e-01,-8.00e-03,
549,5.48e-01,-8.00e-03,
550,5.64e-01,-8.00e-03,
551,5.52e-01,-1.00e-02,
552,5.64e-01,-8.00e-03,
553,5.52e-01,-8.00e-03,
554,5.52e-01,-8.00e-03,
555,5.64e-01,-1.00e-02,
556,5.68e-01,-8.00e-03,
557,5.52e-01,-8.00e-03,
558,5.64e-01,-8.00e-03,
559,5.56e-01,-8.00e-03,
560,5.64e-01,-8.00e-03,
561,5.52e-01,-1.00e-02,
562,5.56e-01,-1.00e-02,
563,5.68e-01,-8.00e-03,
564,5.68e-01,-8.00e-03,
565,5.56e-01,-8.00e-03,
566,5.56e-01,-8.00e-03,
567,5.68e-01,-1.00e-02,
568,5.72e-01,-8.00e-03,
569,5.64e-01,-1.00e-02,
570,5.56e-01,-8.00e-03,
571,5.76e-01,-8.00e-03,
572,5.60e-01,-8.00e-03,
573,5.72e-01,-8.00e-03,
574,5.76e-01,-8.00e-03,
575,5.60e-01,-8.00e-03,
576,5.72e-01,-8.00e-03,
577,5.64e-01,-1.00e-02,
578,5.72e-01,-8.00e-03,
579,5.64e-01,-8.00e-03,
580,5.80e-01,-8.00e-03,
581,5.64e-01,-8.00e-03,
582,5.76e-01,-8.00e-03,
583,5.64e-01,-8.00e-03,
584,5.68e-01,-8.00e-03,
585,5.72e-01,-8.00e-03,
586,5.68e-01,-8.00e-03,
587,5.76e-01,-8.00e-03,
588,5.80e-01,-8.00e-03,
589,5.68e-01,-1.00e-02,
590,5.68e-01,-8.00e-03,
591,5.80e-01,-8.00e-03,
592,5.76e-01,-8.00e-03,
593,5.68e-01,-8.00e-03,
594,5.84e-01,-8.00e-03,
595,5.72e-01,-1.00e-02,
596,5.84e-01,-8.00e-03,
597,5.76e-01,-1.00e-02,
598,5.68e-01,-8.00e-03,
599,5.84e-01,-8.00e-03,
600,5.84e-01,-8.00e-03,
601,5.72e-01,-8.00e-03,
602,5.88e-01,-1.00e-02,
603,5.76e-01,-8.00e-03,
604,5.76e-01,-8.00e-03,
605,5.80e-01,-1.00e-02,
606,5.76e-01,-8.00e-03,
607,5.88e-01,-1.00e-02,
608,5.76e-01,-8.00e-03,
609,5.88e-01,-1.00e-02,
610,5.80e-01,-1.00e-02,
611,5.88e-01,-8.00e-03,
612,5.76e-01,-8.00e-03,
613,5.88e-01,-8.00e-03,
614,5.92e-01,-8.00e-03,
615,5.76e-01,-8.00e-03,
616,5.92e-01,-8.00e-03,
617,5.80e-01,-1.00e-02,
618,5.76e-01,-1.00e-02,
619,5.92e-01,-8.00e-03,
620,5.80e-01,-8.00e-03,
621,5.88e-01,-8.00e-03,
622,5.88e-01,-8.00e-03,
623,5.80e-01,-8.00e-03,
624,5.84e-01,-8.00e-03,
625,5.92e-01,-1.00e-02,
626,5.84e-01,-8.00e-03,
627,5.92e-01,-8.00e-03,
628,5.80e-01,-8.00e-03,
629,5.92e-01,-8.00e-03,
630,5.96e-01,-8.00e-03,
631,5.80e-01,-8.00e-03,
632,5.88e-01,-8.00e-03,
633,5.96e-01,-1.00e-02,
634,5.84e-01,-8.00e-03,
635,6.00e-01,-1.00e-02,
636,5.96e-01,-8.00e-03,
637,5.88e-01,-8.00e-03,
638,6.00e-01,-8.00e-03,
639,5.92e-01,-8.00e-03,
640,5.92e-01,-8.00e-03,
641,6.00e-01,-1.00e-02,
642,5.88e-01,-8.00e-03,
643,6.00e-01,-8.00e-03,
644,5.92e-01,-8.00e-03,
645,6.00e-01,-8.00e-03,
646,5.92e-01,-1.00e-02,
647,6.08e-01,-8.00e-03,
648,6.00e-01,-8.00e-03,
649,5.92e-01,-8.00e-03,
650,5.96e-01,-8.00e-03,
651,6.00e-01,-8.00e-03,
652,6.04e-01,-8.00e-03,
653,5.96e-01,-1.00e-02,
654,6.04e-01,-8.00e-03,
655,5.92e-01,-8.00e-03,
656,5.96e-01,-8.00e-03,
657,6.04e-01,-1.00e-02,
658,5.96e-01,-8.00e-03,
659,6.08e-01,-1.00e-02,
660,6.12e-01,-8.00e-03,
661,5.96e-01,-8.00e-03,
662,6.08e-01,-8.00e-03,
663,5.96e-01,-8.00e-03,
664,6.12e-01,-1.00e-02,
665,5.96e-01,-8.00e-03,
666,6.00e-01,-8.00e-03,
667,6.12e-01,-8.00e-03,
668,6.00e-01,-8.00e-03,
669,6.12e-01,-8.00e-03,
670,6.04e-01,-1.00e-02,
671,6.12e-01,-8.00e-03,
672,6.00e-01,-8.00e-03,
673,6.12e-01,-8.00e-03,
674,6.04e-01,-8.00e-03,
675,6.12e-01,-8.00e-03,
676,6.16e-01,-8.00e-03,
677,6.04e-01,-8.00e-03,
678,6.04e-01,-8.00e-03,
679,6.16e-01,-1.00e-02,
680,6.04e-01,-8.00e-03,
681,6.20e-01,-8.00e-03,
682,6.04e-01,-8.00e-03,
683,6.16e-01,-8.00e-03,
684,6.16e-01,-8.00e-03,
685,6.04e-01,-8.00e-03,
686,6.04e-01,-8.00e-03,
687,6.20e-01,-8.00e-03,
688,6.08e-01,-8.00e-03,
689,6.20e-01,-8.00e-03,
690,6.08e-01,-8.00e-03,
691,6.20e-01,-1.00e-02,
692,6.20e-01,-8.00e-03,
693,6.12e-01,-8.00e-03,
694,6.20e-01,-8.00e-03,
695,6.12e-01,-8.00e-03,
696,6.24e-01,-8.00e-03,
697,6.12e-01,-1.00e-02,
698,6.12e-01,-8.00e-03,
699,6.20e-01,-1.00e-02,
700,6.12e-01,-8.00e-03,
701,6.28e-01,-8.00e-03,
702,6.28e-01,-8.00e-03,
703,6.16e-01,-8.00e-03,
704,6.24e-01,-8.00e-03,
705,6.16e-01,-1.00e-02,
706,6.24e-01,-8.00e-03,
707,6.16e-01,-1.00e-02,
708,6.16e-01,-8.00e-03,
709,6.32e-01,-1.00e-02,
710,6.20e-01,-8.00e-03,
711,6.32e-01,-8.00e-03,
712,6.28e-01,-1.00e-02,
713,6.20e-01,-8.00e-03,
714,6.20e-01,-8.00e-03,
715,6.28e-01,-8.00e-03,
716,6.20e-01,-8.00e-03,
717,6.32e-01,-1.00e-02,
718,6.20e-01,-8.00e-03,
719,6.36e-01,-8.00e-03,
720,6.24e-01,-1.00e-02,
721,6.36e-01,-8.00e-03,
722,6.32e-01,-8.00e-03,
723,6.24e-01,-8.00e-03,
724,6.24e-01,-8.00e-03,
725,6.32e-01,-8.00e-03,
726,6.24e-01,-8.00e-03,
727,6.36e-01,-1.00e-02,
728,6.28e-01,-8.00e-03,
729,6.36e-01,-8.00e-03,
730,6.40e-01,-8.00e-03,
731,6.24e-01,-1.00e-02,
732,6.40e-01,-8.00e-03,
733,6.28e-01,-1.20e-02,
734,6.28e-01,-8.00e-03,
735,6.40e-01,-1.20e-02,
736,6.28e-01,-8.00e-03,
737,6.36e-01,-1.00e-02,
738,6.40e-01,-8.00e-03,
739,6.28e-01,-8.00e-03,
740,6.44e-01,-8.00e-03,
741,6.32e-01,-8.00e-03,
742,6.32e-01,-8.00e-03,
743,6.44e-01,-1.20e-02,
744,6.32e-01,-8.00e-03,
745,6.44e-01,-1.00e-02,
746,6.32e-01,-8.00e-03,
747,6.44e-01,-8.00e-03,
748,6.36e-01,-8.00e-03,
749,6.44e-01,-1.00e-02,
750,6.44e-01,-8.00e-03,
751,6.32e-01,-1.00e-02,
752,6.36e-01,-8.00e-03,
753,6.48e-01,-8.00e-03,
754,6.32e-01,-8.00e-03,
755,6.48e-01,-1.00e-02,
756,6.32e-01,-8.00e-03,
757,6.48e-01,-8.00e-03,
758,6.48e-01,-8.00e-03,
759,6.36e-01,-1.00e-02,
760,6.40e-01,-8.00e-03,
761,6.52e-01,-8.00e-03,
762,6.40e-01,-8.00e-03,
763,6.52e-01,-8.00e-03,
764,6.48e-01,-8.00e-03,
765,6.40e-01,-8.00e-03,
766,6.52e-01,-8.00e-03,
767,6.36e-01,-1.00e-02,
768,6.44e-01,-8.00e-03,
769,6.52e-01,-8.00e-03,
770,6.52e-01,-8.00e-03,
771,6.40e-01,-8.00e-03,
772,6.44e-01,-8.00e-03,
773,6.60e-01,-1.00e-02,
774,6.48e-01,-8.00e-03,
775,6.52e-01,-1.00e-02,
776,6.48e-01,-8.00e-03,
777,6.56e-01,-1.20e-02,
778,6.44e-01,-8.00e-03,
779,6.56e-01,-8.00e-03,
780,6.44e-01,-8.00e-03,
781,6.56e-01,-1.00e-02,
782,6.56e-01,-8.00e-03,
783,6.48e-01,-1.00e-02,
784,6.48e-01,-1.20e-02,
785,6.60e-01,-8.00e-03,
786,6.60e-01,-8.00e-03,
787,6.48e-01,-8.00e-03,
788,6.64e-01,-8.00e-03,
789,6.48e-01,-8.00e-03,
790,6.64e-01,-8.00e-03,
791,6.52e-01,-1.20e-02,
792,6.60e-01,-8.00e-03,
793,6.52e-01,-1.20e-02,
794,6.64e-01,-8.00e-03,
795,6.52e-01,-8.00e-03,
796,6.64e-01,-8.00e-03,
797,6.52e-01,-1.20e-02,
798,6.68e-01,-8.00e-03,
799,6.52e-01,-1.00e-02,
800,6.52e-01,-1.20e-02,
801,6.64e-01,-8.00e-03,
802,6.56e-01,-8.00e-03,
803,6.68e-01,-1.00e-02,
804,6.56e-01,-8.00e-03,
805,6.68e-01,-1.00e-02,
806,6.64e-01,-8.00e-03,
807,6.56e-01,-1.20e-02,
808,6.72e-01,-1.20e-02,
809,6.56e-01,-8.00e-03,
810,6.60e-01,-8.00e-03,
811,6.72e-01,-1.20e-02,
812,6.68e-01,-8.00e-03,
813,6.60e-01,-1.20e-02,
814,6.60e-01,-1.20e-02,
815,6.72e-01,-8.00e-03,
816,6.60e-01,-8.00e-03,
817,6.72e-01,-1.20e-02,
818,6.60e-01,-8.00e-03,
819,6.72e-01,-1.20e-02,
820,6.64e-01,-1.00e-02,
821,6.72e-01,-8.00e-03,
822,6.76e-01,-8.00e-03,
823,6.68e-01,-1.20e-02,
824,6.76e-01,-8.00e-03,
825,6.64e-01,-1.20e-02,
826,6.68e-01,-8.00e-03,
827,6.76e-01,-1.20e-02,
828,6.64e-01,-1.20e-02,
829,6.76e-01,-8.00e-03,
830,6.64e-01,-8.00e-03,
831,6.84e-01,-1.00e-02,
832,6.64e-01,-8.00e-03,
833,6.76e-01,-1.20e-02,
