To_sort_soon/4p45MHz_10s.csv

X,CH1,CH2,Start,Increment,
Sequence,Volt,Volt,-2.470000e+00,1.000000e-02
0,9.80e-01,8.72e-02,
1,9.96e-01,8.80e-02,
2,9.80e-01,8.80e-02,
3,9.92e-01,8.72e-02,
4,9.80e-01,8.80e-02,
5,9.96e-01,8.72e-02,
6,9.80e-01,8.64e-02,
7,1.00e+00,8.80e-02,
8,9.96e-01,8.80e-02,
9,9.84e-01,8.64e-02,
10,1.00e+00,8.80e-02,
11,9.80e-01,8.64e-02,
12,9.88e-01,8.80e-02,
13,1.00e+00,8.64e-02,
14,9.96e-01,8.64e-02,
15,9.88e-01,8.72e-02,
16,1.00e+00,8.64e-02,
17,9.84e-01,8.80e-02,
18,9.88e-01,8.64e-02,
19,1.00e+00,8.80e-02,
20,9.88e-01,8.72e-02,
21,1.00e+00,8.64e-02,
22,1.00e+00,8.64e-02,
23,9.88e-01,8.72e-02,
24,9.88e-01,8.64e-02,
25,1.01e+00,8.72e-02,
26,1.00e+00,8.72e-02,
27,9.92e-01,8.64e-02,
28,1.00e+00,8.72e-02,
29,9.96e-01,8.64e-02,
30,1.00e+00,8.72e-02,
31,9.92e-01,8.64e-02,
32,9.96e-01,8.64e-02,
33,1.01e+00,8.56e-02,
34,9.96e-01,8.72e-02,
35,1.01e+00,8.56e-02,
36,1.01e+00,8.56e-02,
37,9.96e-01,8.72e-02,
38,1.00e+00,8.56e-02,
39,1.01e+00,8.72e-02,
40,1.00e+00,8.56e-02,
41,1.01e+00,8.72e-02,
42,1.01e+00,8.72e-02,
43,1.00e+00,8.56e-02,
44,1.00e+00,8.56e-02,
45,1.01e+00,8.64e-02,
46,1.01e+00,8.56e-02,
47,1.00e+00,8.72e-02,
48,1.01e+00,8.56e-02,
49,1.01e+00,8.72e-02,
50,1.00e+00,8.56e-02,
51,1.02e+00,8.72e-02,
52,1.01e+00,8.56e-02,
53,1.02e+00,8.72e-02,
54,1.02e+00,8.56e-02,
55,1.00e+00,8.72e-02,
56,1.00e+00,8.64e-02,
57,1.02e+00,8.56e-02,
58,1.02e+00,8.56e-02,
59,1.00e+00,8.72e-02,
60,1.01e+00,8.64e-02,
61,1.02e+00,8.48e-02,
62,1.02e+00,8.56e-02,
63,1.01e+00,8.56e-02,
64,1.01e+00,8.48e-02,
65,1.02e+00,8.64e-02,
66,1.01e+00,8.64e-02,
67,1.02e+00,8.48e-02,
68,1.01e+00,8.64e-02,
69,1.03e+00,8.56e-02,
70,1.01e+00,8.64e-02,
71,1.02e+00,8.48e-02,
72,1.01e+00,8.64e-02,
73,1.03e+00,8.48e-02,
74,1.01e+00,8.64e-02,
75,1.03e+00,8.56e-02,
76,1.03e+00,8.64e-02,
77,1.01e+00,8.56e-02,
78,1.03e+00,8.64e-02,
79,1.01e+00,8.48e-02,
80,1.02e+00,8.64e-02,
81,1.03e+00,8.56e-02,
82,1.02e+00,8.64e-02,
83,1.03e+00,8.48e-02,
84,1.02e+00,8.56e-02,
85,1.04e+00,8.64e-02,
86,1.03e+00,8.56e-02,
87,5.52e-01,8.96e-02,
88,5.52e-01,9.20e-02,
89,5.64e-01,1.05e-01,
90,5.52e-01,1.06e-01,
91,5.68e-01,1.12e-01,
92,5.68e-01,1.13e-01,
93,5.56e-01,1.14e-01,
94,5.52e-01,1.14e-01,
95,5.68e-01,1.14e-01,
96,5.56e-01,1.15e-01,
97,5.68e-01,1.14e-01,
98,5.56e-01,1.14e-01,
99,5.68e-01,1.13e-01,
100,5.60e-01,1.13e-01,
101,5.72e-01,1.14e-01,
102,5.68e-01,1.14e-01,
103,5.56e-01,1.13e-01,
104,5.60e-01,1.13e-01,
105,5.72e-01,1.14e-01,
106,5.60e-01,1.14e-01,
107,5.72e-01,1.13e-01,
108,5.72e-01,1.13e-01,
109,5.60e-01,1.14e-01,
110,5.72e-01,1.14e-01,
111,5.60e-01,1.13e-01,
112,5.60e-01,1.13e-01,
113,5.72e-01,1.14e-01,
114,5.76e-01,1.13e-01,
115,5.64e-01,1.13e-01,
116,5.76e-01,1.13e-01,
117,5.60e-01,1.13e-01,
118,5.76e-01,1.13e-01,
119,5.60e-01,1.13e-01,
120,5.64e-01,1.13e-01,
121,5.76e-01,1.13e-01,
122,5.80e-01,1.13e-01,
123,5.68e-01,1.14e-01,
124,5.64e-01,1.13e-01,
125,5.80e-01,1.12e-01,
126,5.72e-01,1.13e-01,
127,5.80e-01,1.12e-01,
128,5.68e-01,1.13e-01,
129,5.80e-01,1.12e-01,
130,5.80e-01,1.13e-01,
131,5.68e-01,1.12e-01,
132,5.72e-01,1.12e-01,
133,5.84e-01,1.13e-01,
134,5.72e-01,1.13e-01,
135,5.84e-01,1.12e-01,
136,5.76e-01,1.13e-01,
137,5.84e-01,1.11e-01,
138,5.84e-01,1.12e-01,
139,5.72e-01,1.12e-01,
140,5.76e-01,1.12e-01,
141,5.88e-01,1.11e-01,
142,5.92e-01,1.12e-01,
143,5.72e-01,1.11e-01,
144,5.76e-01,1.12e-01,
145,5.92e-01,1.11e-01,
146,5.80e-01,1.10e-01,
147,5.88e-01,1.12e-01,
148,5.80e-01,1.12e-01,
149,5.92e-01,1.11e-01,
150,5.80e-01,1.10e-01,
151,5.92e-01,1.12e-01,
152,5.80e-01,1.11e-01,
153,5.96e-01,1.12e-01,
154,5.80e-01,1.10e-01,
155,5.96e-01,1.12e-01,
156,5.96e-01,1.12e-01,
157,5.84e-01,1.10e-01,
158,5.96e-01,1.12e-01,
159,5.84e-01,1.11e-01,
160,5.84e-01,1.12e-01,
161,5.96e-01,1.11e-01,
162,5.96e-01,1.12e-01,
163,5.84e-01,1.10e-01,
164,5.92e-01,1.12e-01,
165,5.84e-01,1.10e-01,
166,5.84e-01,1.12e-01,
167,5.96e-01,1.10e-01,
168,5.88e-01,1.12e-01,
169,6.00e-01,1.10e-01,
170,5.84e-01,1.12e-01,
171,6.00e-01,1.10e-01,
172,5.88e-01,1.11e-01,
173,6.04e-01,1.10e-01,
174,5.88e-01,1.11e-01,
175,6.00e-01,1.10e-01,
176,6.04e-01,1.11e-01,
177,5.88e-01,1.10e-01,
178,6.04e-01,1.11e-01,
179,5.88e-01,1.10e-01,
180,6.04e-01,1.12e-01,
181,5.92e-01,1.11e-01,
182,6.04e-01,1.11e-01,
183,5.92e-01,1.10e-01,
184,5.92e-01,1.10e-01,
185,6.08e-01,1.12e-01,
186,5.96e-01,1.11e-01,
187,6.04e-01,1.10e-01,
188,5.96e-01,1.11e-01,
189,6.08e-01,1.10e-01,
190,5.92e-01,1.11e-01,
191,6.08e-01,1.10e-01,
192,5.96e-01,1.12e-01,
193,6.12e-01,1.10e-01,
194,6.00e-01,1.11e-01,
195,6.08e-01,1.10e-01,
196,6.00e-01,1.11e-01,
197,6.12e-01,1.10e-01,
198,6.04e-01,1.10e-01,
199,6.12e-01,1.11e-01,
200,6.04e-01,1.11e-01,
201,6.16e-01,1.10e-01,
202,6.04e-01,1.11e-01,
203,6.16e-01,1.10e-01,
204,6.04e-01,1.11e-01,
205,6.16e-01,1.10e-01,
206,6.04e-01,1.10e-01,
207,6.16e-01,1.11e-01,
208,6.04e-01,1.11e-01,
209,6.16e-01,1.10e-01,
210,6.04e-01,1.10e-01,
211,6.20e-01,1.11e-01,
212,6.08e-01,1.11e-01,
213,6.20e-01,1.10e-01,
214,6.16e-01,1.11e-01,
215,6.08e-01,1.10e-01,
216,6.08e-01,1.10e-01,
217,6.24e-01,1.11e-01,
218,6.24e-01,1.11e-01,
219,6.08e-01,1.10e-01,
220,6.20e-01,1.10e-01,
221,6.08e-01,1.11e-01,
222,6.24e-01,1.10e-01,
223,6.12e-01,1.10e-01,
224,6.20e-01,1.10e-01,
225,6.12e-01,1.10e-01,
226,6.12e-01,1.10e-01,
227,6.24e-01,1.10e-01,
228,6.12e-01,1.10e-01,
229,6.24e-01,1.10e-01,
230,6.12e-01,1.10e-01,
231,6.28e-01,1.10e-01,
232,6.12e-01,1.10e-01,
233,6.28e-01,1.10e-01,
234,6.28e-01,1.10e-01,
235,6.12e-01,1.10e-01,
236,6.28e-01,1.10e-01,
237,6.16e-01,1.10e-01,
238,6.32e-01,1.09e-01,
239,6.16e-01,1.10e-01,
240,6.16e-01,1.09e-01,
241,6.32e-01,1.10e-01,
242,6.20e-01,1.10e-01,
243,6.32e-01,1.09e-01,
244,6.20e-01,1.10e-01,
245,6.32e-01,1.09e-01,
246,6.32e-01,1.09e-01,
247,6.20e-01,1.10e-01,
248,6.36e-01,1.09e-01,
249,6.24e-01,1.10e-01,
250,6.28e-01,1.09e-01,
251,6.36e-01,1.10e-01,
252,6.20e-01,1.10e-01,
253,6.36e-01,1.09e-01,
254,6.24e-01,1.10e-01,
255,6.36e-01,1.08e-01,
256,6.44e-01,1.10e-01,
257,6.24e-01,1.08e-01,
258,6.28e-01,1.10e-01,
259,6.40e-01,1.08e-01,
260,6.24e-01,1.08e-01,
261,6.40e-01,1.10e-01,
262,6.44e-01,1.08e-01,
263,6.28e-01,1.10e-01,
264,6.40e-01,1.08e-01,
265,6.32e-01,1.09e-01,
266,6.24e-01,1.09e-01,
267,6.40e-01,1.08e-01,
268,6.40e-01,1.08e-01,
269,6.32e-01,1.10e-01,
270,6.48e-01,1.08e-01,
271,6.32e-01,1.09e-01,
272,6.32e-01,1.09e-01,
273,6.44e-01,1.08e-01,
274,6.44e-01,1.08e-01,
275,6.32e-01,1.09e-01,
276,6.36e-01,1.08e-01,
277,6.48e-01,1.10e-01,
278,6.36e-01,1.08e-01,
279,6.44e-01,1.10e-01,
280,6.48e-01,1.08e-01,
281,6.36e-01,1.10e-01,
282,6.36e-01,1.08e-01,
283,6.52e-01,1.09e-01,
284,6.48e-01,1.09e-01,
285,6.36e-01,1.08e-01,
286,6.44e-01,1.08e-01,
287,6.52e-01,1.10e-01,
288,6.36e-01,1.08e-01,
289,6.52e-01,1.09e-01,
290,6.52e-01,1.08e-01,
291,6.40e-01,1.09e-01,
292,6.40e-01,1.08e-01,
293,6.52e-01,1.10e-01,
294,6.52e-01,1.08e-01,
295,6.40e-01,1.09e-01,
296,6.44e-01,1.08e-01,
297,6.56e-01,1.09e-01,
298,6.52e-01,1.07e-01,
299,6.44e-01,1.09e-01,
300,6.56e-01,1.08e-01,
301,6.48e-01,1.09e-01,
302,6.44e-01,1.09e-01,
303,6.52e-01,1.08e-01,
304,6.60e-01,1.08e-01,
305,6.48e-01,1.09e-01,
306,6.44e-01,1.07e-01,
307,6.56e-01,1.09e-01,
308,6.60e-01,1.08e-01,
309,6.52e-01,1.09e-01,
310,6.48e-01,1.08e-01,
311,6.60e-01,1.09e-01,
312,6.64e-01,1.08e-01,
313,6.48e-01,1.09e-01,
314,6.48e-01,1.08e-01,
315,6.60e-01,1.09e-01,
316,6.68e-01,1.09e-01,
317,6.48e-01,1.07e-01,
318,6.52e-01,1.09e-01,
319,6.64e-01,1.08e-01,
320,6.68e-01,1.09e-01,
321,6.52e-01,1.07e-01,
322,6.56e-01,1.08e-01,
323,6.64e-01,1.09e-01,
324,6.72e-01,1.09e-01,
325,6.56e-01,1.08e-01,
326,6.60e-01,1.09e-01,
327,6.72e-01,1.07e-01,
328,6.72e-01,1.09e-01,
329,6.56e-01,1.07e-01,
330,6.60e-01,1.09e-01,
331,6.68e-01,1.07e-01,
332,6.72e-01,1.07e-01,
333,6.60e-01,1.09e-01,
334,6.60e-01,1.07e-01,
335,6.68e-01,1.09e-01,
336,6.76e-01,1.07e-01,
337,6.64e-01,1.09e-01,
338,6.68e-01,1.08e-01,
339,6.60e-01,1.07e-01,
340,6.76e-01,1.08e-01,
341,6.68e-01,1.06e-01,
342,6.72e-01,1.08e-01,
343,6.60e-01,1.06e-01,
344,6.64e-01,1.08e-01,
345,6.80e-01,1.07e-01,
346,6.80e-01,1.08e-01,
347,6.68e-01,1.06e-01,
348,6.64e-01,1.08e-01,
349,6.76e-01,1.06e-01,
350,6.72e-01,1.06e-01,
351,6.80e-01,1.07e-01,
352,6.80e-01,1.06e-01,
353,6.68e-01,1.08e-01,
354,6.76e-01,1.08e-01,
355,6.68e-01,1.06e-01,
356,6.80e-01,1.06e-01,
357,6.84e-01,1.08e-01,
358,6.76e-01,1.08e-01,
359,6.68e-01,1.06e-01,
360,6.68e-01,1.06e-01,
361,6.84e-01,1.07e-01,
362,6.84e-01,1.06e-01,
363,6.80e-01,1.07e-01,
364,6.76e-01,1.06e-01,
365,6.72e-01,1.07e-01,
366,6.80e-01,1.07e-01,
367,6.88e-01,1.06e-01,
368,6.88e-01,1.06e-01,
369,6.76e-01,1.06e-01,
370,6.80e-01,1.06e-01,
371,6.72e-01,1.06e-01,
372,6.76e-01,1.06e-01,
373,6.92e-01,1.06e-01,
374,6.88e-01,1.06e-01,
375,6.84e-01,1.06e-01,
376,6.84e-01,1.06e-01,
377,6.76e-01,1.03e-01,
378,6.76e-01,1.03e-01,
379,6.84e-01,9.76e-02,
380,6.88e-01,9.60e-02,
381,7.00e-01,9.20e-02,
382,6.96e-01,9.20e-02,
383,6.80e-01,9.44e-02,
384,6.76e-01,9.44e-02,
385,6.88e-01,9.84e-02,
386,6.84e-01,9.92e-02,
387,6.92e-01,1.02e-01,
388,6.96e-01,1.02e-01,
389,6.92e-01,1.05e-01,
390,6.92e-01,1.06e-01,
391,6.88e-01,1.04e-01,
392,6.84e-01,1.06e-01,
393,6.92e-01,1.06e-01,
394,6.88e-01,1.06e-01,
395,7.00e-01,1.06e-01,
396,6.92e-01,1.06e-01,
397,7.00e-01,1.07e-01,
398,6.96e-01,1.07e-01,
399,6.88e-01,1.06e-01,
400,6.88e-01,1.06e-01,
401,6.96e-01,1.06e-01,
402,6.92e-01,1.06e-01,
403,7.04e-01,1.06e-01,
404,7.04e-01,1.07e-01,
405,6.96e-01,1.06e-01,
406,7.04e-01,1.06e-01,
407,6.92e-01,1.07e-01,
408,6.96e-01,1.06e-01,
409,6.92e-01,1.06e-01,
410,6.92e-01,1.06e-01,
411,7.00e-01,1.07e-01,
412,7.00e-01,1.06e-01,
413,7.08e-01,1.06e-01,
414,7.08e-01,1.06e-01,
415,7.04e-01,1.06e-01,
416,7.00e-01,1.06e-01,
417,7.08e-01,1.06e-01,
418,6.96e-01,1.06e-01,
419,7.00e-01,1.07e-01,
420,6.96e-01,1.07e-01,
421,7.00e-01,1.08e-01,
422,7.04e-01,1.08e-01,
423,7.08e-01,1.06e-01,
424,7.08e-01,1.06e-01,
425,7.12e-01,1.05e-01,
426,7.08e-01,1.05e-01,
427,7.12e-01,1.03e-01,
428,7.12e-01,1.05e-01,
429,7.00e-01,1.06e-01,
430,7.08e-01,1.06e-01,
431,7.00e-01,1.05e-01,
432,7.00e-01,1.06e-01,
433,7.08e-01,1.06e-01,
434,7.00e-01,1.06e-01,
435,7.08e-01,1.06e-01,
436,7.04e-01,1.06e-01,
437,7.08e-01,1.05e-01,
438,7.08e-01,1.06e-01,
439,7.12e-01,1.05e-01,
440,7.08e-01,1.05e-01,
441,7.20e-01,1.05e-01,
442,7.16e-01,1.05e-01,
443,7.20e-01,1.06e-01,
444,7.16e-01,1.05e-01,
445,7.24e-01,1.06e-01,
446,7.24e-01,1.05e-01,
447,7.16e-01,1.06e-01,
448,7.16e-01,1.05e-01,
449,7.24e-01,1.06e-01,
450,7.24e-01,1.04e-01,
451,7.16e-01,1.05e-01,
452,7.24e-01,1.05e-01,
453,7.16e-01,1.03e-01,
454,7.12e-01,1.05e-01,
455,7.20e-01,1.04e-01,
456,7.20e-01,1.05e-01,
457,7.12e-01,1.04e-01,
458,7.20e-01,1.05e-01,
459,7.12e-01,1.04e-01,
460,7.16e-01,1.05e-01,
461,7.24e-01,1.03e-01,
462,7.20e-01,1.05e-01,
463,7.16e-01,1.04e-01,
464,7.20e-01,1.03e-01,
465,7.32e-01,1.04e-01,
466,7.28e-01,1.04e-01,
467,7.32e-01,1.03e-01,
468,7.28e-01,1.04e-01,
469,7.20e-01,1.04e-01,
470,7.20e-01,1.04e-01,
471,7.16e-01,1.03e-01,
472,7.20e-01,1.04e-01,
473,7.36e-01,1.03e-01,
474,7.36e-01,1.02e-01,
475,7.28e-01,1.03e-01,
476,7.32e-01,1.03e-01,
477,7.24e-01,1.00e-01,
478,7.28e-01,9.92e-02,
479,7.20e-01,9.36e-02,
480,7.28e-01,9.12e-02,
481,7.36e-01,8.08e-02,
482,7.36e-01,8.00e-02,
483,7.24e-01,7.76e-02,
484,7.28e-01,7.92e-02,
485,7.32e-01,8.64e-02,
486,7.32e-01,8.64e-02,
487,7.40e-01,9.36e-02,
488,7.32e-01,9.44e-02,
489,7.28e-01,9.92e-02,
490,7.28e-01,9.92e-02,
491,7.40e-01,1.02e-01,
492,7.40e-01,1.02e-01,
493,7.28e-01,1.03e-01,
494,7.28e-01,1.03e-01,
495,7.36e-01,1.04e-01,
496,7.44e-01,1.02e-01,
497,7.36e-01,1.04e-01,
498,7.36e-01,1.04e-01,
499,7.32e-01,1.02e-01,
500,7.40e-01,1.04e-01,
501,7.48e-01,1.02e-01,
502,7.40e-01,1.04e-01,
503,7.32e-01,1.03e-01,
504,7.40e-01,1.04e-01,
505,7.48e-01,1.03e-01,
506,7.36e-01,1.04e-01,
507,7.40e-01,1.03e-01,
508,7.48e-01,1.03e-01,
509,7.40e-01,1.02e-01,
510,7.36e-01,1.02e-01,
511,7.48e-01,1.04e-01,
512,7.56e-01,1.02e-01,
513,7.40e-01,1.04e-01,
514,7.40e-01,1.02e-01,
515,7.52e-01,1.04e-01,
516,7.52e-01,1.03e-01,
517,7.36e-01,1.04e-01,
518,7.40e-01,1.04e-01,
519,7.52e-01,1.03e-01,
520,7.52e-01,1.05e-01,
521,7.40e-01,1.05e-01,
522,7.44e-01,1.06e-01,
523,7.56e-01,1.03e-01,
524,7.40e-01,1.03e-01,
525,7.56e-01,1.00e-01,
526,7.60e-01,1.00e-01,
527,7.48e-01,1.01e-01,
528,7.44e-01,1.02e-01,
529,7.56e-01,1.00e-01,
530,7.56e-01,1.02e-01,
531,7.48e-01,1.02e-01,
532,7.52e-01,1.02e-01,
533,7.60e-01,1.03e-01,
534,7.44e-01,1.02e-01,
535,7.60e-01,1.03e-01,
536,7.60e-01,1.03e-01,
537,7.48e-01,1.02e-01,
538,7.56e-01,1.03e-01,
539,7.64e-01,1.02e-01,
540,7.48e-01,1.02e-01,
541,7.64e-01,1.03e-01,
542,7.64e-01,1.03e-01,
543,7.48e-01,1.02e-01,
544,7.52e-01,1.03e-01,
545,7.64e-01,1.02e-01,
546,7.60e-01,1.02e-01,
547,7.52e-01,1.03e-01,
548,7.64e-01,1.02e-01,
549,7.56e-01,1.03e-01,
550,7.52e-01,1.02e-01,
551,7.68e-01,1.03e-01,
552,7.64e-01,1.03e-01,
553,7.60e-01,1.02e-01,
554,7.72e-01,1.03e-01,
555,7.56e-01,1.02e-01,
556,7.56e-01,1.02e-01,
557,7.76e-01,1.02e-01,
558,7.68e-01,1.02e-01,
559,7.56e-01,1.02e-01,
560,7.72e-01,1.02e-01,
561,7.60e-01,1.01e-01,
562,7.60e-01,1.02e-01,
563,7.76e-01,1.02e-01,
564,7.68e-01,1.02e-01,
565,7.64e-01,1.02e-01,
566,7.76e-01,1.02e-01,
567,7.60e-01,1.01e-01,
568,7.64e-01,1.02e-01,
569,7.76e-01,1.01e-01,
570,7.72e-01,1.02e-01,
571,7.64e-01,1.01e-01,
572,7.80e-01,1.02e-01,
573,7.60e-01,1.00e-01,
574,7.68e-01,9.92e-02,
575,7.80e-01,1.01e-01,
576,7.68e-01,1.00e-01,
577,7.80e-01,9.84e-02,
578,7.76e-01,9.76e-02,
579,7.68e-01,9.20e-02,
580,7.80e-01,8.96e-02,
581,7.68e-01,7.44e-02,
582,7.68e-01,7.28e-02,
583,7.84e-01,6.32e-02,
584,7.68e-01,6.32e-02,
585,7.84e-01,6.88e-02,
586,7.80e-01,6.96e-02,
587,7.68e-01,8.00e-02,
588,7.84e-01,8.32e-02,
589,7.72e-01,9.12e-02,
590,7.72e-01,9.20e-02,
591,7.84e-01,9.68e-02,
592,7.72e-01,9.76e-02,
593,7.84e-01,1.00e-01,
594,7.84e-01,9.92e-02,
595,7.72e-01,1.01e-01,
596,7.88e-01,1.00e-01,
597,7.76e-01,1.01e-01,
598,7.80e-01,1.00e-01,
599,7.88e-01,1.01e-01,
600,7.72e-01,1.00e-01,
601,7.88e-01,1.02e-01,
602,7.84e-01,1.00e-01,
603,7.76e-01,1.02e-01,
604,7.92e-01,1.00e-01,
605,7.76e-01,1.02e-01,
606,7.92e-01,1.01e-01,
607,7.76e-01,1.00e-01,
608,7.92e-01,1.00e-01,
609,7.80e-01,1.02e-01,
610,7.80e-01,1.02e-01,
611,7.92e-01,1.00e-01,
612,7.84e-01,1.02e-01,
613,7.92e-01,1.00e-01,
614,7.80e-01,1.00e-01,
615,7.92e-01,1.02e-01,
616,7.84e-01,1.00e-01,
617,7.96e-01,1.02e-01,
618,7.84e-01,1.00e-01,
619,7.96e-01,1.02e-01,
620,8.00e-01,1.00e-01,
621,7.80e-01,1.02e-01,
622,7.96e-01,1.02e-01,
623,7.88e-01,9.84e-02,
624,7.96e-01,9.76e-02,
625,7.88e-01,9.44e-02,
626,8.00e-01,9.52e-02,
627,7.88e-01,9.44e-02,
628,8.00e-01,9.52e-02,
629,7.88e-01,9.76e-02,
630,7.92e-01,9.76e-02,
631,8.04e-01,9.84e-02,
632,7.92e-01,9.92e-02,
633,8.04e-01,1.00e-01,
634,7.92e-01,9.92e-02,
635,8.04e-01,1.01e-01,
636,7.92e-01,1.00e-01,
637,8.08e-01,1.01e-01,
638,7.96e-01,1.00e-01,
639,8.04e-01,1.01e-01,
640,7.96e-01,9.92e-02,
641,8.08e-01,1.01e-01,
642,7.96e-01,1.00e-01,
643,8.08e-01,9.92e-02,
644,7.96e-01,1.01e-01,
645,8.12e-01,9.92e-02,
646,7.96e-01,9.92e-02,
647,8.12e-01,1.01e-01,
648,7.96e-01,9.92e-02,
649,8.08e-01,1.01e-01,
650,7.96e-01,9.92e-02,
651,8.12e-01,1.01e-01,
652,8.00e-01,1.01e-01,
653,8.12e-01,9.92e-02,
654,8.12e-01,9.92e-02,
655,8.00e-01,1.01e-01,
656,8.00e-01,1.00e-01,
657,8.16e-01,9.92e-02,
658,8.16e-01,9.92e-02,
659,8.04e-01,1.00e-01,
660,8.00e-01,9.92e-02,
661,8.16e-01,1.00e-01,
662,8.16e-01,9.92e-02,
663,8.04e-01,9.84e-02,
664,8.04e-01,9.84e-02,
665,8.16e-01,1.00e-01,
666,8.04e-01,1.00e-01,
667,8.16e-01,9.84e-02,
668,8.08e-01,9.92e-02,
669,8.20e-01,9.84e-02,
670,8.04e-01,9.92e-02,
671,8.16e-01,9.84e-02,
672,8.04e-01,9.92e-02,
673,8.20e-01,9.76e-02,
674,8.08e-01,9.76e-02,
675,8.20e-01,9.68e-02,
676,8.08e-01,9.76e-02,
677,8.20e-01,9.52e-02,
678,8.08e-01,9.60e-02,
679,8.20e-01,9.20e-02,
680,8.28e-01,9.04e-02,
681,8.12e-01,7.52e-02,
682,8.24e-01,7.36e-02,
683,8.08e-01,5.44e-02,
684,8.12e-01,5.12e-02,
685,8.28e-01,4.56e-02,
686,8.28e-01,4.72e-02,
687,8.16e-01,6.00e-02,
688,8.28e-01,6.32e-02,
689,8.16e-01,7.92e-02,
690,8.28e-01,8.00e-02,
691,8.12e-01,8.88e-02,
692,8.16e-01,9.04e-02,
693,8.32e-01,9.44e-02,
694,8.20e-01,9.36e-02,
695,8.28e-01,9.60e-02,
696,8.20e-01,9.68e-02,
697,8.36e-01,9.60e-02,
698,8.28e-01,9.76e-02,
699,8.20e-01,9.76e-02,
700,8.20e-01,9.76e-02,
701,8.36e-01,9.84e-02,
702,8.32e-01,9.76e-02,
703,8.20e-01,9.76e-02,
704,8.20e-01,9.76e-02,
705,8.32e-01,9.84e-02,
706,8.24e-01,9.76e-02,
707,8.36e-01,9.84e-02,
708,8.28e-01,9.68e-02,
709,8.40e-01,9.84e-02,
710,8.24e-01,9.76e-02,
711,8.40e-01,9.92e-02,
712,8.24e-01,9.84e-02,
713,8.40e-01,9.76e-02,
714,8.24e-01,9.84e-02,
715,8.36e-01,9.76e-02,
716,8.40e-01,9.76e-02,
717,8.24e-01,9.84e-02,
718,8.24e-01,9.76e-02,
719,8.40e-01,9.84e-02,
720,8.28e-01,9.76e-02,
721,8.40e-01,9.92e-02,
722,8.36e-01,9.76e-02,
723,8.44e-01,9.52e-02,
724,8.36e-01,9.52e-02,
725,8.44e-01,9.12e-02,
726,8.44e-01,9.12e-02,
727,8.32e-01,9.04e-02,
728,8.48e-01,9.04e-02,
729,8.40e-01,9.36e-02,
730,8.44e-01,9.28e-02,
731,8.32e-01,9.52e-02,
732,8.44e-01,9.52e-02,
733,8.40e-01,9.68e-02,
734,8.40e-01,9.60e-02,
735,8.52e-01,9.76e-02,
736,8.48e-01,9.76e-02,
737,8.40e-01,9.68e-02,
738,8.40e-01,9.76e-02,
739,8.52e-01,9.76e-02,
740,8.48e-01,9.76e-02,
741,8.40e-01,9.76e-02,
742,8.40e-01,9.76e-02,
743,8.52e-01,9.76e-02,
744,8.52e-01,9.76e-02,
745,8.44e-01,9.76e-02,
746,8.44e-01,9.68e-02,
747,8.56e-01,9.76e-02,
748,8.56e-01,9.76e-02,
749,8.40e-01,9.76e-02,
750,8.44e-01,9.76e-02,
751,8.56e-01,9.76e-02,
752,8.44e-01,9.76e-02,
753,8.60e-01,9.60e-02,
754,8.44e-01,9.68e-02,
755,8.56e-01,9.76e-02,
756,8.56e-01,9.76e-02,
757,8.44e-01,9.68e-02,
758,8.44e-01,9.68e-02,
759,8.60e-01,9.76e-02,
760,8.44e-01,9.60e-02,
761,8.60e-01,9.76e-02,
762,8.60e-01,9.68e-02,
763,8.48e-01,9.76e-02,
764,8.64e-01,9.60e-02,
765,8.52e-01,9.76e-02,
766,8.52e-01,9.68e-02,
767,8.60e-01,9.68e-02,
768,8.48e-01,9.68e-02,
769,8.64e-01,9.60e-02,
770,8.60e-01,9.68e-02,
771,8.48e-01,9.60e-02,
772,8.64e-01,9.68e-02,
773,8.48e-01,9.52e-02,
774,8.64e-01,9.60e-02,
775,8.56e-01,9.52e-02,
776,8.64e-01,9.60e-02,
777,8.52e-01,9.44e-02,
778,8.52e-01,9.44e-02,
779,8.68e-01,9.28e-02,
780,8.56e-01,9.28e-02,
781,8.68e-01,8.56e-02,
782,8.56e-01,8.48e-02,
783,8.68e-01,6.72e-02,
784,8.68e-01,6.08e-02,
785,8.52e-01,3.44e-02,
786,8.56e-01,3.36e-02,
787,8.72e-01,2.80e-02,
788,8.72e-01,3.20e-02,
789,8.60e-01,5.20e-02,
790,8.64e-01,5.44e-02,
791,8.72e-01,7.20e-02,
792,8.60e-01,7.52e-02,
793,8.72e-01,8.56e-02,
794,8.60e-01,8.64e-02,
795,8.76e-01,9.20e-02,
796,8.64e-01,9.20e-02,
797,8.80e-01,9.36e-02,
798,8.76e-01,9.36e-02,
799,8.60e-01,9.52e-02,
800,8.80e-01,9.60e-02,
801,8.68e-01,9.44e-02,
802,8.80e-01,9.60e-02,
803,8.64e-01,9.44e-02,
804,8.68e-01,9.52e-02,
805,8.84e-01,9.44e-02,
806,8.84e-01,9.44e-02,
807,8.68e-01,9.60e-02,
808,8.64e-01,9.44e-02,
809,8.80e-01,9.60e-02,
810,8.64e-01,9.60e-02,
811,8.84e-01,9.44e-02,
812,8.84e-01,9.60e-02,
813,8.68e-01,9.44e-02,
814,8.72e-01,9.60e-02,
815,8.84e-01,9.44e-02,
816,8.72e-01,9.60e-02,
817,8.84e-01,9.44e-02,
818,8.72e-01,9.52e-02,
819,8.88e-01,9.60e-02,
820,8.76e-01,9.44e-02,
821,8.88e-01,9.60e-02,
822,8.88e-01,9.60e-02,
823,8.76e-01,9.52e-02,
824,8.72e-01,9.44e-02,
825,8.88e-01,9.60e-02,
826,8.76e-01,9.44e-02,
827,8.92e-01,9.60e-02,
828,8.76e-01,9.60e-02,
829,8.88e-01,9.44e-02,
830,8.80e-01,9.44e-02,
831,8.92e-01,9.60e-02,
832,8.92e-01,9.60e-02,
833,8.76e-01,9.44e-02,
834,8.80e-01,9.60e-02,
835,8.92e-01,9.44e-02,
836,8.80e-01,9.52e-02,
837,8.92e-01,9.60e-02,
838,8.88e-01,9.52e-02,
839,8.80e-01,9.44e-02,
840,8.80e-01,9.60e-02,
841,8.96e-01,9.44e-02,
842,8.96e-01,9.44e-02,
843,8.80e-01,9.52e-02,
844,8.96e-01,9.44e-02,
845,8.84e-01,9.52e-02,
846,8.96e-01,9.52e-02,
847,8.88e-01,9.44e-02,
848,8.84e-01,9.52e-02,
849,9.04e-01,9.60e-02,
850,9.00e-01,9.44e-02,
851,8.88e-01,9.60e-02,
852,8.88e-01,9.52e-02,
853,8.96e-01,9.44e-02,
854,8.88e-01,9.44e-02,
855,9.00e-01,9.52e-02,
856,9.00e-01,9.52e-02,
857,8.84e-01,9.44e-02,
858,8.84e-01,9.52e-02,
859,9.08e-01,9.36e-02,
860,8.92e-01,9.52e-02,
861,9.04e-01,9.36e-02,
862,8.88e-01,9.52e-02,
863,9.08e-01,9.36e-02,
864,8.96e-01,9.52e-02,
865,9.04e-01,9.44e-02,
866,8.96e-01,9.36e-02,
867,9.08e-01,9.52e-02,
868,8.96e-01,9.52e-02,
869,9.08e-01,9.36e-02,
870,9.00e-01,9.36e-02,
