To_sort_soon/NewFile72m.csv

X,CH1,CH2,Start,Increment,
Sequence,Volt,Volt,-3.880000e+00,1.000000e-02
0,9.00e-01,1.74e-01,
1,9.40e-01,1.72e-01,
2,9.40e-01,1.72e-01,
3,9.00e-01,1.74e-01,
4,9.20e-01,1.72e-01,
5,9.40e-01,1.74e-01,
6,9.20e-01,1.72e-01,
7,9.40e-01,1.74e-01,
8,9.20e-01,1.72e-01,
9,9.60e-01,1.74e-01,
10,9.20e-01,1.72e-01,
11,9.60e-01,1.72e-01,
12,9.20e-01,1.74e-01,
13,9.60e-01,1.72e-01,
14,9.20e-01,1.74e-01,
15,9.60e-01,1.72e-01,
16,9.60e-01,1.74e-01,
17,9.20e-01,1.72e-01,
18,9.20e-01,1.72e-01,
19,9.60e-01,1.74e-01,
20,9.20e-01,1.72e-01,
21,9.60e-01,1.74e-01,
22,9.20e-01,1.74e-01,
23,9.60e-01,1.72e-01,
24,9.60e-01,1.74e-01,
25,9.40e-01,1.72e-01,
26,9.40e-01,1.74e-01,
27,9.60e-01,1.72e-01,
28,9.60e-01,1.74e-01,
29,9.20e-01,1.72e-01,
30,9.40e-01,1.74e-01,
31,9.60e-01,1.72e-01,
32,9.60e-01,1.72e-01,
33,9.40e-01,1.74e-01,
34,9.80e-01,1.72e-01,
35,9.20e-01,1.74e-01,
36,9.40e-01,1.70e-01,
37,9.80e-01,1.74e-01,
38,9.40e-01,1.72e-01,
39,9.80e-01,1.70e-01,
40,9.60e-01,1.70e-01,
41,9.40e-01,1.70e-01,
42,9.80e-01,1.70e-01,
43,9.40e-01,1.70e-01,
44,9.80e-01,1.70e-01,
45,9.40e-01,1.70e-01,
46,9.60e-01,1.70e-01,
47,9.80e-01,1.72e-01,
48,9.80e-01,1.70e-01,
49,9.40e-01,1.70e-01,
50,9.80e-01,1.70e-01,
51,9.40e-01,1.72e-01,
52,1.00e+00,1.70e-01,
53,9.60e-01,1.70e-01,
54,9.80e-01,1.70e-01,
55,9.40e-01,1.70e-01,
56,9.80e-01,1.70e-01,
57,1.00e+00,1.70e-01,
58,9.60e-01,1.70e-01,
59,1.00e+00,1.70e-01,
60,9.60e-01,1.70e-01,
61,1.00e+00,1.70e-01,
62,1.00e+00,1.70e-01,
63,9.60e-01,1.70e-01,
64,-2.00e-02,1.72e-01,
65,2.00e-02,1.92e-01,
66,2.00e-02,1.98e-01,
67,-2.00e-02,2.24e-01,
68,2.00e-02,2.24e-01,
69,-2.00e-02,2.34e-01,
70,0.00e+00,2.32e-01,
71,2.00e-02,2.36e-01,
72,2.00e-02,2.34e-01,
73,-2.00e-02,2.32e-01,
74,0.00e+00,2.34e-01,
75,2.00e-02,2.30e-01,
76,0.00e+00,2.34e-01,
77,4.00e-02,2.30e-01,
78,2.00e-02,2.30e-01,
79,0.00e+00,2.30e-01,
80,0.00e+00,2.30e-01,
81,2.00e-02,2.32e-01,
82,0.00e+00,2.30e-01,
83,4.00e-02,2.32e-01,
84,0.00e+00,2.32e-01,
85,4.00e-02,2.30e-01,
86,0.00e+00,2.30e-01,
87,4.00e-02,2.30e-01,
88,0.00e+00,2.30e-01,
89,4.00e-02,2.32e-01,
90,0.00e+00,2.30e-01,
91,4.00e-02,2.32e-01,
92,0.00e+00,2.30e-01,
93,4.00e-02,2.32e-01,
94,2.00e-02,2.30e-01,
95,6.00e-02,2.32e-01,
96,4.00e-02,2.30e-01,
97,2.00e-02,2.32e-01,
98,2.00e-02,2.32e-01,
99,6.00e-02,2.30e-01,
100,4.00e-02,2.30e-01,
101,2.00e-02,2.32e-01,
102,4.00e-02,2.30e-01,
103,2.00e-02,2.32e-01,
104,4.00e-02,2.30e-01,
105,2.00e-02,2.32e-01,
106,2.00e-02,2.30e-01,
107,4.00e-02,2.30e-01,
108,2.00e-02,2.30e-01,
109,6.00e-02,2.30e-01,
110,2.00e-02,2.30e-01,
111,6.00e-02,2.32e-01,
112,6.00e-02,2.32e-01,
113,2.00e-02,2.30e-01,
114,6.00e-02,2.30e-01,
115,2.00e-02,2.30e-01,
116,6.00e-02,2.30e-01,
117,4.00e-02,2.32e-01,
118,4.00e-02,2.30e-01,
119,6.00e-02,2.32e-01,
120,2.00e-02,2.30e-01,
121,6.00e-02,2.26e-01,
122,4.00e-02,2.30e-01,
123,6.00e-02,2.26e-01,
124,6.00e-02,2.26e-01,
125,4.00e-02,2.30e-01,
126,4.00e-02,2.26e-01,
127,6.00e-02,2.30e-01,
128,4.00e-02,2.26e-01,
129,8.00e-02,2.32e-01,
130,8.00e-02,2.28e-01,
131,4.00e-02,2.26e-01,
132,4.00e-02,2.28e-01,
133,8.00e-02,2.26e-01,
134,4.00e-02,2.28e-01,
135,8.00e-02,2.26e-01,
136,4.00e-02,2.26e-01,
137,8.00e-02,2.28e-01,
138,8.00e-02,2.28e-01,
139,6.00e-02,2.26e-01,
140,8.00e-02,2.28e-01,
141,4.00e-02,2.26e-01,
142,8.00e-02,2.26e-01,
143,4.00e-02,2.28e-01,
144,8.00e-02,2.28e-01,
145,6.00e-02,2.26e-01,
146,8.00e-02,2.28e-01,
147,4.00e-02,2.26e-01,
148,6.00e-02,2.28e-01,
149,8.00e-02,2.26e-01,
150,8.00e-02,2.28e-01,
151,6.00e-02,2.26e-01,
152,8.00e-02,2.28e-01,
153,6.00e-02,2.28e-01,
154,6.00e-02,2.28e-01,
155,1.00e-01,2.28e-01,
156,8.00e-02,2.28e-01,
157,6.00e-02,2.26e-01,
158,6.00e-02,2.28e-01,
159,1.00e-01,2.26e-01,
160,8.00e-02,2.26e-01,
161,1.00e-01,2.28e-01,
162,1.00e-01,2.28e-01,
163,6.00e-02,2.26e-01,
164,8.00e-02,2.28e-01,
165,1.00e-01,2.26e-01,
166,1.00e-01,2.28e-01,
167,6.00e-02,2.26e-01,
168,1.00e-01,2.26e-01,
169,1.00e-01,2.28e-01,
170,1.00e-01,2.28e-01,
171,8.00e-02,2.24e-01,
172,1.00e-01,2.28e-01,
173,8.00e-02,2.26e-01,
174,1.00e-01,2.28e-01,
175,8.00e-02,2.24e-01,
176,1.00e-01,2.24e-01,
177,1.00e-01,2.28e-01,
178,1.00e-01,2.24e-01,
179,1.00e-01,2.28e-01,
180,8.00e-02,2.28e-01,
181,1.20e-01,2.24e-01,
182,1.20e-01,2.24e-01,
183,1.00e-01,2.28e-01,
184,1.00e-01,2.24e-01,
185,1.20e-01,2.28e-01,
186,1.20e-01,2.24e-01,
187,1.00e-01,2.28e-01,
188,1.40e-01,2.24e-01,
189,1.00e-01,2.26e-01,
190,1.20e-01,2.24e-01,
191,1.00e-01,2.26e-01,
192,1.40e-01,2.26e-01,
193,1.20e-01,2.24e-01,
194,1.20e-01,2.24e-01,
195,1.20e-01,2.26e-01,
196,1.20e-01,2.24e-01,
197,1.20e-01,2.26e-01,
198,1.20e-01,2.24e-01,
199,1.60e-01,2.26e-01,
200,1.40e-01,2.26e-01,
201,1.20e-01,2.24e-01,
202,1.20e-01,2.26e-01,
203,1.40e-01,2.24e-01,
204,1.20e-01,2.26e-01,
205,1.40e-01,2.24e-01,
206,1.40e-01,2.24e-01,
207,1.20e-01,2.26e-01,
208,1.20e-01,2.24e-01,
209,1.40e-01,2.24e-01,
210,1.20e-01,2.24e-01,
211,1.40e-01,2.26e-01,
212,1.20e-01,2.24e-01,
213,1.60e-01,2.26e-01,
214,1.40e-01,2.26e-01,
215,1.20e-01,2.24e-01,
216,1.20e-01,2.26e-01,
217,1.60e-01,2.24e-01,
218,1.20e-01,2.26e-01,
219,1.60e-01,2.24e-01,
220,1.40e-01,2.26e-01,
221,1.20e-01,2.24e-01,
222,1.40e-01,2.26e-01,
223,1.20e-01,2.24e-01,
224,1.60e-01,2.24e-01,
225,1.20e-01,2.26e-01,
226,1.40e-01,2.26e-01,
227,1.60e-01,2.22e-01,
228,1.40e-01,2.22e-01,
229,1.60e-01,2.26e-01,
230,1.40e-01,2.26e-01,
231,1.80e-01,2.22e-01,
232,1.60e-01,2.26e-01,
233,1.40e-01,2.20e-01,
234,1.40e-01,2.22e-01,
235,1.80e-01,2.20e-01,
236,1.40e-01,2.22e-01,
237,1.80e-01,2.22e-01,
238,1.60e-01,2.22e-01,
239,1.40e-01,2.20e-01,
240,1.40e-01,2.20e-01,
241,1.80e-01,2.22e-01,
242,1.80e-01,2.22e-01,
243,1.40e-01,2.22e-01,
244,1.80e-01,2.22e-01,
245,1.40e-01,2.20e-01,
246,1.80e-01,2.22e-01,
247,1.40e-01,2.20e-01,
248,1.60e-01,2.20e-01,
249,1.80e-01,2.22e-01,
250,1.60e-01,2.22e-01,
251,1.80e-01,2.20e-01,
252,2.00e-01,2.22e-01,
253,1.60e-01,2.20e-01,
254,1.80e-01,2.22e-01,
255,1.60e-01,2.22e-01,
256,1.60e-01,2.22e-01,
257,2.00e-01,2.22e-01,
258,1.60e-01,2.22e-01,
259,2.00e-01,2.20e-01,
260,2.00e-01,2.22e-01,
261,1.60e-01,2.20e-01,
262,1.60e-01,2.22e-01,
263,2.00e-01,2.20e-01,
264,2.00e-01,2.22e-01,
265,1.60e-01,2.22e-01,
266,1.80e-01,2.20e-01,
267,2.00e-01,2.22e-01,
268,1.80e-01,2.22e-01,
269,2.00e-01,2.22e-01,
270,2.00e-01,2.22e-01,
271,1.80e-01,2.20e-01,
272,1.80e-01,2.22e-01,
273,2.00e-01,2.20e-01,
274,1.80e-01,2.22e-01,
275,2.00e-01,2.20e-01,
276,2.00e-01,2.22e-01,
277,1.80e-01,2.18e-01,
278,1.80e-01,2.22e-01,
279,2.00e-01,2.20e-01,
280,2.20e-01,2.22e-01,
281,1.80e-01,2.18e-01,
282,2.20e-01,2.22e-01,
283,1.80e-01,2.18e-01,
284,1.80e-01,2.22e-01,
285,2.20e-01,2.18e-01,
286,2.20e-01,2.18e-01,
287,1.80e-01,2.22e-01,
288,2.20e-01,2.18e-01,
289,2.00e-01,2.20e-01,
290,2.20e-01,2.18e-01,
291,2.00e-01,2.22e-01,
292,1.80e-01,2.18e-01,
293,2.20e-01,2.22e-01,
294,2.20e-01,2.18e-01,
295,2.20e-01,2.20e-01,
296,2.00e-01,2.20e-01,
297,2.20e-01,2.18e-01,
298,2.00e-01,2.20e-01,
299,2.20e-01,2.18e-01,
300,2.20e-01,2.18e-01,
301,2.00e-01,2.20e-01,
302,2.40e-01,2.20e-01,
303,2.00e-01,2.18e-01,
304,2.40e-01,2.18e-01,
305,2.20e-01,2.20e-01,
306,2.00e-01,2.20e-01,
307,2.40e-01,2.18e-01,
308,2.40e-01,2.20e-01,
309,2.00e-01,2.18e-01,
310,2.00e-01,2.18e-01,
311,2.20e-01,2.20e-01,
312,2.00e-01,2.18e-01,
313,2.40e-01,2.20e-01,
314,2.00e-01,2.20e-01,
315,2.40e-01,2.18e-01,
316,2.20e-01,2.20e-01,
317,2.40e-01,2.18e-01,
318,2.20e-01,2.18e-01,
319,2.40e-01,2.20e-01,
320,2.20e-01,2.20e-01,
321,2.40e-01,2.18e-01,
322,2.20e-01,2.20e-01,
323,2.60e-01,2.18e-01,
324,2.40e-01,2.20e-01,
325,2.20e-01,2.18e-01,
326,2.20e-01,2.18e-01,
327,2.40e-01,2.20e-01,
328,2.60e-01,2.20e-01,
329,2.20e-01,2.18e-01,
330,2.20e-01,2.20e-01,
331,2.60e-01,2.18e-01,
332,2.40e-01,2.20e-01,
333,2.60e-01,2.18e-01,
334,2.20e-01,2.20e-01,
335,2.60e-01,2.18e-01,
336,2.40e-01,2.18e-01,
337,2.60e-01,2.20e-01,
338,2.60e-01,2.18e-01,
339,2.40e-01,2.20e-01,
340,2.60e-01,2.20e-01,
341,2.20e-01,2.16e-01,
342,2.80e-01,2.18e-01,
343,2.40e-01,2.16e-01,
344,2.40e-01,2.20e-01,
345,2.60e-01,2.16e-01,
346,2.60e-01,2.16e-01,
347,2.60e-01,2.16e-01,
348,2.60e-01,2.16e-01,
349,2.60e-01,2.16e-01,
350,2.60e-01,2.16e-01,
351,2.80e-01,2.16e-01,
352,2.60e-01,2.16e-01,
353,2.80e-01,2.16e-01,
354,2.60e-01,2.16e-01,
355,2.60e-01,2.16e-01,
356,2.60e-01,2.16e-01,
357,2.80e-01,2.16e-01,
358,2.60e-01,2.16e-01,
359,3.00e-01,2.16e-01,
360,3.00e-01,2.16e-01,
361,2.60e-01,2.16e-01,
362,2.60e-01,2.16e-01,
363,3.00e-01,2.16e-01,
364,2.60e-01,2.16e-01,
365,3.00e-01,2.16e-01,
366,2.80e-01,2.16e-01,
367,2.60e-01,2.16e-01,
368,3.00e-01,2.16e-01,
369,2.60e-01,2.16e-01,
370,2.80e-01,2.16e-01,
371,2.60e-01,2.16e-01,
372,2.80e-01,2.16e-01,
373,2.80e-01,2.16e-01,
374,2.80e-01,2.16e-01,
375,3.00e-01,2.16e-01,
376,2.80e-01,2.16e-01,
377,3.00e-01,2.12e-01,
378,2.80e-01,2.16e-01,
379,3.00e-01,2.16e-01,
380,2.80e-01,2.16e-01,
381,3.20e-01,2.14e-01,
382,2.80e-01,2.16e-01,
383,3.00e-01,2.14e-01,
384,3.20e-01,2.12e-01,
385,2.80e-01,2.16e-01,
386,3.00e-01,2.12e-01,
387,2.80e-01,2.16e-01,
388,3.20e-01,2.16e-01,
389,2.80e-01,2.12e-01,
390,2.80e-01,2.16e-01,
391,3.20e-01,2.12e-01,
392,3.00e-01,2.12e-01,
393,3.20e-01,2.14e-01,
394,3.20e-01,2.12e-01,
395,2.80e-01,2.16e-01,
396,3.20e-01,2.12e-01,
397,3.00e-01,2.14e-01,
398,3.00e-01,2.14e-01,
399,3.00e-01,2.12e-01,
400,3.00e-01,2.14e-01,
401,3.20e-01,2.12e-01,
402,3.00e-01,2.14e-01,
403,3.40e-01,2.10e-01,
404,3.00e-01,2.12e-01,
405,3.40e-01,2.06e-01,
406,3.00e-01,2.04e-01,
407,3.40e-01,2.06e-01,
408,3.40e-01,2.04e-01,
409,3.00e-01,2.08e-01,
410,3.00e-01,2.10e-01,
411,3.40e-01,2.10e-01,
412,3.20e-01,2.12e-01,
413,3.00e-01,2.14e-01,
414,3.00e-01,2.12e-01,
415,3.40e-01,2.14e-01,
416,3.00e-01,2.14e-01,
417,3.40e-01,2.12e-01,
418,3.40e-01,2.12e-01,
419,3.00e-01,2.14e-01,
420,3.40e-01,2.12e-01,
421,3.00e-01,2.14e-01,
422,3.40e-01,2.12e-01,
423,3.00e-01,2.14e-01,
424,3.40e-01,2.14e-01,
425,3.20e-01,2.12e-01,
426,3.40e-01,2.14e-01,
427,3.20e-01,2.12e-01,
428,3.20e-01,2.12e-01,
429,3.60e-01,2.14e-01,
430,3.60e-01,2.14e-01,
431,3.20e-01,2.12e-01,
432,3.20e-01,2.12e-01,
433,3.40e-01,2.14e-01,
434,3.60e-01,2.14e-01,
435,3.20e-01,2.12e-01,
436,3.60e-01,2.14e-01,
437,3.20e-01,2.12e-01,
438,3.60e-01,2.12e-01,
439,3.20e-01,2.14e-01,
440,3.20e-01,2.12e-01,
441,3.60e-01,2.14e-01,
442,3.60e-01,2.12e-01,
443,3.20e-01,2.14e-01,
444,3.60e-01,2.14e-01,
445,3.20e-01,2.12e-01,
446,3.60e-01,2.12e-01,
447,3.40e-01,2.14e-01,
448,3.60e-01,2.14e-01,
449,3.20e-01,2.10e-01,
450,3.20e-01,2.14e-01,
451,3.60e-01,2.10e-01,
452,3.80e-01,2.10e-01,
453,3.20e-01,2.12e-01,
454,3.60e-01,2.10e-01,
455,3.40e-01,2.14e-01,
456,3.80e-01,2.10e-01,
457,3.40e-01,2.12e-01,
458,3.40e-01,2.12e-01,
459,3.80e-01,2.10e-01,
460,3.40e-01,2.10e-01,
461,3.80e-01,2.10e-01,
462,3.60e-01,2.12e-01,
463,3.80e-01,2.10e-01,
464,3.80e-01,2.10e-01,
465,3.40e-01,2.10e-01,
466,3.80e-01,2.10e-01,
467,3.40e-01,2.12e-01,
468,3.80e-01,2.10e-01,
469,3.40e-01,2.12e-01,
470,3.80e-01,2.12e-01,
471,3.40e-01,2.10e-01,
472,3.80e-01,2.12e-01,
473,3.60e-01,2.10e-01,
474,3.60e-01,2.10e-01,
475,4.00e-01,2.12e-01,
476,3.80e-01,2.10e-01,
477,3.60e-01,2.10e-01,
478,3.80e-01,2.10e-01,
479,3.60e-01,2.10e-01,
480,4.00e-01,2.10e-01,
481,3.60e-01,2.12e-01,
482,3.60e-01,2.10e-01,
483,4.00e-01,2.12e-01,
484,3.80e-01,2.10e-01,
485,4.00e-01,2.12e-01,
486,4.00e-01,2.12e-01,
487,3.60e-01,2.10e-01,
488,4.00e-01,2.10e-01,
489,3.60e-01,2.06e-01,
490,3.80e-01,2.08e-01,
491,4.00e-01,2.06e-01,
492,4.00e-01,2.08e-01,
493,4.00e-01,2.06e-01,
494,4.00e-01,2.08e-01,
495,4.00e-01,2.06e-01,
496,4.20e-01,2.10e-01,
497,3.80e-01,2.06e-01,
498,4.00e-01,2.06e-01,
499,4.00e-01,2.08e-01,
500,3.80e-01,2.08e-01,
501,4.20e-01,2.06e-01,
502,4.00e-01,2.08e-01,
503,4.00e-01,2.06e-01,
504,4.00e-01,2.08e-01,
505,4.20e-01,2.06e-01,
506,3.80e-01,2.08e-01,
507,4.20e-01,2.06e-01,
508,4.00e-01,2.06e-01,
509,4.40e-01,2.08e-01,
510,4.20e-01,2.06e-01,
511,4.00e-01,2.08e-01,
512,4.40e-01,2.08e-01,
513,4.00e-01,2.06e-01,
514,4.20e-01,2.08e-01,
515,3.80e-01,2.06e-01,
516,3.80e-01,2.06e-01,
517,4.20e-01,2.08e-01,
518,4.00e-01,2.06e-01,
519,4.40e-01,2.08e-01,
520,4.20e-01,2.08e-01,
521,4.00e-01,2.06e-01,
522,4.20e-01,2.06e-01,
523,4.20e-01,2.08e-01,
524,4.20e-01,2.08e-01,
525,4.20e-01,2.06e-01,
526,4.20e-01,2.06e-01,
527,4.40e-01,2.08e-01,
528,4.20e-01,2.06e-01,
529,4.40e-01,2.08e-01,
530,4.20e-01,2.08e-01,
531,4.20e-01,2.00e-01,
532,4.20e-01,2.02e-01,
533,4.40e-01,1.92e-01,
534,4.20e-01,1.90e-01,
535,4.60e-01,1.94e-01,
536,4.20e-01,1.92e-01,
537,4.40e-01,2.00e-01,
538,4.60e-01,1.98e-01,
539,4.20e-01,2.04e-01,
540,4.20e-01,2.04e-01,
541,4.60e-01,2.06e-01,
542,4.40e-01,2.04e-01,
543,4.60e-01,2.08e-01,
544,4.40e-01,2.08e-01,
545,4.60e-01,2.06e-01,
546,4.40e-01,2.06e-01,
547,4.60e-01,2.08e-01,
548,4.40e-01,2.08e-01,
549,4.60e-01,2.06e-01,
550,4.80e-01,2.08e-01,
551,4.40e-01,2.04e-01,
552,4.40e-01,2.08e-01,
553,4.80e-01,2.06e-01,
554,4.80e-01,2.06e-01,
555,4.40e-01,2.08e-01,
556,4.40e-01,2.08e-01,
557,4.80e-01,2.04e-01,
558,4.80e-01,2.06e-01,
559,4.40e-01,2.04e-01,
560,4.40e-01,2.04e-01,
561,4.80e-01,2.08e-01,
562,4.40e-01,2.04e-01,
563,4.80e-01,2.04e-01,
564,4.40e-01,2.06e-01,
565,4.80e-01,2.04e-01,
566,4.40e-01,2.04e-01,
567,4.80e-01,2.06e-01,
568,4.60e-01,2.06e-01,
569,4.80e-01,2.04e-01,
570,4.80e-01,2.04e-01,
571,4.40e-01,2.06e-01,
572,4.60e-01,2.04e-01,
573,4.80e-01,2.06e-01,
574,4.80e-01,2.06e-01,
575,4.60e-01,2.04e-01,
576,4.80e-01,2.04e-01,
577,4.60e-01,2.06e-01,
578,4.60e-01,2.06e-01,
579,5.00e-01,2.04e-01,
580,4.60e-01,2.04e-01,
581,5.00e-01,2.06e-01,
582,4.60e-01,2.04e-01,
583,5.00e-01,2.06e-01,
584,4.80e-01,2.04e-01,
585,5.00e-01,2.06e-01,
586,4.60e-01,2.04e-01,
587,5.00e-01,2.06e-01,
588,5.00e-01,2.04e-01,
589,4.80e-01,2.06e-01,
590,5.00e-01,2.04e-01,
591,4.80e-01,2.06e-01,
592,5.20e-01,2.04e-01,
593,4.80e-01,2.06e-01,
594,5.00e-01,2.02e-01,
595,4.80e-01,2.06e-01,
596,5.00e-01,2.06e-01,
597,4.80e-01,2.00e-01,
598,5.00e-01,2.04e-01,
599,4.60e-01,2.02e-01,
600,4.80e-01,2.02e-01,
601,5.00e-01,2.04e-01,
602,5.00e-01,2.06e-01,
603,4.80e-01,2.02e-01,
604,5.00e-01,2.02e-01,
605,4.80e-01,2.00e-01,
606,5.20e-01,2.02e-01,
607,4.80e-01,2.00e-01,
608,4.80e-01,2.02e-01,
609,5.20e-01,2.02e-01,
610,5.20e-01,2.00e-01,
611,4.80e-01,2.02e-01,
612,5.20e-01,2.00e-01,
613,4.80e-01,2.04e-01,
614,5.20e-01,2.06e-01,
615,4.80e-01,2.02e-01,
616,5.00e-01,2.02e-01,
617,5.20e-01,2.00e-01,
618,5.00e-01,2.02e-01,
619,5.20e-01,2.00e-01,
620,5.20e-01,2.02e-01,
621,4.80e-01,2.00e-01,
622,5.20e-01,2.02e-01,
623,5.20e-01,2.02e-01,
624,5.20e-01,2.02e-01,
625,4.80e-01,2.00e-01,
626,5.00e-01,2.02e-01,
627,5.40e-01,2.02e-01,
628,5.20e-01,2.02e-01,
629,5.00e-01,2.00e-01,
630,5.40e-01,2.02e-01,
631,5.00e-01,2.02e-01,
632,5.40e-01,2.02e-01,
633,5.00e-01,2.00e-01,
634,5.40e-01,2.00e-01,
635,5.00e-01,2.02e-01,
636,5.40e-01,2.02e-01,
637,5.00e-01,2.00e-01,
638,5.40e-01,2.02e-01,
639,5.20e-01,2.00e-01,
640,5.00e-01,2.02e-01,
641,5.40e-01,2.02e-01,
642,5.00e-01,2.02e-01,
643,5.60e-01,2.00e-01,
644,5.40e-01,2.02e-01,
645,5.40e-01,2.00e-01,
646,5.60e-01,2.02e-01,
647,5.00e-01,2.00e-01,
648,5.60e-01,2.02e-01,
649,5.00e-01,2.00e-01,
650,5.40e-01,2.02e-01,
651,5.40e-01,2.00e-01,
652,5.40e-01,1.98e-01,
653,5.40e-01,2.02e-01,
654,5.60e-01,1.98e-01,
655,5.20e-01,2.02e-01,
656,5.40e-01,2.00e-01,
657,5.60e-01,1.98e-01,
658,5.60e-01,2.00e-01,
659,5.20e-01,1.96e-01,
660,5.40e-01,1.96e-01,
661,5.60e-01,1.84e-01,
662,5.60e-01,1.82e-01,
663,5.40e-01,1.76e-01,
664,5.60e-01,1.76e-01,
665,5.20e-01,1.82e-01,
666,5.60e-01,1.84e-01,
667,5.40e-01,1.94e-01,
668,5.60e-01,1.92e-01,
669,5.20e-01,1.96e-01,
670,5.60e-01,1.98e-01,
671,5.60e-01,2.00e-01,
672,5.60e-01,1.98e-01,
673,5.80e-01,2.00e-01,
674,5.60e-01,2.00e-01,
675,5.60e-01,1.98e-01,
676,5.60e-01,1.98e-01,
677,5.80e-01,2.00e-01,
678,5.60e-01,1.98e-01,
679,5.80e-01,2.00e-01,
680,5.60e-01,2.00e-01,
681,5.80e-01,1.98e-01,
682,5.80e-01,2.00e-01,
683,5.60e-01,1.98e-01,
684,5.80e-01,1.98e-01,
685,5.60e-01,2.00e-01,
686,5.80e-01,1.98e-01,
687,5.60e-01,2.00e-01,
688,5.60e-01,2.00e-01,
689,6.00e-01,1.98e-01,
690,5.60e-01,1.98e-01,
691,6.00e-01,2.00e-01,
692,5.80e-01,1.98e-01,
693,5.60e-01,2.00e-01,
694,5.80e-01,1.98e-01,
695,6.00e-01,2.00e-01,
696,5.80e-01,1.98e-01,
697,6.00e-01,2.00e-01,
698,5.80e-01,2.00e-01,
699,6.00e-01,1.98e-01,
700,5.80e-01,1.98e-01,
701,5.80e-01,2.00e-01,
702,5.80e-01,2.00e-01,
703,6.00e-01,1.96e-01,
704,5.80e-01,2.00e-01,
705,6.00e-01,1.96e-01,
706,5.80e-01,1.96e-01,
707,6.00e-01,2.00e-01,
708,5.80e-01,2.00e-01,
709,6.20e-01,1.96e-01,
710,5.80e-01,1.96e-01,
711,6.20e-01,1.96e-01,
712,5.80e-01,1.96e-01,
713,6.20e-01,1.96e-01,
714,5.80e-01,1.96e-01,
715,6.20e-01,1.96e-01,
716,6.20e-01,1.96e-01,
717,5.80e-01,1.96e-01,
718,5.80e-01,1.96e-01,
719,6.20e-01,1.94e-01,
720,5.80e-01,1.96e-01,
721,6.20e-01,1.96e-01,
722,6.40e-01,1.96e-01,
723,6.00e-01,1.96e-01,
724,6.00e-01,1.96e-01,
725,6.20e-01,1.96e-01,
726,6.00e-01,1.96e-01,
727,6.40e-01,1.94e-01,
728,6.00e-01,1.94e-01,
729,6.40e-01,1.96e-01,
730,6.00e-01,1.96e-01,
731,6.40e-01,1.96e-01,
732,6.00e-01,1.96e-01,
733,6.40e-01,1.96e-01,
734,6.00e-01,1.96e-01,
735,6.40e-01,1.96e-01,
736,6.40e-01,1.96e-01,
737,6.00e-01,1.96e-01,
738,6.40e-01,1.96e-01,
739,6.00e-01,1.96e-01,
740,6.40e-01,1.96e-01,
741,6.00e-01,1.96e-01,
742,6.20e-01,1.96e-01,
743,6.40e-01,1.96e-01,
744,6.20e-01,1.96e-01,
745,6.40e-01,1.92e-01,
746,6.20e-01,1.94e-01,
747,6.40e-01,1.92e-01,
748,6.20e-01,1.92e-01,
749,6.60e-01,1.94e-01,
750,6.20e-01,1.96e-01,
751,6.20e-01,1.92e-01,
752,6.20e-01,1.96e-01,
753,6.40e-01,1.96e-01,
754,6.20e-01,1.96e-01,
755,6.60e-01,1.96e-01,
756,6.60e-01,1.96e-01,
757,6.20e-01,1.96e-01,
758,6.20e-01,1.96e-01,
759,6.60e-01,1.96e-01,
760,6.60e-01,1.96e-01,
761,6.20e-01,1.96e-01,
762,6.20e-01,1.96e-01,
763,6.60e-01,1.96e-01,
764,6.60e-01,1.96e-01,
765,6.40e-01,1.92e-01,
766,6.60e-01,1.96e-01,
767,6.20e-01,1.94e-01,
768,6.20e-01,1.92e-01,
769,6.60e-01,1.96e-01,
770,6.40e-01,1.96e-01,
771,6.80e-01,1.92e-01,
772,6.40e-01,1.96e-01,
773,6.80e-01,1.92e-01,
774,6.40e-01,1.92e-01,
775,6.80e-01,1.94e-01,
776,6.60e-01,1.92e-01,
777,6.40e-01,1.94e-01,
778,6.80e-01,1.92e-01,
779,6.40e-01,1.94e-01,
780,6.80e-01,1.94e-01,
781,6.40e-01,1.92e-01,
782,6.40e-01,1.94e-01,
783,6.80e-01,1.92e-01,
784,6.80e-01,1.92e-01,
785,6.40e-01,1.94e-01,
786,6.80e-01,1.92e-01,
787,6.40e-01,1.94e-01,
788,6.40e-01,1.90e-01,
789,6.80e-01,1.84e-01,
790,6.80e-01,1.80e-01,
791,6.60e-01,1.62e-01,
792,6.60e-01,1.58e-01,
793,6.80e-01,1.62e-01,
794,6.40e-01,1.60e-01,
795,6.80e-01,1.74e-01,
796,6.40e-01,1.74e-01,
797,7.00e-01,1.86e-01,
798,6.80e-01,1.86e-01,
799,6.60e-01,1.90e-01,
800,6.60e-01,1.90e-01,
801,7.00e-01,1.94e-01,
802,6.80e-01,1.94e-01,
803,7.00e-01,1.92e-01,
804,7.00e-01,1.92e-01,
805,6.60e-01,1.94e-01,
806,7.00e-01,1.94e-01,
807,6.60e-01,1.90e-01,
808,6.60e-01,1.94e-01,
809,7.00e-01,1.90e-01,
810,7.00e-01,1.90e-01,
811,6.60e-01,1.94e-01,
812,7.00e-01,1.94e-01,
813,6.60e-01,1.90e-01,
814,7.00e-01,1.90e-01,
815,6.80e-01,1.90e-01,
816,6.80e-01,1.90e-01,
817,7.00e-01,1.92e-01,
818,7.00e-01,1.90e-01,
819,6.80e-01,1.90e-01,
820,7.00e-01,1.90e-01,
821,6.60e-01,1.90e-01,
822,6.80e-01,1.90e-01,
823,7.00e-01,1.90e-01,
824,7.20e-01,1.90e-01,
825,6.80e-01,1.90e-01,
826,7.00e-01,1.90e-01,
827,7.20e-01,1.92e-01,
828,7.20e-01,1.90e-01,
829,6.80e-01,1.90e-01,
830,7.20e-01,1.90e-01,
831,6.80e-01,1.90e-01,
832,7.00e-01,1.90e-01,
833,7.40e-01,1.92e-01,
834,6.80e-01,1.90e-01,
835,7.40e-01,1.92e-01,
836,7.20e-01,1.90e-01,
837,7.00e-01,1.90e-01,
838,7.20e-01,1.90e-01,
839,7.20e-01,1.92e-01,
840,7.20e-01,1.90e-01,
841,7.40e-01,1.90e-01,
842,7.20e-01,1.90e-01,
843,7.00e-01,1.92e-01,
844,7.20e-01,1.90e-01,
845,7.40e-01,1.90e-01,
846,7.40e-01,1.92e-01,
847,7.00e-01,1.90e-01,
848,7.20e-01,1.90e-01,
849,7.40e-01,1.92e-01,
850,7.20e-01,1.92e-01,
851,7.40e-01,1.90e-01,
852,7.20e-01,1.90e-01,
853,7.20e-01,1.90e-01,
854,7.20e-01,1.90e-01,
855,7.40e-01,1.90e-01,
856,7.20e-01,1.90e-01,
857,7.40e-01,1.92e-01,
858,7.60e-01,1.90e-01,
859,7.20e-01,1.92e-01,
860,7.20e-01,1.90e-01,
861,7.40e-01,1.90e-01,
862,7.40e-01,1.90e-01,
863,7.20e-01,1.92e-01,
864,7.20e-01,1.90e-01,
865,7.60e-01,1.90e-01,
866,7.60e-01,1.92e-01,
867,7.40e-01,1.88e-01,
868,7.60e-01,1.92e-01,
869,7.40e-01,1.86e-01,
870,7.20e-01,1.90e-01,
