quadratic_zeeman_data/1p5mHz_5s_172.csv

X,CH1,CH2,Start,Increment,
Sequence,Volt,Volt,-5.010000e+00,5.000000e-03
0,8.12e-01,5.28e-02,
1,8.24e-01,5.36e-02,
2,8.08e-01,5.24e-02,
3,8.24e-01,5.32e-02,
4,8.20e-01,5.36e-02,
5,8.08e-01,5.28e-02,
6,8.16e-01,5.28e-02,
7,8.28e-01,5.32e-02,
8,8.16e-01,5.28e-02,
9,8.28e-01,5.24e-02,
10,8.24e-01,5.32e-02,
11,8.08e-01,5.24e-02,
12,8.16e-01,5.28e-02,
13,8.32e-01,5.28e-02,
14,8.12e-01,5.28e-02,
15,8.24e-01,5.32e-02,
16,8.12e-01,5.28e-02,
17,8.28e-01,5.32e-02,
18,8.16e-01,5.24e-02,
19,8.28e-01,5.36e-02,
20,8.28e-01,5.28e-02,
21,8.16e-01,5.32e-02,
22,8.32e-01,5.28e-02,
23,8.16e-01,5.28e-02,
24,8.32e-01,5.28e-02,
25,8.12e-01,5.32e-02,
26,8.28e-01,5.28e-02,
27,8.16e-01,5.28e-02,
28,8.20e-01,5.32e-02,
29,8.32e-01,5.28e-02,
30,8.12e-01,5.28e-02,
31,8.24e-01,5.36e-02,
32,8.16e-01,5.32e-02,
33,8.28e-01,5.28e-02,
34,8.16e-01,5.32e-02,
35,8.28e-01,5.28e-02,
36,8.32e-01,5.28e-02,
37,8.16e-01,5.32e-02,
38,8.12e-01,5.28e-02,
39,8.28e-01,5.32e-02,
40,8.32e-01,5.28e-02,
41,8.16e-01,5.32e-02,
42,8.20e-01,5.28e-02,
43,8.32e-01,5.24e-02,
44,8.36e-01,5.28e-02,
45,8.20e-01,5.28e-02,
46,8.32e-01,5.28e-02,
47,8.20e-01,5.32e-02,
48,8.20e-01,5.32e-02,
49,8.36e-01,5.24e-02,
50,8.32e-01,5.32e-02,
51,8.20e-01,5.24e-02,
52,8.20e-01,5.24e-02,
53,8.32e-01,5.32e-02,
54,8.20e-01,5.28e-02,
55,8.36e-01,5.24e-02,
56,8.20e-01,5.28e-02,
57,8.32e-01,5.32e-02,
58,8.20e-01,5.28e-02,
59,8.32e-01,5.32e-02,
60,8.20e-01,5.28e-02,
61,8.32e-01,5.32e-02,
62,8.20e-01,5.28e-02,
63,8.28e-01,5.36e-02,
64,8.32e-01,5.28e-02,
65,8.20e-01,5.32e-02,
66,8.36e-01,5.36e-02,
67,8.24e-01,5.28e-02,
68,8.32e-01,5.24e-02,
69,8.24e-01,5.32e-02,
70,8.36e-01,5.32e-02,
71,8.24e-01,5.20e-02,
72,8.36e-01,5.20e-02,
73,8.20e-01,5.36e-02,
74,8.36e-01,5.32e-02,
75,8.24e-01,5.28e-02,
76,8.24e-01,5.32e-02,
77,8.40e-01,5.28e-02,
78,8.40e-01,5.32e-02,
79,8.24e-01,5.28e-02,
80,8.32e-01,5.28e-02,
81,8.40e-01,5.32e-02,
82,8.40e-01,5.28e-02,
83,5.76e-01,5.44e-02,
84,5.76e-01,5.48e-02,
85,5.88e-01,5.40e-02,
86,5.88e-01,5.48e-02,
87,5.76e-01,5.44e-02,
88,5.72e-01,5.48e-02,
89,5.88e-01,5.48e-02,
90,5.72e-01,5.52e-02,
91,5.88e-01,5.44e-02,
92,5.76e-01,5.44e-02,
93,5.88e-01,5.52e-02,
94,5.80e-01,5.44e-02,
95,5.84e-01,5.52e-02,
96,5.80e-01,5.44e-02,
97,5.88e-01,5.48e-02,
98,5.88e-01,5.44e-02,
99,5.76e-01,5.48e-02,
100,5.80e-01,5.44e-02,
101,5.92e-01,5.48e-02,
102,5.84e-01,5.44e-02,
103,5.88e-01,5.52e-02,
104,5.80e-01,5.48e-02,
105,5.88e-01,5.40e-02,
106,5.92e-01,5.48e-02,
107,5.72e-01,5.44e-02,
108,5.80e-01,5.44e-02,
109,5.92e-01,5.52e-02,
110,5.80e-01,5.44e-02,
111,5.88e-01,5.52e-02,
112,5.88e-01,5.48e-02,
113,5.84e-01,5.52e-02,
114,5.96e-01,5.44e-02,
115,5.80e-01,5.52e-02,
116,5.96e-01,5.44e-02,
117,5.80e-01,5.52e-02,
118,5.88e-01,5.48e-02,
119,5.84e-01,5.44e-02,
120,5.84e-01,5.52e-02,
121,5.96e-01,5.40e-02,
122,5.92e-01,5.44e-02,
123,5.80e-01,5.52e-02,
124,5.80e-01,5.52e-02,
125,5.96e-01,5.40e-02,
126,5.84e-01,5.44e-02,
127,5.96e-01,5.52e-02,
128,5.96e-01,5.48e-02,
129,5.84e-01,5.44e-02,
130,6.00e-01,5.44e-02,
131,5.84e-01,5.52e-02,
132,5.84e-01,5.44e-02,
133,6.00e-01,5.52e-02,
134,5.96e-01,5.52e-02,
135,5.84e-01,5.40e-02,
136,6.00e-01,5.44e-02,
137,5.84e-01,5.52e-02,
138,5.84e-01,5.52e-02,
139,6.00e-01,5.44e-02,
140,5.84e-01,5.52e-02,
141,5.96e-01,5.44e-02,
142,6.00e-01,5.44e-02,
143,5.88e-01,5.52e-02,
144,6.00e-01,5.52e-02,
145,5.84e-01,5.40e-02,
146,5.96e-01,5.44e-02,
147,5.88e-01,5.52e-02,
148,5.88e-01,5.56e-02,
149,6.00e-01,5.40e-02,
150,5.88e-01,5.52e-02,
151,5.96e-01,5.48e-02,
152,6.04e-01,5.44e-02,
153,5.88e-01,5.52e-02,
154,6.04e-01,5.52e-02,
155,5.92e-01,5.44e-02,
156,6.00e-01,5.40e-02,
157,5.92e-01,5.52e-02,
158,5.88e-01,5.44e-02,
159,6.04e-01,5.52e-02,
160,6.04e-01,5.52e-02,
161,5.92e-01,5.44e-02,
162,6.04e-01,5.52e-02,
163,5.88e-01,5.44e-02,
164,6.04e-01,5.56e-02,
165,5.88e-01,5.40e-02,
166,5.92e-01,5.52e-02,
167,6.04e-01,5.44e-02,
168,5.92e-01,5.52e-02,
169,6.04e-01,5.40e-02,
170,6.04e-01,5.56e-02,
171,5.92e-01,5.40e-02,
172,6.08e-01,5.48e-02,
173,5.92e-01,5.44e-02,
174,6.04e-01,5.40e-02,
175,5.92e-01,5.52e-02,
176,5.92e-01,5.44e-02,
177,6.08e-01,5.52e-02,
178,5.96e-01,5.44e-02,
179,6.08e-01,5.52e-02,
180,6.16e-01,5.44e-02,
181,5.96e-01,5.52e-02,
182,5.96e-01,5.44e-02,
183,6.08e-01,5.52e-02,
184,5.92e-01,5.52e-02,
185,6.08e-01,5.44e-02,
186,5.96e-01,5.44e-02,
187,6.12e-01,5.52e-02,
188,6.00e-01,5.44e-02,
189,6.12e-01,5.52e-02,
190,5.96e-01,5.40e-02,
191,6.12e-01,5.52e-02,
192,6.00e-01,5.44e-02,
193,6.16e-01,5.52e-02,
194,6.16e-01,5.48e-02,
195,6.00e-01,5.40e-02,
196,5.96e-01,5.44e-02,
197,6.16e-01,5.52e-02,
198,5.96e-01,5.48e-02,
199,6.12e-01,5.40e-02,
200,6.12e-01,5.44e-02,
201,5.96e-01,5.48e-02,
202,6.16e-01,5.40e-02,
203,6.00e-01,5.52e-02,
204,6.04e-01,5.44e-02,
205,6.16e-01,5.52e-02,
206,6.16e-01,5.48e-02,
207,6.00e-01,5.44e-02,
208,6.12e-01,5.44e-02,
209,6.00e-01,5.52e-02,
210,6.04e-01,5.52e-02,
211,6.20e-01,5.44e-02,
212,6.16e-01,5.52e-02,
213,6.04e-01,5.44e-02,
214,6.16e-01,5.52e-02,
215,6.00e-01,5.40e-02,
216,6.20e-01,5.52e-02,
217,6.04e-01,5.44e-02,
218,6.12e-01,5.48e-02,
219,6.00e-01,5.40e-02,
220,6.08e-01,5.48e-02,
221,6.20e-01,5.40e-02,
222,6.20e-01,5.44e-02,
223,6.08e-01,5.52e-02,
224,6.08e-01,5.52e-02,
225,6.20e-01,5.40e-02,
226,6.20e-01,5.44e-02,
227,6.08e-01,5.52e-02,
228,6.20e-01,5.52e-02,
229,6.04e-01,5.44e-02,
230,6.08e-01,5.44e-02,
231,6.16e-01,5.48e-02,
232,6.08e-01,5.40e-02,
233,6.24e-01,5.52e-02,
234,6.08e-01,5.44e-02,
235,6.20e-01,5.48e-02,
236,6.24e-01,5.44e-02,
237,6.08e-01,5.52e-02,
238,6.08e-01,5.40e-02,
239,6.24e-01,5.48e-02,
240,6.20e-01,5.52e-02,
241,6.08e-01,5.40e-02,
242,6.08e-01,5.44e-02,
243,6.24e-01,5.52e-02,
244,6.24e-01,5.48e-02,
245,6.08e-01,5.40e-02,
246,6.12e-01,5.48e-02,
247,6.24e-01,5.40e-02,
248,6.24e-01,5.40e-02,
249,6.08e-01,5.48e-02,
250,6.20e-01,5.44e-02,
251,6.08e-01,5.52e-02,
252,6.12e-01,5.48e-02,
253,6.24e-01,5.40e-02,
254,6.20e-01,5.52e-02,
255,6.12e-01,5.40e-02,
256,6.12e-01,5.52e-02,
257,6.28e-01,5.40e-02,
258,6.12e-01,5.48e-02,
259,6.24e-01,5.40e-02,
260,6.28e-01,5.48e-02,
261,6.16e-01,5.40e-02,
262,6.16e-01,5.40e-02,
263,6.28e-01,5.48e-02,
264,6.16e-01,5.48e-02,
265,6.32e-01,5.40e-02,
266,6.16e-01,5.40e-02,
267,6.28e-01,5.52e-02,
268,6.28e-01,5.48e-02,
269,6.16e-01,5.40e-02,
270,6.16e-01,5.48e-02,
271,6.32e-01,5.40e-02,
272,6.16e-01,5.40e-02,
273,6.28e-01,5.48e-02,
274,6.28e-01,5.48e-02,
275,6.16e-01,5.44e-02,
276,6.16e-01,5.44e-02,
277,6.32e-01,5.52e-02,
278,6.32e-01,5.40e-02,
279,6.16e-01,5.48e-02,
280,6.16e-01,5.48e-02,
281,6.28e-01,5.40e-02,
282,6.20e-01,5.48e-02,
283,6.32e-01,5.40e-02,
284,6.20e-01,5.52e-02,
285,6.32e-01,5.40e-02,
286,6.16e-01,5.48e-02,
287,6.32e-01,5.44e-02,
288,6.32e-01,5.40e-02,
289,6.20e-01,5.52e-02,
290,6.20e-01,5.44e-02,
291,6.32e-01,5.52e-02,
292,6.20e-01,5.40e-02,
293,6.36e-01,5.52e-02,
294,6.32e-01,5.48e-02,
295,6.20e-01,5.44e-02,
296,6.24e-01,5.44e-02,
297,6.36e-01,5.48e-02,
298,6.40e-01,5.48e-02,
299,6.24e-01,5.44e-02,
300,6.36e-01,5.48e-02,
301,6.20e-01,5.40e-02,
302,6.24e-01,5.40e-02,
303,6.36e-01,5.48e-02,
304,6.36e-01,5.40e-02,
305,6.20e-01,5.48e-02,
306,6.24e-01,5.48e-02,
307,6.36e-01,5.40e-02,
308,6.28e-01,5.48e-02,
309,6.40e-01,5.40e-02,
310,6.40e-01,5.44e-02,
311,6.24e-01,5.48e-02,
312,6.28e-01,5.52e-02,
313,6.40e-01,5.40e-02,
314,6.24e-01,5.48e-02,
315,6.40e-01,5.40e-02,
316,6.36e-01,5.48e-02,
317,6.24e-01,5.44e-02,
318,6.28e-01,5.44e-02,
319,6.36e-01,5.52e-02,
320,6.28e-01,5.48e-02,
321,6.40e-01,5.40e-02,
322,6.36e-01,5.40e-02,
323,6.24e-01,5.48e-02,
324,6.44e-01,5.52e-02,
325,6.28e-01,5.40e-02,
326,6.40e-01,5.44e-02,
327,6.28e-01,5.52e-02,
328,6.36e-01,5.40e-02,
329,6.28e-01,5.48e-02,
330,6.48e-01,5.44e-02,
331,6.32e-01,5.48e-02,
332,6.40e-01,5.40e-02,
333,6.32e-01,5.52e-02,
334,6.32e-01,5.40e-02,
335,6.44e-01,5.48e-02,
336,6.40e-01,5.52e-02,
337,6.32e-01,5.40e-02,
338,6.48e-01,5.40e-02,
339,6.32e-01,5.48e-02,
340,6.36e-01,5.44e-02,
341,6.48e-01,5.48e-02,
342,6.32e-01,5.40e-02,
343,6.48e-01,5.48e-02,
344,6.48e-01,5.40e-02,
345,6.32e-01,5.52e-02,
346,6.48e-01,5.48e-02,
347,6.36e-01,5.40e-02,
348,6.48e-01,5.36e-02,
349,6.32e-01,5.48e-02,
350,6.36e-01,5.44e-02,
351,6.48e-01,5.48e-02,
352,6.44e-01,5.48e-02,
353,6.36e-01,5.44e-02,
354,6.36e-01,5.48e-02,
355,6.52e-01,5.40e-02,
356,6.52e-01,5.52e-02,
357,6.36e-01,5.44e-02,
358,6.40e-01,5.44e-02,
359,6.44e-01,5.52e-02,
360,6.52e-01,5.48e-02,
361,6.36e-01,5.40e-02,
362,6.52e-01,5.48e-02,
363,6.40e-01,5.36e-02,
364,6.52e-01,5.36e-02,
365,6.40e-01,5.48e-02,
366,6.40e-01,5.44e-02,
367,6.48e-01,5.36e-02,
368,6.40e-01,5.36e-02,
369,6.52e-01,5.44e-02,
370,6.40e-01,5.40e-02,
371,6.52e-01,5.32e-02,
372,6.44e-01,5.28e-02,
373,6.52e-01,5.36e-02,
374,6.56e-01,5.32e-02,
375,6.40e-01,5.24e-02,
376,6.52e-01,5.32e-02,
377,6.40e-01,5.40e-02,
378,6.40e-01,5.32e-02,
379,6.52e-01,5.32e-02,
380,6.40e-01,5.40e-02,
381,6.56e-01,5.32e-02,
382,6.40e-01,5.32e-02,
383,6.56e-01,5.40e-02,
384,6.44e-01,5.28e-02,
385,6.56e-01,5.40e-02,
386,6.52e-01,5.32e-02,
387,6.40e-01,5.40e-02,
388,6.56e-01,5.32e-02,
389,6.44e-01,5.40e-02,
390,6.56e-01,5.32e-02,
391,6.44e-01,5.36e-02,
392,6.56e-01,5.28e-02,
393,6.44e-01,5.24e-02,
394,6.44e-01,5.24e-02,
395,6.56e-01,5.16e-02,
396,6.44e-01,5.20e-02,
397,6.56e-01,5.12e-02,
398,6.44e-01,5.12e-02,
399,6.56e-01,5.20e-02,
400,6.44e-01,5.12e-02,
401,6.60e-01,5.20e-02,
402,6.44e-01,5.20e-02,
403,6.60e-01,5.24e-02,
404,6.44e-01,5.16e-02,
405,6.56e-01,5.28e-02,
406,6.60e-01,5.16e-02,
407,6.48e-01,5.28e-02,
408,6.48e-01,5.16e-02,
409,6.60e-01,5.32e-02,
410,6.60e-01,5.28e-02,
411,6.48e-01,5.32e-02,
412,6.60e-01,5.20e-02,
413,6.48e-01,5.28e-02,
414,6.64e-01,5.24e-02,
415,6.48e-01,5.08e-02,
416,6.64e-01,5.12e-02,
417,6.48e-01,5.00e-02,
418,6.60e-01,4.96e-02,
419,6.48e-01,5.04e-02,
420,6.44e-01,4.96e-02,
421,6.68e-01,5.08e-02,
422,6.64e-01,5.08e-02,
423,6.48e-01,5.00e-02,
424,6.64e-01,5.04e-02,
425,6.48e-01,5.12e-02,
426,6.64e-01,5.12e-02,
427,6.48e-01,5.20e-02,
428,6.48e-01,5.24e-02,
429,6.68e-01,5.16e-02,
430,6.64e-01,5.28e-02,
431,6.56e-01,5.20e-02,
432,6.56e-01,5.24e-02,
433,6.72e-01,5.28e-02,
434,6.68e-01,5.24e-02,
435,6.52e-01,5.12e-02,
436,6.68e-01,5.12e-02,
437,6.52e-01,5.00e-02,
438,6.56e-01,4.96e-02,
439,6.72e-01,4.88e-02,
440,6.56e-01,4.88e-02,
441,6.72e-01,4.80e-02,
442,6.64e-01,4.76e-02,
443,6.56e-01,4.88e-02,
444,6.76e-01,4.88e-02,
445,6.56e-01,4.96e-02,
446,6.56e-01,4.96e-02,
447,6.72e-01,5.12e-02,
448,6.72e-01,5.08e-02,
449,6.56e-01,5.20e-02,
450,6.60e-01,5.20e-02,
451,6.72e-01,5.28e-02,
452,6.72e-01,5.16e-02,
453,6.56e-01,5.36e-02,
454,6.72e-01,5.28e-02,
455,6.56e-01,5.20e-02,
456,6.56e-01,5.28e-02,
457,6.72e-01,5.20e-02,
458,6.76e-01,5.20e-02,
459,6.60e-01,5.00e-02,
460,6.72e-01,5.04e-02,
461,6.60e-01,4.72e-02,
462,6.60e-01,4.72e-02,
463,6.76e-01,4.60e-02,
464,6.60e-01,4.68e-02,
465,6.76e-01,4.60e-02,
466,6.64e-01,4.68e-02,
467,6.72e-01,4.80e-02,
468,6.64e-01,4.84e-02,
469,6.76e-01,5.00e-02,
470,6.64e-01,5.00e-02,
471,6.76e-01,5.12e-02,
472,6.64e-01,5.16e-02,
473,6.76e-01,5.24e-02,
474,6.64e-01,5.24e-02,
475,6.76e-01,5.28e-02,
476,6.80e-01,5.28e-02,
477,6.64e-01,5.24e-02,
478,6.64e-01,5.28e-02,
479,6.80e-01,5.16e-02,
480,6.64e-01,5.20e-02,
481,6.80e-01,4.92e-02,
482,6.80e-01,4.88e-02,
483,6.64e-01,4.72e-02,
484,6.80e-01,4.72e-02,
485,6.64e-01,4.52e-02,
486,6.68e-01,4.60e-02,
487,6.80e-01,4.48e-02,
488,6.76e-01,4.52e-02,
489,6.64e-01,4.72e-02,
490,6.76e-01,4.68e-02,
491,6.64e-01,4.92e-02,
492,6.80e-01,4.92e-02,
493,6.68e-01,5.12e-02,
494,6.68e-01,5.08e-02,
495,6.84e-01,5.24e-02,
496,6.64e-01,5.24e-02,
497,6.80e-01,5.32e-02,
498,6.68e-01,5.32e-02,
499,6.80e-01,5.36e-02,
500,6.68e-01,5.32e-02,
501,6.84e-01,5.44e-02,
502,6.68e-01,5.32e-02,
503,6.84e-01,5.40e-02,
504,6.68e-01,5.36e-02,
505,6.84e-01,5.44e-02,
506,6.80e-01,5.40e-02,
507,6.68e-01,5.36e-02,
508,6.84e-01,5.36e-02,
509,6.68e-01,5.44e-02,
510,6.84e-01,5.40e-02,
511,6.68e-01,5.32e-02,
512,6.84e-01,5.36e-02,
513,6.72e-01,5.48e-02,
514,6.72e-01,5.36e-02,
515,6.84e-01,5.44e-02,
516,6.72e-01,5.48e-02,
517,6.84e-01,5.36e-02,
518,6.68e-01,5.44e-02,
519,6.92e-01,5.36e-02,
520,6.84e-01,5.40e-02,
521,6.72e-01,5.48e-02,
522,6.88e-01,5.36e-02,
523,6.72e-01,5.48e-02,
524,6.72e-01,5.48e-02,
525,6.92e-01,5.36e-02,
526,6.88e-01,5.36e-02,
527,6.76e-01,5.44e-02,
528,6.88e-01,5.36e-02,
529,6.72e-01,5.48e-02,
530,6.76e-01,5.44e-02,
531,6.88e-01,5.36e-02,
532,6.76e-01,5.36e-02,
533,6.88e-01,5.44e-02,
534,6.72e-01,5.48e-02,
535,6.92e-01,5.36e-02,
536,6.88e-01,5.44e-02,
537,6.80e-01,5.36e-02,
538,6.76e-01,5.36e-02,
539,6.88e-01,5.44e-02,
540,6.88e-01,5.48e-02,
541,6.80e-01,5.36e-02,
542,6.88e-01,5.36e-02,
543,6.76e-01,5.48e-02,
544,6.80e-01,5.44e-02,
545,6.92e-01,5.36e-02,
546,6.96e-01,5.44e-02,
547,6.80e-01,5.36e-02,
548,6.80e-01,5.44e-02,
549,6.92e-01,5.36e-02,
550,6.84e-01,5.48e-02,
551,6.96e-01,5.36e-02,
552,6.92e-01,5.36e-02,
553,6.80e-01,5.48e-02,
554,6.80e-01,5.44e-02,
555,6.96e-01,5.40e-02,
556,6.92e-01,5.44e-02,
557,6.80e-01,5.40e-02,
558,6.84e-01,5.36e-02,
559,6.92e-01,5.44e-02,
560,7.00e-01,5.44e-02,
561,6.80e-01,5.36e-02,
562,6.84e-01,5.36e-02,
563,6.96e-01,5.44e-02,
564,6.96e-01,5.44e-02,
565,6.84e-01,5.36e-02,
566,7.00e-01,5.48e-02,
567,6.84e-01,5.40e-02,
568,6.92e-01,5.44e-02,
569,6.84e-01,5.36e-02,
570,7.00e-01,5.40e-02,
571,6.88e-01,5.48e-02,
572,7.00e-01,5.36e-02,
573,6.88e-01,5.44e-02,
574,6.84e-01,5.36e-02,
575,7.00e-01,5.44e-02,
576,6.88e-01,5.44e-02,
577,7.04e-01,5.36e-02,
578,6.88e-01,5.36e-02,
579,7.04e-01,5.48e-02,
580,7.04e-01,5.36e-02,
581,6.88e-01,5.44e-02,
582,7.00e-01,5.48e-02,
583,6.88e-01,5.36e-02,
584,7.00e-01,5.36e-02,
585,6.88e-01,5.44e-02,
586,7.04e-01,5.36e-02,
587,6.88e-01,5.44e-02,
588,7.04e-01,5.36e-02,
589,6.88e-01,5.48e-02,
590,6.88e-01,5.44e-02,
591,7.04e-01,5.36e-02,
592,6.92e-01,5.40e-02,
593,7.08e-01,5.48e-02,
594,7.00e-01,5.40e-02,
595,6.92e-01,5.36e-02,
596,6.92e-01,5.36e-02,
597,7.04e-01,5.48e-02,
598,7.00e-01,5.44e-02,
599,6.92e-01,5.36e-02,
600,6.92e-01,5.44e-02,
601,7.08e-01,5.36e-02,
602,6.92e-01,5.36e-02,
603,7.04e-01,5.48e-02,
604,7.08e-01,5.44e-02,
605,6.92e-01,5.36e-02,
606,6.96e-01,5.36e-02,
607,7.08e-01,5.44e-02,
608,6.96e-01,5.40e-02,
609,7.08e-01,5.36e-02,
610,7.04e-01,5.44e-02,
611,6.96e-01,5.36e-02,
612,6.96e-01,5.40e-02,
613,7.08e-01,5.44e-02,
614,6.96e-01,5.44e-02,
615,7.04e-01,5.36e-02,
616,6.96e-01,5.44e-02,
617,7.12e-01,5.36e-02,
618,6.96e-01,5.36e-02,
619,7.12e-01,5.44e-02,
620,6.96e-01,5.36e-02,
621,7.08e-01,5.44e-02,
622,7.12e-01,5.36e-02,
623,6.96e-01,5.44e-02,
624,6.96e-01,5.36e-02,
625,7.12e-01,5.44e-02,
626,6.92e-01,5.44e-02,
627,7.08e-01,5.36e-02,
628,7.08e-01,5.40e-02,
629,7.00e-01,5.36e-02,
630,6.96e-01,5.44e-02,
631,7.12e-01,5.36e-02,
632,7.12e-01,5.32e-02,
633,7.00e-01,5.44e-02,
634,7.12e-01,5.40e-02,
635,6.96e-01,5.36e-02,
636,6.96e-01,5.44e-02,
637,7.12e-01,5.36e-02,
638,7.16e-01,5.44e-02,
639,7.00e-01,5.36e-02,
640,7.00e-01,5.40e-02,
641,7.12e-01,5.36e-02,
642,7.16e-01,5.32e-02,
643,7.00e-01,5.44e-02,
644,7.16e-01,5.40e-02,
645,7.00e-01,5.36e-02,
646,7.16e-01,5.36e-02,
647,7.00e-01,5.44e-02,
648,7.16e-01,5.44e-02,
649,7.04e-01,5.32e-02,
650,7.00e-01,5.44e-02,
651,7.16e-01,5.36e-02,
652,7.16e-01,5.36e-02,
653,7.00e-01,5.44e-02,
654,7.08e-01,5.44e-02,
655,7.20e-01,5.36e-02,
656,7.20e-01,5.36e-02,
657,7.00e-01,5.44e-02,
658,7.16e-01,5.36e-02,
659,7.04e-01,5.44e-02,
660,7.08e-01,5.44e-02,
661,7.20e-01,5.36e-02,
662,7.08e-01,5.36e-02,
663,7.24e-01,5.44e-02,
664,7.20e-01,5.44e-02,
665,7.04e-01,5.36e-02,
666,7.16e-01,5.44e-02,
667,7.04e-01,5.32e-02,
668,7.24e-01,5.36e-02,
669,7.08e-01,5.44e-02,
670,7.20e-01,5.36e-02,
671,7.04e-01,5.44e-02,
672,7.08e-01,5.36e-02,
673,7.24e-01,5.44e-02,
674,7.12e-01,5.44e-02,
675,7.24e-01,5.36e-02,
676,7.12e-01,5.44e-02,
677,7.24e-01,5.36e-02,
678,7.12e-01,5.36e-02,
679,7.20e-01,5.44e-02,
680,7.28e-01,5.44e-02,
681,7.08e-01,5.36e-02,
682,7.24e-01,5.44e-02,
683,7.12e-01,5.32e-02,
684,7.12e-01,5.36e-02,
685,7.24e-01,5.44e-02,
686,7.12e-01,5.40e-02,
687,7.28e-01,5.36e-02,
688,7.12e-01,5.44e-02,
689,7.28e-01,5.36e-02,
690,7.12e-01,5.36e-02,
691,7.28e-01,5.44e-02,
692,7.28e-01,5.36e-02,
693,7.12e-01,5.44e-02,
694,7.28e-01,5.32e-02,
695,7.16e-01,5.40e-02,
696,7.12e-01,5.32e-02,
697,7.28e-01,5.44e-02,
698,7.12e-01,5.40e-02,
699,7.28e-01,5.32e-02,
700,7.32e-01,5.44e-02,
701,7.16e-01,5.36e-02,
702,7.16e-01,5.40e-02,
703,7.32e-01,5.44e-02,
704,7.16e-01,5.36e-02,
705,7.32e-01,5.44e-02,
706,7.16e-01,5.36e-02,
707,7.32e-01,5.48e-02,
708,7.28e-01,5.32e-02,
709,7.16e-01,5.40e-02,
710,7.32e-01,5.36e-02,
711,7.16e-01,5.40e-02,
712,7.28e-01,5.32e-02,
713,7.16e-01,5.40e-02,
714,7.20e-01,5.36e-02,
715,7.28e-01,5.44e-02,
716,7.16e-01,5.32e-02,
717,7.32e-01,5.44e-02,
718,7.32e-01,5.40e-02,
719,7.16e-01,5.32e-02,
720,7.20e-01,5.36e-02,
721,7.32e-01,5.44e-02,
722,7.20e-01,5.32e-02,
723,7.36e-01,5.44e-02,
724,7.20e-01,5.32e-02,
725,7.32e-01,5.44e-02,
726,7.28e-01,5.44e-02,
727,7.20e-01,5.36e-02,
728,7.20e-01,5.44e-02,
729,7.36e-01,5.36e-02,
730,7.20e-01,5.40e-02,
731,7.36e-01,5.36e-02,
732,7.36e-01,5.36e-02,
733,7.20e-01,5.44e-02,
734,7.36e-01,5.36e-02,
735,7.20e-01,5.44e-02,
736,7.36e-01,5.36e-02,
737,7.20e-01,5.44e-02,
738,7.24e-01,5.44e-02,
739,7.36e-01,5.36e-02,
740,7.24e-01,5.44e-02,
741,7.36e-01,5.36e-02,
742,7.40e-01,5.40e-02,
743,7.24e-01,5.32e-02,
744,7.24e-01,5.40e-02,
745,7.36e-01,5.32e-02,
746,7.36e-01,5.40e-02,
747,7.28e-01,5.32e-02,
748,7.24e-01,5.44e-02,
749,7.40e-01,5.32e-02,
750,7.24e-01,5.44e-02,
751,7.36e-01,5.36e-02,
752,7.40e-01,5.32e-02,
753,7.24e-01,5.40e-02,
754,7.24e-01,5.40e-02,
755,7.44e-01,5.32e-02,
756,7.24e-01,5.40e-02,
757,7.40e-01,5.32e-02,
758,7.40e-01,5.44e-02,
759,7.24e-01,5.32e-02,
760,7.24e-01,5.36e-02,
761,7.40e-01,5.44e-02,
762,7.28e-01,5.36e-02,
763,7.40e-01,5.32e-02,
764,7.48e-01,5.36e-02,
765,7.28e-01,5.40e-02,
766,7.44e-01,5.36e-02,
767,7.28e-01,5.44e-02,
768,7.32e-01,5.32e-02,
769,7.44e-01,5.40e-02,
770,7.32e-01,5.40e-02,
771,7.44e-01,5.32e-02,
772,7.44e-01,5.36e-02,
773,7.28e-01,5.48e-02,
774,7.32e-01,5.36e-02,
775,7.48e-01,5.44e-02,
776,7.44e-01,5.40e-02,
777,7.32e-01,5.32e-02,
778,7.28e-01,5.32e-02,
779,7.48e-01,5.40e-02,
780,7.48e-01,5.32e-02,
781,7.36e-01,5.44e-02,
782,7.48e-01,5.32e-02,
783,7.36e-01,5.44e-02,
784,7.32e-01,5.32e-02,
785,7.52e-01,5.40e-02,
786,7.36e-01,5.32e-02,
787,7.52e-01,5.40e-02,
788,7.32e-01,5.44e-02,
789,7.52e-01,5.32e-02,
790,7.36e-01,5.36e-02,
791,7.48e-01,5.40e-02,
792,7.48e-01,5.44e-02,
793,7.28e-01,5.36e-02,
794,7.36e-01,5.32e-02,
795,7.52e-01,5.40e-02,
796,7.52e-01,5.36e-02,
797,7.36e-01,5.40e-02,
798,7.52e-01,5.36e-02,
799,7.40e-01,5.44e-02,
800,7.52e-01,5.36e-02,
801,7.36e-01,5.40e-02,
802,7.52e-01,5.32e-02,
803,7.36e-01,5.40e-02,
804,7.40e-01,5.40e-02,
805,7.52e-01,5.32e-02,
806,7.52e-01,5.40e-02,
807,7.40e-01,5.36e-02,
808,7.44e-01,5.40e-02,
809,7.52e-01,5.36e-02,
810,7.40e-01,5.32e-02,
811,7.56e-01,5.40e-02,
812,7.48e-01,5.40e-02,
813,7.40e-01,5.32e-02,
814,7.40e-01,5.36e-02,
815,7.52e-01,5.32e-02,
816,7.52e-01,5.32e-02,
817,7.40e-01,5.40e-02,
818,7.44e-01,5.32e-02,
819,7.56e-01,5.44e-02,
820,7.56e-01,5.36e-02,
821,7.40e-01,5.44e-02,
822,7.60e-01,5.32e-02,
823,7.44e-01,5.40e-02,
824,7.44e-01,5.40e-02,
825,7.56e-01,5.32e-02,
826,7.44e-01,5.36e-02,
827,7.56e-01,5.44e-02,
828,7.44e-01,5.36e-02,
829,7.60e-01,5.32e-02,
830,7.44e-01,5.40e-02,
831,7.56e-01,5.32e-02,
832,7.44e-01,5.36e-02,
833,7.60e-01,5.32e-02,
834,7.44e-01,5.40e-02,
835,7.56e-01,5.32e-02,
836,7.48e-01,5.36e-02,
837,7.60e-01,5.44e-02,
838,7.60e-01,5.36e-02,
839,7.44e-01,5.32e-02,
840,7.64e-01,5.40e-02,
841,7.48e-01,5.32e-02,
842,7.48e-01,5.36e-02,
843,7.60e-01,5.40e-02,
844,7.48e-01,5.32e-02,
845,7.64e-01,5.40e-02,
846,7.48e-01,5.32e-02,
847,7.60e-01,5.44e-02,
848,7.64e-01,5.32e-02,
849,7.48e-01,5.40e-02,
850,7.48e-01,5.40e-02,
851,7.64e-01,5.32e-02,
852,7.64e-01,5.44e-02,
853,7.48e-01,5.32e-02,
854,7.64e-01,5.36e-02,
855,7.48e-01,5.40e-02,
856,7.64e-01,5.44e-02,
857,7.48e-01,5.32e-02,
858,7.52e-01,5.40e-02,
859,7.64e-01,5.32e-02,
860,7.64e-01,5.32e-02,
861,7.48e-01,5.40e-02,
862,7.56e-01,5.32e-02,
863,7.64e-01,5.44e-02,
864,7.68e-01,5.32e-02,
865,7.52e-01,5.36e-02,
866,7.56e-01,5.36e-02,
867,7.64e-01,5.44e-02,
868,7.56e-01,5.32e-02,
869,7.68e-01,5.44e-02,
870,7.56e-01,5.40e-02,
