quadratic_zeeman_data/2p5MH_10s.csv

X,CH1,CH2,Start,Increment,
Sequence,Volt,Volt,-6.170000e+00,1.000000e-02
0,7.28e-01,-1.20e-01,
1,7.44e-01,-1.19e-01,
2,7.28e-01,-1.19e-01,
3,7.44e-01,-1.20e-01,
4,7.44e-01,-1.19e-01,
5,7.28e-01,-1.20e-01,
6,7.44e-01,-1.19e-01,
7,7.28e-01,-1.20e-01,
8,7.44e-01,-1.19e-01,
9,7.28e-01,-1.21e-01,
10,7.28e-01,-1.19e-01,
11,7.52e-01,-1.20e-01,
12,7.36e-01,-1.20e-01,
13,7.52e-01,-1.19e-01,
14,7.52e-01,-1.20e-01,
15,7.28e-01,-1.19e-01,
16,7.36e-01,-1.19e-01,
17,7.52e-01,-1.21e-01,
18,7.52e-01,-1.21e-01,
19,7.36e-01,-1.19e-01,
20,7.44e-01,-1.21e-01,
21,7.52e-01,-1.19e-01,
22,7.52e-01,-1.19e-01,
23,7.36e-01,-1.21e-01,
24,7.36e-01,-1.21e-01,
25,7.52e-01,-1.19e-01,
26,7.52e-01,-1.19e-01,
27,7.44e-01,-1.21e-01,
28,7.60e-01,-1.20e-01,
29,7.44e-01,-1.21e-01,
30,7.52e-01,-1.19e-01,
31,7.52e-01,-1.21e-01,
32,7.44e-01,-1.20e-01,
33,7.60e-01,-1.21e-01,
34,7.52e-01,-1.20e-01,
35,7.60e-01,-1.21e-01,
36,7.60e-01,-1.21e-01,
37,7.44e-01,-1.19e-01,
38,7.52e-01,-1.21e-01,
39,7.60e-01,-1.20e-01,
40,7.52e-01,-1.21e-01,
41,7.68e-01,-1.19e-01,
42,7.52e-01,-1.19e-01,
43,7.68e-01,-1.21e-01,
44,7.52e-01,-1.19e-01,
45,7.60e-01,-1.21e-01,
46,7.68e-01,-1.21e-01,
47,7.52e-01,-1.20e-01,
48,7.52e-01,-1.20e-01,
49,7.68e-01,-1.22e-01,
50,7.68e-01,-1.21e-01,
51,7.52e-01,-1.20e-01,
52,7.60e-01,-1.20e-01,
53,7.76e-01,-1.22e-01,
54,7.68e-01,-1.22e-01,
55,7.52e-01,-1.20e-01,
56,7.68e-01,-1.20e-01,
57,7.52e-01,-1.22e-01,
58,7.60e-01,-1.22e-01,
59,7.68e-01,-1.20e-01,
60,7.60e-01,-1.22e-01,
61,7.76e-01,-1.21e-01,
62,7.68e-01,-1.22e-01,
63,2.88e-01,-1.18e-01,
64,3.04e-01,-1.18e-01,
65,2.96e-01,-1.06e-01,
66,3.04e-01,-1.04e-01,
67,2.96e-01,-9.60e-02,
68,2.96e-01,-9.68e-02,
69,3.04e-01,-9.44e-02,
70,3.12e-01,-9.44e-02,
71,2.96e-01,-9.36e-02,
72,2.96e-01,-9.44e-02,
73,3.12e-01,-9.52e-02,
74,2.96e-01,-9.52e-02,
75,3.12e-01,-9.60e-02,
76,3.12e-01,-9.52e-02,
77,2.96e-01,-9.52e-02,
78,2.96e-01,-9.52e-02,
79,3.12e-01,-9.60e-02,
80,3.12e-01,-9.52e-02,
81,2.96e-01,-9.68e-02,
82,3.12e-01,-9.60e-02,
83,2.96e-01,-9.52e-02,
84,3.12e-01,-9.52e-02,
85,3.04e-01,-9.60e-02,
86,3.04e-01,-9.68e-02,
87,3.12e-01,-9.52e-02,
88,2.96e-01,-9.52e-02,
89,3.20e-01,-9.60e-02,
90,3.04e-01,-9.68e-02,
91,3.20e-01,-9.52e-02,
92,3.12e-01,-9.52e-02,
93,3.20e-01,-9.68e-02,
94,3.04e-01,-9.60e-02,
95,3.12e-01,-9.68e-02,
96,3.04e-01,-9.68e-02,
97,3.20e-01,-9.52e-02,
98,3.04e-01,-9.52e-02,
99,3.20e-01,-9.68e-02,
100,3.12e-01,-9.60e-02,
101,3.20e-01,-9.60e-02,
102,3.20e-01,-9.68e-02,
103,3.12e-01,-9.60e-02,
104,3.20e-01,-9.60e-02,
105,3.12e-01,-9.68e-02,
106,3.12e-01,-9.60e-02,
107,3.20e-01,-9.68e-02,
108,3.12e-01,-9.68e-02,
109,3.28e-01,-9.60e-02,
110,3.12e-01,-9.68e-02,
111,3.28e-01,-9.60e-02,
112,3.20e-01,-9.60e-02,
113,3.12e-01,-9.68e-02,
114,3.12e-01,-9.52e-02,
115,3.28e-01,-9.68e-02,
116,3.28e-01,-9.60e-02,
117,3.12e-01,-9.68e-02,
118,3.12e-01,-9.60e-02,
119,3.28e-01,-9.76e-02,
120,3.12e-01,-9.60e-02,
121,3.28e-01,-9.76e-02,
122,3.20e-01,-9.76e-02,
123,3.28e-01,-9.60e-02,
124,3.28e-01,-9.68e-02,
125,3.12e-01,-9.60e-02,
126,3.20e-01,-9.68e-02,
127,3.28e-01,-9.76e-02,
128,3.20e-01,-9.60e-02,
129,3.28e-01,-9.76e-02,
130,3.44e-01,-9.76e-02,
131,3.20e-01,-9.60e-02,
132,3.28e-01,-9.60e-02,
133,3.28e-01,-9.76e-02,
134,3.28e-01,-9.60e-02,
135,3.36e-01,-9.76e-02,
136,3.36e-01,-9.76e-02,
137,3.28e-01,-9.60e-02,
138,3.28e-01,-9.76e-02,
139,3.44e-01,-9.68e-02,
140,3.44e-01,-9.68e-02,
141,3.28e-01,-9.76e-02,
142,3.28e-01,-9.60e-02,
143,3.44e-01,-9.76e-02,
144,3.28e-01,-9.68e-02,
145,3.44e-01,-9.76e-02,
146,3.36e-01,-9.76e-02,
147,3.44e-01,-9.68e-02,
148,3.28e-01,-9.68e-02,
149,3.44e-01,-9.76e-02,
150,3.36e-01,-9.68e-02,
151,3.44e-01,-9.76e-02,
152,3.36e-01,-9.68e-02,
153,3.44e-01,-9.76e-02,
154,3.36e-01,-9.68e-02,
155,3.52e-01,-9.76e-02,
156,3.36e-01,-9.68e-02,
157,3.44e-01,-9.84e-02,
158,3.36e-01,-9.84e-02,
159,3.52e-01,-9.68e-02,
160,3.44e-01,-9.68e-02,
161,3.36e-01,-9.84e-02,
162,3.36e-01,-9.84e-02,
163,3.52e-01,-9.68e-02,
164,3.36e-01,-9.84e-02,
165,3.52e-01,-9.68e-02,
166,3.52e-01,-9.76e-02,
167,3.36e-01,-9.84e-02,
168,3.44e-01,-9.84e-02,
169,3.52e-01,-9.68e-02,
170,3.52e-01,-9.84e-02,
171,3.44e-01,-9.68e-02,
172,3.44e-01,-9.84e-02,
173,3.60e-01,-9.76e-02,
174,3.52e-01,-9.76e-02,
175,3.44e-01,-9.92e-02,
176,3.52e-01,-9.76e-02,
177,3.44e-01,-9.92e-02,
178,3.44e-01,-9.92e-02,
179,3.52e-01,-9.76e-02,
180,3.44e-01,-9.76e-02,
181,3.52e-01,-9.92e-02,
182,3.44e-01,-9.76e-02,
183,3.60e-01,-9.92e-02,
184,3.52e-01,-9.92e-02,
185,3.44e-01,-9.84e-02,
186,3.60e-01,-9.84e-02,
187,3.44e-01,-9.92e-02,
188,3.44e-01,-9.84e-02,
189,3.60e-01,-9.92e-02,
190,3.44e-01,-9.92e-02,
191,3.60e-01,-9.84e-02,
192,3.60e-01,-9.84e-02,
193,3.44e-01,-9.92e-02,
194,3.60e-01,-9.92e-02,
195,3.52e-01,-9.84e-02,
196,3.44e-01,-9.92e-02,
197,3.60e-01,-1.00e-01,
198,3.52e-01,-1.00e-01,
199,3.60e-01,-9.84e-02,
200,3.68e-01,-9.84e-02,
201,3.52e-01,-1.00e-01,
202,3.52e-01,-9.84e-02,
203,3.68e-01,-1.00e-01,
204,3.68e-01,-9.84e-02,
205,3.52e-01,-1.00e-01,
206,3.68e-01,-9.84e-02,
207,3.52e-01,-1.00e-01,
208,3.52e-01,-9.84e-02,
209,3.68e-01,-1.00e-01,
210,3.68e-01,-1.00e-01,
211,3.60e-01,-9.84e-02,
212,3.68e-01,-9.92e-02,
213,3.52e-01,-1.00e-01,
214,3.68e-01,-1.00e-01,
215,3.60e-01,-9.84e-02,
216,3.60e-01,-1.00e-01,
217,3.68e-01,-9.92e-02,
218,3.76e-01,-1.00e-01,
219,3.60e-01,-9.84e-02,
220,3.60e-01,-1.00e-01,
221,3.76e-01,-9.92e-02,
222,3.68e-01,-9.92e-02,
223,3.60e-01,-1.00e-01,
224,3.68e-01,-1.00e-01,
225,3.60e-01,-1.00e-01,
226,3.60e-01,-9.92e-02,
227,3.76e-01,-1.00e-01,
228,3.60e-01,-1.00e-01,
229,3.76e-01,-1.00e-01,
230,3.76e-01,-1.00e-01,
231,3.60e-01,-9.92e-02,
232,3.76e-01,-1.00e-01,
233,3.68e-01,-9.92e-02,
234,3.76e-01,-1.00e-01,
235,3.68e-01,-9.92e-02,
236,3.76e-01,-1.01e-01,
237,3.68e-01,-9.92e-02,
238,3.76e-01,-1.00e-01,
239,3.76e-01,-9.92e-02,
240,3.60e-01,-9.92e-02,
241,3.84e-01,-1.01e-01,
242,3.76e-01,-1.01e-01,
243,3.84e-01,-9.92e-02,
244,3.76e-01,-9.92e-02,
245,3.84e-01,-1.01e-01,
246,3.84e-01,-1.01e-01,
247,3.76e-01,-9.92e-02,
248,3.84e-01,-1.01e-01,
249,3.68e-01,-1.00e-01,
250,3.92e-01,-1.01e-01,
251,3.68e-01,-9.92e-02,
252,3.68e-01,-1.01e-01,
253,3.84e-01,-1.01e-01,
254,3.84e-01,-1.01e-01,
255,3.76e-01,-1.00e-01,
256,3.76e-01,-1.01e-01,
257,3.92e-01,-9.92e-02,
258,3.84e-01,-1.01e-01,
259,3.68e-01,-1.00e-01,
260,3.84e-01,-1.01e-01,
261,3.92e-01,-1.00e-01,
262,3.84e-01,-1.01e-01,
263,4.00e-01,-1.01e-01,
264,3.84e-01,-1.01e-01,
265,4.00e-01,-1.00e-01,
266,3.92e-01,-1.01e-01,
267,3.84e-01,-1.00e-01,
268,3.84e-01,-1.01e-01,
269,4.00e-01,-1.00e-01,
270,3.84e-01,-1.02e-01,
271,4.00e-01,-1.00e-01,
272,3.84e-01,-1.01e-01,
273,3.92e-01,-1.02e-01,
274,3.84e-01,-1.02e-01,
275,4.00e-01,-1.00e-01,
276,3.92e-01,-1.01e-01,
277,3.84e-01,-1.02e-01,
278,4.00e-01,-1.02e-01,
279,3.92e-01,-1.01e-01,
280,3.92e-01,-1.02e-01,
281,4.00e-01,-1.01e-01,
282,3.92e-01,-1.02e-01,
283,4.08e-01,-1.02e-01,
284,3.92e-01,-1.02e-01,
285,4.00e-01,-1.02e-01,
286,4.00e-01,-1.02e-01,
287,3.92e-01,-1.02e-01,
288,3.92e-01,-1.02e-01,
289,4.00e-01,-1.02e-01,
290,3.92e-01,-1.02e-01,
291,4.08e-01,-1.02e-01,
292,4.08e-01,-1.02e-01,
293,3.92e-01,-1.02e-01,
294,4.08e-01,-1.02e-01,
295,3.92e-01,-1.03e-01,
296,3.92e-01,-1.02e-01,
297,4.08e-01,-1.02e-01,
298,4.08e-01,-1.02e-01,
299,3.92e-01,-1.03e-01,
300,3.92e-01,-1.02e-01,
301,4.00e-01,-1.03e-01,
302,4.08e-01,-1.02e-01,
303,3.92e-01,-1.02e-01,
304,4.00e-01,-1.02e-01,
305,4.08e-01,-1.03e-01,
306,4.00e-01,-1.02e-01,
307,4.16e-01,-1.03e-01,
308,4.00e-01,-1.02e-01,
309,4.16e-01,-1.03e-01,
310,4.16e-01,-1.02e-01,
311,4.00e-01,-1.03e-01,
312,4.00e-01,-1.02e-01,
313,4.16e-01,-1.04e-01,
314,4.16e-01,-1.02e-01,
315,4.00e-01,-1.04e-01,
316,4.00e-01,-1.02e-01,
317,4.16e-01,-1.03e-01,
318,4.00e-01,-1.02e-01,
319,4.16e-01,-1.04e-01,
320,4.16e-01,-1.02e-01,
321,4.08e-01,-1.03e-01,
322,4.00e-01,-1.02e-01,
323,4.16e-01,-1.04e-01,
324,4.08e-01,-1.02e-01,
325,4.24e-01,-1.04e-01,
326,4.16e-01,-1.02e-01,
327,4.08e-01,-1.02e-01,
328,4.24e-01,-1.02e-01,
329,4.08e-01,-1.03e-01,
330,4.08e-01,-1.02e-01,
331,4.16e-01,-1.04e-01,
332,4.24e-01,-1.04e-01,
333,4.08e-01,-1.02e-01,
334,4.24e-01,-1.04e-01,
335,4.08e-01,-1.02e-01,
336,4.24e-01,-1.02e-01,
337,4.08e-01,-1.03e-01,
338,4.24e-01,-1.02e-01,
339,4.08e-01,-1.04e-01,
340,4.24e-01,-1.03e-01,
341,4.16e-01,-1.04e-01,
342,4.16e-01,-1.03e-01,
343,4.32e-01,-1.04e-01,
344,4.24e-01,-1.03e-01,
345,4.16e-01,-1.02e-01,
346,4.24e-01,-1.03e-01,
347,4.16e-01,-1.04e-01,
348,4.16e-01,-1.03e-01,
349,4.32e-01,-1.03e-01,
350,4.16e-01,-1.03e-01,
351,4.32e-01,-1.04e-01,
352,4.16e-01,-1.03e-01,
353,4.32e-01,-1.04e-01,
354,4.16e-01,-1.03e-01,
355,4.32e-01,-1.05e-01,
356,4.32e-01,-1.04e-01,
357,4.16e-01,-1.02e-01,
358,4.32e-01,-1.03e-01,
359,4.16e-01,-1.04e-01,
360,4.32e-01,-1.03e-01,
361,4.16e-01,-1.04e-01,
362,4.32e-01,-1.04e-01,
363,4.24e-01,-1.03e-01,
364,4.16e-01,-1.03e-01,
365,4.40e-01,-1.05e-01,
366,4.32e-01,-1.05e-01,
367,4.32e-01,-1.03e-01,
368,4.32e-01,-1.05e-01,
369,4.32e-01,-1.03e-01,
370,4.32e-01,-1.05e-01,
371,4.48e-01,-1.03e-01,
372,4.32e-01,-1.03e-01,
373,4.48e-01,-1.06e-01,
374,4.32e-01,-1.05e-01,
375,4.40e-01,-1.08e-01,
376,4.48e-01,-1.09e-01,
377,4.32e-01,-1.12e-01,
378,4.40e-01,-1.12e-01,
379,4.32e-01,-1.10e-01,
380,4.32e-01,-1.10e-01,
381,4.48e-01,-1.09e-01,
382,4.32e-01,-1.08e-01,
383,4.40e-01,-1.06e-01,
384,4.32e-01,-1.06e-01,
385,4.48e-01,-1.04e-01,
386,4.32e-01,-1.04e-01,
387,4.48e-01,-1.06e-01,
388,4.40e-01,-1.04e-01,
389,4.48e-01,-1.06e-01,
390,4.48e-01,-1.04e-01,
391,4.40e-01,-1.06e-01,
392,4.40e-01,-1.04e-01,
393,4.48e-01,-1.06e-01,
394,4.48e-01,-1.04e-01,
395,4.40e-01,-1.06e-01,
396,4.56e-01,-1.06e-01,
397,4.40e-01,-1.05e-01,
398,4.40e-01,-1.05e-01,
399,4.56e-01,-1.06e-01,
400,4.40e-01,-1.05e-01,
401,4.48e-01,-1.06e-01,
402,4.48e-01,-1.06e-01,
403,4.40e-01,-1.06e-01,
404,4.40e-01,-1.06e-01,
405,4.56e-01,-1.08e-01,
406,4.40e-01,-1.09e-01,
407,4.56e-01,-1.16e-01,
408,4.56e-01,-1.17e-01,
409,4.40e-01,-1.22e-01,
410,4.48e-01,-1.22e-01,
411,4.56e-01,-1.21e-01,
412,4.48e-01,-1.20e-01,
413,4.64e-01,-1.14e-01,
414,4.48e-01,-1.13e-01,
415,4.56e-01,-1.10e-01,
416,4.64e-01,-1.09e-01,
417,4.48e-01,-1.07e-01,
418,4.48e-01,-1.07e-01,
419,4.64e-01,-1.06e-01,
420,4.64e-01,-1.06e-01,
421,4.48e-01,-1.06e-01,
422,4.48e-01,-1.06e-01,
423,4.64e-01,-1.07e-01,
424,4.64e-01,-1.07e-01,
425,4.48e-01,-1.06e-01,
426,4.64e-01,-1.06e-01,
427,4.48e-01,-1.07e-01,
428,4.56e-01,-1.07e-01,
429,4.72e-01,-1.06e-01,
430,4.56e-01,-1.06e-01,
431,4.72e-01,-1.07e-01,
432,4.56e-01,-1.07e-01,
433,4.72e-01,-1.06e-01,
434,4.64e-01,-1.07e-01,
435,4.56e-01,-1.08e-01,
436,4.64e-01,-1.07e-01,
437,4.56e-01,-1.10e-01,
438,4.56e-01,-1.12e-01,
439,4.72e-01,-1.23e-01,
440,4.56e-01,-1.24e-01,
441,4.72e-01,-1.33e-01,
442,4.72e-01,-1.34e-01,
443,4.56e-01,-1.30e-01,
444,4.56e-01,-1.30e-01,
445,4.72e-01,-1.22e-01,
446,4.72e-01,-1.21e-01,
447,4.56e-01,-1.13e-01,
448,4.56e-01,-1.13e-01,
449,4.72e-01,-1.09e-01,
450,4.56e-01,-1.08e-01,
451,4.72e-01,-1.06e-01,
452,4.64e-01,-1.07e-01,
453,4.80e-01,-1.07e-01,
454,4.64e-01,-1.07e-01,
455,4.80e-01,-1.06e-01,
456,4.64e-01,-1.06e-01,
457,4.80e-01,-1.08e-01,
458,4.64e-01,-1.07e-01,
459,4.80e-01,-1.06e-01,
460,4.80e-01,-1.06e-01,
461,4.64e-01,-1.07e-01,
462,4.80e-01,-1.06e-01,
463,4.64e-01,-1.08e-01,
464,4.80e-01,-1.08e-01,
465,4.64e-01,-1.06e-01,
466,4.64e-01,-1.08e-01,
467,4.80e-01,-1.09e-01,
468,4.80e-01,-1.09e-01,
469,4.64e-01,-1.12e-01,
470,4.88e-01,-1.13e-01,
471,4.72e-01,-1.27e-01,
472,4.72e-01,-1.30e-01,
473,4.80e-01,-1.42e-01,
474,4.80e-01,-1.46e-01,
475,4.72e-01,-1.42e-01,
476,4.72e-01,-1.42e-01,
477,4.88e-01,-1.31e-01,
478,4.80e-01,-1.27e-01,
479,4.72e-01,-1.17e-01,
480,4.80e-01,-1.16e-01,
481,4.88e-01,-1.10e-01,
482,4.96e-01,-1.10e-01,
483,4.72e-01,-1.08e-01,
484,4.88e-01,-1.08e-01,
485,4.80e-01,-1.06e-01,
486,4.88e-01,-1.08e-01,
487,4.80e-01,-1.07e-01,
488,4.80e-01,-1.08e-01,
489,4.88e-01,-1.06e-01,
490,4.80e-01,-1.07e-01,
491,4.88e-01,-1.08e-01,
492,4.88e-01,-1.07e-01,
493,4.80e-01,-1.08e-01,
494,4.88e-01,-1.08e-01,
495,5.04e-01,-1.07e-01,
496,4.72e-01,-1.07e-01,
497,4.96e-01,-1.09e-01,
498,4.88e-01,-1.09e-01,
499,4.96e-01,-1.10e-01,
500,4.88e-01,-1.10e-01,
501,4.88e-01,-1.11e-01,
502,4.88e-01,-1.14e-01,
503,4.96e-01,-1.27e-01,
504,4.96e-01,-1.30e-01,
505,4.88e-01,-1.46e-01,
506,4.88e-01,-1.49e-01,
507,4.96e-01,-1.52e-01,
508,4.88e-01,-1.50e-01,
509,5.04e-01,-1.39e-01,
510,4.88e-01,-1.36e-01,
511,5.04e-01,-1.22e-01,
512,4.96e-01,-1.22e-01,
513,4.88e-01,-1.14e-01,
514,4.88e-01,-1.13e-01,
515,5.04e-01,-1.09e-01,
516,4.88e-01,-1.09e-01,
517,5.04e-01,-1.08e-01,
518,5.12e-01,-1.09e-01,
519,4.96e-01,-1.09e-01,
520,4.96e-01,-1.09e-01,
521,5.12e-01,-1.10e-01,
522,5.04e-01,-1.10e-01,
523,4.96e-01,-1.10e-01,
524,4.96e-01,-1.10e-01,
525,5.12e-01,-1.09e-01,
526,4.96e-01,-1.09e-01,
527,5.12e-01,-1.10e-01,
528,5.12e-01,-1.10e-01,
529,4.96e-01,-1.09e-01,
530,4.96e-01,-1.10e-01,
531,5.12e-01,-1.10e-01,
532,5.12e-01,-1.10e-01,
533,4.96e-01,-1.12e-01,
534,5.12e-01,-1.13e-01,
535,4.96e-01,-1.23e-01,
536,5.12e-01,-1.24e-01,
537,4.96e-01,-1.44e-01,
538,5.04e-01,-1.47e-01,
539,5.12e-01,-1.57e-01,
540,5.12e-01,-1.57e-01,
541,4.96e-01,-1.49e-01,
542,5.04e-01,-1.46e-01,
543,5.20e-01,-1.30e-01,
544,5.04e-01,-1.28e-01,
545,5.20e-01,-1.17e-01,
546,5.04e-01,-1.15e-01,
547,5.20e-01,-1.10e-01,
548,5.04e-01,-1.10e-01,
549,5.20e-01,-1.09e-01,
550,5.04e-01,-1.10e-01,
551,5.12e-01,-1.09e-01,
552,5.04e-01,-1.10e-01,
553,5.20e-01,-1.10e-01,
554,5.20e-01,-1.10e-01,
555,5.04e-01,-1.10e-01,
556,5.28e-01,-1.10e-01,
557,5.04e-01,-1.10e-01,
558,5.04e-01,-1.10e-01,
559,5.20e-01,-1.11e-01,
560,5.20e-01,-1.10e-01,
561,5.04e-01,-1.10e-01,
562,5.20e-01,-1.10e-01,
563,5.12e-01,-1.09e-01,
564,5.28e-01,-1.10e-01,
565,5.12e-01,-1.10e-01,
566,5.12e-01,-1.10e-01,
567,5.28e-01,-1.10e-01,
568,5.12e-01,-1.10e-01,
569,5.28e-01,-1.10e-01,
570,5.28e-01,-1.11e-01,
571,5.12e-01,-1.10e-01,
572,5.28e-01,-1.10e-01,
573,5.12e-01,-1.10e-01,
574,5.28e-01,-1.10e-01,
575,5.20e-01,-1.10e-01,
576,5.20e-01,-1.10e-01,
577,5.28e-01,-1.10e-01,
578,5.28e-01,-1.10e-01,
579,5.12e-01,-1.10e-01,
580,5.12e-01,-1.10e-01,
581,5.28e-01,-1.11e-01,
582,5.28e-01,-1.10e-01,
583,5.12e-01,-1.11e-01,
584,5.28e-01,-1.11e-01,
585,5.36e-01,-1.10e-01,
586,5.36e-01,-1.10e-01,
587,5.28e-01,-1.10e-01,
588,5.20e-01,-1.10e-01,
589,5.36e-01,-1.11e-01,
590,5.36e-01,-1.10e-01,
591,5.28e-01,-1.10e-01,
592,5.36e-01,-1.10e-01,
593,5.20e-01,-1.11e-01,
594,5.36e-01,-1.10e-01,
595,5.20e-01,-1.10e-01,
596,5.36e-01,-1.10e-01,
597,5.20e-01,-1.11e-01,
598,5.36e-01,-1.10e-01,
599,5.36e-01,-1.11e-01,
600,5.36e-01,-1.12e-01,
601,5.28e-01,-1.10e-01,
602,5.36e-01,-1.11e-01,
603,5.36e-01,-1.10e-01,
604,5.36e-01,-1.10e-01,
605,5.44e-01,-1.11e-01,
606,5.28e-01,-1.12e-01,
607,5.36e-01,-1.10e-01,
608,5.44e-01,-1.10e-01,
609,5.28e-01,-1.12e-01,
610,5.36e-01,-1.12e-01,
611,5.44e-01,-1.10e-01,
612,5.44e-01,-1.11e-01,
613,5.28e-01,-1.10e-01,
614,5.28e-01,-1.11e-01,
615,5.44e-01,-1.12e-01,
616,5.44e-01,-1.11e-01,
617,5.36e-01,-1.12e-01,
618,5.36e-01,-1.11e-01,
619,5.44e-01,-1.12e-01,
620,5.52e-01,-1.11e-01,
621,5.36e-01,-1.12e-01,
622,5.36e-01,-1.11e-01,
623,5.52e-01,-1.12e-01,
624,5.52e-01,-1.11e-01,
625,5.36e-01,-1.12e-01,
626,5.44e-01,-1.13e-01,
627,5.44e-01,-1.11e-01,
628,5.44e-01,-1.13e-01,
629,5.60e-01,-1.11e-01,
630,5.44e-01,-1.11e-01,
631,5.60e-01,-1.13e-01,
632,5.44e-01,-1.13e-01,
633,5.60e-01,-1.11e-01,
634,5.44e-01,-1.13e-01,
635,5.60e-01,-1.12e-01,
636,5.60e-01,-1.11e-01,
637,5.44e-01,-1.13e-01,
638,5.44e-01,-1.13e-01,
639,5.52e-01,-1.12e-01,
640,5.44e-01,-1.12e-01,
641,5.52e-01,-1.13e-01,
642,5.60e-01,-1.12e-01,
643,5.44e-01,-1.13e-01,
644,5.44e-01,-1.12e-01,
645,5.60e-01,-1.13e-01,
646,5.52e-01,-1.14e-01,
647,5.60e-01,-1.12e-01,
648,5.52e-01,-1.12e-01,
649,5.68e-01,-1.13e-01,
650,5.60e-01,-1.14e-01,
651,5.52e-01,-1.12e-01,
652,5.52e-01,-1.12e-01,
653,5.68e-01,-1.13e-01,
654,5.52e-01,-1.12e-01,
655,5.68e-01,-1.14e-01,
656,5.52e-01,-1.12e-01,
657,5.68e-01,-1.13e-01,
658,5.52e-01,-1.13e-01,
659,5.68e-01,-1.12e-01,
660,5.52e-01,-1.12e-01,
661,5.68e-01,-1.13e-01,
662,5.52e-01,-1.12e-01,
663,5.68e-01,-1.14e-01,
664,5.68e-01,-1.12e-01,
665,5.52e-01,-1.14e-01,
666,5.68e-01,-1.12e-01,
667,5.60e-01,-1.14e-01,
668,5.52e-01,-1.14e-01,
669,5.68e-01,-1.12e-01,
670,5.68e-01,-1.12e-01,
671,5.52e-01,-1.14e-01,
672,5.52e-01,-1.12e-01,
673,5.76e-01,-1.14e-01,
674,5.76e-01,-1.14e-01,
675,5.52e-01,-1.13e-01,
676,5.60e-01,-1.13e-01,
677,5.76e-01,-1.14e-01,
678,5.76e-01,-1.13e-01,
679,5.60e-01,-1.14e-01,
680,5.76e-01,-1.14e-01,
681,5.60e-01,-1.12e-01,
682,5.60e-01,-1.14e-01,
683,5.76e-01,-1.13e-01,
684,5.68e-01,-1.14e-01,
685,5.76e-01,-1.13e-01,
686,5.60e-01,-1.14e-01,
687,5.76e-01,-1.13e-01,
688,5.76e-01,-1.14e-01,
689,5.60e-01,-1.13e-01,
690,5.68e-01,-1.13e-01,
691,5.84e-01,-1.14e-01,
692,5.84e-01,-1.14e-01,
693,5.68e-01,-1.13e-01,
694,5.76e-01,-1.13e-01,
695,5.68e-01,-1.14e-01,
696,5.68e-01,-1.14e-01,
697,5.84e-01,-1.13e-01,
698,5.68e-01,-1.13e-01,
699,5.84e-01,-1.14e-01,
700,5.68e-01,-1.13e-01,
701,5.84e-01,-1.14e-01,
702,5.84e-01,-1.13e-01,
703,5.76e-01,-1.14e-01,
704,5.84e-01,-1.14e-01,
705,5.68e-01,-1.13e-01,
706,5.84e-01,-1.13e-01,
707,5.76e-01,-1.14e-01,
708,5.68e-01,-1.14e-01,
709,5.92e-01,-1.14e-01,
710,5.76e-01,-1.14e-01,
711,5.84e-01,-1.14e-01,
712,5.92e-01,-1.13e-01,
713,5.76e-01,-1.14e-01,
714,5.92e-01,-1.14e-01,
715,5.76e-01,-1.14e-01,
716,5.76e-01,-1.14e-01,
717,5.92e-01,-1.14e-01,
718,5.84e-01,-1.14e-01,
719,5.76e-01,-1.14e-01,
720,5.92e-01,-1.14e-01,
721,5.76e-01,-1.14e-01,
722,5.92e-01,-1.14e-01,
723,5.76e-01,-1.15e-01,
724,5.76e-01,-1.14e-01,
725,5.92e-01,-1.14e-01,
726,5.92e-01,-1.14e-01,
727,5.76e-01,-1.14e-01,
728,5.92e-01,-1.15e-01,
729,5.76e-01,-1.14e-01,
730,5.92e-01,-1.15e-01,
731,5.76e-01,-1.14e-01,
732,5.92e-01,-1.15e-01,
733,5.84e-01,-1.14e-01,
734,5.84e-01,-1.15e-01,
735,6.08e-01,-1.15e-01,
736,5.92e-01,-1.15e-01,
737,6.08e-01,-1.14e-01,
738,5.92e-01,-1.15e-01,
739,6.00e-01,-1.14e-01,
740,6.00e-01,-1.15e-01,
741,5.92e-01,-1.16e-01,
742,5.92e-01,-1.16e-01,
743,6.00e-01,-1.14e-01,
744,5.92e-01,-1.15e-01,
745,6.00e-01,-1.14e-01,
746,6.00e-01,-1.15e-01,
747,5.92e-01,-1.14e-01,
748,5.92e-01,-1.14e-01,
749,6.00e-01,-1.16e-01,
750,5.92e-01,-1.16e-01,
751,6.08e-01,-1.15e-01,
752,5.92e-01,-1.16e-01,
753,6.16e-01,-1.15e-01,
754,5.92e-01,-1.16e-01,
755,6.08e-01,-1.15e-01,
756,6.08e-01,-1.16e-01,
757,6.00e-01,-1.15e-01,
758,6.08e-01,-1.16e-01,
759,5.92e-01,-1.15e-01,
760,6.00e-01,-1.16e-01,
761,6.16e-01,-1.16e-01,
762,6.00e-01,-1.16e-01,
763,6.16e-01,-1.14e-01,
764,6.16e-01,-1.16e-01,
765,6.00e-01,-1.15e-01,
766,6.16e-01,-1.16e-01,
767,6.00e-01,-1.17e-01,
768,6.00e-01,-1.16e-01,
769,6.16e-01,-1.15e-01,
770,6.16e-01,-1.16e-01,
771,6.00e-01,-1.16e-01,
772,6.00e-01,-1.16e-01,
773,6.16e-01,-1.17e-01,
774,6.00e-01,-1.17e-01,
775,6.16e-01,-1.16e-01,
776,6.08e-01,-1.16e-01,
777,6.24e-01,-1.17e-01,
778,6.24e-01,-1.16e-01,
779,6.00e-01,-1.17e-01,
780,6.16e-01,-1.16e-01,
781,6.08e-01,-1.17e-01,
782,6.16e-01,-1.17e-01,
783,6.08e-01,-1.15e-01,
784,6.08e-01,-1.17e-01,
785,6.24e-01,-1.16e-01,
786,6.08e-01,-1.17e-01,
787,6.24e-01,-1.16e-01,
788,6.08e-01,-1.16e-01,
789,6.24e-01,-1.17e-01,
790,6.08e-01,-1.17e-01,
791,6.24e-01,-1.16e-01,
792,6.08e-01,-1.17e-01,
793,6.24e-01,-1.16e-01,
794,6.24e-01,-1.17e-01,
795,6.08e-01,-1.15e-01,
796,6.24e-01,-1.16e-01,
797,6.08e-01,-1.17e-01,
798,6.16e-01,-1.17e-01,
799,6.24e-01,-1.16e-01,
800,6.16e-01,-1.17e-01,
801,6.32e-01,-1.17e-01,
802,6.08e-01,-1.17e-01,
803,6.32e-01,-1.18e-01,
804,6.24e-01,-1.18e-01,
805,6.16e-01,-1.17e-01,
806,6.32e-01,-1.17e-01,
807,6.16e-01,-1.17e-01,
808,6.32e-01,-1.17e-01,
809,6.16e-01,-1.17e-01,
810,6.16e-01,-1.17e-01,
811,6.32e-01,-1.18e-01,
812,6.16e-01,-1.18e-01,
813,6.24e-01,-1.17e-01,
814,6.32e-01,-1.17e-01,
815,6.24e-01,-1.18e-01,
816,6.16e-01,-1.17e-01,
817,6.32e-01,-1.18e-01,
818,6.24e-01,-1.17e-01,
819,6.32e-01,-1.18e-01,
820,6.40e-01,-1.17e-01,
821,6.24e-01,-1.17e-01,
822,6.40e-01,-1.17e-01,
823,6.32e-01,-1.17e-01,
824,6.32e-01,-1.17e-01,
825,6.40e-01,-1.18e-01,
826,6.40e-01,-1.18e-01,
827,6.24e-01,-1.17e-01,
828,6.24e-01,-1.17e-01,
829,6.40e-01,-1.18e-01,
830,6.40e-01,-1.18e-01,
831,6.24e-01,-1.17e-01,
832,6.24e-01,-1.18e-01,
833,6.40e-01,-1.18e-01,
