quadratic_zeeman_data/8p65MHz_10s.csv

X,CH1,CH2,Start,Increment,
Sequence,Volt,Volt,-8.710000e+00,1.000000e-02
0,9.44e-01,-2.78e-01,
1,9.68e-01,-2.77e-01,
2,9.68e-01,-2.78e-01,
3,9.44e-01,-2.77e-01,
4,9.68e-01,-2.77e-01,
5,9.52e-01,-2.78e-01,
6,9.44e-01,-2.77e-01,
7,9.76e-01,-2.78e-01,
8,9.52e-01,-2.78e-01,
9,9.76e-01,-2.77e-01,
10,9.76e-01,-2.78e-01,
11,9.52e-01,-2.79e-01,
12,9.52e-01,-2.78e-01,
13,9.76e-01,-2.80e-01,
14,9.52e-01,-2.78e-01,
15,9.76e-01,-2.81e-01,
16,9.68e-01,-2.82e-01,
17,9.76e-01,-3.01e-01,
18,9.84e-01,-3.04e-01,
19,9.68e-01,-3.24e-01,
20,9.60e-01,-3.26e-01,
21,9.84e-01,-3.19e-01,
22,9.68e-01,-3.17e-01,
23,9.84e-01,-3.02e-01,
24,9.84e-01,-2.98e-01,
25,9.68e-01,-2.87e-01,
26,9.92e-01,-2.86e-01,
27,9.76e-01,-2.82e-01,
28,9.76e-01,-2.81e-01,
29,9.92e-01,-2.80e-01,
30,9.76e-01,-2.78e-01,
31,9.92e-01,-2.80e-01,
32,9.76e-01,-2.80e-01,
33,1.00e+00,-2.78e-01,
34,9.92e-01,-2.80e-01,
35,9.68e-01,-2.78e-01,
36,9.92e-01,-2.79e-01,
37,-8.00e-03,-2.60e-01,
38,-8.00e-03,-2.56e-01,
39,8.00e-03,-2.35e-01,
40,0.00e+00,-2.31e-01,
41,8.00e-03,-2.22e-01,
42,0.00e+00,-2.22e-01,
43,8.00e-03,-2.21e-01,
44,0.00e+00,-2.22e-01,
45,8.00e-03,-2.22e-01,
46,8.00e-03,-2.22e-01,
47,1.60e-02,-2.23e-01,
48,1.60e-02,-2.23e-01,
49,8.00e-03,-2.25e-01,
50,1.60e-02,-2.25e-01,
51,1.60e-02,-2.23e-01,
52,1.60e-02,-2.23e-01,
53,8.00e-03,-2.25e-01,
54,1.60e-02,-2.23e-01,
55,2.40e-02,-2.24e-01,
56,8.00e-03,-2.23e-01,
57,2.40e-02,-2.25e-01,
58,1.60e-02,-2.24e-01,
59,3.20e-02,-2.25e-01,
60,2.40e-02,-2.24e-01,
61,2.40e-02,-2.25e-01,
62,2.40e-02,-2.23e-01,
63,2.40e-02,-2.25e-01,
64,2.40e-02,-2.24e-01,
65,4.00e-02,-2.25e-01,
66,2.40e-02,-2.24e-01,
67,3.20e-02,-2.26e-01,
68,2.40e-02,-2.24e-01,
69,4.00e-02,-2.24e-01,
70,3.20e-02,-2.24e-01,
71,4.00e-02,-2.25e-01,
72,3.20e-02,-2.24e-01,
73,4.00e-02,-2.26e-01,
74,3.20e-02,-2.26e-01,
75,4.80e-02,-2.25e-01,
76,3.20e-02,-2.26e-01,
77,4.80e-02,-2.25e-01,
78,3.20e-02,-2.25e-01,
79,4.80e-02,-2.26e-01,
80,4.80e-02,-2.25e-01,
81,4.00e-02,-2.26e-01,
82,4.80e-02,-2.26e-01,
83,4.00e-02,-2.25e-01,
84,4.00e-02,-2.26e-01,
85,5.60e-02,-2.25e-01,
86,4.00e-02,-2.26e-01,
87,5.60e-02,-2.25e-01,
88,5.60e-02,-2.26e-01,
89,4.80e-02,-2.25e-01,
90,4.80e-02,-2.25e-01,
91,5.60e-02,-2.26e-01,
92,4.80e-02,-2.26e-01,
93,5.60e-02,-2.26e-01,
94,5.60e-02,-2.26e-01,
95,6.40e-02,-2.26e-01,
96,4.80e-02,-2.26e-01,
97,6.40e-02,-2.26e-01,
98,6.40e-02,-2.26e-01,
99,5.60e-02,-2.27e-01,
100,6.40e-02,-2.26e-01,
101,5.60e-02,-2.27e-01,
102,6.40e-02,-2.27e-01,
103,5.60e-02,-2.26e-01,
104,7.20e-02,-2.27e-01,
105,5.60e-02,-2.26e-01,
106,5.60e-02,-2.27e-01,
107,7.20e-02,-2.26e-01,
108,7.20e-02,-2.27e-01,
109,6.40e-02,-2.26e-01,
110,7.20e-02,-2.26e-01,
111,7.20e-02,-2.27e-01,
112,7.20e-02,-2.26e-01,
113,7.20e-02,-2.27e-01,
114,7.20e-02,-2.26e-01,
115,8.80e-02,-2.28e-01,
116,7.20e-02,-2.28e-01,
117,7.20e-02,-2.26e-01,
118,8.00e-02,-2.28e-01,
119,7.20e-02,-2.26e-01,
120,8.00e-02,-2.28e-01,
121,8.00e-02,-2.27e-01,
122,8.00e-02,-2.27e-01,
123,8.80e-02,-2.29e-01,
124,8.00e-02,-2.29e-01,
125,8.80e-02,-2.27e-01,
126,8.00e-02,-2.28e-01,
127,9.60e-02,-2.29e-01,
128,8.00e-02,-2.29e-01,
129,9.60e-02,-2.27e-01,
130,8.80e-02,-2.29e-01,
131,9.60e-02,-2.28e-01,
132,8.80e-02,-2.28e-01,
133,9.60e-02,-2.30e-01,
134,9.60e-02,-2.29e-01,
135,8.80e-02,-2.28e-01,
136,8.80e-02,-2.28e-01,
137,1.04e-01,-2.29e-01,
138,1.04e-01,-2.29e-01,
139,8.80e-02,-2.27e-01,
140,1.04e-01,-2.28e-01,
141,9.60e-02,-2.30e-01,
142,1.04e-01,-2.30e-01,
143,8.80e-02,-2.29e-01,
144,9.60e-02,-2.29e-01,
145,1.04e-01,-2.30e-01,
146,9.60e-02,-2.30e-01,
147,1.12e-01,-2.29e-01,
148,9.60e-02,-2.29e-01,
149,1.12e-01,-2.30e-01,
150,1.12e-01,-2.30e-01,
151,1.04e-01,-2.29e-01,
152,1.12e-01,-2.30e-01,
153,1.04e-01,-2.30e-01,
154,1.12e-01,-2.30e-01,
155,1.04e-01,-2.29e-01,
156,1.04e-01,-2.30e-01,
157,1.20e-01,-2.29e-01,
158,1.20e-01,-2.30e-01,
159,1.04e-01,-2.31e-01,
160,1.20e-01,-2.30e-01,
161,1.20e-01,-2.31e-01,
162,1.20e-01,-2.32e-01,
163,1.04e-01,-2.36e-01,
164,1.12e-01,-2.37e-01,
165,1.20e-01,-2.39e-01,
166,1.12e-01,-2.39e-01,
167,1.28e-01,-2.37e-01,
168,1.28e-01,-2.35e-01,
169,1.12e-01,-2.33e-01,
170,1.28e-01,-2.33e-01,
171,1.12e-01,-2.31e-01,
172,1.28e-01,-2.31e-01,
173,1.28e-01,-2.30e-01,
174,1.28e-01,-2.30e-01,
175,1.28e-01,-2.31e-01,
176,1.28e-01,-2.30e-01,
177,1.36e-01,-2.31e-01,
178,1.44e-01,-2.30e-01,
179,1.28e-01,-2.30e-01,
180,1.44e-01,-2.30e-01,
181,1.28e-01,-2.31e-01,
182,1.36e-01,-2.30e-01,
183,1.44e-01,-2.32e-01,
184,1.36e-01,-2.30e-01,
185,1.44e-01,-2.32e-01,
186,1.36e-01,-2.31e-01,
187,1.52e-01,-2.30e-01,
188,1.36e-01,-2.30e-01,
189,1.52e-01,-2.31e-01,
190,1.52e-01,-2.31e-01,
191,1.36e-01,-2.30e-01,
192,1.36e-01,-2.30e-01,
193,1.52e-01,-2.31e-01,
194,1.44e-01,-2.31e-01,
195,1.44e-01,-2.32e-01,
196,1.44e-01,-2.31e-01,
197,1.52e-01,-2.30e-01,
198,1.60e-01,-2.31e-01,
199,1.44e-01,-2.33e-01,
200,1.60e-01,-2.33e-01,
201,1.44e-01,-2.31e-01,
202,1.60e-01,-2.31e-01,
203,1.52e-01,-2.33e-01,
204,1.52e-01,-2.32e-01,
205,1.60e-01,-2.33e-01,
206,1.52e-01,-2.33e-01,
207,1.68e-01,-2.31e-01,
208,1.52e-01,-2.33e-01,
209,1.68e-01,-2.32e-01,
210,1.68e-01,-2.33e-01,
211,1.52e-01,-2.31e-01,
212,1.68e-01,-2.32e-01,
213,1.52e-01,-2.33e-01,
214,1.68e-01,-2.32e-01,
215,1.60e-01,-2.33e-01,
216,1.68e-01,-2.34e-01,
217,1.76e-01,-2.32e-01,
218,1.60e-01,-2.34e-01,
219,1.76e-01,-2.32e-01,
220,1.76e-01,-2.34e-01,
221,1.60e-01,-2.32e-01,
222,1.76e-01,-2.34e-01,
223,1.76e-01,-2.32e-01,
224,1.76e-01,-2.33e-01,
225,1.68e-01,-2.34e-01,
226,1.76e-01,-2.34e-01,
227,1.76e-01,-2.33e-01,
228,1.84e-01,-2.33e-01,
229,1.76e-01,-2.34e-01,
230,1.76e-01,-2.34e-01,
231,1.84e-01,-2.33e-01,
232,1.84e-01,-2.34e-01,
233,1.84e-01,-2.33e-01,
234,1.84e-01,-2.34e-01,
235,1.84e-01,-2.33e-01,
236,1.84e-01,-2.34e-01,
237,2.00e-01,-2.34e-01,
238,1.84e-01,-2.34e-01,
239,2.00e-01,-2.34e-01,
240,1.84e-01,-2.34e-01,
241,2.00e-01,-2.34e-01,
242,1.84e-01,-2.34e-01,
243,2.00e-01,-2.34e-01,
244,1.92e-01,-2.35e-01,
245,1.92e-01,-2.34e-01,
246,1.92e-01,-2.35e-01,
247,2.00e-01,-2.34e-01,
248,1.92e-01,-2.35e-01,
249,2.00e-01,-2.34e-01,
250,1.92e-01,-2.35e-01,
251,2.08e-01,-2.34e-01,
252,2.00e-01,-2.34e-01,
253,2.08e-01,-2.35e-01,
254,2.00e-01,-2.34e-01,
255,2.08e-01,-2.35e-01,
256,2.00e-01,-2.34e-01,
257,2.08e-01,-2.35e-01,
258,2.00e-01,-2.34e-01,
259,2.16e-01,-2.35e-01,
260,2.00e-01,-2.34e-01,
261,2.08e-01,-2.35e-01,
262,2.08e-01,-2.34e-01,
263,2.16e-01,-2.36e-01,
264,2.08e-01,-2.34e-01,
265,2.16e-01,-2.36e-01,
266,2.08e-01,-2.36e-01,
267,2.16e-01,-2.34e-01,
268,2.16e-01,-2.36e-01,
269,2.24e-01,-2.34e-01,
270,2.08e-01,-2.34e-01,
271,2.24e-01,-2.35e-01,
272,2.08e-01,-2.34e-01,
273,2.24e-01,-2.36e-01,
274,2.24e-01,-2.34e-01,
275,2.16e-01,-2.36e-01,
276,2.16e-01,-2.36e-01,
277,2.24e-01,-2.35e-01,
278,2.16e-01,-2.36e-01,
279,2.32e-01,-2.37e-01,
280,2.16e-01,-2.37e-01,
281,2.32e-01,-2.35e-01,
282,2.32e-01,-2.35e-01,
283,2.24e-01,-2.37e-01,
284,2.32e-01,-2.35e-01,
285,2.32e-01,-2.37e-01,
286,2.32e-01,-2.37e-01,
287,2.48e-01,-2.35e-01,
288,2.32e-01,-2.37e-01,
289,2.48e-01,-2.35e-01,
290,2.48e-01,-2.36e-01,
291,2.40e-01,-2.35e-01,
292,2.32e-01,-2.34e-01,
293,2.40e-01,-2.36e-01,
294,2.40e-01,-2.36e-01,
295,2.48e-01,-2.37e-01,
296,2.40e-01,-2.37e-01,
297,2.40e-01,-2.38e-01,
298,2.40e-01,-2.38e-01,
299,2.48e-01,-2.38e-01,
300,2.48e-01,-2.38e-01,
301,2.40e-01,-2.37e-01,
302,2.48e-01,-2.37e-01,
303,2.56e-01,-2.36e-01,
304,2.56e-01,-2.37e-01,
305,2.48e-01,-2.36e-01,
306,2.48e-01,-2.38e-01,
307,2.48e-01,-2.37e-01,
308,2.48e-01,-2.38e-01,
309,2.64e-01,-2.37e-01,
310,2.64e-01,-2.38e-01,
311,2.48e-01,-2.38e-01,
312,2.48e-01,-2.38e-01,
313,2.64e-01,-2.37e-01,
314,2.64e-01,-2.38e-01,
315,2.56e-01,-2.38e-01,
316,2.56e-01,-2.38e-01,
317,2.64e-01,-2.38e-01,
318,2.56e-01,-2.38e-01,
319,2.72e-01,-2.38e-01,
320,2.56e-01,-2.38e-01,
321,2.72e-01,-2.39e-01,
322,2.56e-01,-2.38e-01,
323,2.72e-01,-2.38e-01,
324,2.72e-01,-2.38e-01,
325,2.56e-01,-2.38e-01,
326,2.64e-01,-2.38e-01,
327,2.80e-01,-2.38e-01,
328,2.64e-01,-2.38e-01,
329,2.80e-01,-2.38e-01,
330,2.80e-01,-2.38e-01,
331,2.64e-01,-2.39e-01,
332,2.72e-01,-2.38e-01,
333,2.80e-01,-2.39e-01,
334,2.80e-01,-2.38e-01,
335,2.72e-01,-2.40e-01,
336,2.80e-01,-2.39e-01,
337,2.72e-01,-2.38e-01,
338,2.80e-01,-2.39e-01,
339,2.88e-01,-2.40e-01,
340,2.96e-01,-2.39e-01,
341,2.72e-01,-2.41e-01,
342,2.88e-01,-2.40e-01,
343,2.96e-01,-2.41e-01,
344,2.80e-01,-2.40e-01,
345,2.88e-01,-2.44e-01,
346,2.88e-01,-2.45e-01,
347,2.88e-01,-2.53e-01,
348,2.88e-01,-2.54e-01,
349,2.88e-01,-2.57e-01,
350,2.96e-01,-2.56e-01,
351,2.88e-01,-2.50e-01,
352,2.88e-01,-2.50e-01,
353,3.04e-01,-2.44e-01,
354,2.96e-01,-2.44e-01,
355,2.88e-01,-2.42e-01,
356,2.96e-01,-2.42e-01,
357,2.96e-01,-2.40e-01,
358,2.96e-01,-2.42e-01,
359,3.04e-01,-2.40e-01,
360,2.96e-01,-2.40e-01,
361,3.04e-01,-2.42e-01,
362,3.12e-01,-2.40e-01,
363,2.96e-01,-2.42e-01,
364,3.04e-01,-2.41e-01,
365,3.12e-01,-2.40e-01,
366,3.12e-01,-2.40e-01,
367,3.04e-01,-2.42e-01,
368,3.04e-01,-2.40e-01,
369,3.12e-01,-2.42e-01,
370,3.04e-01,-2.41e-01,
371,3.20e-01,-2.42e-01,
372,3.20e-01,-2.41e-01,
373,3.04e-01,-2.42e-01,
374,3.20e-01,-2.40e-01,
375,3.04e-01,-2.42e-01,
376,3.20e-01,-2.41e-01,
377,3.12e-01,-2.42e-01,
378,3.20e-01,-2.41e-01,
379,3.12e-01,-2.42e-01,
380,3.28e-01,-2.41e-01,
381,3.12e-01,-2.42e-01,
382,3.28e-01,-2.41e-01,
383,3.12e-01,-2.42e-01,
384,3.28e-01,-2.42e-01,
385,3.12e-01,-2.41e-01,
386,3.20e-01,-2.41e-01,
387,3.36e-01,-2.42e-01,
388,3.36e-01,-2.42e-01,
389,3.20e-01,-2.41e-01,
390,3.20e-01,-2.42e-01,
391,3.36e-01,-2.41e-01,
392,3.36e-01,-2.42e-01,
393,3.28e-01,-2.42e-01,
394,3.36e-01,-2.42e-01,
395,3.20e-01,-2.41e-01,
396,3.36e-01,-2.42e-01,
397,3.28e-01,-2.42e-01,
398,3.28e-01,-2.42e-01,
399,3.44e-01,-2.43e-01,
400,3.36e-01,-2.42e-01,
401,3.52e-01,-2.43e-01,
402,3.36e-01,-2.42e-01,
403,3.44e-01,-2.42e-01,
404,3.36e-01,-2.42e-01,
405,3.44e-01,-2.42e-01,
406,3.44e-01,-2.42e-01,
407,3.52e-01,-2.43e-01,
408,3.44e-01,-2.42e-01,
409,3.44e-01,-2.43e-01,
410,3.44e-01,-2.43e-01,
411,3.52e-01,-2.42e-01,
412,3.44e-01,-2.43e-01,
413,3.60e-01,-2.42e-01,
414,3.52e-01,-2.42e-01,
415,3.60e-01,-2.43e-01,
416,3.60e-01,-2.42e-01,
417,3.52e-01,-2.43e-01,
418,3.52e-01,-2.42e-01,
419,3.60e-01,-2.44e-01,
420,3.52e-01,-2.43e-01,
421,3.68e-01,-2.42e-01,
422,3.68e-01,-2.42e-01,
423,3.52e-01,-2.44e-01,
424,3.52e-01,-2.44e-01,
425,3.60e-01,-2.42e-01,
426,3.68e-01,-2.43e-01,
427,3.60e-01,-2.44e-01,
428,3.60e-01,-2.44e-01,
429,3.76e-01,-2.43e-01,
430,3.60e-01,-2.44e-01,
431,3.76e-01,-2.43e-01,
432,3.60e-01,-2.44e-01,
433,3.76e-01,-2.44e-01,
434,3.76e-01,-2.44e-01,
435,3.68e-01,-2.43e-01,
436,3.60e-01,-2.43e-01,
437,3.76e-01,-2.44e-01,
438,3.76e-01,-2.45e-01,
439,3.68e-01,-2.43e-01,
440,3.76e-01,-2.44e-01,
441,3.68e-01,-2.45e-01,
442,3.68e-01,-2.43e-01,
443,3.84e-01,-2.45e-01,
444,3.84e-01,-2.45e-01,
445,3.68e-01,-2.44e-01,
446,3.84e-01,-2.45e-01,
447,3.76e-01,-2.45e-01,
448,3.92e-01,-2.45e-01,
449,3.76e-01,-2.46e-01,
450,3.76e-01,-2.45e-01,
451,3.84e-01,-2.46e-01,
452,3.76e-01,-2.46e-01,
453,3.92e-01,-2.45e-01,
454,3.76e-01,-2.46e-01,
455,3.92e-01,-2.46e-01,
456,3.92e-01,-2.46e-01,
457,3.84e-01,-2.47e-01,
458,3.92e-01,-2.46e-01,
459,3.84e-01,-2.46e-01,
460,3.92e-01,-2.46e-01,
461,4.00e-01,-2.47e-01,
462,3.92e-01,-2.46e-01,
463,4.00e-01,-2.46e-01,
464,3.92e-01,-2.46e-01,
465,4.00e-01,-2.47e-01,
466,4.00e-01,-2.47e-01,
467,3.92e-01,-2.46e-01,
468,3.92e-01,-2.46e-01,
469,4.08e-01,-2.47e-01,
470,4.00e-01,-2.47e-01,
471,4.00e-01,-2.46e-01,
472,4.00e-01,-2.46e-01,
473,4.16e-01,-2.47e-01,
474,4.16e-01,-2.46e-01,
475,4.00e-01,-2.45e-01,
476,4.00e-01,-2.46e-01,
477,4.16e-01,-2.48e-01,
478,4.00e-01,-2.48e-01,
479,4.16e-01,-2.50e-01,
480,4.08e-01,-2.48e-01,
481,4.16e-01,-2.50e-01,
482,4.08e-01,-2.49e-01,
483,4.24e-01,-2.47e-01,
484,4.08e-01,-2.48e-01,
485,4.24e-01,-2.46e-01,
486,4.24e-01,-2.47e-01,
487,4.16e-01,-2.48e-01,
488,4.16e-01,-2.46e-01,
489,4.24e-01,-2.48e-01,
490,4.16e-01,-2.48e-01,
491,4.32e-01,-2.47e-01,
492,4.32e-01,-2.47e-01,
493,4.16e-01,-2.48e-01,
494,4.24e-01,-2.48e-01,
495,4.32e-01,-2.47e-01,
496,4.32e-01,-2.48e-01,
497,4.24e-01,-2.47e-01,
498,4.16e-01,-2.49e-01,
499,4.32e-01,-2.47e-01,
500,4.32e-01,-2.47e-01,
501,4.24e-01,-2.48e-01,
502,4.24e-01,-2.47e-01,
503,4.40e-01,-2.49e-01,
504,4.32e-01,-2.47e-01,
505,4.40e-01,-2.49e-01,
506,4.40e-01,-2.49e-01,
507,4.32e-01,-2.48e-01,
508,4.40e-01,-2.48e-01,
509,4.32e-01,-2.49e-01,
510,4.40e-01,-2.48e-01,
511,4.48e-01,-2.49e-01,
512,4.32e-01,-2.49e-01,
513,4.48e-01,-2.47e-01,
514,4.48e-01,-2.49e-01,
515,4.32e-01,-2.48e-01,
516,4.48e-01,-2.49e-01,
517,4.40e-01,-2.48e-01,
518,4.48e-01,-2.48e-01,
519,4.48e-01,-2.49e-01,
520,4.48e-01,-2.48e-01,
521,4.64e-01,-2.49e-01,
522,4.64e-01,-2.48e-01,
523,4.48e-01,-2.50e-01,
524,4.64e-01,-2.48e-01,
525,4.48e-01,-2.50e-01,
526,4.64e-01,-2.50e-01,
527,4.48e-01,-2.49e-01,
528,4.64e-01,-2.49e-01,
529,4.48e-01,-2.54e-01,
530,4.56e-01,-2.54e-01,
531,4.72e-01,-2.66e-01,
532,4.56e-01,-2.68e-01,
533,4.72e-01,-2.74e-01,
534,4.56e-01,-2.74e-01,
535,4.72e-01,-2.68e-01,
536,4.56e-01,-2.66e-01,
537,4.72e-01,-2.58e-01,
538,4.64e-01,-2.57e-01,
539,4.72e-01,-2.53e-01,
540,4.56e-01,-2.52e-01,
541,4.72e-01,-2.50e-01,
542,4.64e-01,-2.50e-01,
543,4.80e-01,-2.50e-01,
544,4.80e-01,-2.50e-01,
545,4.64e-01,-2.49e-01,
546,4.80e-01,-2.50e-01,
547,4.64e-01,-2.50e-01,
548,4.64e-01,-2.50e-01,
549,4.80e-01,-2.50e-01,
550,4.72e-01,-2.50e-01,
551,4.88e-01,-2.51e-01,
552,4.72e-01,-2.51e-01,
553,4.88e-01,-2.50e-01,
554,4.72e-01,-2.50e-01,
555,4.88e-01,-2.51e-01,
556,4.88e-01,-2.50e-01,
557,4.72e-01,-2.51e-01,
558,4.88e-01,-2.51e-01,
559,4.80e-01,-2.50e-01,
560,4.72e-01,-2.51e-01,
561,4.88e-01,-2.50e-01,
562,4.80e-01,-2.51e-01,
563,4.96e-01,-2.50e-01,
564,4.96e-01,-2.51e-01,
565,4.80e-01,-2.50e-01,
566,4.96e-01,-2.50e-01,
567,4.80e-01,-2.52e-01,
568,4.96e-01,-2.52e-01,
569,4.80e-01,-2.51e-01,
570,4.96e-01,-2.52e-01,
571,5.04e-01,-2.50e-01,
572,5.04e-01,-2.51e-01,
573,4.96e-01,-2.52e-01,
574,5.12e-01,-2.52e-01,
575,4.88e-01,-2.52e-01,
576,4.96e-01,-2.52e-01,
577,5.12e-01,-2.52e-01,
578,4.88e-01,-2.52e-01,
579,5.12e-01,-2.53e-01,
580,5.04e-01,-2.54e-01,
581,5.20e-01,-2.52e-01,
582,5.04e-01,-2.53e-01,
583,5.04e-01,-2.54e-01,
584,5.12e-01,-2.53e-01,
585,5.04e-01,-2.53e-01,
586,5.04e-01,-2.53e-01,
587,5.20e-01,-2.53e-01,
588,5.20e-01,-2.53e-01,
589,5.04e-01,-2.54e-01,
590,5.12e-01,-2.53e-01,
591,5.20e-01,-2.53e-01,
592,5.12e-01,-2.53e-01,
593,5.20e-01,-2.54e-01,
594,5.28e-01,-2.53e-01,
595,5.12e-01,-2.54e-01,
596,5.28e-01,-2.54e-01,
597,5.12e-01,-2.53e-01,
598,5.28e-01,-2.53e-01,
599,5.12e-01,-2.54e-01,
600,5.12e-01,-2.54e-01,
601,5.28e-01,-2.54e-01,
602,5.20e-01,-2.53e-01,
603,5.36e-01,-2.54e-01,
604,5.20e-01,-2.53e-01,
605,5.36e-01,-2.54e-01,
606,5.36e-01,-2.54e-01,
607,5.20e-01,-2.54e-01,
608,5.20e-01,-2.54e-01,
609,5.36e-01,-2.55e-01,
610,5.36e-01,-2.54e-01,
611,5.28e-01,-2.54e-01,
612,5.44e-01,-2.54e-01,
613,5.28e-01,-2.55e-01,
614,5.28e-01,-2.55e-01,
615,5.44e-01,-2.54e-01,
616,5.44e-01,-2.54e-01,
617,5.28e-01,-2.55e-01,
618,5.44e-01,-2.55e-01,
619,5.28e-01,-2.54e-01,
620,5.44e-01,-2.55e-01,
621,5.28e-01,-2.54e-01,
622,5.28e-01,-2.55e-01,
623,5.52e-01,-2.54e-01,
624,5.44e-01,-2.54e-01,
625,5.52e-01,-2.55e-01,
626,5.44e-01,-2.54e-01,
627,5.52e-01,-2.56e-01,
628,5.52e-01,-2.54e-01,
629,5.36e-01,-2.56e-01,
630,5.44e-01,-2.54e-01,
631,5.52e-01,-2.56e-01,
632,5.52e-01,-2.55e-01,
633,5.60e-01,-2.56e-01,
634,5.52e-01,-2.54e-01,
635,5.60e-01,-2.56e-01,
636,5.52e-01,-2.56e-01,
637,5.68e-01,-2.54e-01,
638,5.52e-01,-2.55e-01,
639,5.68e-01,-2.57e-01,
640,5.68e-01,-2.55e-01,
641,5.52e-01,-2.56e-01,
642,5.60e-01,-2.56e-01,
643,5.76e-01,-2.55e-01,
644,5.76e-01,-2.56e-01,
645,5.60e-01,-2.55e-01,
646,5.60e-01,-2.56e-01,
647,5.76e-01,-2.55e-01,
648,5.76e-01,-2.56e-01,
649,5.60e-01,-2.57e-01,
650,5.84e-01,-2.57e-01,
651,5.68e-01,-2.55e-01,
652,5.76e-01,-2.57e-01,
653,5.68e-01,-2.56e-01,
654,5.84e-01,-2.57e-01,
655,5.68e-01,-2.57e-01,
656,5.84e-01,-2.57e-01,
657,5.68e-01,-2.56e-01,
658,5.84e-01,-2.57e-01,
659,5.68e-01,-2.55e-01,
660,5.92e-01,-2.57e-01,
661,5.68e-01,-2.60e-01,
662,5.76e-01,-2.60e-01,
663,5.92e-01,-2.62e-01,
664,5.76e-01,-2.60e-01,
665,5.92e-01,-2.58e-01,
666,5.92e-01,-2.59e-01,
667,5.76e-01,-2.58e-01,
668,5.92e-01,-2.58e-01,
669,5.76e-01,-2.57e-01,
670,5.76e-01,-2.58e-01,
671,6.00e-01,-2.57e-01,
672,5.92e-01,-2.58e-01,
673,5.84e-01,-2.58e-01,
674,6.00e-01,-2.58e-01,
675,5.84e-01,-2.58e-01,
676,5.84e-01,-2.58e-01,
677,6.00e-01,-2.58e-01,
678,6.00e-01,-2.58e-01,
679,5.84e-01,-2.59e-01,
680,5.84e-01,-2.58e-01,
681,6.00e-01,-2.58e-01,
682,6.00e-01,-2.58e-01,
683,6.16e-01,-2.59e-01,
684,6.08e-01,-2.58e-01,
685,5.92e-01,-2.59e-01,
686,6.08e-01,-2.59e-01,
687,5.92e-01,-2.58e-01,
688,6.00e-01,-2.59e-01,
689,6.08e-01,-2.58e-01,
690,6.16e-01,-2.58e-01,
691,5.92e-01,-2.59e-01,
692,6.16e-01,-2.58e-01,
693,6.00e-01,-2.59e-01,
694,6.08e-01,-2.59e-01,
695,6.16e-01,-2.59e-01,
696,6.08e-01,-2.58e-01,
697,6.24e-01,-2.60e-01,
698,6.08e-01,-2.60e-01,
699,6.24e-01,-2.58e-01,
700,6.08e-01,-2.59e-01,
701,6.24e-01,-2.60e-01,
702,6.08e-01,-2.59e-01,
703,6.32e-01,-2.60e-01,
704,6.32e-01,-2.59e-01,
705,6.16e-01,-2.58e-01,
706,6.16e-01,-2.59e-01,
707,6.32e-01,-2.60e-01,
708,6.16e-01,-2.60e-01,
709,6.32e-01,-2.60e-01,
710,6.16e-01,-2.60e-01,
711,6.40e-01,-2.61e-01,
712,6.24e-01,-2.60e-01,
713,6.40e-01,-2.62e-01,
714,6.32e-01,-2.62e-01,
715,6.24e-01,-2.70e-01,
716,6.32e-01,-2.72e-01,
717,6.40e-01,-2.91e-01,
718,6.40e-01,-2.92e-01,
719,6.24e-01,-2.95e-01,
720,6.24e-01,-2.92e-01,
721,6.40e-01,-2.80e-01,
722,6.40e-01,-2.79e-01,
723,6.32e-01,-2.70e-01,
724,6.24e-01,-2.68e-01,
725,6.48e-01,-2.63e-01,
726,6.32e-01,-2.62e-01,
727,6.48e-01,-2.61e-01,
728,6.48e-01,-2.61e-01,
729,6.40e-01,-2.60e-01,
730,6.32e-01,-2.62e-01,
731,6.48e-01,-2.60e-01,
732,6.40e-01,-2.61e-01,
733,6.56e-01,-2.61e-01,
734,6.40e-01,-2.61e-01,
735,6.56e-01,-2.61e-01,
736,6.56e-01,-2.60e-01,
737,6.32e-01,-2.62e-01,
738,6.56e-01,-2.61e-01,
739,6.40e-01,-2.62e-01,
740,6.56e-01,-2.61e-01,
741,6.40e-01,-2.61e-01,
742,6.56e-01,-2.61e-01,
743,6.48e-01,-2.62e-01,
744,6.56e-01,-2.61e-01,
745,6.72e-01,-2.62e-01,
746,6.56e-01,-2.61e-01,
747,6.64e-01,-2.62e-01,
748,6.64e-01,-2.62e-01,
749,6.56e-01,-2.61e-01,
750,6.56e-01,-2.62e-01,
751,6.72e-01,-2.61e-01,
752,6.56e-01,-2.62e-01,
753,6.72e-01,-2.61e-01,
754,6.56e-01,-2.61e-01,
755,6.80e-01,-2.62e-01,
756,6.64e-01,-2.61e-01,
757,6.72e-01,-2.62e-01,
758,6.64e-01,-2.62e-01,
759,6.80e-01,-2.62e-01,
760,6.64e-01,-2.62e-01,
761,6.72e-01,-2.63e-01,
762,6.72e-01,-2.62e-01,
763,6.80e-01,-2.62e-01,
764,6.80e-01,-2.62e-01,
765,6.64e-01,-2.63e-01,
766,6.72e-01,-2.62e-01,
767,6.88e-01,-2.62e-01,
768,6.72e-01,-2.63e-01,
769,6.88e-01,-2.62e-01,
770,6.80e-01,-2.63e-01,
771,6.88e-01,-2.62e-01,
772,6.72e-01,-2.63e-01,
773,6.88e-01,-2.62e-01,
774,6.88e-01,-2.62e-01,
775,6.80e-01,-2.63e-01,
776,6.80e-01,-2.62e-01,
777,6.96e-01,-2.64e-01,
778,6.80e-01,-2.62e-01,
779,6.96e-01,-2.64e-01,
780,6.80e-01,-2.62e-01,
781,6.96e-01,-2.64e-01,
782,6.96e-01,-2.63e-01,
783,6.80e-01,-2.64e-01,
784,7.04e-01,-2.63e-01,
785,6.88e-01,-2.64e-01,
786,6.88e-01,-2.64e-01,
787,7.04e-01,-2.63e-01,
788,7.04e-01,-2.65e-01,
789,6.88e-01,-2.63e-01,
790,6.88e-01,-2.64e-01,
791,7.04e-01,-2.63e-01,
792,6.88e-01,-2.63e-01,
793,7.12e-01,-2.64e-01,
794,6.96e-01,-2.65e-01,
795,7.12e-01,-2.63e-01,
796,7.04e-01,-2.65e-01,
797,7.12e-01,-2.63e-01,
798,7.12e-01,-2.63e-01,
799,7.04e-01,-2.65e-01,
800,7.04e-01,-2.65e-01,
801,7.12e-01,-2.64e-01,
802,7.12e-01,-2.65e-01,
803,7.04e-01,-2.64e-01,
804,7.12e-01,-2.66e-01,
805,7.28e-01,-2.63e-01,
806,7.12e-01,-2.64e-01,
807,7.20e-01,-2.65e-01,
808,7.12e-01,-2.66e-01,
809,7.20e-01,-2.65e-01,
810,7.12e-01,-2.65e-01,
811,7.28e-01,-2.64e-01,
812,7.20e-01,-2.66e-01,
813,7.12e-01,-2.64e-01,
814,7.12e-01,-2.64e-01,
815,7.36e-01,-2.66e-01,
816,7.36e-01,-2.66e-01,
817,7.12e-01,-2.65e-01,
818,7.28e-01,-2.66e-01,
819,7.20e-01,-2.65e-01,
820,7.20e-01,-2.66e-01,
821,7.36e-01,-2.65e-01,
822,7.44e-01,-2.66e-01,
823,7.20e-01,-2.65e-01,
824,7.36e-01,-2.66e-01,
825,7.20e-01,-2.65e-01,
826,7.28e-01,-2.66e-01,
827,7.44e-01,-2.66e-01,
828,7.44e-01,-2.65e-01,
829,7.28e-01,-2.66e-01,
830,7.28e-01,-2.66e-01,
831,7.44e-01,-2.65e-01,
832,7.28e-01,-2.66e-01,
833,7.52e-01,-2.65e-01,
