quadratic_zeeman_data/NewFile13p1.csv

X,CH1,CH2,Start,Increment,
Sequence,Volt,Volt,-8.520000e+00,1.000000e-02
0,2.00e-01,-1.52e-01,
1,2.00e-01,-1.50e-01,
2,2.00e-01,-1.50e-01,
3,2.00e-01,-1.52e-01,
4,2.00e-01,-1.52e-01,
5,2.16e-01,-1.52e-01,
6,2.08e-01,-1.52e-01,
7,2.00e-01,-1.52e-01,
8,2.16e-01,-1.52e-01,
9,2.00e-01,-1.52e-01,
10,2.16e-01,-1.52e-01,
11,2.08e-01,-1.50e-01,
12,2.16e-01,-1.52e-01,
13,2.08e-01,-1.50e-01,
14,2.08e-01,-1.52e-01,
15,2.24e-01,-1.52e-01,
16,2.08e-01,-1.52e-01,
17,2.24e-01,-1.50e-01,
18,2.24e-01,-1.50e-01,
19,2.08e-01,-1.52e-01,
20,2.24e-01,-1.52e-01,
21,2.08e-01,-1.50e-01,
22,2.16e-01,-1.52e-01,
23,2.32e-01,-1.50e-01,
24,2.16e-01,-1.54e-01,
25,2.32e-01,-1.50e-01,
26,2.24e-01,-1.56e-01,
27,2.32e-01,-1.50e-01,
28,2.24e-01,-1.52e-01,
29,2.32e-01,-1.50e-01,
30,2.32e-01,-1.50e-01,
31,2.16e-01,-1.52e-01,
32,2.32e-01,-1.54e-01,
33,2.40e-01,-1.50e-01,
34,2.32e-01,-1.54e-01,
35,2.32e-01,-1.50e-01,
36,2.48e-01,-1.52e-01,
37,2.32e-01,-1.56e-01,
38,2.40e-01,-1.54e-01,
39,2.24e-01,-1.56e-01,
40,2.40e-01,-1.50e-01,
41,2.32e-01,-1.56e-01,
42,2.40e-01,-1.54e-01,
43,2.40e-01,-1.50e-01,
44,2.40e-01,-1.54e-01,
45,2.48e-01,-1.54e-01,
46,2.40e-01,-1.54e-01,
47,2.56e-01,-1.56e-01,
48,2.56e-01,-1.54e-01,
49,2.40e-01,-1.56e-01,
50,2.40e-01,-1.56e-01,
51,2.56e-01,-1.54e-01,
52,2.48e-01,-1.54e-01,
53,2.56e-01,-1.56e-01,
54,2.48e-01,-1.54e-01,
55,2.56e-01,-1.54e-01,
56,2.48e-01,-1.54e-01,
57,2.64e-01,-1.56e-01,
58,2.64e-01,-1.56e-01,
59,2.48e-01,-1.54e-01,
60,2.48e-01,-1.54e-01,
61,2.64e-01,-1.56e-01,
62,2.56e-01,-1.54e-01,
63,2.64e-01,-1.54e-01,
64,2.56e-01,-1.54e-01,
65,2.72e-01,-1.54e-01,
66,2.56e-01,-1.54e-01,
67,2.72e-01,-1.56e-01,
68,2.56e-01,-1.56e-01,
69,2.72e-01,-1.54e-01,
70,2.72e-01,-1.54e-01,
71,2.56e-01,-1.56e-01,
72,2.72e-01,-1.54e-01,
73,2.64e-01,-1.56e-01,
74,2.72e-01,-1.54e-01,
75,2.64e-01,-1.54e-01,
76,2.80e-01,-1.54e-01,
77,2.64e-01,-1.54e-01,
78,2.80e-01,-1.54e-01,
79,2.64e-01,-1.54e-01,
80,2.72e-01,-1.56e-01,
81,2.80e-01,-1.54e-01,
82,2.80e-01,-1.54e-01,
83,2.80e-01,-1.56e-01,
84,2.80e-01,-1.54e-01,
85,2.72e-01,-1.54e-01,
86,2.72e-01,-1.54e-01,
87,2.88e-01,-1.56e-01,
88,2.88e-01,-1.54e-01,
89,2.80e-01,-1.54e-01,
90,2.80e-01,-1.54e-01,
91,2.88e-01,-1.54e-01,
92,2.88e-01,-1.54e-01,
93,2.88e-01,-1.56e-01,
94,2.88e-01,-1.54e-01,
95,2.88e-01,-1.54e-01,
96,2.88e-01,-1.54e-01,
97,2.96e-01,-1.54e-01,
98,2.88e-01,-1.54e-01,
99,3.04e-01,-1.58e-01,
100,2.96e-01,-1.54e-01,
101,2.88e-01,-1.58e-01,
102,2.96e-01,-1.54e-01,
103,2.88e-01,-1.58e-01,
104,2.88e-01,-1.54e-01,
105,3.04e-01,-1.58e-01,
106,2.96e-01,-1.54e-01,
107,3.12e-01,-1.58e-01,
108,2.96e-01,-1.58e-01,
109,3.04e-01,-1.56e-01,
110,2.96e-01,-1.58e-01,
111,3.12e-01,-1.56e-01,
112,3.04e-01,-1.56e-01,
113,3.12e-01,-1.58e-01,
114,3.04e-01,-1.56e-01,
115,3.12e-01,-1.58e-01,
116,3.12e-01,-1.58e-01,
117,3.04e-01,-1.56e-01,
118,3.20e-01,-1.58e-01,
119,3.04e-01,-1.56e-01,
120,3.04e-01,-1.58e-01,
121,3.20e-01,-1.56e-01,
122,3.12e-01,-1.58e-01,
123,3.20e-01,-1.56e-01,
124,3.12e-01,-1.58e-01,
125,3.20e-01,-1.56e-01,
126,3.20e-01,-1.56e-01,
127,3.12e-01,-1.58e-01,
128,3.12e-01,-1.58e-01,
129,3.28e-01,-1.56e-01,
130,3.28e-01,-1.58e-01,
131,3.12e-01,-1.56e-01,
132,3.28e-01,-1.56e-01,
133,3.12e-01,-1.58e-01,
134,3.28e-01,-1.56e-01,
135,3.20e-01,-1.60e-01,
136,3.28e-01,-1.58e-01,
137,3.20e-01,-1.56e-01,
138,3.20e-01,-1.60e-01,
139,3.36e-01,-1.56e-01,
140,3.36e-01,-1.56e-01,
141,3.28e-01,-1.60e-01,
142,3.36e-01,-1.60e-01,
143,3.28e-01,-1.56e-01,
144,3.36e-01,-1.60e-01,
145,3.28e-01,-1.56e-01,
146,3.36e-01,-1.56e-01,
147,3.44e-01,-1.60e-01,
148,3.44e-01,-1.60e-01,
149,3.36e-01,-1.56e-01,
150,3.44e-01,-1.56e-01,
151,3.36e-01,-1.60e-01,
152,3.44e-01,-1.60e-01,
153,3.36e-01,-1.56e-01,
154,3.44e-01,-1.60e-01,
155,3.52e-01,-1.56e-01,
156,3.44e-01,-1.56e-01,
157,3.52e-01,-1.60e-01,
158,3.44e-01,-1.60e-01,
159,3.52e-01,-1.58e-01,
160,3.44e-01,-1.60e-01,
161,3.60e-01,-1.60e-01,
162,3.44e-01,-1.60e-01,
163,3.60e-01,-1.58e-01,
164,3.52e-01,-1.60e-01,
165,3.60e-01,-1.60e-01,
166,3.52e-01,-1.60e-01,
167,3.60e-01,-1.60e-01,
168,3.52e-01,-1.60e-01,
169,3.68e-01,-1.58e-01,
170,3.68e-01,-1.60e-01,
171,3.52e-01,-1.60e-01,
172,3.52e-01,-1.60e-01,
173,3.68e-01,-1.60e-01,
174,3.76e-01,-1.60e-01,
175,3.60e-01,-1.60e-01,
176,3.60e-01,-1.60e-01,
177,3.76e-01,-1.60e-01,
178,3.60e-01,-1.60e-01,
179,3.76e-01,-1.60e-01,
180,3.76e-01,-1.60e-01,
181,3.60e-01,-1.60e-01,
182,3.68e-01,-1.60e-01,
183,3.76e-01,-1.58e-01,
184,3.68e-01,-1.60e-01,
185,3.84e-01,-1.60e-01,
186,3.68e-01,-1.60e-01,
187,3.84e-01,-1.60e-01,
188,3.84e-01,-1.60e-01,
189,3.68e-01,-1.60e-01,
190,3.68e-01,-1.60e-01,
191,3.84e-01,-1.60e-01,
192,3.68e-01,-1.60e-01,
193,3.84e-01,-1.60e-01,
194,3.84e-01,-1.60e-01,
195,3.76e-01,-1.60e-01,
196,3.76e-01,-1.58e-01,
197,3.92e-01,-1.60e-01,
198,3.84e-01,-1.60e-01,
199,3.92e-01,-1.60e-01,
200,3.92e-01,-1.60e-01,
201,3.76e-01,-1.58e-01,
202,3.92e-01,-1.60e-01,
203,3.76e-01,-1.58e-01,
204,3.76e-01,-1.60e-01,
205,3.92e-01,-1.62e-01,
206,3.92e-01,-1.58e-01,
207,4.00e-01,-1.64e-01,
208,3.84e-01,-1.64e-01,
209,4.00e-01,-1.60e-01,
210,3.92e-01,-1.64e-01,
211,4.00e-01,-1.60e-01,
212,4.00e-01,-1.60e-01,
213,3.92e-01,-1.64e-01,
214,4.00e-01,-1.64e-01,
215,4.08e-01,-1.60e-01,
216,3.92e-01,-1.64e-01,
217,4.16e-01,-1.60e-01,
218,4.08e-01,-1.64e-01,
219,4.00e-01,-1.62e-01,
220,4.16e-01,-1.64e-01,
221,4.00e-01,-1.62e-01,
222,4.16e-01,-1.62e-01,
223,4.00e-01,-1.64e-01,
224,4.08e-01,-1.64e-01,
225,4.16e-01,-1.62e-01,
226,4.16e-01,-1.64e-01,
227,4.08e-01,-1.62e-01,
228,4.24e-01,-1.64e-01,
229,4.08e-01,-1.62e-01,
230,4.08e-01,-1.64e-01,
231,4.24e-01,-1.62e-01,
232,4.24e-01,-1.64e-01,
233,4.08e-01,-1.62e-01,
234,4.24e-01,-1.64e-01,
235,4.08e-01,-1.62e-01,
236,4.16e-01,-1.62e-01,
237,4.24e-01,-1.64e-01,
238,4.16e-01,-1.62e-01,
239,4.24e-01,-1.64e-01,
240,4.32e-01,-1.62e-01,
241,4.16e-01,-1.64e-01,
242,4.32e-01,-1.64e-01,
243,4.16e-01,-1.62e-01,
244,4.16e-01,-1.62e-01,
245,4.32e-01,-1.64e-01,
246,4.32e-01,-1.64e-01,
247,4.16e-01,-1.62e-01,
248,4.40e-01,-1.62e-01,
249,4.24e-01,-1.64e-01,
250,4.24e-01,-1.62e-01,
251,4.40e-01,-1.66e-01,
252,4.32e-01,-1.62e-01,
253,4.40e-01,-1.66e-01,
254,4.40e-01,-1.62e-01,
255,4.24e-01,-1.66e-01,
256,4.32e-01,-1.62e-01,
257,4.40e-01,-1.66e-01,
258,4.32e-01,-1.66e-01,
259,4.48e-01,-1.62e-01,
260,4.40e-01,-1.66e-01,
261,4.48e-01,-1.62e-01,
262,4.48e-01,-1.66e-01,
263,4.40e-01,-1.62e-01,
264,4.48e-01,-1.64e-01,
265,4.32e-01,-1.62e-01,
266,4.48e-01,-1.62e-01,
267,4.40e-01,-1.68e-01,
268,4.56e-01,-1.68e-01,
269,4.32e-01,-1.80e-01,
270,4.48e-01,-1.80e-01,
271,4.64e-01,-1.84e-01,
272,4.64e-01,-1.80e-01,
273,4.48e-01,-1.74e-01,
274,4.48e-01,-1.76e-01,
275,4.64e-01,-1.68e-01,
276,4.48e-01,-1.70e-01,
277,4.64e-01,-1.66e-01,
278,4.56e-01,-1.66e-01,
279,4.72e-01,-1.64e-01,
280,4.56e-01,-1.64e-01,
281,4.72e-01,-1.66e-01,
282,4.56e-01,-1.66e-01,
283,4.72e-01,-1.64e-01,
284,4.56e-01,-1.66e-01,
285,4.72e-01,-1.64e-01,
286,4.72e-01,-1.66e-01,
287,4.64e-01,-1.64e-01,
288,4.64e-01,-1.66e-01,
289,4.80e-01,-1.64e-01,
290,4.80e-01,-1.66e-01,
291,4.64e-01,-1.66e-01,
292,4.80e-01,-1.66e-01,
293,4.64e-01,-1.64e-01,
294,4.80e-01,-1.66e-01,
295,4.64e-01,-1.66e-01,
296,4.64e-01,-1.66e-01,
297,4.80e-01,-1.64e-01,
298,4.88e-01,-1.66e-01,
299,4.72e-01,-1.64e-01,
300,4.88e-01,-1.66e-01,
301,4.72e-01,-1.64e-01,
302,4.88e-01,-1.64e-01,
303,4.72e-01,-1.66e-01,
304,4.72e-01,-1.66e-01,
305,4.96e-01,-1.64e-01,
306,4.80e-01,-1.64e-01,
307,4.88e-01,-1.66e-01,
308,4.80e-01,-1.64e-01,
309,4.88e-01,-1.66e-01,
310,4.88e-01,-1.66e-01,
311,4.96e-01,-1.64e-01,
312,4.96e-01,-1.66e-01,
313,4.88e-01,-1.70e-01,
314,4.80e-01,-1.70e-01,
315,4.96e-01,-1.66e-01,
316,5.12e-01,-1.66e-01,
317,4.88e-01,-1.68e-01,
318,4.88e-01,-1.64e-01,
319,5.04e-01,-1.68e-01,
320,4.96e-01,-1.66e-01,
321,5.04e-01,-1.70e-01,
322,4.96e-01,-1.70e-01,
323,5.12e-01,-1.66e-01,
324,5.12e-01,-1.70e-01,
325,4.96e-01,-1.66e-01,
326,4.96e-01,-1.70e-01,
327,5.04e-01,-1.68e-01,
328,5.04e-01,-1.68e-01,
329,5.12e-01,-1.70e-01,
330,5.04e-01,-1.68e-01,
331,5.20e-01,-1.68e-01,
332,5.04e-01,-1.68e-01,
333,5.12e-01,-1.70e-01,
334,5.04e-01,-1.68e-01,
335,5.20e-01,-1.70e-01,
336,5.04e-01,-1.68e-01,
337,5.12e-01,-1.70e-01,
338,5.04e-01,-1.68e-01,
339,5.28e-01,-1.70e-01,
340,5.12e-01,-1.68e-01,
341,5.28e-01,-1.70e-01,
342,5.12e-01,-1.70e-01,
343,5.20e-01,-1.68e-01,
344,5.28e-01,-1.70e-01,
345,5.12e-01,-1.68e-01,
346,5.12e-01,-1.68e-01,
347,5.36e-01,-1.70e-01,
348,5.20e-01,-1.68e-01,
349,5.28e-01,-1.70e-01,
350,5.20e-01,-1.70e-01,
351,5.36e-01,-1.68e-01,
352,5.36e-01,-1.68e-01,
353,5.20e-01,-1.72e-01,
354,5.36e-01,-1.68e-01,
355,5.20e-01,-1.68e-01,
356,5.44e-01,-1.68e-01,
357,5.20e-01,-1.72e-01,
358,5.36e-01,-1.68e-01,
359,5.28e-01,-1.72e-01,
360,5.44e-01,-1.68e-01,
361,5.28e-01,-1.72e-01,
362,5.44e-01,-1.72e-01,
363,5.28e-01,-1.68e-01,
364,5.44e-01,-1.72e-01,
365,5.28e-01,-1.70e-01,
366,5.44e-01,-1.70e-01,
367,5.36e-01,-1.72e-01,
368,5.44e-01,-1.72e-01,
369,5.44e-01,-1.70e-01,
370,5.44e-01,-1.72e-01,
371,5.52e-01,-1.70e-01,
372,5.36e-01,-1.72e-01,
373,5.52e-01,-1.70e-01,
374,5.52e-01,-1.72e-01,
375,5.36e-01,-1.70e-01,
376,5.44e-01,-1.72e-01,
377,5.60e-01,-1.70e-01,
378,5.44e-01,-1.72e-01,
379,5.68e-01,-1.70e-01,
380,5.52e-01,-1.70e-01,
381,5.60e-01,-1.72e-01,
382,5.60e-01,-1.70e-01,
383,5.44e-01,-1.72e-01,
384,5.52e-01,-1.70e-01,
385,5.68e-01,-1.72e-01,
386,5.52e-01,-1.72e-01,
387,5.68e-01,-1.70e-01,
388,5.52e-01,-1.70e-01,
389,5.68e-01,-1.72e-01,
390,5.60e-01,-1.70e-01,
391,5.76e-01,-1.74e-01,
392,5.60e-01,-1.74e-01,
393,5.76e-01,-1.84e-01,
394,5.68e-01,-1.86e-01,
395,5.60e-01,-2.00e-01,
396,5.60e-01,-2.04e-01,
397,5.76e-01,-2.00e-01,
398,5.76e-01,-2.00e-01,
399,5.60e-01,-1.88e-01,
400,5.68e-01,-1.84e-01,
401,5.84e-01,-1.80e-01,
402,5.84e-01,-1.78e-01,
403,5.76e-01,-1.74e-01,
404,5.68e-01,-1.76e-01,
405,5.76e-01,-1.70e-01,
406,5.84e-01,-1.70e-01,
407,5.76e-01,-1.72e-01,
408,5.84e-01,-1.70e-01,
409,5.68e-01,-1.72e-01,
410,5.76e-01,-1.70e-01,
411,5.84e-01,-1.74e-01,
412,5.92e-01,-1.70e-01,
413,5.84e-01,-1.74e-01,
414,5.76e-01,-1.72e-01,
415,5.84e-01,-1.72e-01,
416,5.84e-01,-1.72e-01,
417,6.00e-01,-1.76e-01,
418,5.92e-01,-1.72e-01,
419,5.76e-01,-1.76e-01,
420,5.84e-01,-1.76e-01,
421,5.92e-01,-1.70e-01,
422,6.00e-01,-1.72e-01,
423,5.84e-01,-1.76e-01,
424,6.00e-01,-1.72e-01,
425,5.84e-01,-1.76e-01,
426,5.84e-01,-1.72e-01,
427,6.00e-01,-1.74e-01,
428,5.92e-01,-1.74e-01,
429,6.08e-01,-1.72e-01,
430,6.08e-01,-1.70e-01,
431,5.92e-01,-1.76e-01,
432,6.00e-01,-1.74e-01,
433,5.92e-01,-1.76e-01,
434,6.00e-01,-1.74e-01,
435,6.08e-01,-1.76e-01,
436,6.08e-01,-1.74e-01,
437,6.08e-01,-1.74e-01,
438,6.08e-01,-1.74e-01,
439,5.92e-01,-1.76e-01,
440,5.92e-01,-1.74e-01,
441,6.08e-01,-1.76e-01,
442,6.08e-01,-1.76e-01,
443,6.16e-01,-1.74e-01,
444,6.24e-01,-1.74e-01,
445,6.08e-01,-1.74e-01,
446,6.08e-01,-1.74e-01,
447,6.24e-01,-1.76e-01,
448,6.24e-01,-1.74e-01,
449,6.16e-01,-1.76e-01,
450,6.32e-01,-1.74e-01,
451,6.16e-01,-1.76e-01,
452,6.08e-01,-1.74e-01,
453,6.24e-01,-1.74e-01,
454,6.16e-01,-1.74e-01,
455,6.32e-01,-1.76e-01,
456,6.24e-01,-1.74e-01,
457,6.32e-01,-1.76e-01,
458,6.32e-01,-1.76e-01,
459,6.24e-01,-1.74e-01,
460,6.32e-01,-1.74e-01,
461,6.16e-01,-1.76e-01,
462,6.32e-01,-1.78e-01,
463,6.16e-01,-1.74e-01,
464,6.24e-01,-1.74e-01,
465,6.40e-01,-1.78e-01,
466,6.32e-01,-1.74e-01,
467,6.40e-01,-1.78e-01,
468,6.48e-01,-1.78e-01,
469,6.32e-01,-1.76e-01,
470,6.48e-01,-1.78e-01,
471,6.32e-01,-1.76e-01,
472,6.48e-01,-1.74e-01,
473,6.40e-01,-1.78e-01,
474,6.48e-01,-1.76e-01,
475,6.32e-01,-1.78e-01,
476,6.48e-01,-1.78e-01,
477,6.48e-01,-1.76e-01,
478,6.40e-01,-1.78e-01,
479,6.56e-01,-1.74e-01,
480,6.56e-01,-1.74e-01,
481,6.40e-01,-1.78e-01,
482,6.48e-01,-1.78e-01,
483,6.56e-01,-1.76e-01,
484,6.56e-01,-1.76e-01,
485,6.48e-01,-1.78e-01,
486,6.56e-01,-1.78e-01,
487,6.56e-01,-1.76e-01,
488,6.56e-01,-1.78e-01,
489,6.48e-01,-1.76e-01,
490,6.56e-01,-1.76e-01,
491,6.56e-01,-1.78e-01,
492,6.56e-01,-1.78e-01,
493,6.56e-01,-1.76e-01,
494,6.56e-01,-1.78e-01,
495,6.56e-01,-1.76e-01,
496,6.56e-01,-1.78e-01,
497,6.72e-01,-1.76e-01,
498,6.64e-01,-1.76e-01,
499,6.80e-01,-1.78e-01,
500,6.64e-01,-1.76e-01,
501,6.80e-01,-1.78e-01,
502,6.64e-01,-1.76e-01,
503,6.64e-01,-1.78e-01,
504,6.64e-01,-1.76e-01,
505,6.72e-01,-1.78e-01,
506,6.64e-01,-1.78e-01,
507,6.80e-01,-1.76e-01,
508,6.72e-01,-1.78e-01,
509,6.80e-01,-1.76e-01,
510,6.64e-01,-1.76e-01,
511,6.80e-01,-1.78e-01,
512,6.72e-01,-1.78e-01,
513,6.88e-01,-1.76e-01,
514,6.88e-01,-1.76e-01,
515,6.80e-01,-1.80e-01,
516,6.88e-01,-1.76e-01,
517,6.72e-01,-1.80e-01,
518,6.72e-01,-1.80e-01,
519,6.88e-01,-1.86e-01,
520,6.80e-01,-1.86e-01,
521,6.96e-01,-2.10e-01,
522,6.80e-01,-2.12e-01,
523,6.88e-01,-2.26e-01,
524,6.80e-01,-2.24e-01,
525,6.96e-01,-2.16e-01,
526,6.96e-01,-2.12e-01,
527,6.80e-01,-1.96e-01,
528,6.80e-01,-1.94e-01,
529,6.96e-01,-1.86e-01,
530,7.04e-01,-1.84e-01,
531,6.88e-01,-1.80e-01,
532,6.80e-01,-1.80e-01,
533,7.04e-01,-1.80e-01,
534,7.04e-01,-1.80e-01,
535,6.88e-01,-1.76e-01,
536,6.88e-01,-1.80e-01,
537,7.04e-01,-1.80e-01,
538,7.12e-01,-1.80e-01,
539,6.96e-01,-1.82e-01,
540,6.96e-01,-1.80e-01,
541,7.12e-01,-1.80e-01,
542,6.96e-01,-1.80e-01,
543,7.04e-01,-1.80e-01,
544,7.12e-01,-1.80e-01,
545,6.96e-01,-1.80e-01,
546,6.96e-01,-1.80e-01,
547,7.12e-01,-1.80e-01,
548,7.12e-01,-1.80e-01,
549,7.04e-01,-1.80e-01,
550,7.04e-01,-1.80e-01,
551,7.12e-01,-1.80e-01,
552,7.12e-01,-1.80e-01,
553,7.04e-01,-1.80e-01,
554,7.12e-01,-1.80e-01,
555,7.28e-01,-1.80e-01,
556,7.12e-01,-1.80e-01,
557,7.20e-01,-1.80e-01,
558,7.12e-01,-1.80e-01,
559,7.28e-01,-1.80e-01,
560,7.28e-01,-1.80e-01,
561,7.12e-01,-1.80e-01,
562,7.12e-01,-1.80e-01,
563,7.36e-01,-1.80e-01,
564,7.12e-01,-1.80e-01,
565,7.28e-01,-1.80e-01,
566,7.36e-01,-1.80e-01,
567,7.20e-01,-1.80e-01,
568,7.36e-01,-1.80e-01,
569,7.20e-01,-1.80e-01,
570,7.20e-01,-1.80e-01,
571,7.44e-01,-1.84e-01,
572,7.20e-01,-1.84e-01,
573,7.44e-01,-1.80e-01,
574,7.28e-01,-1.84e-01,
575,7.44e-01,-1.80e-01,
576,7.44e-01,-1.82e-01,
577,7.28e-01,-1.84e-01,
578,7.44e-01,-1.82e-01,
579,7.36e-01,-1.84e-01,
580,7.52e-01,-1.82e-01,
581,7.28e-01,-1.84e-01,
582,7.28e-01,-1.84e-01,
583,7.52e-01,-1.82e-01,
584,7.36e-01,-1.84e-01,
585,7.52e-01,-1.82e-01,
586,7.52e-01,-1.82e-01,
587,7.36e-01,-1.84e-01,
588,7.52e-01,-1.84e-01,
589,7.36e-01,-1.82e-01,
590,7.52e-01,-1.82e-01,
591,7.36e-01,-1.84e-01,
592,7.60e-01,-1.82e-01,
593,7.44e-01,-1.84e-01,
594,7.60e-01,-1.84e-01,
595,7.36e-01,-1.82e-01,
596,7.52e-01,-1.82e-01,
597,7.60e-01,-1.84e-01,
598,7.60e-01,-1.82e-01,
599,7.52e-01,-1.84e-01,
600,7.60e-01,-1.82e-01,
601,7.44e-01,-1.84e-01,
602,7.60e-01,-1.84e-01,
603,7.60e-01,-1.82e-01,
604,7.68e-01,-1.84e-01,
605,7.52e-01,-1.82e-01,
606,7.76e-01,-1.82e-01,
607,7.60e-01,-1.84e-01,
608,7.60e-01,-1.82e-01,
609,7.76e-01,-1.84e-01,
610,7.52e-01,-1.82e-01,
611,7.76e-01,-1.84e-01,
612,7.60e-01,-1.84e-01,
613,7.84e-01,-1.82e-01,
614,7.68e-01,-1.82e-01,
615,7.76e-01,-1.84e-01,
616,7.68e-01,-1.84e-01,
617,7.84e-01,-1.82e-01,
618,7.84e-01,-1.84e-01,
619,7.68e-01,-1.82e-01,
620,7.68e-01,-1.84e-01,
621,7.92e-01,-1.82e-01,
622,7.68e-01,-1.82e-01,
623,7.92e-01,-1.86e-01,
624,7.68e-01,-1.86e-01,
625,7.92e-01,-1.82e-01,
626,7.76e-01,-1.82e-01,
627,7.92e-01,-1.86e-01,
628,7.76e-01,-1.86e-01,
629,7.92e-01,-1.82e-01,
630,7.76e-01,-1.86e-01,
631,7.92e-01,-1.82e-01,
632,7.76e-01,-1.86e-01,
633,8.00e-01,-1.84e-01,
634,8.00e-01,-1.86e-01,
635,7.76e-01,-1.86e-01,
636,8.00e-01,-1.86e-01,
637,7.76e-01,-1.86e-01,
638,7.84e-01,-1.86e-01,
639,8.00e-01,-1.86e-01,
640,8.00e-01,-1.86e-01,
641,7.84e-01,-1.86e-01,
642,8.00e-01,-1.86e-01,
643,7.84e-01,-1.84e-01,
644,8.00e-01,-1.84e-01,
645,7.84e-01,-1.90e-01,
646,7.84e-01,-1.88e-01,
647,8.08e-01,-2.06e-01,
648,8.08e-01,-2.12e-01,
649,7.92e-01,-2.52e-01,
650,7.92e-01,-2.58e-01,
651,8.16e-01,-2.52e-01,
652,8.16e-01,-2.50e-01,
653,7.92e-01,-2.22e-01,
654,7.92e-01,-2.20e-01,
655,8.16e-01,-2.02e-01,
656,8.16e-01,-2.02e-01,
657,8.08e-01,-1.90e-01,
658,8.00e-01,-1.92e-01,
659,8.16e-01,-1.88e-01,
660,8.16e-01,-1.86e-01,
661,8.00e-01,-1.86e-01,
662,8.08e-01,-1.86e-01,
663,8.16e-01,-1.86e-01,
664,8.32e-01,-1.86e-01,
665,8.08e-01,-1.84e-01,
666,8.08e-01,-1.86e-01,
667,8.24e-01,-1.84e-01,
668,8.08e-01,-1.90e-01,
669,8.24e-01,-1.84e-01,
670,8.24e-01,-1.84e-01,
671,8.16e-01,-1.90e-01,
672,8.40e-01,-1.86e-01,
673,8.16e-01,-1.90e-01,
674,8.08e-01,-1.86e-01,
675,8.40e-01,-1.90e-01,
676,8.40e-01,-1.86e-01,
677,8.24e-01,-1.90e-01,
678,8.24e-01,-1.88e-01,
679,8.40e-01,-1.90e-01,
680,8.24e-01,-1.88e-01,
681,8.40e-01,-1.90e-01,
682,8.48e-01,-1.90e-01,
683,8.24e-01,-1.88e-01,
684,8.48e-01,-1.90e-01,
685,8.24e-01,-1.88e-01,
686,8.32e-01,-1.90e-01,
687,8.48e-01,-1.88e-01,
688,8.40e-01,-1.90e-01,
689,8.32e-01,-1.88e-01,
690,8.32e-01,-1.88e-01,
691,8.48e-01,-1.90e-01,
692,8.32e-01,-1.88e-01,
693,8.56e-01,-1.90e-01,
694,8.32e-01,-1.88e-01,
695,8.56e-01,-1.90e-01,
696,8.56e-01,-1.88e-01,
697,8.40e-01,-1.90e-01,
698,8.40e-01,-1.90e-01,
699,8.56e-01,-1.88e-01,
700,8.56e-01,-1.88e-01,
701,8.40e-01,-1.90e-01,
702,8.64e-01,-1.88e-01,
703,8.40e-01,-1.90e-01,
704,8.48e-01,-1.88e-01,
705,8.64e-01,-1.90e-01,
706,8.40e-01,-1.90e-01,
707,8.64e-01,-1.88e-01,
708,8.48e-01,-1.88e-01,
709,8.64e-01,-1.90e-01,
710,8.72e-01,-1.90e-01,
711,8.56e-01,-1.88e-01,
712,8.48e-01,-1.88e-01,
713,8.72e-01,-1.90e-01,
714,8.56e-01,-1.88e-01,
715,8.72e-01,-1.90e-01,
716,8.80e-01,-1.90e-01,
717,8.64e-01,-1.88e-01,
718,8.64e-01,-1.90e-01,
719,8.72e-01,-1.88e-01,
720,8.56e-01,-1.88e-01,
721,8.88e-01,-1.92e-01,
722,8.64e-01,-1.92e-01,
723,8.88e-01,-1.90e-01,
724,8.56e-01,-1.88e-01,
725,8.88e-01,-1.92e-01,
726,8.64e-01,-1.88e-01,
727,8.88e-01,-1.92e-01,
728,8.88e-01,-1.88e-01,
729,8.72e-01,-1.92e-01,
730,8.80e-01,-1.92e-01,
731,8.72e-01,-1.90e-01,
732,8.72e-01,-1.92e-01,
733,8.96e-01,-1.90e-01,
734,8.72e-01,-1.92e-01,
735,8.96e-01,-1.90e-01,
736,8.96e-01,-1.90e-01,
737,8.72e-01,-1.92e-01,
738,8.80e-01,-1.92e-01,
739,8.96e-01,-1.90e-01,
740,8.80e-01,-1.92e-01,
741,9.04e-01,-1.90e-01,
742,9.04e-01,-1.92e-01,
743,8.80e-01,-1.92e-01,
744,9.04e-01,-1.92e-01,
745,8.80e-01,-1.92e-01,
746,9.04e-01,-1.90e-01,
747,8.80e-01,-1.92e-01,
748,9.04e-01,-1.92e-01,
749,8.88e-01,-1.90e-01,
750,8.88e-01,-1.92e-01,
751,9.04e-01,-1.90e-01,
752,9.04e-01,-1.92e-01,
753,8.88e-01,-1.90e-01,
754,8.88e-01,-1.92e-01,
755,9.12e-01,-1.90e-01,
756,8.88e-01,-1.92e-01,
757,9.12e-01,-1.90e-01,
758,8.96e-01,-1.90e-01,
759,9.12e-01,-1.92e-01,
760,8.96e-01,-1.92e-01,
761,9.12e-01,-1.90e-01,
762,9.20e-01,-1.90e-01,
763,8.96e-01,-1.92e-01,
764,9.20e-01,-1.90e-01,
765,9.04e-01,-1.92e-01,
766,9.20e-01,-1.92e-01,
767,8.96e-01,-1.90e-01,
768,9.20e-01,-1.90e-01,
769,8.96e-01,-1.92e-01,
770,9.04e-01,-1.92e-01,
771,9.28e-01,-1.92e-01,
772,9.36e-01,-1.92e-01,
773,9.04e-01,-1.90e-01,
774,9.36e-01,-1.92e-01,
775,9.12e-01,-1.90e-01,
776,9.28e-01,-1.92e-01,
777,9.20e-01,-1.90e-01,
778,9.28e-01,-1.92e-01,
779,9.12e-01,-1.90e-01,
780,9.20e-01,-1.92e-01,
781,9.36e-01,-1.92e-01,
782,9.12e-01,-1.92e-01,
783,9.44e-01,-1.90e-01,
784,9.20e-01,-1.90e-01,
785,9.44e-01,-1.94e-01,
786,9.20e-01,-1.90e-01,
787,9.44e-01,-1.94e-01,
788,9.36e-01,-1.90e-01,
789,9.20e-01,-1.96e-01,
790,9.44e-01,-1.94e-01,
791,9.28e-01,-1.96e-01,
792,9.44e-01,-1.96e-01,
793,9.28e-01,-1.94e-01,
794,9.28e-01,-1.94e-01,
795,9.52e-01,-1.94e-01,
796,9.44e-01,-1.94e-01,
797,9.28e-01,-1.96e-01,
798,9.52e-01,-1.94e-01,
799,9.28e-01,-1.98e-01,
800,9.36e-01,-1.98e-01,
801,9.60e-01,-1.94e-01,
802,9.36e-01,-1.96e-01,
803,9.60e-01,-1.98e-01,
804,9.60e-01,-1.98e-01,
805,9.36e-01,-1.96e-01,
806,9.60e-01,-1.98e-01,
807,9.36e-01,-1.96e-01,
808,9.60e-01,-1.96e-01,
809,9.36e-01,-1.98e-01,
810,9.52e-01,-1.98e-01,
811,9.68e-01,-1.96e-01,
812,9.60e-01,-1.96e-01,
813,9.44e-01,-1.98e-01,
814,9.44e-01,-1.96e-01,
815,9.68e-01,-1.98e-01,
816,9.68e-01,-1.96e-01,
817,9.52e-01,-1.98e-01,
818,9.52e-01,-1.96e-01,
819,9.68e-01,-1.98e-01,
820,9.68e-01,-1.98e-01,
821,9.52e-01,-1.96e-01,
822,9.60e-01,-1.98e-01,
823,9.76e-01,-1.96e-01,
824,9.52e-01,-1.98e-01,
825,9.76e-01,-1.96e-01,
826,9.76e-01,-1.98e-01,
827,9.60e-01,-1.96e-01,
828,9.68e-01,-1.98e-01,
829,9.76e-01,-1.96e-01,
830,9.76e-01,-1.98e-01,
831,9.68e-01,-1.96e-01,
832,9.60e-01,-1.98e-01,
833,9.84e-01,-1.96e-01,
