quadratic_zeeman_data/NewFile6p7MHz-1s.csv

X,CH1,CH2,Start,Increment,
Sequence,Volt,Volt,-7.600001e-02,1.000000e-03
0,9.76e-01,-2.27e-01,
1,1.01e+00,-2.25e-01,
2,9.76e-01,-2.26e-01,
3,1.01e+00,-2.29e-01,
4,9.76e-01,-2.28e-01,
5,1.01e+00,-2.26e-01,
6,9.76e-01,-2.26e-01,
7,1.01e+00,-2.29e-01,
8,9.76e-01,-2.27e-01,
9,1.01e+00,-2.30e-01,
10,9.76e-01,-2.30e-01,
11,1.01e+00,-2.26e-01,
12,1.01e+00,-2.26e-01,
13,9.76e-01,-2.29e-01,
14,1.01e+00,-2.26e-01,
15,9.76e-01,-2.29e-01,
16,9.76e-01,-2.28e-01,
17,1.02e+00,-2.26e-01,
18,1.02e+00,-2.26e-01,
19,9.76e-01,-2.29e-01,
20,9.84e-01,-2.26e-01,
21,1.02e+00,-2.29e-01,
22,9.84e-01,-2.26e-01,
23,1.02e+00,-2.29e-01,
24,1.02e+00,-2.27e-01,
25,9.84e-01,-2.30e-01,
26,1.02e+00,-2.30e-01,
27,9.84e-01,-2.27e-01,
28,1.02e+00,-2.30e-01,
29,9.84e-01,-2.26e-01,
30,1.02e+00,-2.27e-01,
31,9.84e-01,-2.29e-01,
32,1.02e+00,-2.29e-01,
33,9.84e-01,-2.26e-01,
34,1.02e+00,-2.26e-01,
35,9.84e-01,-2.29e-01,
36,9.84e-01,-2.26e-01,
37,1.02e+00,-2.30e-01,
38,9.84e-01,-2.27e-01,
39,1.02e+00,-2.30e-01,
40,1.02e+00,-2.27e-01,
41,9.84e-01,-2.31e-01,
42,9.92e-01,-2.31e-01,
43,1.02e+00,-2.29e-01,
44,9.92e-01,-2.30e-01,
45,1.02e+00,-2.27e-01,
46,1.02e+00,-2.27e-01,
47,9.92e-01,-2.30e-01,
48,1.02e+00,-2.30e-01,
49,9.92e-01,-2.27e-01,
50,1.02e+00,-2.29e-01,
51,9.92e-01,-2.26e-01,
52,9.92e-01,-2.27e-01,
53,1.02e+00,-2.30e-01,
54,1.02e+00,-2.30e-01,
55,9.92e-01,-2.27e-01,
56,1.02e+00,-2.27e-01,
57,9.92e-01,-2.30e-01,
58,1.03e+00,-2.29e-01,
59,9.92e-01,-2.31e-01,
60,1.00e+00,-2.31e-01,
61,1.03e+00,-2.28e-01,
62,1.00e+00,-2.28e-01,
63,1.04e+00,-2.30e-01,
64,1.00e+00,-2.30e-01,
65,1.04e+00,-2.28e-01,
66,1.00e+00,-2.30e-01,
67,1.04e+00,-2.27e-01,
68,1.00e+00,-2.27e-01,
69,1.04e+00,-2.30e-01,
70,1.00e+00,-2.30e-01,
71,1.04e+00,-2.29e-01,
72,1.04e+00,-2.30e-01,
73,1.00e+00,-2.28e-01,
74,1.04e+00,-2.29e-01,
75,8.24e-01,-2.32e-01,
76,5.84e-01,-2.30e-01,
77,5.28e-01,-2.16e-01,
78,5.68e-01,-2.18e-01,
79,5.28e-01,-2.05e-01,
80,5.28e-01,-2.06e-01,
81,5.68e-01,-2.02e-01,
82,5.68e-01,-2.02e-01,
83,5.28e-01,-1.99e-01,
84,5.36e-01,-2.02e-01,
85,5.68e-01,-1.99e-01,
86,5.44e-01,-2.00e-01,
87,5.68e-01,-2.02e-01,
88,5.68e-01,-2.02e-01,
89,5.44e-01,-2.01e-01,
90,5.44e-01,-2.01e-01,
91,5.76e-01,-2.05e-01,
92,5.44e-01,-2.05e-01,
93,5.76e-01,-2.02e-01,
94,5.44e-01,-2.03e-01,
95,5.76e-01,-2.01e-01,
96,5.44e-01,-2.01e-01,
97,5.76e-01,-2.03e-01,
98,5.44e-01,-2.03e-01,
99,5.76e-01,-2.00e-01,
100,5.44e-01,-2.00e-01,
101,5.76e-01,-2.02e-01,
102,5.76e-01,-2.00e-01,
103,5.44e-01,-2.03e-01,
104,5.76e-01,-2.03e-01,
105,5.44e-01,-2.01e-01,
106,5.76e-01,-2.01e-01,
107,5.44e-01,-2.03e-01,
108,5.44e-01,-2.02e-01,
109,5.84e-01,-2.05e-01,
110,5.76e-01,-2.04e-01,
111,5.44e-01,-2.01e-01,
112,5.52e-01,-2.03e-01,
113,5.76e-01,-2.01e-01,
114,5.52e-01,-2.03e-01,
115,5.84e-01,-2.01e-01,
116,5.52e-01,-2.02e-01,
117,5.84e-01,-2.00e-01,
118,5.52e-01,-2.00e-01,
119,5.84e-01,-2.03e-01,
120,5.52e-01,-2.03e-01,
121,5.84e-01,-2.01e-01,
122,5.84e-01,-2.01e-01,
123,5.52e-01,-2.03e-01,
124,5.84e-01,-2.02e-01,
125,5.52e-01,-2.05e-01,
126,5.60e-01,-2.05e-01,
127,5.84e-01,-2.02e-01,
128,5.84e-01,-2.03e-01,
129,5.52e-01,-2.01e-01,
130,5.84e-01,-2.02e-01,
131,5.60e-01,-2.05e-01,
132,5.84e-01,-2.03e-01,
133,5.60e-01,-2.01e-01,
134,5.84e-01,-2.02e-01,
135,5.60e-01,-2.00e-01,
136,5.60e-01,-2.01e-01,
137,5.92e-01,-2.03e-01,
138,5.92e-01,-2.03e-01,
139,5.60e-01,-2.02e-01,
140,5.60e-01,-2.02e-01,
141,5.92e-01,-2.06e-01,
142,5.92e-01,-2.06e-01,
143,5.60e-01,-2.03e-01,
144,5.92e-01,-2.05e-01,
145,5.60e-01,-2.02e-01,
146,5.92e-01,-2.02e-01,
147,5.60e-01,-2.05e-01,
148,5.92e-01,-2.05e-01,
149,5.60e-01,-2.01e-01,
150,5.92e-01,-2.03e-01,
151,5.68e-01,-2.01e-01,
152,5.92e-01,-2.01e-01,
153,5.68e-01,-2.04e-01,
154,5.92e-01,-2.05e-01,
155,5.68e-01,-2.02e-01,
156,5.68e-01,-2.02e-01,
157,6.00e-01,-2.06e-01,
158,5.68e-01,-2.03e-01,
159,6.00e-01,-2.06e-01,
160,5.68e-01,-2.06e-01,
161,6.00e-01,-2.02e-01,
162,6.00e-01,-2.02e-01,
163,5.68e-01,-2.06e-01,
164,6.00e-01,-2.03e-01,
165,5.68e-01,-2.06e-01,
166,6.00e-01,-2.05e-01,
167,5.68e-01,-2.02e-01,
168,6.00e-01,-2.02e-01,
169,5.68e-01,-2.06e-01,
170,6.00e-01,-2.03e-01,
171,5.76e-01,-2.06e-01,
172,5.76e-01,-2.02e-01,
173,6.08e-01,-2.06e-01,
174,5.76e-01,-2.03e-01,
175,6.08e-01,-2.06e-01,
176,6.00e-01,-2.06e-01,
177,5.76e-01,-2.03e-01,
178,5.76e-01,-2.06e-01,
179,6.08e-01,-2.02e-01,
180,6.08e-01,-2.03e-01,
181,5.76e-01,-2.06e-01,
182,6.08e-01,-2.06e-01,
183,5.76e-01,-2.02e-01,
184,6.08e-01,-2.02e-01,
185,5.76e-01,-2.05e-01,
186,6.08e-01,-2.02e-01,
187,5.76e-01,-2.06e-01,
188,6.08e-01,-2.06e-01,
189,5.76e-01,-2.03e-01,
190,5.84e-01,-2.03e-01,
191,6.24e-01,-2.06e-01,
192,5.84e-01,-2.06e-01,
193,6.08e-01,-2.04e-01,
194,5.84e-01,-2.06e-01,
195,6.08e-01,-2.03e-01,
196,5.84e-01,-2.02e-01,
197,6.24e-01,-2.06e-01,
198,5.84e-01,-2.06e-01,
199,6.16e-01,-2.03e-01,
200,5.84e-01,-2.05e-01,
201,6.16e-01,-2.02e-01,
202,5.84e-01,-2.02e-01,
203,6.24e-01,-2.06e-01,
204,5.84e-01,-2.04e-01,
205,6.24e-01,-2.06e-01,
206,6.24e-01,-2.03e-01,
207,5.84e-01,-2.06e-01,
208,6.24e-01,-2.05e-01,
209,5.84e-01,-2.07e-01,
210,5.92e-01,-2.07e-01,
211,6.24e-01,-2.04e-01,
212,5.92e-01,-2.04e-01,
213,6.24e-01,-2.06e-01,
214,5.92e-01,-2.06e-01,
215,6.24e-01,-2.03e-01,
216,5.84e-01,-2.06e-01,
217,6.24e-01,-2.02e-01,
218,6.24e-01,-2.06e-01,
219,5.92e-01,-2.02e-01,
220,5.92e-01,-2.04e-01,
221,6.32e-01,-2.06e-01,
222,5.92e-01,-2.04e-01,
223,6.32e-01,-2.06e-01,
224,6.32e-01,-2.04e-01,
225,5.92e-01,-2.07e-01,
226,6.32e-01,-2.07e-01,
227,5.92e-01,-2.04e-01,
228,5.92e-01,-2.04e-01,
229,6.32e-01,-2.06e-01,
230,6.32e-01,-2.05e-01,
231,6.00e-01,-2.07e-01,
232,6.32e-01,-2.06e-01,
233,6.00e-01,-2.04e-01,
234,6.00e-01,-2.04e-01,
235,6.40e-01,-2.06e-01,
236,6.32e-01,-2.05e-01,
237,6.00e-01,-2.07e-01,
238,6.32e-01,-2.06e-01,
239,6.00e-01,-2.04e-01,
240,6.00e-01,-2.05e-01,
241,6.40e-01,-2.08e-01,
242,6.00e-01,-2.06e-01,
243,6.40e-01,-2.09e-01,
244,6.00e-01,-2.08e-01,
245,6.40e-01,-2.05e-01,
246,6.40e-01,-2.06e-01,
247,6.00e-01,-2.07e-01,
248,6.40e-01,-2.07e-01,
249,6.08e-01,-2.04e-01,
250,6.40e-01,-2.04e-01,
251,6.00e-01,-2.06e-01,
252,6.40e-01,-2.04e-01,
253,6.00e-01,-2.07e-01,
254,6.40e-01,-2.07e-01,
255,6.16e-01,-2.05e-01,
256,6.16e-01,-2.05e-01,
257,6.40e-01,-2.08e-01,
258,6.16e-01,-2.08e-01,
259,6.48e-01,-2.06e-01,
260,6.16e-01,-2.08e-01,
261,6.48e-01,-2.05e-01,
262,6.16e-01,-2.05e-01,
263,6.48e-01,-2.07e-01,
264,6.16e-01,-2.07e-01,
265,6.48e-01,-2.05e-01,
266,6.48e-01,-2.07e-01,
267,6.16e-01,-2.04e-01,
268,6.16e-01,-2.05e-01,
269,6.48e-01,-2.08e-01,
270,6.48e-01,-2.08e-01,
271,6.16e-01,-2.06e-01,
272,6.48e-01,-2.06e-01,
273,6.16e-01,-2.07e-01,
274,6.48e-01,-2.06e-01,
275,6.24e-01,-2.09e-01,
276,6.48e-01,-2.09e-01,
277,6.24e-01,-2.06e-01,
278,6.24e-01,-2.07e-01,
279,6.48e-01,-2.05e-01,
280,6.24e-01,-2.05e-01,
281,6.56e-01,-2.08e-01,
282,6.24e-01,-2.07e-01,
283,6.56e-01,-2.04e-01,
284,6.24e-01,-2.04e-01,
285,6.56e-01,-2.07e-01,
286,6.24e-01,-2.06e-01,
287,6.56e-01,-2.08e-01,
288,6.24e-01,-2.08e-01,
289,6.56e-01,-2.06e-01,
290,6.56e-01,-2.06e-01,
291,6.24e-01,-2.08e-01,
292,6.56e-01,-2.09e-01,
293,6.24e-01,-2.06e-01,
294,6.56e-01,-2.06e-01,
295,6.24e-01,-2.08e-01,
296,6.32e-01,-2.06e-01,
297,6.64e-01,-2.09e-01,
298,6.56e-01,-2.09e-01,
299,6.32e-01,-2.06e-01,
300,6.32e-01,-2.07e-01,
301,6.56e-01,-2.05e-01,
302,6.32e-01,-2.06e-01,
303,6.64e-01,-2.09e-01,
304,6.32e-01,-2.06e-01,
305,6.64e-01,-2.09e-01,
306,6.32e-01,-2.06e-01,
307,6.64e-01,-2.09e-01,
308,6.32e-01,-2.07e-01,
309,6.64e-01,-2.10e-01,
310,6.64e-01,-2.10e-01,
311,6.32e-01,-2.06e-01,
312,6.64e-01,-2.06e-01,
313,6.32e-01,-2.09e-01,
314,6.64e-01,-2.09e-01,
315,6.40e-01,-2.06e-01,
316,6.64e-01,-2.08e-01,
317,6.32e-01,-2.05e-01,
318,6.64e-01,-2.05e-01,
319,6.40e-01,-2.09e-01,
320,6.40e-01,-2.06e-01,
321,6.72e-01,-2.09e-01,
322,6.40e-01,-2.09e-01,
323,6.72e-01,-2.06e-01,
324,6.72e-01,-2.06e-01,
325,6.40e-01,-2.10e-01,
326,6.72e-01,-2.10e-01,
327,6.40e-01,-2.06e-01,
328,6.40e-01,-2.06e-01,
329,6.72e-01,-2.09e-01,
330,6.40e-01,-2.06e-01,
331,6.72e-01,-2.09e-01,
332,6.72e-01,-2.09e-01,
333,6.40e-01,-2.06e-01,
334,6.72e-01,-2.06e-01,
335,6.48e-01,-2.09e-01,
336,6.72e-01,-2.06e-01,
337,6.40e-01,-2.09e-01,
338,6.72e-01,-2.09e-01,
339,6.48e-01,-2.06e-01,
340,6.48e-01,-2.06e-01,
341,6.80e-01,-2.10e-01,
342,6.40e-01,-2.10e-01,
343,6.80e-01,-2.07e-01,
344,6.48e-01,-2.09e-01,
345,6.80e-01,-2.06e-01,
346,6.48e-01,-2.07e-01,
347,6.80e-01,-2.10e-01,
348,6.48e-01,-2.10e-01,
349,6.80e-01,-2.06e-01,
350,6.48e-01,-2.06e-01,
351,6.80e-01,-2.08e-01,
352,6.80e-01,-2.06e-01,
353,6.48e-01,-2.09e-01,
354,6.80e-01,-2.09e-01,
355,6.48e-01,-2.06e-01,
356,6.80e-01,-2.06e-01,
357,6.48e-01,-2.10e-01,
358,6.80e-01,-2.08e-01,
359,6.56e-01,-2.10e-01,
360,6.80e-01,-2.10e-01,
361,6.56e-01,-2.08e-01,
362,6.80e-01,-2.08e-01,
363,6.56e-01,-2.10e-01,
364,6.56e-01,-2.08e-01,
365,6.88e-01,-2.10e-01,
366,6.96e-01,-2.10e-01,
367,6.56e-01,-2.06e-01,
368,6.56e-01,-2.07e-01,
369,6.96e-01,-2.10e-01,
370,6.96e-01,-2.10e-01,
371,6.56e-01,-2.07e-01,
372,6.96e-01,-2.07e-01,
373,6.56e-01,-2.10e-01,
374,6.96e-01,-2.08e-01,
375,6.56e-01,-2.11e-01,
376,6.64e-01,-2.11e-01,
377,6.96e-01,-2.08e-01,
378,6.64e-01,-2.10e-01,
379,6.96e-01,-2.08e-01,
380,6.64e-01,-2.08e-01,
381,6.96e-01,-2.10e-01,
382,6.64e-01,-2.10e-01,
383,6.96e-01,-2.06e-01,
384,6.64e-01,-2.06e-01,
385,6.96e-01,-2.10e-01,
386,6.64e-01,-2.08e-01,
387,7.04e-01,-2.10e-01,
388,6.64e-01,-2.08e-01,
389,7.04e-01,-2.10e-01,
390,7.04e-01,-2.08e-01,
391,6.64e-01,-2.11e-01,
392,6.64e-01,-2.11e-01,
393,7.04e-01,-2.09e-01,
394,7.04e-01,-2.10e-01,
395,6.64e-01,-2.07e-01,
396,7.04e-01,-2.07e-01,
397,6.72e-01,-2.10e-01,
398,7.04e-01,-2.08e-01,
399,6.72e-01,-2.10e-01,
400,7.04e-01,-2.10e-01,
401,6.72e-01,-2.07e-01,
402,6.80e-01,-2.07e-01,
403,7.12e-01,-2.10e-01,
404,6.80e-01,-2.08e-01,
405,7.12e-01,-2.10e-01,
406,7.12e-01,-2.08e-01,
407,6.72e-01,-2.10e-01,
408,7.12e-01,-2.09e-01,
409,6.72e-01,-2.11e-01,
410,6.72e-01,-2.11e-01,
411,7.12e-01,-2.09e-01,
412,6.80e-01,-2.10e-01,
413,7.12e-01,-2.08e-01,
414,7.12e-01,-2.10e-01,
415,6.72e-01,-2.06e-01,
416,7.12e-01,-2.08e-01,
417,6.80e-01,-2.05e-01,
418,7.12e-01,-2.05e-01,
419,6.80e-01,-2.08e-01,
420,6.88e-01,-2.06e-01,
421,7.12e-01,-2.10e-01,
422,6.88e-01,-2.07e-01,
423,7.12e-01,-2.10e-01,
424,6.88e-01,-2.09e-01,
425,7.20e-01,-2.12e-01,
426,6.88e-01,-2.13e-01,
427,7.20e-01,-2.10e-01,
428,6.88e-01,-2.12e-01,
429,7.20e-01,-2.10e-01,
430,6.88e-01,-2.12e-01,
431,7.20e-01,-2.10e-01,
432,6.88e-01,-2.12e-01,
433,7.20e-01,-2.09e-01,
434,7.20e-01,-2.09e-01,
435,6.88e-01,-2.11e-01,
436,6.88e-01,-2.10e-01,
437,7.20e-01,-2.12e-01,
438,6.96e-01,-2.10e-01,
439,7.20e-01,-2.12e-01,
440,7.28e-01,-2.10e-01,
441,6.88e-01,-2.13e-01,
442,7.20e-01,-2.13e-01,
443,6.88e-01,-2.10e-01,
444,6.96e-01,-2.12e-01,
445,7.28e-01,-2.10e-01,
446,6.96e-01,-2.10e-01,
447,7.28e-01,-2.12e-01,
448,6.96e-01,-2.12e-01,
449,7.28e-01,-2.09e-01,
450,6.96e-01,-2.11e-01,
451,7.28e-01,-2.09e-01,
452,6.96e-01,-2.10e-01,
453,7.28e-01,-2.12e-01,
454,6.96e-01,-2.12e-01,
455,7.28e-01,-2.10e-01,
456,7.28e-01,-2.10e-01,
457,6.96e-01,-2.12e-01,
458,6.96e-01,-2.10e-01,
459,7.28e-01,-2.14e-01,
460,7.28e-01,-2.13e-01,
461,7.04e-01,-2.10e-01,
462,7.04e-01,-2.12e-01,
463,7.28e-01,-2.10e-01,
464,7.28e-01,-2.12e-01,
465,7.04e-01,-2.10e-01,
466,7.28e-01,-2.11e-01,
467,7.04e-01,-2.09e-01,
468,7.04e-01,-2.09e-01,
469,7.36e-01,-2.12e-01,
470,7.04e-01,-2.10e-01,
471,7.36e-01,-2.12e-01,
472,7.04e-01,-2.10e-01,
473,7.36e-01,-2.12e-01,
474,7.36e-01,-2.10e-01,
475,7.04e-01,-2.14e-01,
476,7.36e-01,-2.14e-01,
477,7.04e-01,-2.10e-01,
478,7.36e-01,-2.12e-01,
479,7.04e-01,-2.10e-01,
480,7.12e-01,-2.10e-01,
481,7.36e-01,-2.12e-01,
482,7.12e-01,-2.12e-01,
483,7.36e-01,-2.08e-01,
484,7.12e-01,-2.08e-01,
485,7.36e-01,-2.13e-01,
486,7.36e-01,-2.11e-01,
487,7.04e-01,-2.19e-01,
488,7.36e-01,-2.18e-01,
489,7.12e-01,-2.21e-01,
490,7.12e-01,-2.19e-01,
491,7.44e-01,-2.22e-01,
492,7.12e-01,-2.22e-01,
493,7.44e-01,-2.20e-01,
494,7.44e-01,-2.22e-01,
495,7.12e-01,-2.18e-01,
496,7.44e-01,-2.20e-01,
497,7.12e-01,-2.18e-01,
498,7.44e-01,-2.19e-01,
499,7.12e-01,-2.15e-01,
500,7.44e-01,-2.17e-01,
501,7.20e-01,-2.14e-01,
502,7.44e-01,-2.15e-01,
503,7.12e-01,-2.17e-01,
504,7.12e-01,-2.17e-01,
505,7.52e-01,-2.14e-01,
506,7.20e-01,-2.14e-01,
507,7.52e-01,-2.16e-01,
508,7.20e-01,-2.14e-01,
509,7.52e-01,-2.17e-01,
510,7.20e-01,-2.16e-01,
511,7.52e-01,-2.14e-01,
512,7.20e-01,-2.14e-01,
513,7.60e-01,-2.16e-01,
514,7.20e-01,-2.16e-01,
515,7.60e-01,-2.13e-01,
516,7.20e-01,-2.14e-01,
517,7.60e-01,-2.11e-01,
518,7.20e-01,-2.11e-01,
519,7.60e-01,-2.14e-01,
520,7.28e-01,-2.12e-01,
521,7.60e-01,-2.14e-01,
522,7.28e-01,-2.12e-01,
523,7.60e-01,-2.14e-01,
524,7.60e-01,-2.13e-01,
525,7.20e-01,-2.16e-01,
526,7.28e-01,-2.16e-01,
527,7.68e-01,-2.12e-01,
528,7.28e-01,-2.14e-01,
529,7.60e-01,-2.12e-01,
530,7.28e-01,-2.12e-01,
531,7.60e-01,-2.15e-01,
532,7.28e-01,-2.15e-01,
533,7.68e-01,-2.11e-01,
534,7.28e-01,-2.10e-01,
535,7.68e-01,-2.14e-01,
536,7.28e-01,-2.14e-01,
537,7.68e-01,-2.11e-01,
538,7.28e-01,-2.14e-01,
539,7.68e-01,-2.11e-01,
540,7.68e-01,-2.12e-01,
541,7.28e-01,-2.15e-01,
542,7.68e-01,-2.16e-01,
543,7.36e-01,-2.13e-01,
544,7.36e-01,-2.15e-01,
545,7.68e-01,-2.12e-01,
546,7.36e-01,-2.12e-01,
547,7.76e-01,-2.15e-01,
548,7.68e-01,-2.15e-01,
549,7.36e-01,-2.12e-01,
550,7.68e-01,-2.14e-01,
551,7.36e-01,-2.12e-01,
552,7.36e-01,-2.14e-01,
553,7.76e-01,-2.18e-01,
554,7.36e-01,-2.17e-01,
555,7.76e-01,-2.27e-01,
556,7.76e-01,-2.26e-01,
557,7.36e-01,-2.36e-01,
558,7.76e-01,-2.35e-01,
559,7.36e-01,-2.38e-01,
560,7.76e-01,-2.37e-01,
561,7.36e-01,-2.31e-01,
562,7.36e-01,-2.32e-01,
563,7.76e-01,-2.27e-01,
564,7.76e-01,-2.29e-01,
565,7.52e-01,-2.24e-01,
566,7.52e-01,-2.25e-01,
567,7.76e-01,-2.20e-01,
568,7.76e-01,-2.22e-01,
569,7.52e-01,-2.18e-01,
570,7.76e-01,-2.21e-01,
571,7.36e-01,-2.18e-01,
572,7.52e-01,-2.19e-01,
573,7.76e-01,-2.16e-01,
574,7.52e-01,-2.17e-01,
575,7.84e-01,-2.19e-01,
576,7.52e-01,-2.19e-01,
577,7.84e-01,-2.17e-01,
578,7.52e-01,-2.18e-01,
579,7.84e-01,-2.15e-01,
580,7.52e-01,-2.15e-01,
581,7.84e-01,-2.18e-01,
582,7.84e-01,-2.18e-01,
583,7.52e-01,-2.14e-01,
584,7.84e-01,-2.13e-01,
585,7.52e-01,-2.16e-01,
586,7.84e-01,-2.16e-01,
587,7.52e-01,-2.14e-01,
588,7.60e-01,-2.16e-01,
589,7.92e-01,-2.13e-01,
590,7.60e-01,-2.14e-01,
591,7.92e-01,-2.17e-01,
592,7.60e-01,-2.14e-01,
593,7.92e-01,-2.17e-01,
594,7.60e-01,-2.16e-01,
595,7.92e-01,-2.14e-01,
596,7.60e-01,-2.14e-01,
597,7.92e-01,-2.17e-01,
598,7.60e-01,-2.17e-01,
599,7.92e-01,-2.14e-01,
600,7.60e-01,-2.15e-01,
601,7.92e-01,-2.13e-01,
602,7.92e-01,-2.14e-01,
603,7.60e-01,-2.16e-01,
604,7.92e-01,-2.16e-01,
605,7.68e-01,-2.14e-01,
606,8.00e-01,-2.13e-01,
607,7.60e-01,-2.16e-01,
608,7.92e-01,-2.15e-01,
609,7.60e-01,-2.18e-01,
610,7.68e-01,-2.17e-01,
611,7.92e-01,-2.14e-01,
612,7.68e-01,-2.16e-01,
613,8.00e-01,-2.14e-01,
614,7.68e-01,-2.16e-01,
615,8.00e-01,-2.14e-01,
616,7.68e-01,-2.15e-01,
617,8.00e-01,-2.13e-01,
618,7.68e-01,-2.14e-01,
619,8.00e-01,-2.17e-01,
620,8.00e-01,-2.15e-01,
621,7.68e-01,-2.18e-01,
622,8.00e-01,-2.16e-01,
623,7.68e-01,-2.24e-01,
624,7.68e-01,-2.24e-01,
625,8.08e-01,-2.42e-01,
626,8.00e-01,-2.41e-01,
627,7.76e-01,-2.51e-01,
628,8.00e-01,-2.52e-01,
629,7.76e-01,-2.48e-01,
630,8.00e-01,-2.50e-01,
631,7.76e-01,-2.43e-01,
632,7.76e-01,-2.44e-01,
633,8.08e-01,-2.35e-01,
634,7.76e-01,-2.37e-01,
635,8.08e-01,-2.31e-01,
636,7.76e-01,-2.33e-01,
637,8.08e-01,-2.28e-01,
638,7.76e-01,-2.30e-01,
639,8.08e-01,-2.25e-01,
640,8.08e-01,-2.25e-01,
641,7.76e-01,-2.26e-01,
642,8.08e-01,-2.26e-01,
643,7.76e-01,-2.22e-01,
644,8.08e-01,-2.24e-01,
645,7.76e-01,-2.20e-01,
646,8.08e-01,-2.22e-01,
647,7.84e-01,-2.20e-01,
648,8.08e-01,-2.22e-01,
649,7.76e-01,-2.18e-01,
650,7.84e-01,-2.20e-01,
651,8.08e-01,-2.17e-01,
652,7.84e-01,-2.18e-01,
653,8.16e-01,-2.20e-01,
654,7.84e-01,-2.20e-01,
655,8.16e-01,-2.17e-01,
656,7.84e-01,-2.17e-01,
657,8.16e-01,-2.19e-01,
658,7.84e-01,-2.18e-01,
659,8.16e-01,-2.20e-01,
660,8.16e-01,-2.19e-01,
661,7.84e-01,-2.17e-01,
662,8.16e-01,-2.18e-01,
663,7.84e-01,-2.16e-01,
664,8.16e-01,-2.17e-01,
665,7.84e-01,-2.19e-01,
666,8.16e-01,-2.18e-01,
667,7.84e-01,-2.15e-01,
668,7.84e-01,-2.15e-01,
669,8.24e-01,-2.18e-01,
670,8.16e-01,-2.16e-01,
671,7.92e-01,-2.18e-01,
672,7.92e-01,-2.18e-01,
673,8.24e-01,-2.15e-01,
674,7.92e-01,-2.16e-01,
675,8.24e-01,-2.19e-01,
676,7.92e-01,-2.19e-01,
677,8.24e-01,-2.16e-01,
678,7.92e-01,-2.18e-01,
679,8.32e-01,-2.15e-01,
680,7.92e-01,-2.16e-01,
681,8.32e-01,-2.18e-01,
682,7.92e-01,-2.18e-01,
683,8.32e-01,-2.14e-01,
684,7.92e-01,-2.15e-01,
685,8.32e-01,-2.18e-01,
686,7.92e-01,-2.18e-01,
687,8.32e-01,-2.15e-01,
688,8.32e-01,-2.18e-01,
689,7.92e-01,-2.15e-01,
690,8.32e-01,-2.15e-01,
691,7.92e-01,-2.22e-01,
692,8.32e-01,-2.21e-01,
693,8.00e-01,-2.34e-01,
694,8.00e-01,-2.34e-01,
695,8.32e-01,-2.56e-01,
696,8.00e-01,-2.55e-01,
697,8.40e-01,-2.67e-01,
698,8.00e-01,-2.67e-01,
699,8.40e-01,-2.62e-01,
700,8.00e-01,-2.63e-01,
701,8.40e-01,-2.54e-01,
702,8.00e-01,-2.56e-01,
703,8.40e-01,-2.49e-01,
704,8.40e-01,-2.50e-01,
705,8.00e-01,-2.42e-01,
706,8.40e-01,-2.43e-01,
707,8.00e-01,-2.38e-01,
708,8.40e-01,-2.40e-01,
709,8.08e-01,-2.35e-01,
710,8.40e-01,-2.37e-01,
711,8.08e-01,-2.30e-01,
712,8.40e-01,-2.32e-01,
713,8.00e-01,-2.28e-01,
714,8.48e-01,-2.30e-01,
715,8.08e-01,-2.26e-01,
716,8.40e-01,-2.27e-01,
717,8.08e-01,-2.22e-01,
718,8.48e-01,-2.26e-01,
719,8.08e-01,-2.22e-01,
720,8.48e-01,-2.24e-01,
721,8.08e-01,-2.21e-01,
722,8.48e-01,-2.23e-01,
723,8.08e-01,-2.20e-01,
724,8.48e-01,-2.21e-01,
725,8.08e-01,-2.23e-01,
726,8.48e-01,-2.22e-01,
727,8.08e-01,-2.20e-01,
728,8.48e-01,-2.22e-01,
729,8.08e-01,-2.19e-01,
730,8.16e-01,-2.19e-01,
731,8.56e-01,-2.22e-01,
732,8.24e-01,-2.21e-01,
733,8.48e-01,-2.18e-01,
734,8.16e-01,-2.19e-01,
735,8.56e-01,-2.17e-01,
736,8.24e-01,-2.18e-01,
737,8.56e-01,-2.20e-01,
738,8.24e-01,-2.20e-01,
739,8.56e-01,-2.18e-01,
740,8.56e-01,-2.18e-01,
741,8.24e-01,-2.22e-01,
742,8.56e-01,-2.22e-01,
743,8.24e-01,-2.19e-01,
744,8.56e-01,-2.21e-01,
745,8.24e-01,-2.18e-01,
746,8.24e-01,-2.20e-01,
747,8.56e-01,-2.18e-01,
748,8.24e-01,-2.21e-01,
749,8.56e-01,-2.18e-01,
750,8.56e-01,-2.19e-01,
751,8.24e-01,-2.17e-01,
752,8.56e-01,-2.17e-01,
753,8.24e-01,-2.19e-01,
754,8.56e-01,-2.19e-01,
755,8.32e-01,-2.17e-01,
756,8.32e-01,-2.17e-01,
757,8.64e-01,-2.20e-01,
758,8.64e-01,-2.18e-01,
759,8.24e-01,-2.21e-01,
760,8.32e-01,-2.21e-01,
761,8.64e-01,-2.18e-01,
762,8.32e-01,-2.20e-01,
763,8.64e-01,-2.18e-01,
764,8.64e-01,-2.20e-01,
765,8.32e-01,-2.18e-01,
766,8.64e-01,-2.19e-01,
767,8.32e-01,-2.16e-01,
768,8.64e-01,-2.16e-01,
769,8.32e-01,-2.19e-01,
770,8.64e-01,-2.18e-01,
771,8.32e-01,-2.20e-01,
772,8.32e-01,-2.17e-01,
773,8.72e-01,-2.20e-01,
774,8.32e-01,-2.18e-01,
775,8.72e-01,-2.21e-01,
776,8.32e-01,-2.21e-01,
777,8.72e-01,-2.18e-01,
778,8.40e-01,-2.20e-01,
779,8.72e-01,-2.18e-01,
780,8.40e-01,-2.18e-01,
781,8.72e-01,-2.20e-01,
782,8.72e-01,-2.20e-01,
783,8.40e-01,-2.17e-01,
784,8.40e-01,-2.16e-01,
785,8.72e-01,-2.19e-01,
786,8.72e-01,-2.18e-01,
787,8.40e-01,-2.20e-01,
788,8.72e-01,-2.19e-01,
789,8.40e-01,-2.17e-01,
790,8.72e-01,-2.18e-01,
791,8.40e-01,-2.21e-01,
792,8.72e-01,-2.19e-01,
793,8.40e-01,-2.22e-01,
794,8.72e-01,-2.21e-01,
795,8.48e-01,-2.18e-01,
796,8.48e-01,-2.18e-01,
797,8.80e-01,-2.21e-01,
798,8.48e-01,-2.21e-01,
799,8.80e-01,-2.18e-01,
800,8.48e-01,-2.18e-01,
801,8.80e-01,-2.19e-01,
802,8.80e-01,-2.20e-01,
803,8.48e-01,-2.18e-01,
804,8.80e-01,-2.20e-01,
805,8.48e-01,-2.18e-01,
806,8.48e-01,-2.18e-01,
807,8.80e-01,-2.21e-01,
808,8.80e-01,-2.19e-01,
809,8.48e-01,-2.22e-01,
810,8.80e-01,-2.22e-01,
811,8.48e-01,-2.18e-01,
812,8.80e-01,-2.21e-01,
813,8.48e-01,-2.18e-01,
814,8.80e-01,-2.22e-01,
815,8.48e-01,-2.18e-01,
816,8.80e-01,-2.20e-01,
817,8.56e-01,-2.18e-01,
818,8.88e-01,-2.18e-01,
819,8.56e-01,-2.21e-01,
820,8.56e-01,-2.22e-01,
821,8.88e-01,-2.18e-01,
822,8.56e-01,-2.18e-01,
823,8.96e-01,-2.21e-01,
824,8.88e-01,-2.19e-01,
825,8.56e-01,-2.22e-01,
826,8.56e-01,-2.22e-01,
827,8.96e-01,-2.19e-01,
828,8.88e-01,-2.21e-01,
829,8.56e-01,-2.19e-01,
830,8.56e-01,-2.19e-01,
831,8.96e-01,-2.22e-01,
832,8.88e-01,-2.22e-01,
833,8.56e-01,-2.18e-01,
