offsetfieldcalliberation/c1-335kHz_0mV.csv

X,CH1,CH2,Start,Increment,
Sequence,Volt,Volt,1.360000e-01,2.000000e-03
0,1.08e+00,-8.40e-02,
1,1.06e+00,-7.00e-02,
2,1.06e+00,-7.20e-02,
3,1.08e+00,-6.20e-02,
4,1.08e+00,-6.20e-02,
5,1.06e+00,-5.60e-02,
6,1.06e+00,-5.40e-02,
7,1.08e+00,-5.00e-02,
8,1.07e+00,-4.80e-02,
9,1.08e+00,-4.40e-02,
10,1.06e+00,-4.40e-02,
11,1.08e+00,-4.00e-02,
12,1.06e+00,-4.00e-02,
13,1.08e+00,-3.60e-02,
14,1.07e+00,-3.80e-02,
15,1.08e+00,-3.60e-02,
16,1.08e+00,-3.40e-02,
17,1.07e+00,-3.60e-02,
18,1.07e+00,-3.40e-02,
19,1.08e+00,-3.00e-02,
20,1.07e+00,-3.20e-02,
21,1.09e+00,-3.00e-02,
22,1.07e+00,-3.20e-02,
23,1.09e+00,-3.00e-02,
24,1.09e+00,-2.80e-02,
25,1.07e+00,-3.00e-02,
26,1.07e+00,-3.00e-02,
27,1.09e+00,-2.80e-02,
28,1.07e+00,-3.00e-02,
29,1.09e+00,-2.60e-02,
30,1.09e+00,-2.60e-02,
31,1.08e+00,-3.00e-02,
32,1.09e+00,-2.60e-02,
33,1.08e+00,-2.40e-02,
34,1.08e+00,-2.60e-02,
35,1.09e+00,-2.40e-02,
36,1.08e+00,-2.60e-02,
37,1.09e+00,-2.40e-02,
38,1.09e+00,-2.60e-02,
39,1.08e+00,-2.40e-02,
40,1.08e+00,-2.60e-02,
41,1.09e+00,-2.40e-02,
42,1.08e+00,-2.40e-02,
43,1.09e+00,-2.60e-02,
44,1.08e+00,-2.60e-02,
45,1.09e+00,-2.40e-02,
46,1.08e+00,-2.60e-02,
47,1.09e+00,-2.40e-02,
48,1.09e+00,-2.60e-02,
49,6.50e-01,-3.20e-02,
50,6.50e-01,-3.20e-02,
51,6.50e-01,-3.40e-02,
52,6.50e-01,-3.40e-02,
53,6.50e-01,-3.20e-02,
54,6.50e-01,-3.20e-02,
55,6.50e-01,-2.80e-02,
56,6.50e-01,-3.00e-02,
57,6.50e-01,-2.60e-02,
58,6.50e-01,-2.60e-02,
59,6.50e-01,-2.40e-02,
60,6.50e-01,-2.60e-02,
61,6.50e-01,-2.40e-02,
62,6.50e-01,-2.20e-02,
63,6.50e-01,-2.60e-02,
64,6.50e-01,-2.20e-02,
65,6.50e-01,-2.40e-02,
66,6.50e-01,-2.40e-02,
67,6.50e-01,-2.20e-02,
68,6.50e-01,-2.40e-02,
69,6.50e-01,-2.20e-02,
70,6.50e-01,-2.40e-02,
71,6.50e-01,-2.20e-02,
72,6.50e-01,-2.20e-02,
73,6.50e-01,-2.40e-02,
74,6.50e-01,-2.40e-02,
75,6.50e-01,-2.20e-02,
76,6.50e-01,-2.40e-02,
77,6.50e-01,-2.20e-02,
78,6.50e-01,-2.40e-02,
79,6.50e-01,-2.20e-02,
80,6.50e-01,-2.20e-02,
81,6.50e-01,-2.40e-02,
82,6.50e-01,-2.40e-02,
83,6.50e-01,-2.20e-02,
84,6.50e-01,-2.20e-02,
85,6.50e-01,-2.40e-02,
86,6.50e-01,-2.20e-02,
87,6.50e-01,-2.40e-02,
88,6.50e-01,-2.40e-02,
89,6.50e-01,-2.20e-02,
90,6.50e-01,-2.20e-02,
91,6.50e-01,-2.20e-02,
92,6.50e-01,-2.40e-02,
93,6.50e-01,-2.20e-02,
94,6.50e-01,-2.20e-02,
95,6.50e-01,-2.40e-02,
96,6.50e-01,-2.20e-02,
97,6.50e-01,-2.40e-02,
98,6.50e-01,-2.40e-02,
99,6.50e-01,-2.20e-02,
100,6.50e-01,-2.20e-02,
101,6.50e-01,-2.40e-02,
102,6.50e-01,-2.40e-02,
103,6.50e-01,-2.20e-02,
104,6.50e-01,-2.20e-02,
105,6.52e-01,-2.40e-02,
106,6.50e-01,-2.20e-02,
107,6.52e-01,-2.40e-02,
108,6.50e-01,-2.20e-02,
109,6.54e-01,-2.40e-02,
110,6.50e-01,-2.20e-02,
111,6.50e-01,-2.20e-02,
112,6.50e-01,-2.40e-02,
113,6.54e-01,-2.20e-02,
114,6.50e-01,-2.20e-02,
115,6.56e-01,-2.40e-02,
116,6.50e-01,-2.20e-02,
117,6.56e-01,-2.40e-02,
118,6.50e-01,-2.40e-02,
119,6.58e-01,-2.20e-02,
120,6.50e-01,-2.20e-02,
121,6.58e-01,-2.40e-02,
122,6.50e-01,-2.20e-02,
123,6.60e-01,-2.40e-02,
124,6.50e-01,-2.20e-02,
125,6.60e-01,-2.40e-02,
126,6.50e-01,-2.20e-02,
127,6.58e-01,-2.40e-02,
128,6.62e-01,-2.40e-02,
129,6.50e-01,-2.20e-02,
130,6.64e-01,-2.20e-02,
131,6.50e-01,-2.40e-02,
132,6.50e-01,-2.20e-02,
133,6.62e-01,-2.40e-02,
134,6.64e-01,-2.20e-02,
135,6.52e-01,-2.40e-02,
136,6.52e-01,-2.20e-02,
137,6.66e-01,-2.40e-02,
138,6.56e-01,-2.20e-02,
139,6.64e-01,-2.40e-02,
140,6.52e-01,-2.40e-02,
141,6.68e-01,-2.20e-02,
142,6.64e-01,-2.40e-02,
143,6.54e-01,-2.20e-02,
144,6.56e-01,-2.20e-02,
145,6.70e-01,-2.40e-02,
146,6.58e-01,-2.40e-02,
147,6.70e-01,-2.20e-02,
148,6.58e-01,-2.40e-02,
149,6.70e-01,-2.20e-02,
150,6.68e-01,-2.20e-02,
151,6.58e-01,-2.40e-02,
152,6.58e-01,-2.20e-02,
153,6.74e-01,-2.40e-02,
154,6.62e-01,-2.40e-02,
155,6.72e-01,-2.20e-02,
156,6.60e-01,-2.20e-02,
157,6.74e-01,-2.40e-02,
158,6.76e-01,-2.20e-02,
159,6.64e-01,-2.40e-02,
160,6.76e-01,-2.40e-02,
161,6.62e-01,-2.20e-02,
162,6.64e-01,-2.20e-02,
163,6.76e-01,-2.40e-02,
164,6.76e-01,-2.40e-02,
165,6.66e-01,-2.20e-02,
166,6.66e-01,-2.20e-02,
167,6.80e-01,-2.40e-02,
168,6.66e-01,-2.40e-02,
169,6.78e-01,-2.20e-02,
170,6.66e-01,-2.20e-02,
171,6.80e-01,-2.40e-02,
172,6.78e-01,-2.40e-02,
173,6.70e-01,-2.20e-02,
174,6.70e-01,-2.20e-02,
175,6.82e-01,-2.40e-02,
176,6.70e-01,-2.20e-02,
177,6.80e-01,-2.40e-02,
178,6.82e-01,-2.20e-02,
179,6.70e-01,-2.40e-02,
180,6.70e-01,-2.20e-02,
181,6.86e-01,-2.40e-02,
182,6.74e-01,-2.40e-02,
183,6.88e-01,-2.20e-02,
184,6.72e-01,-2.20e-02,
185,6.84e-01,-2.40e-02,
186,6.88e-01,-2.40e-02,
187,6.76e-01,-2.20e-02,
188,6.76e-01,-2.40e-02,
189,6.88e-01,-2.20e-02,
190,6.90e-01,-2.40e-02,
191,6.76e-01,-2.20e-02,
192,6.88e-01,-2.20e-02,
193,6.80e-01,-2.40e-02,
194,6.78e-01,-2.40e-02,
195,6.94e-01,-2.20e-02,
196,6.78e-01,-2.20e-02,
197,6.88e-01,-2.40e-02,
198,6.78e-01,-2.20e-02,
199,6.90e-01,-2.40e-02,
200,6.82e-01,-2.20e-02,
201,6.94e-01,-2.40e-02,
202,6.94e-01,-2.20e-02,
203,6.86e-01,-2.40e-02,
204,6.82e-01,-2.20e-02,
205,6.96e-01,-2.40e-02,
206,6.94e-01,-2.20e-02,
207,6.84e-01,-2.40e-02,
208,6.84e-01,-2.20e-02,
209,6.96e-01,-2.40e-02,
210,6.82e-01,-2.20e-02,
211,6.96e-01,-2.40e-02,
212,7.00e-01,-2.40e-02,
213,6.88e-01,-2.20e-02,
214,7.00e-01,-2.20e-02,
215,6.84e-01,-2.40e-02,
216,6.86e-01,-2.20e-02,
217,7.02e-01,-2.40e-02,
218,7.00e-01,-2.40e-02,
219,6.88e-01,-2.20e-02,
220,7.02e-01,-2.40e-02,
221,6.90e-01,-2.20e-02,
222,6.90e-01,-2.40e-02,
223,7.04e-01,-2.20e-02,
224,7.02e-01,-2.40e-02,
225,6.92e-01,-2.20e-02,
226,7.06e-01,-2.40e-02,
227,6.92e-01,-2.20e-02,
228,6.92e-01,-2.20e-02,
229,7.08e-01,-2.40e-02,
230,7.02e-01,-2.40e-02,
231,6.92e-01,-2.20e-02,
232,7.06e-01,-2.20e-02,
233,6.94e-01,-2.40e-02,
234,6.96e-01,-2.40e-02,
235,7.08e-01,-2.20e-02,
236,7.10e-01,-2.40e-02,
237,6.98e-01,-2.20e-02,
238,6.96e-01,-2.20e-02,
239,7.10e-01,-2.40e-02,
240,7.00e-01,-2.20e-02,
241,7.12e-01,-2.40e-02,
242,7.06e-01,-2.20e-02,
243,6.96e-01,-2.40e-02,
244,6.98e-01,-2.40e-02,
245,7.10e-01,-2.20e-02,
246,6.98e-01,-2.40e-02,
247,7.14e-01,-2.20e-02,
248,7.14e-01,-2.20e-02,
249,7.04e-01,-2.40e-02,
250,7.18e-01,-2.20e-02,
251,7.02e-01,-2.40e-02,
252,7.02e-01,-2.20e-02,
253,7.18e-01,-2.40e-02,
254,7.16e-01,-2.20e-02,
255,7.04e-01,-2.40e-02,
256,7.02e-01,-2.20e-02,
257,7.14e-01,-2.40e-02,
258,7.16e-01,-2.40e-02,
259,7.04e-01,-2.20e-02,
260,7.08e-01,-2.20e-02,
261,7.20e-01,-2.40e-02,
262,7.08e-01,-2.40e-02,
263,7.20e-01,-2.20e-02,
264,7.06e-01,-2.40e-02,
265,7.20e-01,-2.20e-02,
266,7.24e-01,-2.20e-02,
267,7.04e-01,-2.40e-02,
268,7.10e-01,-2.20e-02,
269,7.24e-01,-2.40e-02,
270,7.16e-01,-2.20e-02,
271,7.10e-01,-2.40e-02,
272,7.12e-01,-2.40e-02,
273,7.22e-01,-2.20e-02,
274,7.10e-01,-2.40e-02,
275,7.24e-01,-2.20e-02,
276,7.26e-01,-2.40e-02,
277,7.14e-01,-2.20e-02,
278,7.16e-01,-2.20e-02,
279,7.28e-01,-2.40e-02,
280,7.16e-01,-2.40e-02,
281,7.28e-01,-2.20e-02,
282,7.14e-01,-2.40e-02,
283,7.32e-01,-2.00e-02,
284,7.30e-01,-2.40e-02,
285,7.16e-01,-2.20e-02,
286,7.28e-01,-2.20e-02,
287,7.16e-01,-2.40e-02,
288,7.18e-01,-2.40e-02,
289,7.30e-01,-2.20e-02,
290,7.18e-01,-2.20e-02,
291,7.30e-01,-2.40e-02,
292,7.34e-01,-2.20e-02,
293,7.18e-01,-2.40e-02,
294,7.18e-01,-2.40e-02,
295,7.34e-01,-2.20e-02,
296,7.34e-01,-2.20e-02,
297,7.24e-01,-2.40e-02,
298,7.40e-01,-2.20e-02,
299,7.26e-01,-2.40e-02,
300,7.38e-01,-2.20e-02,
301,7.22e-01,-2.40e-02,
302,7.24e-01,-2.40e-02,
303,7.40e-01,-2.20e-02,
304,7.24e-01,-2.40e-02,
305,7.40e-01,-2.20e-02,
306,7.34e-01,-2.20e-02,
307,7.24e-01,-2.40e-02,
308,7.28e-01,-2.20e-02,
309,7.38e-01,-2.40e-02,
310,7.36e-01,-2.20e-02,
311,7.28e-01,-2.40e-02,
312,7.42e-01,-2.20e-02,
313,7.28e-01,-2.40e-02,
314,7.30e-01,-2.20e-02,
315,7.42e-01,-2.40e-02,
316,7.32e-01,-2.20e-02,
317,7.46e-01,-2.40e-02,
318,7.34e-01,-2.20e-02,
319,7.42e-01,-2.40e-02,
320,7.46e-01,-2.20e-02,
321,7.34e-01,-2.40e-02,
322,7.34e-01,-2.40e-02,
323,7.46e-01,-2.00e-02,
324,7.46e-01,-2.20e-02,
325,7.34e-01,-2.40e-02,
326,7.34e-01,-2.40e-02,
327,7.48e-01,-2.20e-02,
328,7.50e-01,-2.40e-02,
329,7.36e-01,-2.20e-02,
330,7.36e-01,-2.20e-02,
331,7.52e-01,-2.40e-02,
332,7.38e-01,-2.40e-02,
333,7.50e-01,-2.20e-02,
334,7.46e-01,-2.20e-02,
335,7.40e-01,-2.20e-02,
336,7.36e-01,-2.40e-02,
337,7.48e-01,-2.20e-02,
338,7.38e-01,-2.40e-02,
339,7.54e-01,-2.20e-02,
340,7.52e-01,-2.40e-02,
341,7.42e-01,-2.20e-02,
342,7.40e-01,-2.20e-02,
343,7.54e-01,-2.40e-02,
344,7.42e-01,-2.20e-02,
345,7.58e-01,-2.20e-02,
346,7.56e-01,-2.20e-02,
347,7.44e-01,-2.40e-02,
348,7.58e-01,-2.40e-02,
349,7.48e-01,-2.20e-02,
350,7.46e-01,-2.20e-02,
351,7.58e-01,-2.40e-02,
352,7.58e-01,-2.20e-02,
353,7.50e-01,-2.40e-02,
354,7.60e-01,-2.20e-02,
355,7.48e-01,-2.40e-02,
356,7.50e-01,-2.20e-02,
357,7.62e-01,-2.40e-02,
358,7.60e-01,-2.40e-02,
359,7.48e-01,-2.20e-02,
360,7.50e-01,-2.20e-02,
361,7.64e-01,-2.40e-02,
362,7.64e-01,-2.20e-02,
363,7.50e-01,-2.40e-02,
364,7.52e-01,-2.40e-02,
365,7.64e-01,-2.20e-02,
366,7.66e-01,-2.40e-02,
367,7.54e-01,-2.00e-02,
368,7.52e-01,-1.80e-02,
369,7.66e-01,-2.40e-02,
370,7.70e-01,-2.40e-02,
371,7.54e-01,-2.20e-02,
372,7.56e-01,-2.00e-02,
373,7.68e-01,-2.40e-02,
374,7.54e-01,-2.40e-02,
375,7.68e-01,-2.20e-02,
376,7.60e-01,-2.40e-02,
377,7.68e-01,-2.00e-02,
378,7.72e-01,-2.40e-02,
379,7.56e-01,-2.20e-02,
380,7.72e-01,-2.20e-02,
381,7.58e-01,-2.40e-02,
382,7.72e-01,-2.40e-02,
383,7.60e-01,-2.20e-02,
384,7.60e-01,-2.20e-02,
385,7.76e-01,-2.40e-02,
386,7.62e-01,-2.20e-02,
387,7.74e-01,-2.40e-02,
388,7.62e-01,-2.00e-02,
389,7.76e-01,-2.40e-02,
390,7.64e-01,-2.40e-02,
391,7.76e-01,-2.20e-02,
392,7.76e-01,-2.40e-02,
393,7.62e-01,-2.20e-02,
394,7.66e-01,-2.40e-02,
395,7.78e-01,-2.20e-02,
396,7.74e-01,-2.40e-02,
397,7.64e-01,-2.00e-02,
398,7.82e-01,-2.20e-02,
399,7.66e-01,-2.40e-02,
400,7.78e-01,-2.20e-02,
401,7.68e-01,-2.40e-02,
402,7.80e-01,-2.20e-02,
403,7.68e-01,-2.40e-02,
404,7.68e-01,-2.40e-02,
405,7.80e-01,-2.20e-02,
406,7.84e-01,-2.40e-02,
407,7.70e-01,-2.20e-02,
408,7.68e-01,-2.40e-02,
409,7.86e-01,-2.20e-02,
410,7.86e-01,-2.40e-02,
411,7.72e-01,-2.20e-02,
412,7.74e-01,-2.00e-02,
413,7.86e-01,-2.40e-02,
414,7.86e-01,-2.40e-02,
415,7.72e-01,-1.80e-02,
416,7.86e-01,-2.20e-02,
417,7.74e-01,-2.40e-02,
418,7.76e-01,-2.00e-02,
419,7.88e-01,-2.40e-02,
420,7.74e-01,-2.00e-02,
421,7.90e-01,-2.40e-02,
422,7.92e-01,-2.40e-02,
423,7.76e-01,-2.00e-02,
424,7.76e-01,-2.40e-02,
425,7.88e-01,-2.20e-02,
426,7.92e-01,-2.20e-02,
427,7.78e-01,-2.40e-02,
428,7.80e-01,-2.40e-02,
429,7.92e-01,-2.00e-02,
430,7.82e-01,-2.40e-02,
431,7.96e-01,-2.20e-02,
432,7.82e-01,-2.40e-02,
433,7.96e-01,-2.20e-02,
434,7.84e-01,-2.00e-02,
435,7.94e-01,-2.40e-02,
436,7.86e-01,-2.00e-02,
437,7.94e-01,-2.40e-02,
438,7.86e-01,-2.00e-02,
439,7.96e-01,-2.40e-02,
440,7.98e-01,-2.40e-02,
441,7.86e-01,-2.20e-02,
442,7.86e-01,-2.20e-02,
443,8.00e-01,-2.40e-02,
444,7.86e-01,-2.40e-02,
445,8.00e-01,-2.20e-02,
446,7.98e-01,-2.00e-02,
447,7.88e-01,-2.40e-02,
448,8.04e-01,-2.40e-02,
449,7.86e-01,-2.20e-02,
450,7.88e-01,-2.40e-02,
451,8.02e-01,-2.20e-02,
452,7.92e-01,-2.40e-02,
453,8.00e-01,-2.00e-02,
454,7.98e-01,-2.00e-02,
455,7.90e-01,-2.40e-02,
456,7.90e-01,-2.00e-02,
457,8.00e-01,-2.40e-02,
458,7.94e-01,-2.40e-02,
459,8.04e-01,-2.20e-02,
460,7.94e-01,-2.40e-02,
461,8.10e-01,-1.80e-02,
462,7.92e-01,-2.00e-02,
463,8.08e-01,-2.40e-02,
464,7.94e-01,-1.80e-02,
465,8.10e-01,-2.40e-02,
466,8.10e-01,-2.20e-02,
467,7.96e-01,-2.40e-02,
468,7.98e-01,-2.40e-02,
469,8.10e-01,-2.00e-02,
470,7.98e-01,-2.40e-02,
471,8.10e-01,-1.80e-02,
472,8.00e-01,-2.40e-02,
473,8.12e-01,-2.00e-02,
474,8.12e-01,-2.20e-02,
475,7.96e-01,-2.40e-02,
476,8.00e-01,-2.40e-02,
477,8.12e-01,-2.20e-02,
478,8.00e-01,-2.40e-02,
479,8.12e-01,-2.00e-02,
480,8.14e-01,-2.40e-02,
481,8.00e-01,-2.20e-02,
482,8.12e-01,-2.00e-02,
483,8.00e-01,-2.40e-02,
484,8.04e-01,-2.40e-02,
485,8.12e-01,-2.20e-02,
486,8.06e-01,-2.20e-02,
487,8.18e-01,-2.40e-02,
488,8.18e-01,-2.40e-02,
489,8.04e-01,-2.00e-02,
490,8.18e-01,-2.00e-02,
491,8.08e-01,-2.40e-02,
492,8.06e-01,-2.20e-02,
493,8.22e-01,-2.40e-02,
494,8.20e-01,-2.20e-02,
495,8.08e-01,-2.40e-02,
496,8.12e-01,-2.20e-02,
497,8.24e-01,-2.40e-02,
498,8.08e-01,-2.00e-02,
499,8.22e-01,-2.40e-02,
500,8.24e-01,-2.40e-02,
501,8.12e-01,-2.20e-02,
502,8.12e-01,-2.40e-02,
503,8.24e-01,-2.00e-02,
504,8.18e-01,-2.20e-02,
505,8.12e-01,-2.40e-02,
506,8.12e-01,-2.40e-02,
507,8.26e-01,-2.20e-02,
508,8.28e-01,-2.40e-02,
509,8.16e-01,-2.00e-02,
510,8.14e-01,-2.00e-02,
511,8.28e-01,-2.40e-02,
512,8.18e-01,-2.40e-02,
513,8.30e-01,-2.00e-02,
514,8.30e-01,-2.00e-02,
515,8.18e-01,-2.40e-02,
516,8.30e-01,-2.40e-02,
517,8.18e-01,-2.00e-02,
518,8.14e-01,-2.40e-02,
519,8.30e-01,-2.00e-02,
520,8.28e-01,-1.80e-02,
521,8.18e-01,-2.40e-02,
522,8.18e-01,-2.00e-02,
523,8.30e-01,-2.40e-02,
524,8.20e-01,-2.20e-02,
525,8.36e-01,-2.40e-02,
526,8.36e-01,-2.40e-02,
527,8.20e-01,-2.00e-02,
528,8.20e-01,-2.20e-02,
529,8.38e-01,-1.80e-02,
530,8.26e-01,-1.80e-02,
531,8.36e-01,-2.40e-02,
532,8.38e-01,-2.20e-02,
533,8.26e-01,-2.40e-02,
534,8.22e-01,-2.20e-02,
535,8.38e-01,-2.40e-02,
536,8.28e-01,-2.20e-02,
537,8.38e-01,-2.40e-02,
538,8.30e-01,-2.40e-02,
539,8.38e-01,-2.00e-02,
540,8.40e-01,-2.40e-02,
541,8.28e-01,-2.20e-02,
542,8.42e-01,-2.40e-02,
543,8.26e-01,-2.00e-02,
544,8.30e-01,-2.00e-02,
545,8.46e-01,-2.40e-02,
546,8.32e-01,-2.40e-02,
547,8.42e-01,-2.00e-02,
548,8.46e-01,-2.00e-02,
549,8.30e-01,-2.40e-02,
550,8.32e-01,-2.20e-02,
551,8.46e-01,-2.40e-02,
552,8.32e-01,-2.40e-02,
553,8.42e-01,-2.20e-02,
554,8.48e-01,-2.40e-02,
555,8.32e-01,-2.00e-02,
556,8.32e-01,-2.00e-02,
557,8.46e-01,-2.40e-02,
558,8.36e-01,-2.20e-02,
559,8.50e-01,-2.40e-02,
560,8.38e-01,-2.20e-02,
561,8.50e-01,-2.40e-02,
562,8.38e-01,-2.20e-02,
563,8.50e-01,-2.40e-02,
564,8.48e-01,-2.20e-02,
565,8.40e-01,-2.40e-02,
566,8.38e-01,-2.20e-02,
567,8.52e-01,-2.40e-02,
568,8.40e-01,-2.40e-02,
569,8.54e-01,-2.00e-02,
570,8.54e-01,-2.20e-02,
571,8.42e-01,-2.40e-02,
572,8.52e-01,-2.40e-02,
573,8.44e-01,-2.00e-02,
574,8.54e-01,-2.20e-02,
575,8.42e-01,-2.40e-02,
576,8.52e-01,-2.20e-02,
577,8.40e-01,-2.40e-02,
578,8.42e-01,-2.40e-02,
579,8.58e-01,-2.20e-02,
580,8.46e-01,-2.00e-02,
581,8.58e-01,-2.40e-02,
582,8.60e-01,-2.40e-02,
583,8.44e-01,-2.20e-02,
584,8.50e-01,-2.40e-02,
585,8.60e-01,-2.20e-02,
586,8.46e-01,-2.40e-02,
587,8.58e-01,-2.20e-02,
588,8.58e-01,-2.00e-02,
589,8.50e-01,-2.40e-02,
590,8.48e-01,-2.20e-02,
591,8.64e-01,-2.40e-02,
592,8.64e-01,-2.20e-02,
593,8.48e-01,-2.40e-02,
594,8.54e-01,-2.20e-02,
595,8.64e-01,-2.40e-02,
596,8.64e-01,-2.40e-02,
597,8.50e-01,-2.00e-02,
598,8.52e-01,-2.40e-02,
599,8.64e-01,-2.20e-02,
600,8.54e-01,-2.20e-02,
601,8.66e-01,-2.40e-02,
602,8.70e-01,-2.20e-02,
603,8.56e-01,-2.40e-02,
604,8.58e-01,-2.20e-02,
605,8.70e-01,-2.20e-02,
606,8.58e-01,-2.00e-02,
607,8.70e-01,-2.40e-02,
608,8.70e-01,-2.20e-02,
609,8.54e-01,-2.40e-02,
610,8.70e-01,-2.40e-02,
611,8.54e-01,-2.00e-02,
612,8.58e-01,-2.00e-02,
613,8.74e-01,-2.40e-02,
614,8.72e-01,-2.20e-02,
615,8.62e-01,-2.40e-02,
616,8.74e-01,-2.40e-02,
617,8.64e-01,-2.00e-02,
618,8.74e-01,-2.40e-02,
619,8.58e-01,-2.00e-02,
620,8.70e-01,-2.40e-02,
621,8.62e-01,-2.20e-02,
622,8.76e-01,-2.40e-02,
623,8.64e-01,-2.20e-02,
624,8.64e-01,-2.20e-02,
625,8.78e-01,-2.40e-02,
626,8.64e-01,-2.20e-02,
627,8.76e-01,-2.40e-02,
628,8.78e-01,-2.00e-02,
629,8.64e-01,-2.40e-02,
630,8.66e-01,-2.40e-02,
631,8.80e-01,-2.20e-02,
632,8.82e-01,-2.20e-02,
633,8.64e-01,-2.40e-02,
634,8.72e-01,-2.20e-02,
635,8.84e-01,-2.20e-02,
636,8.66e-01,-2.20e-02,
637,8.86e-01,-2.40e-02,
638,8.70e-01,-2.40e-02,
639,8.86e-01,-2.00e-02,
640,8.70e-01,-2.40e-02,
641,8.84e-01,-2.20e-02,
642,8.84e-01,-2.20e-02,
643,8.72e-01,-2.40e-02,
644,8.74e-01,-2.40e-02,
645,8.88e-01,-2.00e-02,
646,8.74e-01,-2.40e-02,
647,8.86e-01,-2.00e-02,
648,8.88e-01,-2.20e-02,
649,8.76e-01,-2.40e-02,
650,8.76e-01,-2.20e-02,
651,8.90e-01,-2.40e-02,
652,8.76e-01,-2.20e-02,
653,8.90e-01,-2.40e-02,
654,8.90e-01,-2.20e-02,
655,8.78e-01,-2.40e-02,
656,8.78e-01,-2.00e-02,
657,8.92e-01,-2.40e-02,
658,8.78e-01,-2.20e-02,
659,8.94e-01,-2.40e-02,
660,8.78e-01,-2.40e-02,
661,8.92e-01,-2.00e-02,
662,8.84e-01,-2.20e-02,
663,8.92e-01,-2.40e-02,
664,8.82e-01,-2.40e-02,
665,8.96e-01,-2.20e-02,
666,8.96e-01,-2.20e-02,
667,8.80e-01,-2.40e-02,
668,8.84e-01,-2.40e-02,
669,8.96e-01,-2.20e-02,
670,8.84e-01,-2.40e-02,
671,9.00e-01,-2.00e-02,
672,8.84e-01,-2.40e-02,
673,9.00e-01,-2.20e-02,
674,8.84e-01,-2.20e-02,
675,8.98e-01,-2.40e-02,
676,8.86e-01,-2.20e-02,
677,9.00e-01,-2.40e-02,
678,9.02e-01,-2.20e-02,
679,8.86e-01,-2.40e-02,
680,8.90e-01,-2.40e-02,
681,9.02e-01,-2.20e-02,
682,8.90e-01,-2.40e-02,
683,9.04e-01,-2.20e-02,
684,8.90e-01,-2.40e-02,
685,9.06e-01,-2.20e-02,
686,8.90e-01,-2.20e-02,
687,9.06e-01,-2.40e-02,
688,9.08e-01,-2.40e-02,
689,8.92e-01,-2.20e-02,
690,8.92e-01,-2.20e-02,
691,9.04e-01,-2.40e-02,
692,8.94e-01,-2.20e-02,
693,9.04e-01,-2.40e-02,
694,9.08e-01,-2.40e-02,
695,8.94e-01,-2.20e-02,
696,8.96e-01,-2.40e-02,
697,9.08e-01,-2.20e-02,
698,9.12e-01,-2.40e-02,
699,8.96e-01,-2.20e-02,
700,8.96e-01,-2.40e-02,
701,9.10e-01,-2.20e-02,
702,9.00e-01,-2.40e-02,
703,9.12e-01,-2.20e-02,
704,9.14e-01,-2.20e-02,
705,9.00e-01,-2.40e-02,
706,9.14e-01,-2.40e-02,
707,8.96e-01,-2.20e-02,
708,9.14e-01,-2.20e-02,
709,8.98e-01,-2.40e-02,
710,9.02e-01,-2.20e-02,
711,9.16e-01,-2.40e-02,
712,9.04e-01,-2.40e-02,
713,9.16e-01,-2.20e-02,
714,9.02e-01,-2.20e-02,
715,9.16e-01,-2.40e-02,
716,9.04e-01,-2.20e-02,
717,9.16e-01,-2.40e-02,
718,9.04e-01,-2.20e-02,
719,9.18e-01,-2.40e-02,
720,9.18e-01,-2.40e-02,
721,9.06e-01,-2.00e-02,
722,9.04e-01,-2.20e-02,
723,9.22e-01,-2.40e-02,
724,9.08e-01,-2.20e-02,
725,9.20e-01,-2.40e-02,
726,9.10e-01,-2.20e-02,
727,9.22e-01,-2.40e-02,
728,9.26e-01,-2.40e-02,
729,9.04e-01,-2.20e-02,
730,9.12e-01,-2.20e-02,
731,9.24e-01,-2.40e-02,
732,9.12e-01,-2.40e-02,
733,9.28e-01,-2.20e-02,
734,9.24e-01,-2.20e-02,
735,9.12e-01,-2.40e-02,
736,9.26e-01,-2.20e-02,
737,9.10e-01,-2.40e-02,
738,9.28e-01,-2.40e-02,
739,9.14e-01,-2.20e-02,
740,9.14e-01,-2.20e-02,
741,9.28e-01,-2.40e-02,
742,9.16e-01,-2.40e-02,
743,9.30e-01,-2.20e-02,
744,9.30e-01,-2.20e-02,
745,9.18e-01,-2.40e-02,
746,9.32e-01,-2.20e-02,
747,9.16e-01,-2.40e-02,
748,9.18e-01,-2.20e-02,
749,9.32e-01,-2.40e-02,
750,9.20e-01,-2.20e-02,
751,9.32e-01,-2.40e-02,
752,9.20e-01,-2.40e-02,
753,9.34e-01,-2.20e-02,
754,9.34e-01,-2.20e-02,
755,9.20e-01,-2.40e-02,
756,9.36e-01,-2.20e-02,
757,9.22e-01,-2.40e-02,
758,9.22e-01,-2.40e-02,
759,9.36e-01,-2.20e-02,
760,9.40e-01,-2.40e-02,
761,9.22e-01,-2.20e-02,
762,9.26e-01,-2.20e-02,
763,9.40e-01,-2.40e-02,
764,9.24e-01,-2.20e-02,
765,9.38e-01,-2.40e-02,
766,9.38e-01,-2.20e-02,
767,9.24e-01,-2.40e-02,
768,9.44e-01,-2.20e-02,
769,9.28e-01,-2.40e-02,
770,9.42e-01,-2.20e-02,
771,9.28e-01,-2.40e-02,
772,9.40e-01,-2.20e-02,
773,9.24e-01,-2.40e-02,
774,9.44e-01,-2.20e-02,
775,9.30e-01,-2.40e-02,
776,9.30e-01,-2.40e-02,
777,9.44e-01,-2.20e-02,
778,9.48e-01,-2.20e-02,
779,9.30e-01,-2.40e-02,
780,9.32e-01,-2.20e-02,
781,9.46e-01,-2.40e-02,
782,9.32e-01,-2.40e-02,
783,9.46e-01,-2.40e-02,
784,9.46e-01,-2.20e-02,
785,9.34e-01,-2.40e-02,
786,9.34e-01,-2.20e-02,
787,9.48e-01,-2.40e-02,
788,9.48e-01,-2.20e-02,
789,9.34e-01,-2.40e-02,
790,9.50e-01,-2.40e-02,
791,9.40e-01,-2.20e-02,
792,9.48e-01,-2.40e-02,
793,9.34e-01,-2.20e-02,
794,9.54e-01,-2.20e-02,
795,9.38e-01,-2.40e-02,
796,9.38e-01,-2.20e-02,
797,9.52e-01,-2.40e-02,
798,9.42e-01,-2.40e-02,
799,9.52e-01,-2.20e-02,
800,9.40e-01,-2.40e-02,
801,9.54e-01,-2.20e-02,
802,9.42e-01,-2.40e-02,
803,9.56e-01,-2.20e-02,
804,9.42e-01,-2.20e-02,
805,9.56e-01,-2.40e-02,
806,9.60e-01,-2.20e-02,
807,9.44e-01,-2.40e-02,
808,9.44e-01,-2.20e-02,
809,9.60e-01,-2.40e-02,
810,9.60e-01,-2.40e-02,
811,9.44e-01,-2.20e-02,
812,9.58e-01,-2.40e-02,
813,9.44e-01,-2.20e-02,
814,9.62e-01,-2.20e-02,
815,9.46e-01,-2.40e-02,
816,9.60e-01,-2.20e-02,
817,9.50e-01,-2.20e-02,
818,9.48e-01,-2.20e-02,
819,9.60e-01,-2.40e-02,
820,9.52e-01,-2.20e-02,
821,9.62e-01,-2.40e-02,
822,9.66e-01,-2.20e-02,
823,9.50e-01,-2.40e-02,
824,9.66e-01,-2.20e-02,
825,9.50e-01,-2.40e-02,
826,9.66e-01,-2.40e-02,
827,9.50e-01,-2.20e-02,
828,9.54e-01,-2.20e-02,
829,9.66e-01,-2.40e-02,
830,9.54e-01,-2.40e-02,
831,9.66e-01,-2.20e-02,
832,9.54e-01,-2.20e-02,
833,9.72e-01,-2.40e-02,
