offsetfieldcalliberation/c3-330kHz_49p5mV.csv

X,CH1,CH2,Start,Increment,
Sequence,Volt,Volt,-3.470000e+00,5.000000e-03
0,8.24e-02,2.54e-01,
1,8.56e-02,2.56e-01,
2,8.64e-02,2.54e-01,
3,8.16e-02,2.56e-01,
4,8.80e-02,2.54e-01,
5,8.32e-02,2.56e-01,
6,8.64e-02,2.54e-01,
7,8.24e-02,2.56e-01,
8,8.24e-02,2.54e-01,
9,8.64e-02,2.54e-01,
10,8.72e-02,2.54e-01,
11,8.40e-02,2.54e-01,
12,8.64e-02,2.54e-01,
13,8.32e-02,2.56e-01,
14,8.32e-02,2.54e-01,
15,8.80e-02,2.56e-01,
16,8.80e-02,2.56e-01,
17,8.40e-02,2.54e-01,
18,8.88e-02,2.54e-01,
19,8.40e-02,2.56e-01,
20,8.48e-02,2.54e-01,
21,8.88e-02,2.56e-01,
22,8.88e-02,2.56e-01,
23,8.48e-02,2.54e-01,
24,8.80e-02,2.54e-01,
25,8.40e-02,2.56e-01,
26,9.12e-02,2.54e-01,
27,8.32e-02,2.56e-01,
28,8.56e-02,2.56e-01,
29,8.96e-02,2.54e-01,
30,8.96e-02,2.54e-01,
31,8.56e-02,2.56e-01,
32,8.64e-02,2.54e-01,
33,8.96e-02,2.56e-01,
34,8.80e-02,2.54e-01,
35,8.56e-02,2.56e-01,
36,8.88e-02,2.54e-01,
37,8.56e-02,2.56e-01,
38,9.04e-02,2.54e-01,
39,8.64e-02,2.56e-01,
40,8.48e-02,2.56e-01,
41,9.04e-02,2.54e-01,
42,9.04e-02,2.56e-01,
43,8.56e-02,2.54e-01,
44,8.72e-02,2.54e-01,
45,9.12e-02,2.56e-01,
46,9.12e-02,2.54e-01,
47,8.32e-02,2.56e-01,
48,9.20e-02,2.54e-01,
49,8.64e-02,2.54e-01,
50,8.96e-02,2.54e-01,
51,8.56e-02,2.54e-01,
52,9.20e-02,2.54e-01,
53,8.64e-02,2.54e-01,
54,8.80e-02,2.54e-01,
55,9.12e-02,2.56e-01,
56,9.04e-02,2.54e-01,
57,8.72e-02,2.56e-01,
58,8.88e-02,2.54e-01,
59,9.12e-02,2.56e-01,
60,8.88e-02,2.56e-01,
61,9.28e-02,2.54e-01,
62,8.88e-02,2.56e-01,
63,9.28e-02,2.54e-01,
64,8.96e-02,2.54e-01,
65,9.28e-02,2.56e-01,
66,9.20e-02,2.54e-01,
67,8.96e-02,2.54e-01,
68,8.88e-02,2.54e-01,
69,9.44e-02,2.56e-01,
70,9.36e-02,2.54e-01,
71,8.88e-02,2.56e-01,
72,9.28e-02,2.56e-01,
73,8.80e-02,2.54e-01,
74,9.04e-02,2.54e-01,
75,9.44e-02,2.56e-01,
76,9.44e-02,2.54e-01,
77,8.88e-02,2.54e-01,
78,9.44e-02,2.54e-01,
79,8.96e-02,2.56e-01,
80,9.44e-02,2.54e-01,
81,9.04e-02,2.54e-01,
82,9.20e-02,2.56e-01,
83,9.04e-02,2.54e-01,
84,9.60e-02,2.54e-01,
85,8.96e-02,2.56e-01,
86,9.36e-02,2.54e-01,
87,8.88e-02,2.56e-01,
88,9.36e-02,2.54e-01,
89,9.04e-02,2.56e-01,
90,9.36e-02,2.54e-01,
91,9.04e-02,2.56e-01,
92,9.04e-02,2.54e-01,
93,9.52e-02,2.56e-01,
94,9.68e-02,2.56e-01,
95,9.04e-02,2.54e-01,
96,9.52e-02,2.54e-01,
97,9.20e-02,2.56e-01,
98,9.36e-02,2.56e-01,
99,9.60e-02,2.54e-01,
100,9.12e-02,2.54e-01,
101,9.52e-02,2.56e-01,
102,9.60e-02,2.54e-01,
103,9.20e-02,2.56e-01,
104,9.28e-02,2.56e-01,
105,9.60e-02,2.54e-01,
106,9.76e-02,2.54e-01,
107,9.12e-02,2.54e-01,
108,9.28e-02,2.56e-01,
109,9.68e-02,2.54e-01,
110,9.68e-02,2.54e-01,
111,9.28e-02,2.54e-01,
112,9.28e-02,2.54e-01,
113,9.68e-02,2.54e-01,
114,9.20e-02,2.54e-01,
115,9.76e-02,2.56e-01,
116,9.68e-02,2.54e-01,
117,9.44e-02,2.56e-01,
118,9.04e-02,2.54e-01,
119,9.84e-02,2.56e-01,
120,9.36e-02,2.54e-01,
121,9.76e-02,2.56e-01,
122,1.00e-01,2.54e-01,
123,9.36e-02,2.56e-01,
124,9.36e-02,2.54e-01,
125,1.00e-01,2.56e-01,
126,9.20e-02,2.56e-01,
127,1.00e-01,2.54e-01,
128,1.02e-01,2.54e-01,
129,9.36e-02,2.56e-01,
130,9.68e-02,2.54e-01,
131,9.28e-02,2.56e-01,
132,9.76e-02,2.56e-01,
133,9.60e-02,2.54e-01,
134,9.76e-02,2.54e-01,
135,9.52e-02,2.54e-01,
136,1.02e-01,2.54e-01,
137,9.52e-02,2.56e-01,
138,9.52e-02,2.56e-01,
139,1.00e-01,2.54e-01,
140,9.60e-02,2.56e-01,
141,1.00e-01,2.54e-01,
142,9.44e-02,2.54e-01,
143,1.01e-01,2.56e-01,
144,9.52e-02,2.54e-01,
145,1.02e-01,2.56e-01,
146,9.68e-02,2.54e-01,
147,1.00e-01,2.56e-01,
148,9.76e-02,2.56e-01,
149,1.01e-01,2.54e-01,
150,9.68e-02,2.54e-01,
151,9.92e-02,2.56e-01,
152,9.76e-02,2.54e-01,
153,1.02e-01,2.54e-01,
154,1.01e-01,2.54e-01,
155,9.60e-02,2.54e-01,
156,9.76e-02,2.54e-01,
157,1.02e-01,2.56e-01,
158,1.02e-01,2.54e-01,
159,9.60e-02,2.56e-01,
160,9.76e-02,2.54e-01,
161,1.02e-01,2.56e-01,
162,1.02e-01,2.54e-01,
163,9.76e-02,2.56e-01,
164,9.76e-02,2.54e-01,
165,1.02e-01,2.56e-01,
166,9.84e-02,2.54e-01,
167,1.03e-01,2.56e-01,
168,1.04e-01,2.54e-01,
169,9.84e-02,2.54e-01,
170,9.76e-02,2.54e-01,
171,1.02e-01,2.56e-01,
172,1.03e-01,2.54e-01,
173,9.68e-02,2.56e-01,
174,9.92e-02,2.54e-01,
175,1.03e-01,2.56e-01,
176,1.04e-01,2.54e-01,
177,9.84e-02,2.56e-01,
178,9.92e-02,2.54e-01,
179,1.04e-01,2.56e-01,
180,1.03e-01,2.54e-01,
181,9.84e-02,2.56e-01,
182,1.02e-01,2.54e-01,
183,-2.40e-03,2.54e-01,
184,-1.60e-03,2.52e-01,
185,4.00e-03,2.28e-01,
186,0.00e+00,2.26e-01,
187,3.20e-03,2.10e-01,
188,1.60e-03,2.08e-01,
189,4.00e-03,2.04e-01,
190,0.00e+00,2.04e-01,
191,3.20e-03,2.12e-01,
192,4.00e-03,2.14e-01,
193,-8.00e-04,2.26e-01,
194,0.00e+00,2.28e-01,
195,3.20e-03,2.36e-01,
196,8.00e-04,2.40e-01,
197,4.00e-03,2.46e-01,
198,0.00e+00,2.48e-01,
199,4.80e-03,2.52e-01,
200,6.40e-03,2.54e-01,
201,-8.00e-04,2.58e-01,
202,8.00e-04,2.58e-01,
203,4.00e-03,2.56e-01,
204,4.00e-03,2.56e-01,
205,8.00e-04,2.58e-01,
206,2.40e-03,2.58e-01,
207,4.80e-03,2.56e-01,
208,5.60e-03,2.58e-01,
209,8.00e-04,2.56e-01,
210,5.60e-03,2.58e-01,
211,3.20e-03,2.58e-01,
212,2.40e-03,2.58e-01,
213,5.60e-03,2.56e-01,
214,2.40e-03,2.54e-01,
215,5.60e-03,2.58e-01,
216,0.00e+00,2.54e-01,
217,7.20e-03,2.58e-01,
218,5.60e-03,2.54e-01,
219,4.80e-03,2.58e-01,
220,7.20e-03,2.54e-01,
221,3.20e-03,2.58e-01,
222,6.40e-03,2.54e-01,
223,1.60e-03,2.58e-01,
224,8.00e-03,2.54e-01,
225,3.20e-03,2.58e-01,
226,4.00e-03,2.54e-01,
227,7.20e-03,2.58e-01,
228,6.40e-03,2.54e-01,
229,4.00e-03,2.56e-01,
230,7.20e-03,2.54e-01,
231,3.20e-03,2.58e-01,
232,4.80e-03,2.54e-01,
233,6.40e-03,2.58e-01,
234,4.00e-03,2.54e-01,
235,6.40e-03,2.58e-01,
236,7.20e-03,2.54e-01,
237,4.00e-03,2.56e-01,
238,3.20e-03,2.58e-01,
239,8.00e-03,2.54e-01,
240,8.00e-03,2.58e-01,
241,2.40e-03,2.54e-01,
242,9.60e-03,2.54e-01,
243,4.80e-03,2.58e-01,
244,9.60e-03,2.54e-01,
245,1.60e-03,2.58e-01,
246,5.60e-03,2.58e-01,
247,9.60e-03,2.54e-01,
248,9.60e-03,2.54e-01,
249,4.80e-03,2.56e-01,
250,8.80e-03,2.54e-01,
251,4.80e-03,2.58e-01,
252,5.60e-03,2.56e-01,
253,1.20e-02,2.54e-01,
254,5.60e-03,2.54e-01,
255,8.80e-03,2.56e-01,
256,7.20e-03,2.54e-01,
257,8.80e-03,2.56e-01,
258,4.80e-03,2.54e-01,
259,1.04e-02,2.58e-01,
260,1.12e-02,2.54e-01,
261,4.80e-03,2.56e-01,
262,6.40e-03,2.54e-01,
263,1.20e-02,2.56e-01,
264,5.60e-03,2.54e-01,
265,1.12e-02,2.56e-01,
266,1.12e-02,2.54e-01,
267,5.60e-03,2.56e-01,
268,8.80e-03,2.54e-01,
269,1.12e-02,2.56e-01,
270,9.60e-03,2.54e-01,
271,6.40e-03,2.56e-01,
272,1.20e-02,2.54e-01,
273,5.60e-03,2.56e-01,
274,8.80e-03,2.54e-01,
275,1.28e-02,2.56e-01,
276,8.00e-03,2.54e-01,
277,1.20e-02,2.56e-01,
278,9.60e-03,2.56e-01,
279,1.28e-02,2.54e-01,
280,1.20e-02,2.54e-01,
281,9.60e-03,2.56e-01,
282,1.20e-02,2.54e-01,
283,8.00e-03,2.56e-01,
284,1.28e-02,2.56e-01,
285,9.60e-03,2.54e-01,
286,1.20e-02,2.54e-01,
287,8.80e-03,2.56e-01,
288,8.00e-03,2.56e-01,
289,1.20e-02,2.54e-01,
290,8.00e-03,2.56e-01,
291,1.20e-02,2.54e-01,
292,1.20e-02,2.54e-01,
293,9.60e-03,2.56e-01,
294,1.36e-02,2.54e-01,
295,8.80e-03,2.56e-01,
296,1.20e-02,2.54e-01,
297,1.04e-02,2.56e-01,
298,1.60e-02,2.54e-01,
299,9.60e-03,2.56e-01,
300,9.60e-03,2.54e-01,
301,1.36e-02,2.56e-01,
302,1.36e-02,2.54e-01,
303,1.12e-02,2.56e-01,
304,1.68e-02,2.54e-01,
305,9.60e-03,2.56e-01,
306,1.04e-02,2.54e-01,
307,1.52e-02,2.56e-01,
308,1.20e-02,2.56e-01,
309,1.52e-02,2.54e-01,
310,1.04e-02,2.54e-01,
311,1.44e-02,2.56e-01,
312,1.52e-02,2.54e-01,
313,9.60e-03,2.56e-01,
314,1.36e-02,2.54e-01,
315,1.60e-02,2.54e-01,
316,1.20e-02,2.54e-01,
317,1.52e-02,2.54e-01,
318,1.20e-02,2.56e-01,
319,1.52e-02,2.54e-01,
320,1.60e-02,2.56e-01,
321,1.20e-02,2.54e-01,
322,1.12e-02,2.54e-01,
323,1.84e-02,2.56e-01,
324,1.20e-02,2.54e-01,
325,1.68e-02,2.56e-01,
326,1.84e-02,2.56e-01,
327,1.28e-02,2.54e-01,
328,1.76e-02,2.54e-01,
329,1.28e-02,2.56e-01,
330,1.28e-02,2.54e-01,
331,1.60e-02,2.56e-01,
332,1.84e-02,2.54e-01,
333,1.20e-02,2.56e-01,
334,1.76e-02,2.54e-01,
335,1.28e-02,2.56e-01,
336,1.84e-02,2.54e-01,
337,1.20e-02,2.56e-01,
338,1.76e-02,2.54e-01,
339,1.36e-02,2.56e-01,
340,1.84e-02,2.54e-01,
341,1.20e-02,2.56e-01,
342,1.36e-02,2.56e-01,
343,1.68e-02,2.54e-01,
344,1.76e-02,2.54e-01,
345,1.20e-02,2.56e-01,
346,1.44e-02,2.54e-01,
347,1.76e-02,2.56e-01,
348,1.76e-02,2.54e-01,
349,1.44e-02,2.56e-01,
350,1.36e-02,2.54e-01,
351,2.08e-02,2.56e-01,
352,1.52e-02,2.54e-01,
353,2.00e-02,2.56e-01,
354,1.92e-02,2.56e-01,
355,1.36e-02,2.54e-01,
356,1.92e-02,2.54e-01,
357,1.36e-02,2.54e-01,
358,1.52e-02,2.54e-01,
359,1.92e-02,2.54e-01,
360,1.60e-02,2.54e-01,
361,1.92e-02,2.54e-01,
362,1.60e-02,2.54e-01,
363,2.08e-02,2.56e-01,
364,1.52e-02,2.54e-01,
365,2.00e-02,2.54e-01,
366,1.92e-02,2.54e-01,
367,1.68e-02,2.56e-01,
368,1.84e-02,2.54e-01,
369,1.68e-02,2.56e-01,
370,1.52e-02,2.54e-01,
371,2.24e-02,2.56e-01,
372,1.76e-02,2.54e-01,
373,2.16e-02,2.56e-01,
374,1.68e-02,2.54e-01,
375,2.16e-02,2.56e-01,
376,1.92e-02,2.54e-01,
377,1.60e-02,2.56e-01,
378,2.08e-02,2.54e-01,
379,1.76e-02,2.56e-01,
380,1.76e-02,2.54e-01,
381,2.40e-02,2.56e-01,
382,1.60e-02,2.54e-01,
383,2.24e-02,2.56e-01,
384,2.16e-02,2.54e-01,
385,1.44e-02,2.56e-01,
386,1.84e-02,2.54e-01,
387,2.24e-02,2.54e-01,
388,2.08e-02,2.54e-01,
389,1.76e-02,2.56e-01,
390,1.76e-02,2.54e-01,
391,2.32e-02,2.56e-01,
392,2.32e-02,2.56e-01,
393,1.84e-02,2.54e-01,
394,1.84e-02,2.56e-01,
395,2.40e-02,2.54e-01,
396,2.40e-02,2.56e-01,
397,1.76e-02,2.54e-01,
398,1.92e-02,2.54e-01,
399,2.32e-02,2.56e-01,
400,1.92e-02,2.54e-01,
401,2.56e-02,2.56e-01,
402,1.84e-02,2.54e-01,
403,2.32e-02,2.56e-01,
404,2.40e-02,2.54e-01,
405,1.92e-02,2.54e-01,
406,2.24e-02,2.54e-01,
407,1.92e-02,2.56e-01,
408,2.08e-02,2.54e-01,
409,2.32e-02,2.56e-01,
410,2.08e-02,2.54e-01,
411,2.40e-02,2.56e-01,
412,2.40e-02,2.54e-01,
413,2.08e-02,2.56e-01,
414,2.48e-02,2.56e-01,
415,2.08e-02,2.52e-01,
416,2.48e-02,2.56e-01,
417,1.92e-02,2.52e-01,
418,2.64e-02,2.54e-01,
419,2.00e-02,2.56e-01,
420,2.16e-02,2.56e-01,
421,2.64e-02,2.52e-01,
422,2.08e-02,2.54e-01,
423,2.56e-02,2.50e-01,
424,2.56e-02,2.50e-01,
425,2.16e-02,2.56e-01,
426,2.56e-02,2.52e-01,
427,2.16e-02,2.56e-01,
428,2.48e-02,2.52e-01,
429,2.16e-02,2.56e-01,
430,2.08e-02,2.52e-01,
431,2.64e-02,2.56e-01,
432,2.16e-02,2.54e-01,
433,2.64e-02,2.50e-01,
434,2.56e-02,2.50e-01,
435,2.32e-02,2.52e-01,
436,2.08e-02,2.52e-01,
437,2.64e-02,2.50e-01,
438,2.80e-02,2.52e-01,
439,2.24e-02,2.50e-01,
440,2.88e-02,2.52e-01,
441,2.40e-02,2.50e-01,
442,2.32e-02,2.52e-01,
443,2.64e-02,2.52e-01,
444,2.24e-02,2.52e-01,
445,2.72e-02,2.50e-01,
446,2.80e-02,2.52e-01,
447,2.32e-02,2.50e-01,
448,2.32e-02,2.52e-01,
449,2.96e-02,2.50e-01,
450,2.56e-02,2.50e-01,
451,2.72e-02,2.52e-01,
452,2.40e-02,2.52e-01,
453,2.88e-02,2.50e-01,
454,2.72e-02,2.52e-01,
455,2.56e-02,2.50e-01,
456,2.32e-02,2.52e-01,
457,2.80e-02,2.52e-01,
458,2.96e-02,2.52e-01,
459,2.40e-02,2.50e-01,
460,2.80e-02,2.50e-01,
461,2.48e-02,2.52e-01,
462,2.40e-02,2.52e-01,
463,2.88e-02,2.50e-01,
464,2.56e-02,2.50e-01,
465,3.12e-02,2.52e-01,
466,2.96e-02,2.52e-01,
467,2.64e-02,2.50e-01,
468,2.64e-02,2.52e-01,
469,2.80e-02,2.52e-01,
470,3.12e-02,2.52e-01,
471,2.64e-02,2.50e-01,
472,3.12e-02,2.50e-01,
473,2.80e-02,2.52e-01,
474,2.72e-02,2.50e-01,
475,3.04e-02,2.52e-01,
476,2.72e-02,2.52e-01,
477,3.44e-02,2.50e-01,
478,2.72e-02,2.52e-01,
479,3.04e-02,2.50e-01,
480,2.80e-02,2.52e-01,
481,3.04e-02,2.50e-01,
482,2.96e-02,2.50e-01,
483,2.80e-02,2.52e-01,
484,3.20e-02,2.52e-01,
485,2.80e-02,2.50e-01,
486,3.04e-02,2.52e-01,
487,2.64e-02,2.52e-01,
488,2.80e-02,2.52e-01,
489,3.20e-02,2.48e-01,
490,2.80e-02,2.52e-01,
491,3.20e-02,2.48e-01,
492,2.72e-02,2.52e-01,
493,3.36e-02,2.48e-01,
494,2.64e-02,2.48e-01,
495,3.20e-02,2.50e-01,
496,3.28e-02,2.50e-01,
497,2.80e-02,2.48e-01,
498,3.28e-02,2.48e-01,
499,3.04e-02,2.50e-01,
500,2.56e-02,2.48e-01,
501,3.20e-02,2.50e-01,
502,2.88e-02,2.48e-01,
503,3.28e-02,2.50e-01,
504,2.80e-02,2.50e-01,
505,3.28e-02,2.48e-01,
506,2.96e-02,2.50e-01,
507,3.60e-02,2.48e-01,
508,3.20e-02,2.50e-01,
509,2.96e-02,2.48e-01,
510,3.44e-02,2.48e-01,
511,2.96e-02,2.50e-01,
512,3.04e-02,2.50e-01,
513,3.52e-02,2.48e-01,
514,3.28e-02,2.48e-01,
515,2.96e-02,2.50e-01,
516,3.36e-02,2.50e-01,
517,3.12e-02,2.48e-01,
518,3.04e-02,2.48e-01,
519,3.44e-02,2.50e-01,
520,3.12e-02,2.48e-01,
521,3.44e-02,2.50e-01,
522,3.68e-02,2.50e-01,
523,3.20e-02,2.48e-01,
524,3.28e-02,2.48e-01,
525,3.52e-02,2.50e-01,
526,3.04e-02,2.48e-01,
527,3.60e-02,2.50e-01,
528,3.52e-02,2.50e-01,
529,2.96e-02,2.46e-01,
530,3.12e-02,2.50e-01,
531,3.60e-02,2.46e-01,
532,3.20e-02,2.46e-01,
533,3.60e-02,2.46e-01,
534,3.92e-02,2.46e-01,
535,3.28e-02,2.46e-01,
536,3.68e-02,2.46e-01,
537,3.12e-02,2.44e-01,
538,3.36e-02,2.46e-01,
539,3.60e-02,2.46e-01,
540,3.76e-02,2.46e-01,
541,3.20e-02,2.46e-01,
542,3.84e-02,2.46e-01,
543,3.28e-02,2.46e-01,
544,3.60e-02,2.46e-01,
545,3.28e-02,2.46e-01,
546,3.68e-02,2.46e-01,
547,3.36e-02,2.46e-01,
548,3.20e-02,2.46e-01,
549,3.68e-02,2.46e-01,
550,3.04e-02,2.46e-01,
551,3.84e-02,2.42e-01,
552,3.68e-02,2.42e-01,
553,3.28e-02,2.44e-01,
554,3.84e-02,2.44e-01,
555,3.28e-02,2.42e-01,
556,3.68e-02,2.44e-01,
557,3.44e-02,2.42e-01,
558,3.28e-02,2.42e-01,
559,4.00e-02,2.44e-01,
560,3.92e-02,2.42e-01,
561,3.36e-02,2.44e-01,
562,3.28e-02,2.44e-01,
563,3.84e-02,2.40e-01,
564,3.92e-02,2.40e-01,
565,3.36e-02,2.44e-01,
566,3.36e-02,2.40e-01,
567,3.92e-02,2.40e-01,
568,3.92e-02,2.40e-01,
569,3.44e-02,2.40e-01,
570,3.36e-02,2.40e-01,
571,4.08e-02,2.40e-01,
572,4.16e-02,2.40e-01,
573,3.52e-02,2.42e-01,
574,3.60e-02,2.40e-01,
575,4.08e-02,2.38e-01,
576,4.00e-02,2.40e-01,
577,3.52e-02,2.36e-01,
578,4.00e-02,2.38e-01,
579,3.60e-02,2.36e-01,
580,3.84e-02,2.38e-01,
581,3.60e-02,2.36e-01,
582,3.84e-02,2.38e-01,
583,3.52e-02,2.36e-01,
584,3.76e-02,2.36e-01,
585,4.16e-02,2.38e-01,
586,4.16e-02,2.38e-01,
587,3.60e-02,2.36e-01,
588,3.76e-02,2.38e-01,
589,4.08e-02,2.34e-01,
590,4.16e-02,2.34e-01,
591,3.68e-02,2.38e-01,
592,3.60e-02,2.34e-01,
593,4.08e-02,2.34e-01,
594,4.00e-02,2.34e-01,
595,3.76e-02,2.36e-01,
596,3.68e-02,2.34e-01,
597,4.32e-02,2.36e-01,
598,3.84e-02,2.36e-01,
599,4.08e-02,2.30e-01,
600,3.92e-02,2.32e-01,
601,4.16e-02,2.30e-01,
602,3.84e-02,2.30e-01,
603,4.24e-02,2.32e-01,
604,4.00e-02,2.32e-01,
605,4.32e-02,2.30e-01,
606,4.24e-02,2.32e-01,
607,3.84e-02,2.28e-01,
608,4.32e-02,2.30e-01,
609,3.76e-02,2.28e-01,
610,4.32e-02,2.28e-01,
611,4.00e-02,2.30e-01,
612,3.92e-02,2.28e-01,
613,4.24e-02,2.24e-01,
614,3.92e-02,2.26e-01,
615,4.48e-02,2.26e-01,
616,4.08e-02,2.22e-01,
617,4.56e-02,2.24e-01,
618,4.40e-02,2.22e-01,
619,3.92e-02,2.24e-01,
620,3.84e-02,2.20e-01,
621,4.24e-02,2.20e-01,
622,4.32e-02,2.20e-01,
623,4.08e-02,2.16e-01,
624,4.48e-02,2.18e-01,
625,4.16e-02,2.16e-01,
626,4.48e-02,2.14e-01,
627,4.00e-02,2.14e-01,
628,4.00e-02,2.14e-01,
629,4.56e-02,2.10e-01,
630,4.40e-02,2.12e-01,
631,4.08e-02,2.08e-01,
632,4.56e-02,2.10e-01,
633,4.00e-02,2.06e-01,
634,4.08e-02,2.06e-01,
635,4.40e-02,2.06e-01,
636,4.64e-02,2.06e-01,
637,4.08e-02,2.02e-01,
638,4.48e-02,2.02e-01,
639,4.16e-02,2.04e-01,
640,4.16e-02,2.04e-01,
641,4.72e-02,2.00e-01,
642,4.16e-02,2.00e-01,
643,4.80e-02,2.00e-01,
644,4.88e-02,2.00e-01,
645,4.16e-02,1.98e-01,
646,4.72e-02,1.98e-01,
647,4.24e-02,1.94e-01,
648,4.16e-02,1.94e-01,
649,4.72e-02,1.92e-01,
650,4.72e-02,1.92e-01,
651,4.24e-02,1.88e-01,
652,4.80e-02,1.88e-01,
653,4.40e-02,1.86e-01,
654,4.24e-02,1.86e-01,
655,4.80e-02,1.82e-01,
656,4.56e-02,1.84e-01,
657,4.24e-02,1.78e-01,
658,4.80e-02,1.80e-01,
659,4.24e-02,1.76e-01,
660,4.40e-02,1.78e-01,
661,4.96e-02,1.70e-01,
662,4.64e-02,1.72e-01,
663,4.32e-02,1.68e-01,
664,4.64e-02,1.66e-01,
665,4.24e-02,1.62e-01,
666,4.72e-02,1.64e-01,
667,4.40e-02,1.60e-01,
668,4.40e-02,1.58e-01,
669,4.80e-02,1.54e-01,
670,4.88e-02,1.54e-01,
671,4.48e-02,1.48e-01,
672,4.32e-02,1.48e-01,
673,4.88e-02,1.42e-01,
674,4.40e-02,1.44e-01,
675,5.04e-02,1.34e-01,
676,4.48e-02,1.34e-01,
677,4.88e-02,1.26e-01,
678,4.96e-02,1.26e-01,
679,4.56e-02,1.16e-01,
680,4.48e-02,1.14e-01,
681,4.88e-02,1.06e-01,
682,5.04e-02,1.06e-01,
683,4.64e-02,9.80e-02,
684,5.04e-02,9.80e-02,
685,4.56e-02,9.20e-02,
686,5.04e-02,9.20e-02,
687,4.48e-02,8.20e-02,
688,4.88e-02,8.00e-02,
689,4.48e-02,6.80e-02,
690,4.96e-02,6.80e-02,
691,4.40e-02,6.00e-02,
692,4.96e-02,5.80e-02,
693,4.72e-02,4.80e-02,
694,4.96e-02,4.60e-02,
695,4.64e-02,3.80e-02,
696,5.12e-02,3.60e-02,
697,4.56e-02,3.00e-02,
698,5.12e-02,3.00e-02,
699,4.80e-02,2.80e-02,
700,4.88e-02,2.80e-02,
701,5.04e-02,2.20e-02,
702,5.12e-02,2.40e-02,
703,4.56e-02,2.20e-02,
704,4.64e-02,2.20e-02,
705,5.12e-02,2.20e-02,
706,4.72e-02,2.20e-02,
707,5.20e-02,1.80e-02,
708,4.80e-02,2.20e-02,
709,5.44e-02,1.80e-02,
710,4.72e-02,1.80e-02,
711,5.12e-02,2.40e-02,
712,5.12e-02,2.20e-02,
713,4.80e-02,2.40e-02,
714,4.80e-02,2.20e-02,
715,5.36e-02,2.20e-02,
716,4.72e-02,2.40e-02,
717,5.20e-02,2.80e-02,
718,4.88e-02,2.80e-02,
719,5.36e-02,3.20e-02,
720,4.88e-02,3.00e-02,
721,5.28e-02,3.80e-02,
722,5.28e-02,3.60e-02,
723,4.88e-02,4.40e-02,
724,5.68e-02,4.40e-02,
725,4.88e-02,5.40e-02,
726,5.28e-02,5.20e-02,
727,4.88e-02,6.40e-02,
728,4.96e-02,6.40e-02,
729,5.36e-02,7.60e-02,
730,5.52e-02,7.60e-02,
731,4.88e-02,8.40e-02,
732,5.36e-02,8.80e-02,
733,4.96e-02,9.60e-02,
734,5.12e-02,9.60e-02,
735,5.60e-02,1.06e-01,
736,4.96e-02,1.08e-01,
737,5.44e-02,1.18e-01,
738,5.12e-02,1.18e-01,
739,5.52e-02,1.26e-01,
740,5.20e-02,1.24e-01,
741,5.52e-02,1.34e-01,
742,5.12e-02,1.34e-01,
743,5.76e-02,1.40e-01,
744,5.68e-02,1.42e-01,
745,5.04e-02,1.48e-01,
746,5.68e-02,1.48e-01,
747,5.12e-02,1.52e-01,
748,5.52e-02,1.52e-01,
749,5.12e-02,1.56e-01,
750,5.12e-02,1.58e-01,
751,5.60e-02,1.56e-01,
752,5.68e-02,1.60e-01,
753,5.12e-02,1.60e-01,
754,5.20e-02,1.60e-01,
755,5.52e-02,1.64e-01,
756,5.76e-02,1.64e-01,
757,5.28e-02,1.62e-01,
758,5.36e-02,1.64e-01,
759,5.60e-02,1.66e-01,
760,5.84e-02,1.64e-01,
761,5.20e-02,1.66e-01,
762,5.36e-02,1.70e-01,
763,5.92e-02,1.68e-01,
764,5.76e-02,1.70e-01,
765,5.20e-02,1.74e-01,
766,5.20e-02,1.74e-01,
767,5.84e-02,1.80e-01,
768,5.28e-02,1.80e-01,
769,5.84e-02,1.84e-01,
770,5.36e-02,1.84e-01,
771,5.76e-02,1.92e-01,
772,5.36e-02,1.92e-01,
773,5.60e-02,1.94e-01,
774,5.84e-02,1.94e-01,
775,5.44e-02,1.98e-01,
776,5.52e-02,1.98e-01,
777,6.16e-02,1.96e-01,
778,5.52e-02,1.96e-01,
779,5.84e-02,2.00e-01,
780,6.08e-02,2.00e-01,
781,5.44e-02,2.00e-01,
782,5.44e-02,2.04e-01,
783,5.92e-02,2.02e-01,
784,5.84e-02,2.06e-01,
785,5.52e-02,2.02e-01,
786,6.00e-02,2.04e-01,
787,5.52e-02,2.10e-01,
788,5.44e-02,2.08e-01,
789,5.92e-02,2.12e-01,
790,6.00e-02,2.10e-01,
791,5.60e-02,2.12e-01,
792,6.00e-02,2.14e-01,
793,5.68e-02,2.14e-01,
794,5.92e-02,2.14e-01,
795,5.52e-02,2.16e-01,
796,5.52e-02,2.14e-01,
797,6.08e-02,2.18e-01,
798,5.60e-02,2.16e-01,
799,6.16e-02,2.18e-01,
800,5.60e-02,2.18e-01,
801,6.08e-02,2.20e-01,
802,6.32e-02,2.20e-01,
803,5.68e-02,2.22e-01,
804,5.68e-02,2.20e-01,
805,6.16e-02,2.24e-01,
806,6.16e-02,2.22e-01,
807,5.68e-02,2.26e-01,
808,6.16e-02,2.26e-01,
809,5.44e-02,2.26e-01,
810,5.76e-02,2.26e-01,
811,6.24e-02,2.26e-01,
812,6.24e-02,2.26e-01,
813,5.60e-02,2.24e-01,
814,6.40e-02,2.26e-01,
815,5.68e-02,2.30e-01,
816,5.84e-02,2.30e-01,
817,6.08e-02,2.28e-01,
818,5.84e-02,2.28e-01,
819,6.24e-02,2.32e-01,
820,5.76e-02,2.32e-01,
821,6.16e-02,2.30e-01,
822,5.92e-02,2.32e-01,
823,6.24e-02,2.30e-01,
824,5.92e-02,2.32e-01,
825,6.24e-02,2.30e-01,
826,5.92e-02,2.32e-01,
827,6.24e-02,2.34e-01,
828,6.40e-02,2.34e-01,
829,5.92e-02,2.34e-01,
830,6.40e-02,2.34e-01,
831,5.92e-02,2.36e-01,
832,6.40e-02,2.34e-01,
833,5.92e-02,2.38e-01,
834,6.48e-02,2.38e-01,
835,6.08e-02,2.36e-01,
836,6.48e-02,2.38e-01,
837,6.08e-02,2.36e-01,
838,6.16e-02,2.38e-01,
839,6.40e-02,2.36e-01,
840,6.32e-02,2.38e-01,
841,5.84e-02,2.36e-01,
842,6.00e-02,2.38e-01,
843,6.48e-02,2.36e-01,
844,6.00e-02,2.40e-01,
845,6.56e-02,2.40e-01,
846,5.84e-02,2.40e-01,
847,6.40e-02,2.42e-01,
848,6.08e-02,2.40e-01,
849,6.48e-02,2.40e-01,
850,6.64e-02,2.40e-01,
851,6.08e-02,2.40e-01,
852,6.24e-02,2.40e-01,
853,6.56e-02,2.40e-01,
854,6.48e-02,2.40e-01,
855,6.24e-02,2.44e-01,
856,6.16e-02,2.44e-01,
857,6.64e-02,2.42e-01,
858,6.88e-02,2.40e-01,
859,6.00e-02,2.44e-01,
860,6.56e-02,2.44e-01,
861,6.16e-02,2.42e-01,
862,6.64e-02,2.42e-01,
863,6.24e-02,2.44e-01,
864,6.32e-02,2.42e-01,
865,6.64e-02,2.44e-01,
866,6.72e-02,2.44e-01,
867,6.24e-02,2.42e-01,
868,6.32e-02,2.42e-01,
869,6.80e-02,2.44e-01,
870,6.64e-02,2.42e-01,
