offsetfieldcalliberation/c4-330kHz_25p4mV.csv

X,CH1,CH2,Start,Increment,
Sequence,Volt,Volt,-7.150000e-01,5.000000e-03
0,7.91e-01,2.00e-01,
1,7.76e-01,2.00e-01,
2,7.80e-01,2.00e-01,
3,7.93e-01,2.00e-01,
4,7.80e-01,2.00e-01,
5,7.92e-01,2.00e-01,
6,7.80e-01,2.00e-01,
7,7.92e-01,2.00e-01,
8,7.94e-01,2.00e-01,
9,7.80e-01,2.00e-01,
10,7.78e-01,2.00e-01,
11,7.90e-01,1.98e-01,
12,7.81e-01,1.98e-01,
13,7.94e-01,2.00e-01,
14,7.94e-01,2.00e-01,
15,7.82e-01,2.00e-01,
16,7.80e-01,2.00e-01,
17,7.90e-01,2.00e-01,
18,7.94e-01,2.00e-01,
19,7.81e-01,1.98e-01,
20,7.94e-01,2.00e-01,
21,7.81e-01,2.00e-01,
22,7.94e-01,2.00e-01,
23,7.79e-01,2.00e-01,
24,7.83e-01,2.00e-01,
25,7.96e-01,2.00e-01,
26,7.84e-01,2.00e-01,
27,7.96e-01,2.00e-01,
28,7.81e-01,2.00e-01,
29,7.95e-01,2.00e-01,
30,7.96e-01,2.00e-01,
31,7.83e-01,2.00e-01,
32,7.81e-01,2.00e-01,
33,7.96e-01,2.00e-01,
34,7.83e-01,2.00e-01,
35,7.97e-01,1.98e-01,
36,7.84e-01,2.00e-01,
37,7.98e-01,2.00e-01,
38,7.94e-01,2.00e-01,
39,7.83e-01,2.00e-01,
40,7.99e-01,2.00e-01,
41,7.87e-01,2.00e-01,
42,7.98e-01,2.00e-01,
43,7.86e-01,1.98e-01,
44,7.82e-01,2.00e-01,
45,7.99e-01,1.98e-01,
46,7.98e-01,2.00e-01,
47,7.85e-01,2.00e-01,
48,7.85e-01,2.00e-01,
49,8.00e-01,2.00e-01,
50,8.00e-01,2.00e-01,
51,7.84e-01,2.00e-01,
52,7.86e-01,2.00e-01,
53,7.98e-01,2.00e-01,
54,7.98e-01,2.00e-01,
55,7.84e-01,1.98e-01,
56,7.86e-01,2.00e-01,
57,8.00e-01,2.00e-01,
58,7.87e-01,2.00e-01,
59,8.01e-01,2.00e-01,
60,7.87e-01,2.00e-01,
61,7.97e-01,2.00e-01,
62,8.00e-01,2.00e-01,
63,7.87e-01,2.00e-01,
64,8.02e-01,2.00e-01,
65,7.86e-01,2.00e-01,
66,8.02e-01,2.00e-01,
67,7.86e-01,2.00e-01,
68,8.00e-01,2.00e-01,
69,7.87e-01,2.00e-01,
70,8.02e-01,2.00e-01,
71,7.89e-01,2.00e-01,
72,8.02e-01,2.00e-01,
73,7.90e-01,2.00e-01,
74,8.04e-01,2.00e-01,
75,7.90e-01,2.00e-01,
76,8.03e-01,2.00e-01,
77,7.88e-01,2.00e-01,
78,8.02e-01,2.00e-01,
79,7.90e-01,2.00e-01,
80,8.02e-01,2.00e-01,
81,7.90e-01,2.00e-01,
82,8.04e-01,2.00e-01,
83,7.94e-01,2.00e-01,
84,7.88e-01,2.00e-01,
85,8.04e-01,2.00e-01,
86,8.00e-01,2.00e-01,
87,7.92e-01,2.00e-01,
88,7.91e-01,2.00e-01,
89,8.06e-01,2.00e-01,
90,8.04e-01,2.00e-01,
91,7.94e-01,2.00e-01,
92,7.92e-01,2.00e-01,
93,8.09e-01,2.00e-01,
94,8.06e-01,2.00e-01,
95,7.92e-01,2.00e-01,
96,7.90e-01,2.00e-01,
97,8.06e-01,2.00e-01,
98,7.94e-01,2.00e-01,
99,8.07e-01,2.00e-01,
100,8.06e-01,2.00e-01,
101,7.92e-01,2.00e-01,
102,8.06e-01,2.00e-01,
103,7.92e-01,2.00e-01,
104,7.94e-01,2.00e-01,
105,8.07e-01,2.00e-01,
106,7.92e-01,2.00e-01,
107,8.07e-01,1.98e-01,
108,8.08e-01,2.00e-01,
109,7.95e-01,2.00e-01,
110,7.94e-01,2.00e-01,
111,8.07e-01,2.00e-01,
112,7.95e-01,2.00e-01,
113,8.04e-01,2.00e-01,
114,7.94e-01,1.98e-01,
115,8.06e-01,2.00e-01,
116,7.95e-01,2.00e-01,
117,8.09e-01,2.00e-01,
118,7.96e-01,2.00e-01,
119,8.10e-01,2.00e-01,
120,7.95e-01,2.00e-01,
121,8.10e-01,1.98e-01,
122,7.95e-01,1.98e-01,
123,8.07e-01,2.00e-01,
124,7.95e-01,2.00e-01,
125,8.12e-01,2.00e-01,
126,7.99e-01,2.00e-01,
127,8.10e-01,2.00e-01,
128,8.11e-01,2.00e-01,
129,7.95e-01,1.98e-01,
130,8.10e-01,2.00e-01,
131,7.98e-01,2.00e-01,
132,7.98e-01,2.00e-01,
133,8.06e-01,2.00e-01,
134,8.10e-01,2.00e-01,
135,7.98e-01,2.00e-01,
136,8.01e-01,2.00e-01,
137,8.12e-01,1.98e-01,
138,8.12e-01,2.00e-01,
139,8.01e-01,2.00e-01,
140,7.98e-01,2.00e-01,
141,8.10e-01,2.00e-01,
142,8.10e-01,2.00e-01,
143,7.99e-01,2.00e-01,
144,8.01e-01,2.00e-01,
145,8.14e-01,1.98e-01,
146,8.00e-01,2.00e-01,
147,8.14e-01,1.98e-01,
148,8.01e-01,2.00e-01,
149,8.14e-01,2.00e-01,
150,8.14e-01,2.00e-01,
151,8.02e-01,2.00e-01,
152,8.00e-01,2.00e-01,
153,8.16e-01,2.00e-01,
154,7.98e-01,2.00e-01,
155,8.10e-01,2.00e-01,
156,7.98e-01,2.00e-01,
157,8.16e-01,1.98e-01,
158,8.01e-01,2.00e-01,
159,8.15e-01,2.00e-01,
160,8.14e-01,2.00e-01,
161,8.02e-01,2.00e-01,
162,8.17e-01,2.00e-01,
163,8.02e-01,2.00e-01,
164,8.02e-01,2.00e-01,
165,8.16e-01,2.00e-01,
166,8.18e-01,2.00e-01,
167,8.03e-01,2.00e-01,
168,8.02e-01,2.00e-01,
169,8.15e-01,2.00e-01,
170,8.17e-01,2.00e-01,
171,8.02e-01,2.00e-01,
172,8.18e-01,2.00e-01,
173,8.05e-01,2.00e-01,
174,8.18e-01,2.00e-01,
175,8.06e-01,1.98e-01,
176,8.17e-01,2.00e-01,
177,8.03e-01,2.00e-01,
178,8.17e-01,2.00e-01,
179,8.03e-01,2.00e-01,
180,8.18e-01,2.00e-01,
181,8.03e-01,2.00e-01,
182,8.06e-01,2.00e-01,
183,8.14e-01,2.00e-01,
184,8.06e-01,2.00e-01,
185,8.20e-01,2.00e-01,
186,8.06e-01,2.00e-01,
187,8.20e-01,2.00e-01,
188,8.06e-01,2.00e-01,
189,8.21e-01,2.00e-01,
190,8.10e-01,2.00e-01,
191,8.20e-01,2.00e-01,
192,8.21e-01,2.00e-01,
193,8.08e-01,2.00e-01,
194,8.22e-01,2.00e-01,
195,8.06e-01,2.00e-01,
196,8.06e-01,2.00e-01,
197,8.21e-01,2.00e-01,
198,8.21e-01,2.00e-01,
199,8.07e-01,2.00e-01,
200,8.07e-01,2.00e-01,
201,8.14e-01,2.00e-01,
202,8.08e-01,2.00e-01,
203,8.20e-01,2.00e-01,
204,8.07e-01,2.00e-01,
205,8.22e-01,2.00e-01,
206,8.06e-01,2.00e-01,
207,8.22e-01,2.00e-01,
208,8.08e-01,2.00e-01,
209,8.23e-01,1.98e-01,
210,8.10e-01,2.00e-01,
211,8.22e-01,2.00e-01,
212,8.23e-01,2.00e-01,
213,8.12e-01,2.00e-01,
214,8.10e-01,2.00e-01,
215,8.26e-01,2.00e-01,
216,8.10e-01,2.00e-01,
217,8.24e-01,1.98e-01,
218,8.09e-01,1.98e-01,
219,8.23e-01,2.00e-01,
220,8.09e-01,2.00e-01,
221,8.24e-01,2.00e-01,
222,8.26e-01,2.00e-01,
223,8.12e-01,1.98e-01,
224,8.24e-01,1.98e-01,
225,8.11e-01,2.00e-01,
226,8.23e-01,2.00e-01,
227,8.10e-01,2.00e-01,
228,8.18e-01,2.00e-01,
229,8.10e-01,2.00e-01,
230,8.12e-01,2.00e-01,
231,8.20e-01,1.98e-01,
232,8.10e-01,2.00e-01,
233,8.22e-01,2.00e-01,
234,8.15e-01,2.00e-01,
235,8.24e-01,2.00e-01,
236,8.22e-01,2.00e-01,
237,8.14e-01,2.00e-01,
238,8.27e-01,2.00e-01,
239,8.12e-01,1.98e-01,
240,8.27e-01,2.00e-01,
241,8.14e-01,2.00e-01,
242,8.13e-01,2.00e-01,
243,8.27e-01,2.00e-01,
244,8.14e-01,2.00e-01,
245,8.28e-01,2.00e-01,
246,8.13e-01,2.00e-01,
247,8.28e-01,1.98e-01,
248,8.30e-01,2.00e-01,
249,8.14e-01,1.98e-01,
250,8.28e-01,2.00e-01,
251,8.14e-01,2.00e-01,
252,8.30e-01,2.00e-01,
253,8.14e-01,2.00e-01,
254,8.29e-01,2.00e-01,
255,8.14e-01,2.00e-01,
256,8.17e-01,2.00e-01,
257,8.32e-01,2.00e-01,
258,8.16e-01,2.00e-01,
259,8.30e-01,1.98e-01,
260,8.15e-01,2.00e-01,
261,8.29e-01,2.00e-01,
262,8.17e-01,2.00e-01,
263,8.27e-01,2.00e-01,
264,8.31e-01,2.00e-01,
265,8.18e-01,2.00e-01,
266,8.26e-01,2.00e-01,
267,8.16e-01,2.00e-01,
268,8.32e-01,2.00e-01,
269,8.18e-01,2.00e-01,
270,8.26e-01,2.00e-01,
271,8.18e-01,2.00e-01,
272,8.16e-01,2.00e-01,
273,8.30e-01,2.00e-01,
274,8.17e-01,2.00e-01,
275,8.34e-01,2.00e-01,
276,8.18e-01,2.00e-01,
277,8.34e-01,1.98e-01,
278,8.31e-01,2.00e-01,
279,8.19e-01,2.00e-01,
280,8.34e-01,2.00e-01,
281,8.18e-01,2.00e-01,
282,8.20e-01,2.00e-01,
283,8.32e-01,2.00e-01,
284,8.34e-01,2.00e-01,
285,8.21e-01,2.00e-01,
286,8.23e-01,2.00e-01,
287,8.38e-01,2.00e-01,
288,8.22e-01,2.00e-01,
289,8.35e-01,2.00e-01,
290,8.34e-01,2.00e-01,
291,8.19e-01,2.00e-01,
292,8.19e-01,2.00e-01,
293,8.37e-01,2.00e-01,
294,8.35e-01,2.00e-01,
295,8.20e-01,2.00e-01,
296,8.34e-01,2.00e-01,
297,8.22e-01,2.00e-01,
298,8.22e-01,2.00e-01,
299,8.34e-01,2.00e-01,
300,8.22e-01,2.00e-01,
301,8.34e-01,2.00e-01,
302,8.21e-01,2.00e-01,
303,8.37e-01,2.00e-01,
304,8.21e-01,2.00e-01,
305,8.38e-01,1.98e-01,
306,8.23e-01,2.00e-01,
307,8.38e-01,2.00e-01,
308,8.37e-01,2.00e-01,
309,8.22e-01,2.00e-01,
310,8.37e-01,2.00e-01,
311,8.23e-01,2.00e-01,
312,8.24e-01,2.00e-01,
313,8.35e-01,2.00e-01,
314,8.34e-01,2.00e-01,
315,8.22e-01,2.00e-01,
316,8.37e-01,2.00e-01,
317,8.23e-01,2.00e-01,
318,8.38e-01,2.00e-01,
319,8.24e-01,1.98e-01,
320,8.25e-01,2.00e-01,
321,8.38e-01,2.00e-01,
322,8.30e-01,2.00e-01,
323,8.39e-01,2.00e-01,
324,8.40e-01,2.00e-01,
325,8.26e-01,2.00e-01,
326,8.26e-01,2.00e-01,
327,8.38e-01,2.00e-01,
328,8.36e-01,2.00e-01,
329,8.26e-01,2.00e-01,
330,8.39e-01,2.00e-01,
331,8.24e-01,2.00e-01,
332,8.28e-01,2.00e-01,
333,8.40e-01,1.98e-01,
334,8.38e-01,2.00e-01,
335,8.28e-01,2.00e-01,
336,8.42e-01,2.00e-01,
337,8.27e-01,2.00e-01,
338,8.37e-01,2.00e-01,
339,8.26e-01,2.00e-01,
340,8.28e-01,2.00e-01,
341,8.42e-01,1.98e-01,
342,8.27e-01,2.00e-01,
343,8.42e-01,2.00e-01,
344,8.30e-01,2.00e-01,
345,8.42e-01,2.00e-01,
346,8.42e-01,2.00e-01,
347,6.70e-01,1.96e-01,
348,6.85e-01,1.94e-01,
349,6.73e-01,1.76e-01,
350,6.85e-01,1.72e-01,
351,6.72e-01,1.58e-01,
352,6.82e-01,1.60e-01,
353,6.73e-01,1.56e-01,
354,6.85e-01,1.60e-01,
355,6.74e-01,1.66e-01,
356,6.88e-01,1.68e-01,
357,6.74e-01,1.76e-01,
358,6.86e-01,1.76e-01,
359,6.72e-01,1.86e-01,
360,6.88e-01,1.88e-01,
361,6.74e-01,1.94e-01,
362,6.88e-01,1.94e-01,
363,6.74e-01,1.98e-01,
364,6.87e-01,2.00e-01,
365,6.74e-01,2.00e-01,
366,6.76e-01,2.00e-01,
367,6.86e-01,2.04e-01,
368,6.74e-01,2.04e-01,
369,6.87e-01,2.00e-01,
370,6.89e-01,2.00e-01,
371,6.76e-01,2.04e-01,
372,6.85e-01,2.00e-01,
373,6.76e-01,2.02e-01,
374,6.76e-01,2.00e-01,
375,6.90e-01,2.00e-01,
376,6.77e-01,2.00e-01,
377,6.90e-01,2.00e-01,
378,6.88e-01,2.00e-01,
379,6.76e-01,2.00e-01,
380,6.76e-01,2.00e-01,
381,6.90e-01,2.00e-01,
382,6.76e-01,2.00e-01,
383,6.90e-01,2.00e-01,
384,6.90e-01,2.00e-01,
385,6.77e-01,2.00e-01,
386,6.92e-01,2.00e-01,
387,6.78e-01,2.00e-01,
388,6.76e-01,2.00e-01,
389,6.92e-01,2.00e-01,
390,6.79e-01,2.00e-01,
391,6.92e-01,2.00e-01,
392,6.93e-01,2.00e-01,
393,6.79e-01,2.00e-01,
394,6.77e-01,2.00e-01,
395,6.90e-01,2.00e-01,
396,6.92e-01,2.00e-01,
397,6.78e-01,2.00e-01,
398,6.79e-01,2.00e-01,
399,6.93e-01,2.00e-01,
400,6.81e-01,2.00e-01,
401,6.93e-01,2.00e-01,
402,6.81e-01,2.00e-01,
403,6.95e-01,2.00e-01,
404,6.80e-01,2.00e-01,
405,6.95e-01,2.00e-01,
406,6.78e-01,2.00e-01,
407,6.95e-01,2.00e-01,
408,6.81e-01,2.00e-01,
409,6.94e-01,2.00e-01,
410,6.82e-01,2.00e-01,
411,6.94e-01,2.00e-01,
412,6.81e-01,2.00e-01,
413,6.96e-01,1.98e-01,
414,6.83e-01,2.00e-01,
415,6.94e-01,2.00e-01,
416,6.97e-01,2.00e-01,
417,6.82e-01,2.00e-01,
418,6.82e-01,2.00e-01,
419,6.95e-01,2.00e-01,
420,6.94e-01,2.00e-01,
421,6.83e-01,1.98e-01,
422,6.82e-01,2.00e-01,
423,6.96e-01,2.00e-01,
424,6.83e-01,2.00e-01,
425,6.96e-01,2.00e-01,
426,6.96e-01,2.00e-01,
427,6.84e-01,2.00e-01,
428,6.97e-01,2.00e-01,
429,6.84e-01,1.98e-01,
430,6.95e-01,2.00e-01,
431,6.82e-01,2.00e-01,
432,6.98e-01,2.00e-01,
433,6.84e-01,2.00e-01,
434,6.99e-01,2.00e-01,
435,6.84e-01,2.00e-01,
436,6.85e-01,2.00e-01,
437,6.98e-01,2.00e-01,
438,6.86e-01,2.00e-01,
439,6.97e-01,2.00e-01,
440,6.97e-01,2.00e-01,
441,6.83e-01,1.98e-01,
442,6.99e-01,2.00e-01,
443,6.84e-01,2.00e-01,
444,6.86e-01,2.00e-01,
445,6.99e-01,2.00e-01,
446,6.88e-01,2.00e-01,
447,7.00e-01,2.00e-01,
448,6.99e-01,2.00e-01,
449,6.86e-01,2.00e-01,
450,7.00e-01,2.00e-01,
451,6.86e-01,1.98e-01,
452,6.99e-01,2.00e-01,
453,6.88e-01,1.98e-01,
454,7.01e-01,2.00e-01,
455,6.87e-01,2.00e-01,
456,6.86e-01,2.00e-01,
457,7.03e-01,2.00e-01,
458,7.01e-01,2.00e-01,
459,6.86e-01,2.00e-01,
460,6.87e-01,2.00e-01,
461,7.00e-01,1.98e-01,
462,6.90e-01,2.00e-01,
463,7.02e-01,2.00e-01,
464,7.02e-01,2.00e-01,
465,6.88e-01,2.00e-01,
466,7.02e-01,2.00e-01,
467,6.89e-01,2.00e-01,
468,7.04e-01,2.00e-01,
469,6.89e-01,2.00e-01,
470,7.04e-01,2.00e-01,
471,6.90e-01,2.00e-01,
472,6.91e-01,2.00e-01,
473,7.06e-01,2.00e-01,
474,6.90e-01,2.00e-01,
475,7.05e-01,2.00e-01,
476,6.91e-01,2.00e-01,
477,7.02e-01,2.00e-01,
478,6.92e-01,2.00e-01,
479,7.04e-01,2.00e-01,
480,6.92e-01,2.00e-01,
481,7.06e-01,2.00e-01,
482,6.90e-01,1.98e-01,
483,7.04e-01,2.00e-01,
484,7.04e-01,2.00e-01,
485,6.90e-01,2.00e-01,
486,7.06e-01,2.00e-01,
487,6.92e-01,2.00e-01,
488,7.06e-01,2.00e-01,
489,6.93e-01,2.00e-01,
490,7.06e-01,2.00e-01,
491,6.94e-01,2.00e-01,
492,7.08e-01,2.00e-01,
493,6.92e-01,2.00e-01,
494,7.06e-01,2.00e-01,
495,6.93e-01,1.96e-01,
496,7.06e-01,2.00e-01,
497,6.94e-01,1.96e-01,
498,7.10e-01,2.00e-01,
499,6.92e-01,2.00e-01,
500,6.95e-01,2.00e-01,
501,7.08e-01,1.96e-01,
502,7.07e-01,2.00e-01,
503,6.94e-01,1.96e-01,
504,6.94e-01,2.00e-01,
505,7.06e-01,1.96e-01,
506,6.95e-01,1.96e-01,
507,7.07e-01,2.00e-01,
508,7.09e-01,2.00e-01,
509,6.96e-01,1.96e-01,
510,6.98e-01,2.00e-01,
511,7.10e-01,1.96e-01,
512,6.98e-01,2.00e-01,
513,7.10e-01,1.96e-01,
514,6.96e-01,2.00e-01,
515,7.10e-01,1.96e-01,
516,7.07e-01,1.96e-01,
517,6.98e-01,2.00e-01,
518,7.08e-01,1.96e-01,
519,6.98e-01,2.00e-01,
520,7.10e-01,1.96e-01,
521,6.98e-01,1.98e-01,
522,6.95e-01,1.98e-01,
523,7.10e-01,1.96e-01,
524,6.98e-01,1.96e-01,
525,7.13e-01,1.98e-01,
526,6.98e-01,1.98e-01,
527,7.10e-01,1.96e-01,
528,6.98e-01,1.98e-01,
529,7.11e-01,1.96e-01,
530,7.12e-01,1.98e-01,
531,6.98e-01,1.96e-01,
532,6.98e-01,1.98e-01,
533,7.11e-01,1.96e-01,
534,7.12e-01,1.96e-01,
535,6.99e-01,1.98e-01,
536,6.99e-01,1.98e-01,
537,7.14e-01,1.96e-01,
538,7.14e-01,1.96e-01,
539,6.97e-01,1.98e-01,
540,7.01e-01,1.98e-01,
541,7.14e-01,1.96e-01,
542,7.03e-01,1.96e-01,
543,7.14e-01,1.98e-01,
544,6.98e-01,1.96e-01,
545,7.14e-01,1.98e-01,
546,7.14e-01,1.98e-01,
547,7.00e-01,1.96e-01,
548,7.03e-01,1.96e-01,
549,7.14e-01,1.98e-01,
550,7.02e-01,1.96e-01,
551,7.15e-01,1.98e-01,
552,7.14e-01,1.96e-01,
553,7.01e-01,1.98e-01,
554,7.14e-01,1.96e-01,
555,7.02e-01,1.98e-01,
556,7.02e-01,1.96e-01,
557,7.14e-01,1.98e-01,
558,7.16e-01,1.98e-01,
559,7.02e-01,1.96e-01,
560,7.14e-01,1.98e-01,
561,7.02e-01,1.94e-01,
562,7.03e-01,1.98e-01,
563,7.19e-01,1.96e-01,
564,7.16e-01,1.96e-01,
565,7.04e-01,1.98e-01,
566,7.03e-01,1.98e-01,
567,7.15e-01,1.94e-01,
568,7.17e-01,1.98e-01,
569,7.03e-01,1.94e-01,
570,7.20e-01,1.98e-01,
571,7.03e-01,1.94e-01,
572,7.20e-01,1.98e-01,
573,7.04e-01,1.94e-01,
574,7.04e-01,1.94e-01,
575,7.18e-01,1.94e-01,
576,7.19e-01,1.94e-01,
577,7.04e-01,1.96e-01,
578,7.06e-01,1.94e-01,
579,7.18e-01,1.96e-01,
580,7.19e-01,1.94e-01,
581,7.05e-01,1.96e-01,
582,7.06e-01,1.94e-01,
583,7.18e-01,1.96e-01,
584,7.20e-01,1.94e-01,
585,7.05e-01,1.94e-01,
586,7.05e-01,1.94e-01,
587,7.17e-01,1.94e-01,
588,7.21e-01,1.94e-01,
589,7.05e-01,1.94e-01,
590,7.08e-01,1.94e-01,
591,7.17e-01,1.94e-01,
592,7.21e-01,1.94e-01,
593,7.10e-01,1.96e-01,
594,7.06e-01,1.94e-01,
595,7.22e-01,1.96e-01,
596,7.08e-01,1.94e-01,
597,7.21e-01,1.96e-01,
598,7.23e-01,1.94e-01,
599,7.08e-01,1.90e-01,
600,7.21e-01,1.94e-01,
601,7.09e-01,1.90e-01,
602,7.10e-01,1.92e-01,
603,7.22e-01,1.90e-01,
604,7.24e-01,1.92e-01,
605,7.09e-01,1.90e-01,
606,7.23e-01,1.92e-01,
607,7.07e-01,1.90e-01,
608,7.11e-01,1.92e-01,
609,7.22e-01,1.90e-01,
610,7.12e-01,1.92e-01,
611,7.25e-01,1.90e-01,
612,7.10e-01,1.90e-01,
613,7.23e-01,1.92e-01,
614,7.10e-01,1.92e-01,
615,7.23e-01,1.90e-01,
616,7.12e-01,1.88e-01,
617,7.24e-01,1.92e-01,
618,7.24e-01,1.88e-01,
619,7.13e-01,1.90e-01,
620,7.26e-01,1.90e-01,
621,7.12e-01,1.88e-01,
622,7.12e-01,1.90e-01,
623,7.22e-01,1.88e-01,
624,7.26e-01,1.88e-01,
625,7.10e-01,1.88e-01,
626,7.26e-01,1.88e-01,
627,7.13e-01,1.88e-01,
628,7.27e-01,1.88e-01,
629,7.12e-01,1.84e-01,
630,7.26e-01,1.86e-01,
631,7.12e-01,1.88e-01,
632,7.13e-01,1.86e-01,
633,7.26e-01,1.84e-01,
634,7.14e-01,1.86e-01,
635,7.26e-01,1.84e-01,
636,7.15e-01,1.86e-01,
637,7.30e-01,1.84e-01,
638,7.27e-01,1.86e-01,
639,7.13e-01,1.82e-01,
640,7.28e-01,1.82e-01,
641,7.14e-01,1.84e-01,
642,7.15e-01,1.82e-01,
643,7.27e-01,1.84e-01,
644,7.15e-01,1.84e-01,
645,7.29e-01,1.82e-01,
646,7.17e-01,1.82e-01,
647,7.27e-01,1.84e-01,
648,7.16e-01,1.78e-01,
649,7.29e-01,1.82e-01,
650,7.17e-01,1.80e-01,
651,7.29e-01,1.80e-01,
652,7.30e-01,1.80e-01,
653,7.17e-01,1.76e-01,
654,7.30e-01,1.78e-01,
655,7.16e-01,1.76e-01,
656,7.31e-01,1.76e-01,
657,7.18e-01,1.78e-01,
658,7.18e-01,1.74e-01,
659,7.32e-01,1.74e-01,
660,7.16e-01,1.74e-01,
661,7.31e-01,1.76e-01,
662,7.32e-01,1.72e-01,
663,7.18e-01,1.70e-01,
664,7.17e-01,1.72e-01,
665,7.32e-01,1.68e-01,
666,7.33e-01,1.68e-01,
667,7.15e-01,1.66e-01,
668,7.34e-01,1.66e-01,
669,7.19e-01,1.64e-01,
670,7.20e-01,1.62e-01,
671,7.34e-01,1.64e-01,
672,7.20e-01,1.60e-01,
673,7.34e-01,1.58e-01,
674,7.19e-01,1.60e-01,
675,7.34e-01,1.56e-01,
676,7.32e-01,1.56e-01,
677,7.20e-01,1.54e-01,
678,7.22e-01,1.54e-01,
679,7.32e-01,1.50e-01,
680,7.22e-01,1.52e-01,
681,7.33e-01,1.46e-01,
682,7.21e-01,1.46e-01,
683,7.33e-01,1.42e-01,
684,7.20e-01,1.44e-01,
685,7.34e-01,1.36e-01,
686,7.21e-01,1.38e-01,
687,7.34e-01,1.30e-01,
688,7.21e-01,1.32e-01,
689,7.37e-01,1.28e-01,
690,7.35e-01,1.26e-01,
691,7.22e-01,1.22e-01,
692,7.37e-01,1.20e-01,
693,7.22e-01,1.14e-01,
694,7.34e-01,1.14e-01,
695,7.23e-01,1.08e-01,
696,7.22e-01,1.08e-01,
697,7.34e-01,1.02e-01,
698,7.22e-01,1.02e-01,
699,7.36e-01,9.40e-02,
700,7.36e-01,9.40e-02,
701,7.23e-01,8.80e-02,
702,7.25e-01,8.60e-02,
703,7.36e-01,7.60e-02,
704,7.23e-01,7.40e-02,
705,7.37e-01,6.40e-02,
706,7.25e-01,6.60e-02,
707,7.39e-01,5.80e-02,
708,7.25e-01,5.40e-02,
709,7.36e-01,4.80e-02,
710,7.35e-01,4.60e-02,
711,7.24e-01,3.40e-02,
712,7.26e-01,3.40e-02,
713,7.39e-01,2.20e-02,
714,7.23e-01,2.00e-02,
715,7.38e-01,1.20e-02,
716,7.24e-01,8.00e-03,
717,7.38e-01,-2.00e-03,
718,7.41e-01,-4.00e-03,
719,7.26e-01,-1.40e-02,
720,7.38e-01,-1.40e-02,
721,7.26e-01,-2.40e-02,
722,7.26e-01,-2.20e-02,
723,7.41e-01,-3.00e-02,
724,7.28e-01,-2.80e-02,
725,7.41e-01,-3.20e-02,
726,7.27e-01,-3.00e-02,
727,7.39e-01,-3.00e-02,
728,7.28e-01,-3.00e-02,
729,7.39e-01,-2.60e-02,
730,7.41e-01,-2.40e-02,
731,7.27e-01,-1.80e-02,
732,7.42e-01,-1.80e-02,
733,7.28e-01,-1.20e-02,
734,7.29e-01,-1.00e-02,
735,7.41e-01,-2.00e-03,
736,7.27e-01,2.00e-03,
737,7.42e-01,1.00e-02,
738,7.42e-01,1.20e-02,
739,7.29e-01,2.40e-02,
740,7.29e-01,2.40e-02,
741,7.44e-01,3.40e-02,
742,7.42e-01,3.60e-02,
743,7.30e-01,4.80e-02,
744,7.45e-01,5.00e-02,
745,7.30e-01,6.00e-02,
746,7.30e-01,6.20e-02,
747,7.42e-01,7.20e-02,
748,7.43e-01,7.00e-02,
749,7.29e-01,8.00e-02,
750,7.31e-01,7.80e-02,
751,7.48e-01,8.80e-02,
752,7.43e-01,8.80e-02,
753,7.29e-01,9.40e-02,
754,7.46e-01,9.40e-02,
755,7.32e-01,1.00e-01,
756,7.33e-01,1.02e-01,
757,7.44e-01,1.06e-01,
758,7.44e-01,1.08e-01,
759,7.30e-01,1.12e-01,
760,7.46e-01,1.14e-01,
761,7.31e-01,1.20e-01,
762,7.34e-01,1.18e-01,
763,7.46e-01,1.26e-01,
764,7.43e-01,1.24e-01,
765,7.31e-01,1.32e-01,
766,7.34e-01,1.30e-01,
767,7.46e-01,1.36e-01,
768,7.32e-01,1.36e-01,
769,7.46e-01,1.40e-01,
770,7.34e-01,1.40e-01,
771,7.46e-01,1.46e-01,
772,7.48e-01,1.46e-01,
773,7.34e-01,1.48e-01,
774,7.46e-01,1.48e-01,
775,7.34e-01,1.52e-01,
776,7.34e-01,1.50e-01,
777,7.48e-01,1.54e-01,
778,7.46e-01,1.54e-01,
779,7.34e-01,1.58e-01,
780,7.47e-01,1.58e-01,
781,7.34e-01,1.60e-01,
782,7.50e-01,1.58e-01,
783,7.34e-01,1.64e-01,
784,7.49e-01,1.62e-01,
785,7.33e-01,1.64e-01,
786,7.33e-01,1.62e-01,
787,7.50e-01,1.66e-01,
788,7.50e-01,1.66e-01,
789,7.36e-01,1.64e-01,
790,7.35e-01,1.64e-01,
791,7.50e-01,1.68e-01,
792,7.50e-01,1.68e-01,
793,7.37e-01,1.70e-01,
794,7.38e-01,1.68e-01,
795,7.50e-01,1.72e-01,
796,7.50e-01,1.70e-01,
797,7.38e-01,1.74e-01,
798,7.37e-01,1.74e-01,
799,7.51e-01,1.74e-01,
800,7.51e-01,1.74e-01,
801,7.37e-01,1.78e-01,
802,7.36e-01,1.76e-01,
803,7.51e-01,1.78e-01,
804,7.38e-01,1.76e-01,
805,7.50e-01,1.80e-01,
806,7.40e-01,1.80e-01,
807,7.53e-01,1.80e-01,
808,7.40e-01,1.80e-01,
809,7.51e-01,1.84e-01,
810,7.38e-01,1.84e-01,
811,7.53e-01,1.82e-01,
812,7.38e-01,1.82e-01,
813,7.54e-01,1.84e-01,
814,7.41e-01,1.84e-01,
815,7.54e-01,1.82e-01,
816,7.39e-01,1.82e-01,
817,7.53e-01,1.86e-01,
818,7.40e-01,1.84e-01,
819,7.54e-01,1.86e-01,
820,7.42e-01,1.86e-01,
821,7.53e-01,1.84e-01,
822,7.54e-01,1.86e-01,
823,7.41e-01,1.84e-01,
824,7.57e-01,1.86e-01,
825,7.42e-01,1.84e-01,
826,7.55e-01,1.84e-01,
827,7.42e-01,1.86e-01,
828,7.57e-01,1.86e-01,
829,7.42e-01,1.84e-01,
830,7.42e-01,1.88e-01,
831,7.55e-01,1.84e-01,
832,7.42e-01,1.88e-01,
833,7.54e-01,1.90e-01,
834,7.57e-01,1.88e-01,
835,7.42e-01,1.88e-01,
836,7.41e-01,1.90e-01,
837,7.55e-01,1.88e-01,
838,7.42e-01,1.88e-01,
839,7.58e-01,1.88e-01,
840,7.44e-01,1.88e-01,
841,7.58e-01,1.92e-01,
842,7.43e-01,1.90e-01,
843,7.58e-01,1.92e-01,
844,7.44e-01,1.92e-01,
845,7.58e-01,1.90e-01,
846,7.44e-01,1.90e-01,
847,7.58e-01,1.92e-01,
848,7.44e-01,1.92e-01,
849,7.57e-01,1.90e-01,
850,7.46e-01,1.90e-01,
851,7.58e-01,1.92e-01,
852,7.45e-01,1.92e-01,
853,7.58e-01,1.90e-01,
854,7.46e-01,1.90e-01,
855,7.59e-01,1.94e-01,
856,7.58e-01,1.94e-01,
857,7.44e-01,1.92e-01,
858,7.45e-01,1.94e-01,
859,7.60e-01,1.92e-01,
860,7.44e-01,1.94e-01,
861,7.60e-01,1.94e-01,
862,7.46e-01,1.94e-01,
863,7.62e-01,1.94e-01,
864,7.45e-01,1.94e-01,
865,7.59e-01,1.96e-01,
866,7.48e-01,1.94e-01,
867,7.62e-01,1.96e-01,
868,7.60e-01,1.94e-01,
869,7.47e-01,1.94e-01,
