to_sort/10p3MHz_p854p9mV.csv

X,CH1,CH2,Start,Increment,
Sequence,Volt,Volt,-3.430000e+00,1.000000e-02
0,4.72e-01,1.20e-02,
1,4.84e-01,1.04e-02,
2,4.80e-01,1.20e-02,
3,4.78e-01,1.20e-02,
4,4.74e-01,1.20e-02,
5,4.86e-01,1.04e-02,
6,4.76e-01,1.12e-02,
7,4.84e-01,1.28e-02,
8,4.74e-01,1.20e-02,
9,4.86e-01,1.12e-02,
10,4.78e-01,1.20e-02,
11,4.82e-01,1.04e-02,
12,4.78e-01,1.12e-02,
13,4.86e-01,1.20e-02,
14,4.80e-01,1.20e-02,
15,4.86e-01,1.12e-02,
16,4.86e-01,1.12e-02,
17,4.80e-01,1.20e-02,
18,4.80e-01,1.20e-02,
19,4.86e-01,1.12e-02,
20,4.80e-01,1.20e-02,
21,4.90e-01,1.20e-02,
22,4.82e-01,1.20e-02,
23,4.86e-01,1.04e-02,
24,4.76e-01,1.20e-02,
25,4.88e-01,1.20e-02,
26,4.82e-01,1.20e-02,
27,4.90e-01,1.12e-02,
28,4.80e-01,1.12e-02,
29,4.92e-01,1.20e-02,
30,4.90e-01,1.20e-02,
31,4.84e-01,1.04e-02,
32,4.84e-01,1.20e-02,
33,4.92e-01,1.12e-02,
34,4.84e-01,1.20e-02,
35,4.92e-01,1.04e-02,
36,4.92e-01,1.20e-02,
37,4.86e-01,1.04e-02,
38,4.90e-01,1.20e-02,
39,4.80e-01,1.04e-02,
40,4.82e-01,1.20e-02,
41,4.92e-01,1.12e-02,
42,4.92e-01,1.20e-02,
43,4.86e-01,1.04e-02,
44,4.86e-01,1.20e-02,
45,4.96e-01,1.04e-02,
46,4.96e-01,1.20e-02,
47,4.86e-01,1.12e-02,
48,4.88e-01,1.12e-02,
49,4.92e-01,1.20e-02,
50,4.88e-01,1.20e-02,
51,4.98e-01,1.04e-02,
52,4.86e-01,1.20e-02,
53,4.98e-01,1.04e-02,
54,4.86e-01,1.20e-02,
55,4.98e-01,1.12e-02,
56,4.90e-01,1.12e-02,
57,4.96e-01,1.20e-02,
58,4.94e-01,1.04e-02,
59,4.98e-01,1.20e-02,
60,4.98e-01,1.04e-02,
61,4.92e-01,1.20e-02,
62,5.00e-01,1.20e-02,
63,4.88e-01,1.04e-02,
64,5.02e-01,1.20e-02,
65,2.02e-01,1.04e-02,
66,2.04e-01,1.20e-02,
67,1.98e-01,1.28e-02,
68,2.02e-01,1.28e-02,
69,2.06e-01,1.36e-02,
70,2.02e-01,1.36e-02,
71,2.06e-01,1.44e-02,
72,1.98e-01,1.36e-02,
73,2.06e-01,1.36e-02,
74,2.08e-01,1.36e-02,
75,2.02e-01,1.44e-02,
76,2.10e-01,1.28e-02,
77,2.00e-01,1.44e-02,
78,2.06e-01,1.44e-02,
79,2.00e-01,1.36e-02,
80,2.02e-01,1.44e-02,
81,2.12e-01,1.36e-02,
82,2.08e-01,1.28e-02,
83,2.02e-01,1.36e-02,
84,2.10e-01,1.36e-02,
85,2.02e-01,1.36e-02,
86,2.04e-01,1.44e-02,
87,2.12e-01,1.36e-02,
88,2.04e-01,1.36e-02,
89,2.12e-01,1.52e-02,
90,2.14e-01,1.44e-02,
91,2.04e-01,1.36e-02,
92,2.14e-01,1.28e-02,
93,2.04e-01,1.44e-02,
94,2.16e-01,1.44e-02,
95,2.06e-01,1.36e-02,
96,2.14e-01,1.36e-02,
97,2.08e-01,1.36e-02,
98,2.06e-01,1.36e-02,
99,2.12e-01,1.44e-02,
100,2.12e-01,1.36e-02,
101,2.08e-01,1.44e-02,
102,2.16e-01,1.44e-02,
103,2.08e-01,1.36e-02,
104,2.18e-01,1.36e-02,
105,2.10e-01,1.44e-02,
106,2.16e-01,1.36e-02,
107,2.10e-01,1.36e-02,
108,2.14e-01,1.36e-02,
109,2.08e-01,1.36e-02,
110,2.18e-01,1.36e-02,
111,2.08e-01,1.44e-02,
112,2.08e-01,1.36e-02,
113,2.20e-01,1.36e-02,
114,2.10e-01,1.36e-02,
115,2.20e-01,1.44e-02,
116,2.18e-01,1.36e-02,
117,2.10e-01,1.36e-02,
118,2.14e-01,1.36e-02,
119,2.20e-01,1.36e-02,
120,2.14e-01,1.36e-02,
121,2.20e-01,1.44e-02,
122,2.20e-01,1.36e-02,
123,2.14e-01,1.36e-02,
124,2.20e-01,1.36e-02,
125,2.14e-01,1.36e-02,
126,2.14e-01,1.36e-02,
127,2.24e-01,1.44e-02,
128,2.24e-01,1.36e-02,
129,2.16e-01,1.36e-02,
130,2.16e-01,1.36e-02,
131,2.20e-01,1.36e-02,
132,2.16e-01,1.36e-02,
133,2.26e-01,1.44e-02,
134,2.16e-01,1.44e-02,
135,2.24e-01,1.36e-02,
136,2.18e-01,1.36e-02,
137,2.26e-01,1.36e-02,
138,2.26e-01,1.28e-02,
139,2.16e-01,1.44e-02,
140,2.28e-01,1.36e-02,
141,2.18e-01,1.28e-02,
142,2.20e-01,1.28e-02,
143,2.28e-01,1.28e-02,
144,2.26e-01,1.28e-02,
145,2.20e-01,1.20e-02,
146,2.20e-01,1.20e-02,
147,2.30e-01,1.12e-02,
148,2.22e-01,1.12e-02,
149,2.26e-01,1.28e-02,
150,2.22e-01,1.20e-02,
151,2.28e-01,1.28e-02,
152,2.22e-01,1.28e-02,
153,2.30e-01,1.36e-02,
154,2.32e-01,1.44e-02,
155,2.22e-01,1.28e-02,
156,2.32e-01,1.28e-02,
157,2.24e-01,1.36e-02,
158,2.30e-01,1.36e-02,
159,2.26e-01,1.44e-02,
160,2.24e-01,1.36e-02,
161,2.32e-01,1.36e-02,
162,2.32e-01,1.28e-02,
163,2.22e-01,1.44e-02,
164,2.34e-01,1.44e-02,
165,2.22e-01,1.28e-02,
166,2.36e-01,1.44e-02,
167,2.26e-01,1.28e-02,
168,2.28e-01,1.44e-02,
169,2.32e-01,1.28e-02,
170,2.28e-01,1.36e-02,
171,2.34e-01,1.28e-02,
172,2.28e-01,1.36e-02,
173,2.36e-01,1.28e-02,
174,2.38e-01,1.36e-02,
175,2.28e-01,1.28e-02,
176,2.34e-01,1.36e-02,
177,2.30e-01,1.28e-02,
178,2.32e-01,1.44e-02,
179,2.38e-01,1.28e-02,
180,2.30e-01,1.28e-02,
181,2.38e-01,1.44e-02,
182,2.38e-01,1.36e-02,
183,2.28e-01,1.44e-02,
184,2.32e-01,1.44e-02,
185,2.38e-01,1.36e-02,
186,2.32e-01,1.36e-02,
187,2.40e-01,1.28e-02,
188,2.38e-01,1.36e-02,
189,2.32e-01,1.36e-02,
190,2.42e-01,1.36e-02,
191,2.34e-01,1.44e-02,
192,2.40e-01,1.44e-02,
193,2.34e-01,1.28e-02,
194,2.34e-01,1.44e-02,
195,2.42e-01,1.28e-02,
196,2.34e-01,1.28e-02,
197,2.40e-01,1.44e-02,
198,2.36e-01,1.36e-02,
199,2.44e-01,1.28e-02,
200,2.44e-01,1.28e-02,
201,2.34e-01,1.44e-02,
202,2.40e-01,1.44e-02,
203,2.34e-01,1.28e-02,
204,2.44e-01,1.44e-02,
205,2.36e-01,1.36e-02,
206,2.44e-01,1.28e-02,
207,2.38e-01,1.44e-02,
208,2.38e-01,1.36e-02,
209,2.46e-01,1.36e-02,
210,2.36e-01,1.36e-02,
211,2.46e-01,1.28e-02,
212,2.40e-01,1.36e-02,
213,2.46e-01,1.36e-02,
214,2.46e-01,1.36e-02,
215,2.40e-01,1.28e-02,
216,2.46e-01,1.44e-02,
217,2.40e-01,1.28e-02,
218,2.40e-01,1.36e-02,
219,2.46e-01,1.28e-02,
220,2.48e-01,1.36e-02,
221,2.42e-01,1.36e-02,
222,2.42e-01,1.36e-02,
223,2.48e-01,1.28e-02,
224,2.42e-01,1.36e-02,
225,2.48e-01,1.28e-02,
226,2.50e-01,1.28e-02,
227,2.42e-01,1.36e-02,
228,2.44e-01,1.36e-02,
229,2.50e-01,1.44e-02,
230,2.44e-01,1.44e-02,
231,2.50e-01,1.28e-02,
232,2.52e-01,1.36e-02,
233,2.42e-01,1.36e-02,
234,2.50e-01,1.28e-02,
235,2.44e-01,1.44e-02,
236,2.46e-01,1.28e-02,
237,2.56e-01,1.44e-02,
238,2.52e-01,1.36e-02,
239,2.46e-01,1.36e-02,
240,2.54e-01,1.28e-02,
241,2.46e-01,1.44e-02,
242,2.54e-01,1.36e-02,
243,2.46e-01,1.28e-02,
244,2.52e-01,1.28e-02,
245,2.46e-01,1.44e-02,
246,2.58e-01,1.44e-02,
247,2.48e-01,1.28e-02,
248,2.52e-01,1.36e-02,
249,2.56e-01,1.28e-02,
250,2.50e-01,1.36e-02,
251,2.54e-01,1.28e-02,
252,2.50e-01,1.28e-02,
253,2.56e-01,1.44e-02,
254,2.54e-01,1.36e-02,
255,2.52e-01,1.28e-02,
256,2.58e-01,1.36e-02,
257,2.48e-01,1.28e-02,
258,2.52e-01,1.28e-02,
259,2.60e-01,1.44e-02,
260,2.52e-01,1.44e-02,
261,2.58e-01,1.28e-02,
262,2.60e-01,1.28e-02,
263,2.54e-01,1.36e-02,
264,2.60e-01,1.28e-02,
265,2.52e-01,1.44e-02,
266,2.54e-01,1.44e-02,
267,2.62e-01,1.28e-02,
268,2.54e-01,1.36e-02,
269,2.58e-01,1.28e-02,
270,2.56e-01,1.28e-02,
271,2.62e-01,1.44e-02,
272,2.64e-01,1.28e-02,
273,2.54e-01,1.36e-02,
274,2.56e-01,1.36e-02,
275,2.66e-01,1.28e-02,
276,2.54e-01,1.36e-02,
277,2.66e-01,1.36e-02,
278,2.60e-01,1.28e-02,
279,2.56e-01,1.36e-02,
280,2.64e-01,1.36e-02,
281,2.58e-01,1.28e-02,
282,2.58e-01,1.28e-02,
283,2.64e-01,1.44e-02,
284,2.56e-01,1.36e-02,
285,2.66e-01,1.28e-02,
286,2.58e-01,1.44e-02,
287,2.64e-01,1.28e-02,
288,2.66e-01,1.36e-02,
289,2.58e-01,1.28e-02,
290,2.62e-01,1.36e-02,
291,2.66e-01,1.28e-02,
292,2.60e-01,1.28e-02,
293,2.70e-01,1.44e-02,
294,2.66e-01,1.44e-02,
295,2.62e-01,1.28e-02,
296,2.68e-01,1.28e-02,
297,2.60e-01,1.44e-02,
298,2.70e-01,1.44e-02,
299,2.60e-01,1.28e-02,
300,2.70e-01,1.36e-02,
301,2.62e-01,1.28e-02,
302,2.66e-01,1.44e-02,
303,2.70e-01,1.28e-02,
304,2.66e-01,1.28e-02,
305,2.72e-01,1.44e-02,
306,2.64e-01,1.36e-02,
307,2.70e-01,1.44e-02,
308,2.66e-01,1.44e-02,
309,2.72e-01,1.36e-02,
310,2.66e-01,1.44e-02,
311,2.76e-01,1.28e-02,
312,2.66e-01,1.28e-02,
313,2.76e-01,1.36e-02,
314,2.72e-01,1.36e-02,
315,2.66e-01,1.28e-02,
316,2.66e-01,1.28e-02,
317,2.76e-01,1.36e-02,
318,2.68e-01,1.28e-02,
319,2.74e-01,1.44e-02,
320,2.74e-01,1.36e-02,
321,2.66e-01,1.28e-02,
322,2.74e-01,1.36e-02,
323,2.68e-01,1.28e-02,
324,2.68e-01,1.36e-02,
325,2.78e-01,1.28e-02,
326,2.72e-01,1.28e-02,
327,2.78e-01,1.28e-02,
328,2.82e-01,1.28e-02,
329,2.68e-01,1.36e-02,
330,2.68e-01,1.36e-02,
331,2.78e-01,1.28e-02,
332,2.78e-01,1.36e-02,
333,2.68e-01,1.28e-02,
334,2.80e-01,1.28e-02,
335,2.72e-01,1.36e-02,
336,2.68e-01,1.28e-02,
337,2.80e-01,1.44e-02,
338,2.78e-01,1.44e-02,
339,2.72e-01,1.28e-02,
340,2.72e-01,1.36e-02,
341,2.82e-01,1.28e-02,
342,2.74e-01,1.28e-02,
343,2.84e-01,1.44e-02,
344,2.82e-01,1.36e-02,
345,2.74e-01,1.28e-02,
346,2.78e-01,1.28e-02,
347,2.84e-01,1.36e-02,
348,2.74e-01,1.28e-02,
349,2.84e-01,1.36e-02,
350,2.74e-01,1.28e-02,
351,2.84e-01,1.36e-02,
352,2.84e-01,1.28e-02,
353,2.78e-01,1.36e-02,
354,2.78e-01,1.36e-02,
355,2.88e-01,1.28e-02,
356,2.84e-01,1.36e-02,
357,2.78e-01,1.28e-02,
358,2.84e-01,1.44e-02,
359,2.78e-01,1.28e-02,
360,2.80e-01,1.36e-02,
361,2.88e-01,1.28e-02,
362,2.80e-01,1.28e-02,
363,2.86e-01,1.44e-02,
364,2.80e-01,1.44e-02,
365,2.90e-01,1.28e-02,
366,2.80e-01,1.28e-02,
367,2.88e-01,1.44e-02,
368,2.82e-01,1.28e-02,
369,2.90e-01,1.36e-02,
370,2.84e-01,1.36e-02,
371,2.90e-01,1.28e-02,
372,2.90e-01,1.36e-02,
373,2.82e-01,1.28e-02,
374,2.90e-01,1.28e-02,
375,2.84e-01,1.36e-02,
376,2.84e-01,1.28e-02,
377,2.88e-01,1.36e-02,
378,2.92e-01,1.36e-02,
379,2.84e-01,1.28e-02,
380,2.82e-01,1.36e-02,
381,2.96e-01,1.28e-02,
382,2.94e-01,1.28e-02,
383,2.84e-01,1.44e-02,
384,2.92e-01,1.28e-02,
385,2.84e-01,1.44e-02,
386,2.94e-01,1.28e-02,
387,2.84e-01,1.36e-02,
388,2.94e-01,1.36e-02,
389,2.88e-01,1.28e-02,
390,2.96e-01,1.28e-02,
391,2.86e-01,1.36e-02,
392,2.96e-01,1.28e-02,
393,2.88e-01,1.44e-02,
394,2.98e-01,1.28e-02,
395,2.90e-01,1.44e-02,
396,2.88e-01,1.28e-02,
397,2.98e-01,1.28e-02,
398,2.98e-01,1.28e-02,
399,2.88e-01,1.20e-02,
400,2.88e-01,1.20e-02,
401,2.98e-01,1.12e-02,
402,2.98e-01,1.20e-02,
403,2.90e-01,9.60e-03,
404,2.92e-01,9.60e-03,
405,3.02e-01,1.04e-02,
406,2.98e-01,8.80e-03,
407,2.92e-01,1.04e-02,
408,2.92e-01,9.60e-03,
409,3.00e-01,1.12e-02,
410,2.98e-01,1.04e-02,
411,2.96e-01,1.20e-02,
412,3.00e-01,1.20e-02,
413,2.92e-01,1.28e-02,
414,3.02e-01,1.28e-02,
415,2.94e-01,1.28e-02,
416,3.02e-01,1.28e-02,
417,2.94e-01,1.28e-02,
418,2.94e-01,1.28e-02,
419,3.04e-01,1.28e-02,
420,2.98e-01,1.28e-02,
421,3.02e-01,1.28e-02,
422,3.02e-01,1.28e-02,
423,2.94e-01,1.36e-02,
424,2.96e-01,1.28e-02,
425,3.04e-01,1.36e-02,
426,2.98e-01,1.28e-02,
427,3.08e-01,1.36e-02,
428,2.98e-01,1.28e-02,
429,3.04e-01,1.28e-02,
430,3.04e-01,1.44e-02,
431,3.00e-01,1.28e-02,
432,3.06e-01,1.28e-02,
433,2.98e-01,1.36e-02,
434,3.08e-01,1.36e-02,
435,2.98e-01,1.28e-02,
436,3.06e-01,1.28e-02,
437,3.00e-01,1.36e-02,
438,3.08e-01,1.36e-02,
439,3.00e-01,1.28e-02,
440,3.00e-01,1.28e-02,
441,3.08e-01,1.44e-02,
442,3.10e-01,1.28e-02,
443,3.04e-01,1.36e-02,
444,3.02e-01,1.28e-02,
445,3.08e-01,1.44e-02,
446,3.00e-01,1.28e-02,
447,3.12e-01,1.36e-02,
448,3.04e-01,1.28e-02,
449,3.10e-01,1.36e-02,
450,3.06e-01,1.28e-02,
451,3.14e-01,1.36e-02,
452,3.14e-01,1.36e-02,
453,3.04e-01,1.28e-02,
454,3.04e-01,1.28e-02,
455,3.12e-01,1.28e-02,
456,3.06e-01,1.28e-02,
457,3.12e-01,1.36e-02,
458,3.06e-01,1.36e-02,
459,3.14e-01,1.28e-02,
460,3.04e-01,1.44e-02,
461,3.14e-01,1.28e-02,
462,3.16e-01,1.44e-02,
463,3.08e-01,1.28e-02,
464,3.06e-01,1.28e-02,
465,3.18e-01,1.44e-02,
466,3.14e-01,1.28e-02,
467,3.08e-01,1.44e-02,
468,3.06e-01,1.36e-02,
469,3.16e-01,1.28e-02,
470,3.10e-01,1.28e-02,
471,3.16e-01,1.36e-02,
472,3.18e-01,1.28e-02,
473,3.10e-01,1.36e-02,
474,3.18e-01,1.28e-02,
475,3.10e-01,1.36e-02,
476,3.20e-01,1.28e-02,
477,3.12e-01,1.28e-02,
478,3.08e-01,1.28e-02,
479,3.18e-01,1.28e-02,
480,3.20e-01,1.28e-02,
481,3.10e-01,1.36e-02,
482,3.12e-01,1.28e-02,
483,3.22e-01,1.28e-02,
484,3.12e-01,1.28e-02,
485,3.22e-01,1.36e-02,
486,3.14e-01,1.28e-02,
487,3.22e-01,1.36e-02,
488,3.22e-01,1.28e-02,
489,3.16e-01,1.36e-02,
490,3.16e-01,1.28e-02,
491,3.22e-01,1.44e-02,
492,3.24e-01,1.28e-02,
493,3.14e-01,1.28e-02,
494,3.20e-01,1.44e-02,
495,3.16e-01,1.28e-02,
496,3.24e-01,1.28e-02,
497,3.14e-01,1.36e-02,
498,3.18e-01,1.28e-02,
499,3.24e-01,1.28e-02,
500,3.24e-01,1.28e-02,
501,3.18e-01,1.36e-02,
502,3.24e-01,1.28e-02,
503,3.18e-01,1.28e-02,
504,3.24e-01,1.28e-02,
505,3.18e-01,1.28e-02,
506,3.22e-01,1.28e-02,
507,3.26e-01,1.28e-02,
508,3.28e-01,1.28e-02,
509,3.20e-01,1.28e-02,
510,3.22e-01,1.28e-02,
511,3.28e-01,1.36e-02,
512,3.20e-01,1.28e-02,
513,3.32e-01,1.36e-02,
514,3.30e-01,1.28e-02,
515,3.20e-01,1.28e-02,
516,3.28e-01,1.28e-02,
517,3.20e-01,1.28e-02,
518,3.20e-01,1.28e-02,
519,3.28e-01,1.28e-02,
520,3.24e-01,1.28e-02,
521,3.32e-01,1.36e-02,
522,3.32e-01,1.28e-02,
523,3.24e-01,1.28e-02,
524,3.26e-01,1.36e-02,
525,3.34e-01,1.28e-02,
526,3.24e-01,1.28e-02,
527,3.30e-01,1.28e-02,
528,3.26e-01,1.28e-02,
529,3.34e-01,1.36e-02,
530,3.26e-01,1.28e-02,
531,3.34e-01,1.28e-02,
532,3.26e-01,1.36e-02,
533,3.36e-01,1.28e-02,
534,3.26e-01,1.36e-02,
535,3.34e-01,1.28e-02,
536,3.26e-01,1.28e-02,
537,3.34e-01,1.28e-02,
538,3.32e-01,1.28e-02,
539,3.28e-01,1.36e-02,
540,3.36e-01,1.28e-02,
541,3.30e-01,1.36e-02,
542,3.30e-01,1.28e-02,
543,3.36e-01,1.36e-02,
544,3.38e-01,1.28e-02,
545,3.30e-01,1.28e-02,
546,3.28e-01,1.28e-02,
547,3.38e-01,1.28e-02,
548,3.36e-01,1.28e-02,
549,3.30e-01,1.12e-02,
550,3.32e-01,1.28e-02,
551,3.38e-01,1.28e-02,
552,3.40e-01,1.28e-02,
553,3.32e-01,1.28e-02,
554,3.40e-01,1.28e-02,
555,3.32e-01,1.36e-02,
556,3.40e-01,1.28e-02,
557,3.34e-01,1.28e-02,
558,3.34e-01,1.28e-02,
559,3.40e-01,1.36e-02,
560,3.36e-01,1.28e-02,
561,3.44e-01,1.28e-02,
562,3.42e-01,1.28e-02,
563,3.34e-01,1.28e-02,
564,3.42e-01,1.28e-02,
565,3.34e-01,1.44e-02,
566,3.34e-01,1.28e-02,
567,3.44e-01,1.28e-02,
568,3.36e-01,1.28e-02,
569,3.46e-01,1.20e-02,
570,3.42e-01,1.28e-02,
571,3.34e-01,1.28e-02,
572,3.38e-01,1.28e-02,
573,3.46e-01,1.28e-02,
574,3.34e-01,1.28e-02,
575,3.44e-01,1.28e-02,
576,3.44e-01,1.28e-02,
577,3.40e-01,1.28e-02,
578,3.48e-01,1.28e-02,
579,3.38e-01,1.28e-02,
580,3.46e-01,1.28e-02,
581,3.40e-01,1.28e-02,
582,3.48e-01,1.28e-02,
583,3.38e-01,1.28e-02,
584,3.48e-01,1.28e-02,
585,3.38e-01,1.28e-02,
586,3.40e-01,1.28e-02,
587,3.50e-01,1.28e-02,
588,3.42e-01,1.28e-02,
589,3.50e-01,1.28e-02,
590,3.42e-01,1.36e-02,
591,3.50e-01,1.28e-02,
592,3.50e-01,1.36e-02,
593,3.42e-01,1.28e-02,
594,3.40e-01,1.28e-02,
595,3.50e-01,1.20e-02,
596,3.42e-01,1.28e-02,
597,3.52e-01,1.28e-02,
598,3.46e-01,1.28e-02,
599,3.50e-01,1.20e-02,
600,3.46e-01,1.28e-02,
601,3.56e-01,1.28e-02,
602,3.50e-01,1.28e-02,
603,3.44e-01,1.20e-02,
604,3.46e-01,1.20e-02,
605,3.54e-01,1.28e-02,
606,3.46e-01,1.28e-02,
607,3.56e-01,1.28e-02,
608,3.46e-01,1.28e-02,
609,3.56e-01,1.28e-02,
610,3.56e-01,1.28e-02,
611,3.50e-01,1.28e-02,
612,3.48e-01,1.28e-02,
613,3.56e-01,1.28e-02,
614,3.50e-01,1.28e-02,
615,3.56e-01,1.12e-02,
616,3.58e-01,1.28e-02,
617,3.50e-01,1.28e-02,
618,3.50e-01,1.28e-02,
619,3.60e-01,1.28e-02,
620,3.52e-01,1.28e-02,
621,3.58e-01,1.28e-02,
622,3.50e-01,1.28e-02,
623,3.58e-01,1.20e-02,
624,3.58e-01,1.28e-02,
625,3.52e-01,1.20e-02,
626,3.52e-01,1.28e-02,
627,3.60e-01,1.36e-02,
628,3.50e-01,1.28e-02,
629,3.60e-01,1.28e-02,
630,3.62e-01,1.20e-02,
631,3.54e-01,1.28e-02,
632,3.56e-01,1.28e-02,
633,3.62e-01,1.28e-02,
634,3.52e-01,1.28e-02,
635,3.62e-01,1.20e-02,
636,3.52e-01,1.28e-02,
637,3.62e-01,1.28e-02,
638,3.56e-01,1.28e-02,
639,3.66e-01,1.20e-02,
640,3.56e-01,1.28e-02,
641,3.64e-01,1.20e-02,
642,3.64e-01,1.28e-02,
643,3.58e-01,1.28e-02,
644,3.58e-01,1.28e-02,
645,3.66e-01,1.12e-02,
646,3.58e-01,1.28e-02,
647,3.64e-01,1.28e-02,
648,3.58e-01,1.28e-02,
649,3.66e-01,1.20e-02,
650,3.66e-01,1.28e-02,
651,3.58e-01,1.20e-02,
652,3.58e-01,1.28e-02,
653,3.66e-01,1.20e-02,
654,3.70e-01,1.20e-02,
655,3.62e-01,1.28e-02,
656,3.70e-01,1.28e-02,
657,3.58e-01,1.20e-02,
658,3.60e-01,1.28e-02,
659,3.68e-01,1.12e-02,
660,3.62e-01,1.20e-02,
661,3.68e-01,1.04e-02,
662,3.74e-01,1.04e-02,
663,3.62e-01,8.80e-03,
664,3.72e-01,8.00e-03,
665,3.64e-01,7.20e-03,
666,3.62e-01,6.40e-03,
667,3.70e-01,8.00e-03,
668,3.70e-01,7.20e-03,
669,3.64e-01,9.60e-03,
670,3.68e-01,8.80e-03,
671,3.74e-01,1.04e-02,
672,3.70e-01,9.60e-03,
673,3.66e-01,1.12e-02,
674,3.66e-01,1.12e-02,
675,3.74e-01,1.20e-02,
676,3.64e-01,1.12e-02,
677,3.74e-01,1.28e-02,
678,3.72e-01,1.20e-02,
679,3.66e-01,1.20e-02,
680,3.72e-01,1.28e-02,
681,3.68e-01,1.20e-02,
682,3.64e-01,1.28e-02,
683,3.78e-01,1.20e-02,
684,3.66e-01,1.20e-02,
685,3.76e-01,1.28e-02,
686,3.70e-01,1.28e-02,
687,3.76e-01,1.20e-02,
688,3.70e-01,1.12e-02,
689,3.76e-01,1.28e-02,
690,3.76e-01,1.28e-02,
691,3.70e-01,1.20e-02,
692,3.70e-01,1.28e-02,
693,3.76e-01,1.20e-02,
694,3.80e-01,1.28e-02,
695,3.68e-01,1.20e-02,
696,3.70e-01,1.28e-02,
697,3.76e-01,1.20e-02,
698,3.72e-01,1.28e-02,
699,3.78e-01,1.20e-02,
700,3.72e-01,1.28e-02,
701,3.80e-01,1.20e-02,
702,3.72e-01,1.28e-02,
703,3.82e-01,1.20e-02,
704,3.76e-01,1.28e-02,
705,3.82e-01,1.20e-02,
706,3.82e-01,1.28e-02,
707,3.76e-01,1.28e-02,
708,3.86e-01,1.20e-02,
709,3.72e-01,1.36e-02,
710,3.76e-01,1.28e-02,
711,3.82e-01,1.20e-02,
712,3.82e-01,1.28e-02,
713,3.76e-01,1.20e-02,
714,3.76e-01,1.20e-02,
715,3.82e-01,1.36e-02,
716,3.78e-01,1.28e-02,
717,3.86e-01,1.12e-02,
718,3.76e-01,1.20e-02,
719,3.86e-01,1.28e-02,
720,3.78e-01,1.28e-02,
721,3.86e-01,1.20e-02,
722,3.84e-01,1.28e-02,
723,3.78e-01,1.12e-02,
724,3.78e-01,1.28e-02,
725,3.88e-01,1.28e-02,
726,3.88e-01,1.12e-02,
727,3.78e-01,1.28e-02,
728,3.80e-01,1.28e-02,
729,3.88e-01,1.28e-02,
730,3.88e-01,1.28e-02,
731,3.80e-01,1.12e-02,
732,3.82e-01,1.28e-02,
733,3.90e-01,1.20e-02,
734,3.92e-01,1.20e-02,
735,3.78e-01,1.28e-02,
736,3.82e-01,1.28e-02,
737,3.88e-01,1.20e-02,
738,3.92e-01,1.28e-02,
739,3.84e-01,1.12e-02,
740,3.82e-01,1.28e-02,
741,3.96e-01,1.20e-02,
742,3.90e-01,1.28e-02,
743,3.84e-01,1.12e-02,
744,3.84e-01,1.20e-02,
745,3.92e-01,1.28e-02,
746,3.84e-01,1.28e-02,
747,3.94e-01,1.20e-02,
748,3.84e-01,1.28e-02,
749,3.96e-01,1.20e-02,
750,3.86e-01,1.20e-02,
751,3.94e-01,1.28e-02,
752,3.92e-01,1.20e-02,
753,3.86e-01,1.28e-02,
754,3.86e-01,1.28e-02,
755,3.94e-01,1.12e-02,
756,3.86e-01,1.28e-02,
757,3.94e-01,1.20e-02,
758,3.98e-01,1.28e-02,
759,3.86e-01,1.20e-02,
760,3.98e-01,1.28e-02,
761,3.90e-01,1.12e-02,
762,3.90e-01,1.20e-02,
763,3.98e-01,1.28e-02,
764,3.90e-01,1.28e-02,
765,3.96e-01,1.20e-02,
766,3.90e-01,1.28e-02,
767,4.00e-01,1.12e-02,
768,3.90e-01,1.28e-02,
769,3.98e-01,1.20e-02,
770,3.94e-01,1.28e-02,
771,4.00e-01,1.20e-02,
772,4.02e-01,1.28e-02,
773,3.92e-01,1.20e-02,
774,3.92e-01,1.28e-02,
775,4.00e-01,1.20e-02,
776,4.02e-01,1.12e-02,
777,3.94e-01,1.36e-02,
778,3.96e-01,1.12e-02,
779,4.00e-01,1.28e-02,
780,4.02e-01,1.28e-02,
781,3.94e-01,1.12e-02,
782,4.00e-01,1.12e-02,
783,3.96e-01,1.28e-02,
784,3.96e-01,1.20e-02,
785,4.06e-01,1.28e-02,
786,3.96e-01,1.28e-02,
787,4.08e-01,1.20e-02,
788,3.96e-01,1.28e-02,
789,4.04e-01,1.20e-02,
790,4.06e-01,1.28e-02,
791,3.96e-01,1.12e-02,
792,3.96e-01,1.20e-02,
793,4.08e-01,1.28e-02,
794,4.06e-01,1.28e-02,
795,4.00e-01,1.20e-02,
796,4.00e-01,1.28e-02,
797,4.08e-01,1.20e-02,
798,3.98e-01,1.28e-02,
799,4.06e-01,1.12e-02,
800,3.98e-01,1.12e-02,
801,4.08e-01,1.28e-02,
802,4.02e-01,1.20e-02,
803,4.12e-01,1.28e-02,
804,4.12e-01,1.28e-02,
805,3.98e-01,1.12e-02,
806,4.10e-01,1.28e-02,
807,4.02e-01,1.20e-02,
808,4.02e-01,1.20e-02,
809,4.10e-01,1.28e-02,
810,4.12e-01,1.20e-02,
811,4.04e-01,1.36e-02,
812,4.04e-01,1.28e-02,
813,4.14e-01,1.20e-02,
814,4.02e-01,1.28e-02,
815,4.12e-01,1.20e-02,
816,4.04e-01,1.28e-02,
817,4.14e-01,1.20e-02,
818,4.04e-01,1.36e-02,
819,4.14e-01,1.12e-02,
820,4.14e-01,1.20e-02,
821,4.04e-01,1.28e-02,
822,4.14e-01,1.28e-02,
823,4.08e-01,1.20e-02,
824,4.12e-01,1.20e-02,
825,4.06e-01,1.28e-02,
826,4.14e-01,1.12e-02,
827,4.04e-01,1.28e-02,
828,4.08e-01,1.12e-02,
829,4.14e-01,1.28e-02,
830,4.08e-01,1.12e-02,
831,4.20e-01,1.28e-02,
832,4.16e-01,1.12e-02,
833,4.10e-01,1.28e-02,
834,4.20e-01,1.12e-02,
835,4.08e-01,1.28e-02,
836,4.18e-01,1.20e-02,
837,4.12e-01,1.28e-02,
838,4.12e-01,1.20e-02,
839,4.18e-01,1.28e-02,
840,4.18e-01,1.12e-02,
841,4.10e-01,1.28e-02,
842,4.20e-01,1.12e-02,
843,4.12e-01,1.28e-02,
844,4.12e-01,1.28e-02,
845,4.20e-01,1.12e-02,
846,4.14e-01,1.20e-02,
847,4.22e-01,1.28e-02,
848,4.14e-01,1.28e-02,
849,4.22e-01,1.12e-02,
850,4.22e-01,1.28e-02,
851,4.12e-01,1.20e-02,
852,4.22e-01,1.20e-02,
853,4.14e-01,1.28e-02,
854,4.14e-01,1.20e-02,
855,4.26e-01,1.28e-02,
856,4.16e-01,1.28e-02,
857,4.26e-01,1.12e-02,
858,4.16e-01,1.12e-02,
859,4.24e-01,1.28e-02,
860,4.18e-01,1.20e-02,
861,4.26e-01,1.28e-02,
862,4.26e-01,1.12e-02,
863,4.18e-01,1.28e-02,
864,4.20e-01,1.28e-02,
865,4.24e-01,1.20e-02,
866,4.28e-01,1.20e-02,
867,4.20e-01,1.28e-02,
868,4.26e-01,1.20e-02,
869,4.20e-01,1.28e-02,
870,4.24e-01,1.20e-02,
