to_sort/195_0p0000124V.csv

X,CH1,CH2,Start,Increment,
Sequence,Volt,Volt,-3.390000e+00,5.000000e-03
0,9.64e-01,1.02e+00,
1,9.48e-01,1.02e+00,
2,9.56e-01,1.02e+00,
3,9.40e-01,1.02e+00,
4,9.48e-01,1.02e+00,
5,9.60e-01,1.02e+00,
6,9.48e-01,1.02e+00,
7,9.64e-01,1.02e+00,
8,9.64e-01,1.02e+00,
9,9.48e-01,1.02e+00,
10,9.48e-01,1.02e+00,
11,9.64e-01,1.02e+00,
12,9.48e-01,1.02e+00,
13,9.60e-01,1.02e+00,
14,9.40e-01,1.02e+00,
15,9.68e-01,1.02e+00,
16,9.64e-01,1.02e+00,
17,9.48e-01,1.02e+00,
18,9.68e-01,1.02e+00,
19,9.44e-01,1.02e+00,
20,9.44e-01,1.02e+00,
21,9.64e-01,1.02e+00,
22,9.64e-01,1.02e+00,
23,9.44e-01,1.02e+00,
24,9.40e-01,1.02e+00,
25,9.68e-01,1.02e+00,
26,9.60e-01,1.02e+00,
27,9.44e-01,1.02e+00,
28,9.64e-01,1.02e+00,
29,9.44e-01,1.02e+00,
30,9.44e-01,1.02e+00,
31,9.60e-01,1.02e+00,
32,9.48e-01,1.02e+00,
33,9.60e-01,1.02e+00,
34,9.68e-01,1.02e+00,
35,9.48e-01,1.02e+00,
36,9.68e-01,1.02e+00,
37,9.40e-01,1.02e+00,
38,9.44e-01,1.02e+00,
39,9.68e-01,1.02e+00,
40,9.64e-01,1.02e+00,
41,9.40e-01,1.02e+00,
42,9.68e-01,1.02e+00,
43,9.40e-01,1.02e+00,
44,9.48e-01,1.02e+00,
45,9.64e-01,1.02e+00,
46,9.44e-01,1.02e+00,
47,9.68e-01,1.02e+00,
48,9.64e-01,1.02e+00,
49,9.40e-01,1.02e+00,
50,9.64e-01,1.02e+00,
51,9.40e-01,1.02e+00,
52,9.44e-01,1.02e+00,
53,9.64e-01,1.02e+00,
54,9.44e-01,1.02e+00,
55,9.68e-01,1.02e+00,
56,9.68e-01,1.02e+00,
57,9.40e-01,1.02e+00,
58,9.44e-01,1.02e+00,
59,9.64e-01,1.02e+00,
60,9.48e-01,1.02e+00,
61,9.64e-01,1.02e+00,
62,9.68e-01,1.02e+00,
63,9.48e-01,1.02e+00,
64,9.64e-01,1.02e+00,
65,9.40e-01,1.02e+00,
66,9.64e-01,1.02e+00,
67,9.44e-01,1.02e+00,
68,9.64e-01,1.02e+00,
69,9.48e-01,1.02e+00,
70,9.48e-01,1.02e+00,
71,9.60e-01,1.02e+00,
72,9.44e-01,1.02e+00,
73,9.72e-01,1.02e+00,
74,9.48e-01,1.02e+00,
75,9.64e-01,1.02e+00,
76,9.68e-01,1.02e+00,
77,9.48e-01,1.02e+00,
78,9.48e-01,1.02e+00,
79,9.68e-01,1.02e+00,
80,9.44e-01,1.02e+00,
81,9.68e-01,1.02e+00,
82,9.64e-01,1.02e+00,
83,9.40e-01,1.02e+00,
84,9.48e-01,1.02e+00,
85,9.68e-01,1.02e+00,
86,9.64e-01,1.02e+00,
87,9.48e-01,1.02e+00,
88,9.64e-01,1.02e+00,
89,9.48e-01,1.02e+00,
90,9.48e-01,1.02e+00,
91,9.64e-01,1.02e+00,
92,9.68e-01,1.02e+00,
93,9.40e-01,1.02e+00,
94,9.48e-01,1.02e+00,
95,9.68e-01,1.02e+00,
96,9.48e-01,1.02e+00,
97,9.68e-01,1.02e+00,
98,9.64e-01,1.02e+00,
99,9.48e-01,1.02e+00,
100,9.48e-01,1.02e+00,
101,9.64e-01,1.02e+00,
102,9.48e-01,1.02e+00,
103,9.64e-01,1.02e+00,
104,9.68e-01,1.02e+00,
105,9.52e-01,1.01e+00,
106,9.48e-01,1.02e+00,
107,9.68e-01,1.01e+00,
108,9.48e-01,1.02e+00,
109,9.64e-01,1.02e+00,
110,9.48e-01,1.02e+00,
111,9.60e-01,1.01e+00,
112,9.52e-01,1.02e+00,
113,9.68e-01,1.01e+00,
114,9.44e-01,1.02e+00,
115,9.68e-01,1.01e+00,
116,9.64e-01,1.02e+00,
117,9.48e-01,1.01e+00,
118,9.48e-01,1.02e+00,
119,9.72e-01,1.01e+00,
120,9.48e-01,1.01e+00,
121,9.68e-01,1.02e+00,
122,9.48e-01,1.01e+00,
123,9.68e-01,1.02e+00,
124,9.64e-01,1.02e+00,
125,9.44e-01,1.01e+00,
126,9.48e-01,1.02e+00,
127,9.68e-01,1.01e+00,
128,9.64e-01,1.02e+00,
129,9.48e-01,1.01e+00,
130,9.68e-01,1.02e+00,
131,9.48e-01,1.01e+00,
132,9.48e-01,1.02e+00,
133,9.64e-01,1.01e+00,
134,9.68e-01,1.02e+00,
135,9.52e-01,1.01e+00,
136,9.68e-01,1.02e+00,
137,9.48e-01,1.02e+00,
138,9.48e-01,1.02e+00,
139,9.68e-01,1.01e+00,
140,9.48e-01,1.02e+00,
141,9.68e-01,1.01e+00,
142,9.52e-01,1.02e+00,
143,9.68e-01,1.01e+00,
144,9.68e-01,1.02e+00,
145,9.44e-01,1.01e+00,
146,9.44e-01,1.02e+00,
147,9.68e-01,1.01e+00,
148,9.68e-01,1.02e+00,
149,9.48e-01,1.01e+00,
150,9.68e-01,1.02e+00,
151,9.48e-01,1.01e+00,
152,9.44e-01,1.01e+00,
153,9.60e-01,1.02e+00,
154,9.64e-01,1.01e+00,
155,9.44e-01,1.02e+00,
156,9.52e-01,1.02e+00,
157,9.68e-01,1.01e+00,
158,9.52e-01,1.02e+00,
159,9.68e-01,1.01e+00,
160,9.44e-01,1.02e+00,
161,9.68e-01,1.01e+00,
162,9.48e-01,1.02e+00,
163,9.68e-01,1.01e+00,
164,9.68e-01,1.02e+00,
165,9.48e-01,1.01e+00,
166,9.68e-01,1.01e+00,
167,9.44e-01,1.02e+00,
168,9.52e-01,1.01e+00,
169,9.72e-01,1.02e+00,
170,9.68e-01,1.02e+00,
171,9.48e-01,1.01e+00,
172,9.64e-01,1.00e+00,
173,9.48e-01,1.01e+00,
174,9.52e-01,1.01e+00,
175,9.72e-01,1.00e+00,
176,9.52e-01,1.00e+00,
177,9.68e-01,1.01e+00,
178,9.68e-01,1.00e+00,
179,9.48e-01,1.01e+00,
180,9.52e-01,1.00e+00,
181,9.64e-01,1.01e+00,
182,9.44e-01,1.01e+00,
183,9.68e-01,1.00e+00,
184,9.44e-01,1.01e+00,
185,9.64e-01,1.00e+00,
186,9.68e-01,1.01e+00,
187,9.48e-01,1.01e+00,
188,9.48e-01,1.00e+00,
189,9.72e-01,1.01e+00,
190,9.52e-01,1.01e+00,
191,9.68e-01,1.00e+00,
192,9.68e-01,1.01e+00,
193,9.44e-01,1.00e+00,
194,9.68e-01,1.01e+00,
195,9.44e-01,1.00e+00,
196,9.48e-01,1.01e+00,
197,9.64e-01,1.00e+00,
198,9.52e-01,1.01e+00,
199,9.68e-01,1.00e+00,
200,9.48e-01,1.01e+00,
201,9.72e-01,1.00e+00,
202,9.64e-01,1.01e+00,
203,9.44e-01,1.00e+00,
204,9.52e-01,1.00e+00,
205,9.72e-01,1.01e+00,
206,9.64e-01,1.01e+00,
207,9.52e-01,1.00e+00,
208,9.52e-01,1.00e+00,
209,9.72e-01,1.01e+00,
210,9.52e-01,1.01e+00,
211,9.68e-01,9.92e-01,
212,9.68e-01,9.92e-01,
213,9.48e-01,1.01e+00,
214,9.52e-01,1.00e+00,
215,9.68e-01,9.92e-01,
216,9.48e-01,9.92e-01,
217,9.72e-01,1.00e+00,
218,9.52e-01,9.92e-01,
219,9.68e-01,1.00e+00,
220,9.52e-01,9.92e-01,
221,9.68e-01,1.00e+00,
222,9.68e-01,9.92e-01,
223,9.48e-01,1.00e+00,
224,9.52e-01,9.92e-01,
225,9.72e-01,1.00e+00,
226,9.68e-01,1.00e+00,
227,9.52e-01,9.92e-01,
228,9.52e-01,9.92e-01,
229,9.72e-01,1.00e+00,
230,9.52e-01,1.00e+00,
231,9.68e-01,9.92e-01,
232,9.68e-01,1.00e+00,
233,9.48e-01,9.92e-01,
234,9.68e-01,1.00e+00,
235,9.52e-01,9.92e-01,
236,9.52e-01,9.84e-01,
237,9.72e-01,1.00e+00,
238,9.52e-01,1.00e+00,
239,9.68e-01,9.84e-01,
240,9.72e-01,9.92e-01,
241,9.48e-01,9.84e-01,
242,9.72e-01,9.84e-01,
243,9.52e-01,9.92e-01,
244,9.68e-01,9.84e-01,
245,9.52e-01,9.92e-01,
246,9.68e-01,9.84e-01,
247,9.52e-01,9.92e-01,
248,9.48e-01,9.84e-01,
249,9.72e-01,9.92e-01,
250,9.48e-01,9.84e-01,
251,9.68e-01,9.92e-01,
252,9.68e-01,9.92e-01,
253,9.52e-01,9.84e-01,
254,9.52e-01,9.84e-01,
255,9.72e-01,9.76e-01,
256,9.48e-01,9.76e-01,
257,9.68e-01,9.84e-01,
258,9.72e-01,9.76e-01,
259,9.44e-01,9.76e-01,
260,9.48e-01,9.76e-01,
261,9.72e-01,9.76e-01,
262,9.52e-01,9.76e-01,
263,9.72e-01,9.76e-01,
264,9.72e-01,9.76e-01,
265,9.52e-01,9.84e-01,
266,9.68e-01,9.76e-01,
267,9.52e-01,9.84e-01,
268,9.68e-01,9.76e-01,
269,9.52e-01,9.76e-01,
270,9.68e-01,9.76e-01,
271,9.52e-01,9.68e-01,
272,9.48e-01,9.68e-01,
273,9.68e-01,9.68e-01,
274,9.52e-01,9.68e-01,
275,9.72e-01,9.60e-01,
276,9.52e-01,9.68e-01,
277,9.72e-01,9.60e-01,
278,9.52e-01,9.68e-01,
279,9.72e-01,9.68e-01,
280,9.52e-01,9.60e-01,
281,9.72e-01,9.68e-01,
282,9.52e-01,9.68e-01,
283,9.72e-01,9.60e-01,
284,9.72e-01,9.68e-01,
285,9.52e-01,9.52e-01,
286,9.68e-01,9.60e-01,
287,9.52e-01,9.52e-01,
288,9.72e-01,9.60e-01,
289,9.48e-01,9.52e-01,
290,9.72e-01,9.60e-01,
291,9.52e-01,9.52e-01,
292,9.52e-01,9.60e-01,
293,9.76e-01,9.52e-01,
294,9.44e-01,9.60e-01,
295,9.72e-01,9.52e-01,
296,9.72e-01,9.44e-01,
297,9.52e-01,9.52e-01,
298,9.52e-01,9.44e-01,
299,9.68e-01,9.52e-01,
300,9.52e-01,9.52e-01,
301,9.72e-01,9.44e-01,
302,9.48e-01,9.52e-01,
303,9.72e-01,9.36e-01,
304,9.68e-01,9.44e-01,
305,9.52e-01,9.36e-01,
306,9.52e-01,9.36e-01,
307,9.68e-01,9.44e-01,
308,9.52e-01,9.44e-01,
309,9.72e-01,9.36e-01,
310,9.52e-01,9.44e-01,
311,9.68e-01,9.28e-01,
312,9.52e-01,9.28e-01,
313,9.68e-01,9.36e-01,
314,9.68e-01,9.28e-01,
315,9.48e-01,9.36e-01,
316,9.52e-01,9.28e-01,
317,9.76e-01,9.36e-01,
318,9.52e-01,9.36e-01,
319,9.72e-01,9.20e-01,
320,9.72e-01,9.20e-01,
321,9.52e-01,9.20e-01,
322,9.52e-01,9.20e-01,
323,9.68e-01,9.28e-01,
324,9.52e-01,9.20e-01,
325,9.72e-01,9.12e-01,
326,9.52e-01,9.12e-01,
327,9.68e-01,9.12e-01,
328,9.52e-01,9.12e-01,
329,9.72e-01,9.12e-01,
330,9.72e-01,9.12e-01,
331,9.48e-01,8.96e-01,
332,9.52e-01,8.96e-01,
333,9.76e-01,9.04e-01,
334,9.52e-01,8.96e-01,
335,9.72e-01,9.04e-01,
336,9.56e-01,9.04e-01,
337,9.76e-01,8.88e-01,
338,9.72e-01,8.88e-01,
339,9.52e-01,8.96e-01,
340,9.52e-01,8.96e-01,
341,9.72e-01,8.88e-01,
342,9.52e-01,8.96e-01,
343,9.72e-01,8.80e-01,
344,9.52e-01,8.80e-01,
345,9.68e-01,8.88e-01,
346,9.72e-01,8.80e-01,
347,9.52e-01,8.88e-01,
348,9.72e-01,8.88e-01,
349,9.52e-01,8.72e-01,
350,9.72e-01,8.72e-01,
351,9.52e-01,8.80e-01,
352,9.76e-01,8.72e-01,
353,9.52e-01,8.80e-01,
354,9.52e-01,8.80e-01,
355,9.72e-01,8.64e-01,
356,9.72e-01,8.64e-01,
357,9.52e-01,8.64e-01,
358,9.56e-01,8.64e-01,
359,9.64e-01,8.64e-01,
360,9.52e-01,8.64e-01,
361,9.72e-01,8.56e-01,
362,9.72e-01,8.48e-01,
363,9.52e-01,8.56e-01,
364,9.64e-01,8.56e-01,
365,9.52e-01,8.48e-01,
366,9.72e-01,8.56e-01,
367,9.56e-01,8.56e-01,
368,9.72e-01,8.56e-01,
369,9.52e-01,8.40e-01,
370,9.52e-01,8.40e-01,
371,9.76e-01,8.48e-01,
372,9.52e-01,8.48e-01,
373,9.72e-01,8.48e-01,
374,9.52e-01,8.48e-01,
375,9.72e-01,8.32e-01,
376,9.56e-01,8.32e-01,
377,9.76e-01,8.40e-01,
378,9.52e-01,8.32e-01,
379,9.72e-01,8.40e-01,
380,9.52e-01,8.40e-01,
381,9.68e-01,8.32e-01,
382,9.56e-01,8.40e-01,
383,9.72e-01,8.32e-01,
384,9.72e-01,8.40e-01,
385,9.52e-01,8.24e-01,
386,9.52e-01,8.40e-01,
387,9.68e-01,8.24e-01,
388,9.56e-01,8.24e-01,
389,9.72e-01,8.32e-01,
390,9.52e-01,8.24e-01,
391,9.72e-01,8.32e-01,
392,9.68e-01,8.32e-01,
393,9.52e-01,8.24e-01,
394,9.52e-01,8.32e-01,
395,9.76e-01,8.24e-01,
396,9.56e-01,8.32e-01,
397,9.76e-01,8.24e-01,
398,9.68e-01,8.32e-01,
399,9.56e-01,8.24e-01,
400,9.72e-01,8.24e-01,
401,9.52e-01,8.32e-01,
402,9.76e-01,8.24e-01,
403,9.56e-01,8.32e-01,
404,9.76e-01,8.24e-01,
405,9.52e-01,8.32e-01,
406,9.52e-01,8.24e-01,
407,9.68e-01,8.32e-01,
408,9.52e-01,8.16e-01,
409,9.76e-01,8.32e-01,
410,9.72e-01,8.24e-01,
411,9.56e-01,8.32e-01,
412,9.52e-01,8.24e-01,
413,9.72e-01,8.32e-01,
414,9.68e-01,8.32e-01,
415,9.52e-01,8.24e-01,
416,9.52e-01,8.32e-01,
417,9.76e-01,8.24e-01,
418,9.72e-01,8.24e-01,
419,9.56e-01,8.32e-01,
420,9.76e-01,8.32e-01,
421,9.52e-01,8.24e-01,
422,9.64e-01,8.24e-01,
423,9.52e-01,8.32e-01,
424,9.52e-01,8.24e-01,
425,9.76e-01,8.32e-01,
426,9.76e-01,8.24e-01,
427,9.52e-01,8.32e-01,
428,9.76e-01,8.32e-01,
429,9.56e-01,8.40e-01,
430,9.72e-01,8.40e-01,
431,9.52e-01,8.32e-01,
432,9.72e-01,8.32e-01,
433,9.52e-01,8.40e-01,
434,9.72e-01,8.32e-01,
435,9.56e-01,8.40e-01,
436,9.76e-01,8.32e-01,
437,9.52e-01,8.40e-01,
438,9.60e-01,8.32e-01,
439,9.72e-01,8.48e-01,
440,9.76e-01,8.48e-01,
441,9.56e-01,8.40e-01,
442,9.56e-01,8.48e-01,
443,9.72e-01,8.48e-01,
444,9.72e-01,8.48e-01,
445,9.52e-01,8.40e-01,
446,9.72e-01,8.48e-01,
447,9.56e-01,8.56e-01,
448,9.52e-01,8.56e-01,
449,9.76e-01,8.56e-01,
450,9.72e-01,8.56e-01,
451,9.56e-01,8.56e-01,
452,9.56e-01,8.56e-01,
453,9.76e-01,8.48e-01,
454,9.56e-01,8.56e-01,
455,9.76e-01,8.64e-01,
456,9.76e-01,8.72e-01,
457,9.52e-01,8.64e-01,
458,9.56e-01,8.64e-01,
459,9.72e-01,8.64e-01,
460,9.64e-01,8.64e-01,
461,9.56e-01,8.72e-01,
462,9.56e-01,8.72e-01,
463,9.72e-01,8.80e-01,
464,9.76e-01,8.72e-01,
465,9.56e-01,8.80e-01,
466,9.52e-01,8.72e-01,
467,9.76e-01,8.88e-01,
468,9.56e-01,8.80e-01,
469,9.76e-01,8.88e-01,
470,9.60e-01,8.88e-01,
471,9.76e-01,8.80e-01,
472,9.76e-01,8.80e-01,
473,9.56e-01,8.88e-01,
474,9.52e-01,8.80e-01,
475,9.72e-01,8.96e-01,
476,9.56e-01,8.88e-01,
477,9.76e-01,8.96e-01,
478,9.56e-01,8.88e-01,
479,9.76e-01,8.96e-01,
480,9.68e-01,8.88e-01,
481,9.56e-01,9.04e-01,
482,9.56e-01,8.96e-01,
483,9.68e-01,9.04e-01,
484,9.56e-01,9.04e-01,
485,9.76e-01,8.96e-01,
486,9.72e-01,9.04e-01,
487,9.56e-01,8.96e-01,
488,9.72e-01,9.12e-01,
489,9.56e-01,9.04e-01,
490,9.76e-01,9.04e-01,
491,9.56e-01,9.12e-01,
492,9.76e-01,9.12e-01,
493,9.56e-01,9.12e-01,
494,9.76e-01,9.12e-01,
495,9.56e-01,9.28e-01,
496,9.76e-01,9.20e-01,
497,9.56e-01,9.28e-01,
498,9.72e-01,9.20e-01,
499,9.56e-01,9.20e-01,
500,9.56e-01,9.20e-01,
501,9.76e-01,9.20e-01,
502,9.64e-01,9.20e-01,
503,9.72e-01,9.36e-01,
504,9.76e-01,9.36e-01,
505,9.60e-01,9.28e-01,
506,9.76e-01,9.36e-01,
507,9.56e-01,9.28e-01,
508,9.76e-01,9.28e-01,
509,9.60e-01,9.36e-01,
510,9.80e-01,9.44e-01,
511,9.56e-01,9.36e-01,
512,9.76e-01,9.44e-01,
513,9.56e-01,9.36e-01,
514,9.76e-01,9.36e-01,
515,9.56e-01,9.44e-01,
516,9.76e-01,9.44e-01,
517,9.60e-01,9.36e-01,
518,9.60e-01,9.36e-01,
519,9.76e-01,9.52e-01,
520,9.60e-01,9.44e-01,
521,9.76e-01,9.52e-01,
522,9.60e-01,9.52e-01,
523,9.76e-01,9.44e-01,
524,9.76e-01,9.44e-01,
525,9.64e-01,9.52e-01,
526,9.76e-01,9.44e-01,
527,9.60e-01,9.52e-01,
528,9.72e-01,9.44e-01,
529,9.60e-01,9.60e-01,
530,9.64e-01,9.60e-01,
531,9.76e-01,9.52e-01,
532,9.64e-01,9.60e-01,
533,9.80e-01,9.60e-01,
534,9.72e-01,9.60e-01,
535,9.60e-01,9.52e-01,
536,9.76e-01,9.52e-01,
537,9.56e-01,9.60e-01,
538,9.56e-01,9.60e-01,
539,9.80e-01,9.52e-01,
540,9.60e-01,9.68e-01,
541,9.76e-01,9.68e-01,
542,9.76e-01,9.68e-01,
543,9.56e-01,9.68e-01,
544,9.52e-01,9.68e-01,
545,9.76e-01,9.68e-01,
546,9.72e-01,9.68e-01,
547,9.56e-01,9.68e-01,
548,9.56e-01,9.68e-01,
549,9.72e-01,9.68e-01,
550,9.72e-01,9.68e-01,
551,9.60e-01,9.76e-01,
552,9.68e-01,9.76e-01,
553,9.56e-01,9.84e-01,
554,9.56e-01,9.84e-01,
555,9.72e-01,9.76e-01,
556,9.76e-01,9.84e-01,
557,9.56e-01,9.76e-01,
558,9.56e-01,9.76e-01,
559,9.76e-01,9.84e-01,
560,9.56e-01,9.76e-01,
561,9.80e-01,9.76e-01,
562,9.56e-01,9.76e-01,
563,9.76e-01,9.76e-01,
564,9.60e-01,9.76e-01,
565,9.76e-01,9.76e-01,
566,9.76e-01,9.76e-01,
567,9.56e-01,9.92e-01,
568,9.76e-01,9.76e-01,
569,9.56e-01,9.92e-01,
570,9.72e-01,9.92e-01,
571,9.56e-01,9.84e-01,
572,9.76e-01,9.92e-01,
573,9.56e-01,9.84e-01,
574,9.72e-01,9.84e-01,
575,9.60e-01,9.92e-01,
576,9.68e-01,9.84e-01,
577,9.56e-01,9.92e-01,
578,9.60e-01,9.84e-01,
579,9.76e-01,9.92e-01,
580,9.76e-01,9.84e-01,
581,9.60e-01,9.92e-01,
582,9.56e-01,9.92e-01,
583,9.76e-01,9.84e-01,
584,9.76e-01,9.84e-01,
585,9.60e-01,1.00e+00,
586,9.56e-01,1.00e+00,
587,9.76e-01,9.84e-01,
588,9.80e-01,9.92e-01,
589,9.52e-01,1.00e+00,
590,9.76e-01,1.00e+00,
591,9.60e-01,9.92e-01,
592,9.56e-01,9.92e-01,
593,9.72e-01,9.92e-01,
594,9.76e-01,9.92e-01,
595,9.56e-01,1.00e+00,
596,9.76e-01,9.92e-01,
597,9.60e-01,1.00e+00,
598,9.56e-01,9.92e-01,
599,9.76e-01,1.00e+00,
600,9.76e-01,9.92e-01,
601,9.60e-01,1.00e+00,
602,9.76e-01,9.92e-01,
603,9.60e-01,1.00e+00,
604,9.72e-01,1.00e+00,
605,9.56e-01,9.92e-01,
606,9.72e-01,1.00e+00,
607,9.56e-01,9.92e-01,
608,9.60e-01,1.00e+00,
609,9.76e-01,9.92e-01,
610,9.80e-01,9.92e-01,
611,9.56e-01,1.01e+00,
612,9.60e-01,9.92e-01,
613,9.80e-01,1.01e+00,
614,9.60e-01,1.01e+00,
615,9.84e-01,1.00e+00,
616,9.56e-01,1.01e+00,
617,9.80e-01,1.00e+00,
618,9.76e-01,1.00e+00,
619,9.56e-01,1.01e+00,
620,9.60e-01,1.00e+00,
621,9.76e-01,1.01e+00,
622,9.76e-01,1.00e+00,
623,9.56e-01,1.01e+00,
624,9.76e-01,1.01e+00,
625,9.60e-01,1.00e+00,
626,9.60e-01,1.01e+00,
627,9.76e-01,1.00e+00,
628,9.56e-01,1.00e+00,
629,9.80e-01,1.01e+00,
630,9.76e-01,1.01e+00,
631,9.60e-01,1.00e+00,
632,9.56e-01,1.01e+00,
633,9.76e-01,1.00e+00,
634,9.84e-01,1.01e+00,
635,9.60e-01,1.00e+00,
636,9.76e-01,1.00e+00,
637,9.60e-01,1.01e+00,
638,9.60e-01,1.00e+00,
639,9.80e-01,1.01e+00,
640,9.56e-01,1.01e+00,
641,9.80e-01,1.00e+00,
642,9.72e-01,1.01e+00,
643,9.64e-01,1.00e+00,
644,9.56e-01,1.01e+00,
645,9.80e-01,1.00e+00,
646,9.80e-01,1.00e+00,
647,9.56e-01,1.01e+00,
648,9.80e-01,1.00e+00,
649,9.64e-01,1.02e+00,
650,9.60e-01,1.02e+00,
651,9.80e-01,1.01e+00,
652,9.72e-01,1.02e+00,
653,9.60e-01,1.00e+00,
654,9.76e-01,1.02e+00,
655,9.56e-01,1.01e+00,
656,9.84e-01,1.02e+00,
657,9.56e-01,1.01e+00,
658,9.76e-01,1.01e+00,
659,9.64e-01,1.02e+00,
660,9.60e-01,1.02e+00,
661,9.84e-01,1.01e+00,
662,9.80e-01,1.02e+00,
663,9.56e-01,1.01e+00,
664,9.60e-01,1.01e+00,
665,9.76e-01,1.02e+00,
666,9.76e-01,1.02e+00,
667,9.56e-01,1.01e+00,
668,9.80e-01,1.02e+00,
669,9.60e-01,1.01e+00,
670,9.80e-01,1.02e+00,
671,9.56e-01,1.01e+00,
672,9.60e-01,1.02e+00,
673,9.68e-01,1.01e+00,
674,9.76e-01,1.02e+00,
675,9.60e-01,1.01e+00,
676,9.76e-01,1.02e+00,
677,9.60e-01,1.01e+00,
678,9.76e-01,1.02e+00,
679,9.56e-01,1.01e+00,
680,9.60e-01,1.02e+00,
681,9.80e-01,1.01e+00,
682,9.72e-01,1.02e+00,
683,9.60e-01,1.01e+00,
684,9.76e-01,1.02e+00,
685,9.60e-01,1.01e+00,
686,9.64e-01,1.02e+00,
687,9.76e-01,1.01e+00,
688,9.56e-01,1.02e+00,
689,9.80e-01,1.01e+00,
690,9.76e-01,1.01e+00,
691,9.60e-01,1.02e+00,
692,9.80e-01,1.02e+00,
693,9.56e-01,1.01e+00,
694,9.60e-01,1.01e+00,
695,9.80e-01,1.02e+00,
696,9.80e-01,1.01e+00,
697,9.56e-01,1.02e+00,
698,9.64e-01,1.01e+00,
699,9.76e-01,1.02e+00,
700,9.80e-01,1.02e+00,
701,9.56e-01,1.02e+00,
702,9.76e-01,1.01e+00,
703,9.60e-01,1.02e+00,
704,9.76e-01,1.02e+00,
705,9.60e-01,1.02e+00,
706,9.72e-01,1.02e+00,
707,9.60e-01,1.01e+00,
708,9.80e-01,1.01e+00,
709,9.68e-01,1.02e+00,
710,9.84e-01,1.01e+00,
711,9.60e-01,1.02e+00,
712,9.60e-01,1.02e+00,
713,9.76e-01,1.02e+00,
714,9.60e-01,1.02e+00,
715,9.76e-01,1.01e+00,
716,9.64e-01,1.02e+00,
717,9.84e-01,1.02e+00,
718,9.84e-01,1.02e+00,
719,9.56e-01,1.02e+00,
720,9.60e-01,1.02e+00,
721,9.76e-01,1.02e+00,
722,9.60e-01,1.02e+00,
723,9.84e-01,1.02e+00,
724,9.80e-01,1.02e+00,
725,9.60e-01,1.02e+00,
726,9.76e-01,1.02e+00,
727,9.56e-01,1.02e+00,
728,9.80e-01,1.02e+00,
729,9.60e-01,1.02e+00,
730,9.64e-01,1.02e+00,
731,9.88e-01,1.02e+00,
732,9.76e-01,1.02e+00,
733,9.56e-01,1.02e+00,
734,9.76e-01,1.02e+00,
735,9.56e-01,1.02e+00,
736,9.64e-01,1.02e+00,
737,9.84e-01,1.02e+00,
738,9.76e-01,1.02e+00,
739,9.56e-01,1.02e+00,
740,9.60e-01,1.02e+00,
741,9.88e-01,1.02e+00,
742,9.60e-01,1.02e+00,
743,9.80e-01,1.02e+00,
744,9.84e-01,1.02e+00,
745,9.60e-01,1.02e+00,
746,9.76e-01,1.02e+00,
747,9.60e-01,1.02e+00,
748,9.80e-01,1.02e+00,
749,9.60e-01,1.02e+00,
750,9.80e-01,1.02e+00,
751,9.60e-01,1.02e+00,
752,9.60e-01,1.02e+00,
753,9.80e-01,1.02e+00,
754,9.84e-01,1.02e+00,
755,9.60e-01,1.02e+00,
756,9.76e-01,1.02e+00,
757,9.60e-01,1.02e+00,
758,9.60e-01,1.02e+00,
759,9.80e-01,1.02e+00,
760,9.84e-01,1.02e+00,
761,9.60e-01,1.02e+00,
762,9.80e-01,1.02e+00,
763,9.60e-01,1.02e+00,
764,9.80e-01,1.02e+00,
765,9.60e-01,1.02e+00,
766,9.64e-01,1.02e+00,
767,9.80e-01,1.02e+00,
768,9.60e-01,1.02e+00,
769,9.80e-01,1.02e+00,
770,9.60e-01,1.02e+00,
771,9.80e-01,1.02e+00,
772,9.88e-01,1.02e+00,
773,9.64e-01,1.02e+00,
774,9.60e-01,1.02e+00,
775,9.80e-01,1.02e+00,
776,9.80e-01,1.02e+00,
777,9.64e-01,1.02e+00,
778,9.84e-01,1.02e+00,
779,9.60e-01,1.02e+00,
780,9.84e-01,1.02e+00,
781,9.60e-01,1.02e+00,
782,9.68e-01,1.02e+00,
783,9.84e-01,1.02e+00,
784,9.60e-01,1.02e+00,
785,9.80e-01,1.02e+00,
786,9.60e-01,1.02e+00,
787,9.84e-01,1.02e+00,
788,9.68e-01,1.02e+00,
789,9.84e-01,1.02e+00,
790,9.84e-01,1.02e+00,
791,9.64e-01,1.02e+00,
792,9.80e-01,1.02e+00,
793,9.60e-01,1.02e+00,
794,9.80e-01,1.02e+00,
795,9.64e-01,1.02e+00,
796,9.60e-01,1.02e+00,
797,9.80e-01,1.02e+00,
798,9.80e-01,1.02e+00,
799,9.60e-01,1.02e+00,
800,9.60e-01,1.02e+00,
801,9.84e-01,1.02e+00,
802,9.60e-01,1.02e+00,
803,9.80e-01,1.02e+00,
804,9.56e-01,1.02e+00,
805,9.80e-01,1.02e+00,
806,9.60e-01,1.02e+00,
807,9.80e-01,1.02e+00,
808,9.60e-01,1.02e+00,
809,9.84e-01,1.02e+00,
810,9.60e-01,1.02e+00,
811,9.80e-01,1.02e+00,
812,9.60e-01,1.02e+00,
813,9.84e-01,1.02e+00,
814,9.60e-01,1.02e+00,
815,9.88e-01,1.02e+00,
816,9.80e-01,1.02e+00,
817,9.60e-01,1.02e+00,
818,9.76e-01,1.02e+00,
819,9.60e-01,1.02e+00,
820,9.84e-01,1.02e+00,
821,9.60e-01,1.02e+00,
822,9.64e-01,1.02e+00,
823,9.80e-01,1.02e+00,
824,9.80e-01,1.02e+00,
825,9.60e-01,1.02e+00,
826,9.84e-01,1.02e+00,
827,9.60e-01,1.02e+00,
828,9.80e-01,1.02e+00,
829,9.60e-01,1.02e+00,
830,9.68e-01,1.02e+00,
831,9.84e-01,1.02e+00,
832,9.60e-01,1.02e+00,
833,9.88e-01,1.02e+00,
834,9.80e-01,1.02e+00,
835,9.64e-01,1.02e+00,
836,9.60e-01,1.02e+00,
837,9.84e-01,1.02e+00,
838,9.64e-01,1.02e+00,
839,9.84e-01,1.02e+00,
840,9.64e-01,1.02e+00,
841,9.80e-01,1.02e+00,
842,9.60e-01,1.02e+00,
843,9.84e-01,1.02e+00,
844,9.60e-01,1.02e+00,
845,9.80e-01,1.02e+00,
846,9.60e-01,1.02e+00,
847,9.88e-01,1.02e+00,
848,9.84e-01,1.02e+00,
849,9.60e-01,1.02e+00,
850,9.64e-01,1.02e+00,
851,9.80e-01,1.02e+00,
852,9.64e-01,1.02e+00,
853,9.84e-01,1.02e+00,
854,9.80e-01,1.02e+00,
855,9.64e-01,1.02e+00,
856,9.64e-01,1.02e+00,
857,9.80e-01,1.02e+00,
858,9.64e-01,1.02e+00,
859,9.88e-01,1.02e+00,
860,9.88e-01,1.02e+00,
861,9.60e-01,1.02e+00,
862,9.68e-01,1.02e+00,
863,9.80e-01,1.02e+00,
864,9.84e-01,1.02e+00,
865,9.60e-01,1.02e+00,
866,9.80e-01,1.02e+00,
867,9.60e-01,1.02e+00,
868,9.80e-01,1.02e+00,
869,9.64e-01,1.02e+00,
870,9.80e-01,1.02e+00,
