to_sort/2MHz_5s_110.csv

X,CH1,CH2,Start,Increment,
Sequence,Volt,Volt,-5.015000e+00,5.000000e-03
0,9.00e-01,5.00e-02,
1,9.40e-01,5.20e-02,
2,9.00e-01,5.20e-02,
3,9.20e-01,5.00e-02,
4,9.00e-01,5.20e-02,
5,9.40e-01,5.00e-02,
6,9.40e-01,5.00e-02,
7,9.00e-01,5.20e-02,
8,9.00e-01,5.00e-02,
9,9.40e-01,5.20e-02,
10,9.40e-01,5.00e-02,
11,9.20e-01,5.20e-02,
12,9.40e-01,5.00e-02,
13,9.00e-01,5.20e-02,
14,9.40e-01,5.00e-02,
15,9.20e-01,5.20e-02,
16,9.40e-01,5.20e-02,
17,9.00e-01,5.00e-02,
18,9.60e-01,5.20e-02,
19,9.20e-01,5.00e-02,
20,9.20e-01,5.00e-02,
21,9.60e-01,5.20e-02,
22,9.80e-01,5.00e-02,
23,9.20e-01,5.20e-02,
24,9.40e-01,5.20e-02,
25,9.60e-01,5.00e-02,
26,9.60e-01,5.00e-02,
27,9.40e-01,5.20e-02,
28,9.60e-01,5.00e-02,
29,9.20e-01,5.20e-02,
30,9.60e-01,5.00e-02,
31,9.40e-01,5.20e-02,
32,9.40e-01,5.00e-02,
33,9.60e-01,5.20e-02,
34,9.40e-01,5.00e-02,
35,9.60e-01,5.20e-02,
36,9.40e-01,5.20e-02,
37,9.80e-01,5.00e-02,
38,9.60e-01,5.00e-02,
39,9.40e-01,5.20e-02,
40,9.40e-01,5.00e-02,
41,9.60e-01,5.20e-02,
42,9.60e-01,5.00e-02,
43,9.60e-01,5.20e-02,
44,9.60e-01,5.00e-02,
45,1.00e+00,5.20e-02,
46,9.60e-01,5.20e-02,
47,9.80e-01,5.00e-02,
48,9.60e-01,5.00e-02,
49,9.60e-01,5.20e-02,
50,9.60e-01,5.00e-02,
51,9.80e-01,5.20e-02,
52,9.60e-01,5.20e-02,
53,9.80e-01,5.00e-02,
54,9.80e-01,5.00e-02,
55,9.60e-01,5.20e-02,
56,9.60e-01,5.00e-02,
57,9.80e-01,5.20e-02,
58,9.60e-01,5.00e-02,
59,1.00e+00,5.20e-02,
60,9.60e-01,5.20e-02,
61,1.02e+00,5.00e-02,
62,1.00e+00,5.00e-02,
63,9.60e-01,5.20e-02,
64,1.00e+00,5.00e-02,
65,-2.00e-02,5.40e-02,
66,-2.00e-02,5.60e-02,
67,2.00e-02,6.00e-02,
68,0.00e+00,6.00e-02,
69,-2.00e-02,6.00e-02,
70,2.00e-02,6.00e-02,
71,-2.00e-02,5.80e-02,
72,0.00e+00,6.00e-02,
73,-2.00e-02,5.80e-02,
74,2.00e-02,6.00e-02,
75,-2.00e-02,5.80e-02,
76,-2.00e-02,6.00e-02,
77,2.00e-02,6.00e-02,
78,2.00e-02,6.00e-02,
79,-2.00e-02,5.80e-02,
80,-2.00e-02,5.80e-02,
81,2.00e-02,6.00e-02,
82,2.00e-02,6.00e-02,
83,-2.00e-02,5.80e-02,
84,2.00e-02,6.00e-02,
85,0.00e+00,5.80e-02,
86,2.00e-02,6.00e-02,
87,0.00e+00,5.80e-02,
88,2.00e-02,5.80e-02,
89,-2.00e-02,6.00e-02,
90,4.00e-02,6.00e-02,
91,0.00e+00,5.80e-02,
92,0.00e+00,6.00e-02,
93,2.00e-02,5.80e-02,
94,2.00e-02,6.00e-02,
95,0.00e+00,5.80e-02,
96,0.00e+00,6.00e-02,
97,2.00e-02,6.00e-02,
98,2.00e-02,6.00e-02,
99,0.00e+00,5.80e-02,
100,0.00e+00,5.80e-02,
101,4.00e-02,6.00e-02,
102,4.00e-02,5.80e-02,
103,0.00e+00,6.00e-02,
104,4.00e-02,6.00e-02,
105,0.00e+00,5.80e-02,
106,2.00e-02,6.00e-02,
107,4.00e-02,6.00e-02,
108,4.00e-02,5.80e-02,
109,2.00e-02,6.00e-02,
110,4.00e-02,5.80e-02,
111,2.00e-02,6.00e-02,
112,4.00e-02,5.80e-02,
113,4.00e-02,6.00e-02,
114,4.00e-02,6.00e-02,
115,4.00e-02,5.80e-02,
116,2.00e-02,6.00e-02,
117,4.00e-02,5.80e-02,
118,6.00e-02,6.00e-02,
119,2.00e-02,5.80e-02,
120,6.00e-02,6.00e-02,
121,4.00e-02,6.00e-02,
122,4.00e-02,5.80e-02,
123,4.00e-02,6.00e-02,
124,8.00e-02,5.80e-02,
125,2.00e-02,6.00e-02,
126,4.00e-02,6.00e-02,
127,8.00e-02,5.80e-02,
128,4.00e-02,6.00e-02,
129,4.00e-02,5.80e-02,
130,6.00e-02,6.00e-02,
131,4.00e-02,5.80e-02,
132,2.00e-02,6.00e-02,
133,6.00e-02,5.80e-02,
134,4.00e-02,5.80e-02,
135,6.00e-02,6.00e-02,
136,6.00e-02,6.00e-02,
137,4.00e-02,6.00e-02,
138,6.00e-02,6.00e-02,
139,8.00e-02,5.80e-02,
140,8.00e-02,5.80e-02,
141,6.00e-02,6.00e-02,
142,6.00e-02,5.80e-02,
143,6.00e-02,6.00e-02,
144,6.00e-02,6.00e-02,
145,6.00e-02,5.80e-02,
146,8.00e-02,5.80e-02,
147,6.00e-02,6.00e-02,
148,6.00e-02,6.00e-02,
149,8.00e-02,5.80e-02,
150,6.00e-02,6.00e-02,
151,1.00e-01,6.00e-02,
152,6.00e-02,6.00e-02,
153,1.00e-01,5.80e-02,
154,6.00e-02,6.00e-02,
155,8.00e-02,5.80e-02,
156,6.00e-02,6.00e-02,
157,1.00e-01,5.80e-02,
158,6.00e-02,6.00e-02,
159,8.00e-02,5.80e-02,
160,8.00e-02,5.80e-02,
161,6.00e-02,6.00e-02,
162,1.20e-01,6.00e-02,
163,6.00e-02,5.80e-02,
164,8.00e-02,5.80e-02,
165,6.00e-02,6.00e-02,
166,1.00e-01,6.00e-02,
167,8.00e-02,6.00e-02,
168,8.00e-02,6.00e-02,
169,1.00e-01,5.80e-02,
170,8.00e-02,6.00e-02,
171,1.20e-01,6.00e-02,
172,8.00e-02,6.00e-02,
173,1.00e-01,5.80e-02,
174,1.00e-01,6.00e-02,
175,8.00e-02,5.80e-02,
176,8.00e-02,5.80e-02,
177,1.00e-01,6.00e-02,
178,1.00e-01,6.00e-02,
179,8.00e-02,5.60e-02,
180,1.20e-01,6.00e-02,
181,8.00e-02,5.60e-02,
182,8.00e-02,6.00e-02,
183,1.00e-01,5.60e-02,
184,8.00e-02,6.00e-02,
185,1.20e-01,5.60e-02,
186,1.00e-01,5.80e-02,
187,1.20e-01,6.00e-02,
188,1.00e-01,6.00e-02,
189,1.20e-01,5.60e-02,
190,1.20e-01,5.60e-02,
191,8.00e-02,6.00e-02,
192,1.00e-01,5.60e-02,
193,1.20e-01,6.00e-02,
194,1.00e-01,5.80e-02,
195,1.20e-01,6.00e-02,
196,1.20e-01,5.60e-02,
197,1.00e-01,6.00e-02,
198,1.00e-01,6.00e-02,
199,1.40e-01,6.00e-02,
200,1.00e-01,6.00e-02,
201,1.40e-01,5.80e-02,
202,1.00e-01,6.00e-02,
203,1.40e-01,5.80e-02,
204,1.00e-01,5.60e-02,
205,1.40e-01,6.00e-02,
206,1.40e-01,5.80e-02,
207,1.00e-01,6.00e-02,
208,1.40e-01,6.00e-02,
209,1.00e-01,5.60e-02,
210,1.40e-01,5.60e-02,
211,1.00e-01,6.00e-02,
212,1.20e-01,6.00e-02,
213,1.40e-01,5.60e-02,
214,1.00e-01,5.60e-02,
215,1.60e-01,6.00e-02,
216,1.40e-01,6.00e-02,
217,1.20e-01,5.60e-02,
218,1.20e-01,6.00e-02,
219,1.40e-01,5.60e-02,
220,1.20e-01,6.00e-02,
221,1.40e-01,5.60e-02,
222,1.20e-01,5.60e-02,
223,1.60e-01,6.00e-02,
224,1.60e-01,6.00e-02,
225,1.20e-01,5.60e-02,
226,1.60e-01,5.60e-02,
227,1.20e-01,6.00e-02,
228,1.20e-01,6.00e-02,
229,1.40e-01,5.60e-02,
230,1.40e-01,5.60e-02,
231,1.60e-01,6.00e-02,
232,1.60e-01,6.00e-02,
233,1.20e-01,5.60e-02,
234,1.40e-01,5.60e-02,
235,1.60e-01,6.00e-02,
236,1.60e-01,5.60e-02,
237,1.20e-01,5.80e-02,
238,1.20e-01,5.60e-02,
239,1.60e-01,6.00e-02,
240,1.40e-01,5.60e-02,
241,1.80e-01,6.00e-02,
242,1.80e-01,5.60e-02,
243,1.20e-01,5.60e-02,
244,1.60e-01,5.60e-02,
245,1.40e-01,5.80e-02,
246,1.60e-01,6.00e-02,
247,1.40e-01,5.60e-02,
248,1.80e-01,5.60e-02,
249,1.40e-01,5.80e-02,
250,1.40e-01,5.60e-02,
251,1.80e-01,6.00e-02,
252,1.80e-01,6.00e-02,
253,1.60e-01,5.60e-02,
254,1.60e-01,5.60e-02,
255,1.80e-01,6.00e-02,
256,1.80e-01,5.60e-02,
257,1.40e-01,6.00e-02,
258,1.40e-01,5.60e-02,
259,1.80e-01,5.80e-02,
260,1.80e-01,5.60e-02,
261,1.40e-01,5.80e-02,
262,1.80e-01,5.60e-02,
263,1.40e-01,5.80e-02,
264,1.80e-01,5.60e-02,
265,1.80e-01,5.80e-02,
266,1.40e-01,5.60e-02,
267,1.80e-01,5.80e-02,
268,1.80e-01,5.80e-02,
269,1.80e-01,5.60e-02,
270,1.60e-01,5.80e-02,
271,1.80e-01,5.60e-02,
272,1.60e-01,5.80e-02,
273,2.00e-01,5.60e-02,
274,1.80e-01,5.60e-02,
275,1.60e-01,5.80e-02,
276,1.80e-01,5.60e-02,
277,2.00e-01,5.80e-02,
278,2.00e-01,5.60e-02,
279,1.60e-01,5.80e-02,
280,1.60e-01,5.80e-02,
281,2.00e-01,5.60e-02,
282,2.00e-01,5.60e-02,
283,1.60e-01,5.80e-02,
284,1.60e-01,5.60e-02,
285,2.00e-01,5.60e-02,
286,2.00e-01,5.60e-02,
287,2.00e-01,5.80e-02,
288,2.00e-01,5.60e-02,
289,1.80e-01,5.80e-02,
290,2.00e-01,5.60e-02,
291,1.80e-01,5.80e-02,
292,1.80e-01,5.60e-02,
293,2.00e-01,5.80e-02,
294,2.00e-01,5.60e-02,
295,2.20e-01,5.80e-02,
296,1.80e-01,5.80e-02,
297,2.40e-01,5.60e-02,
298,2.00e-01,5.80e-02,
299,1.80e-01,5.60e-02,
300,2.00e-01,5.60e-02,
301,2.00e-01,5.80e-02,
302,2.00e-01,5.80e-02,
303,2.20e-01,5.60e-02,
304,2.20e-01,5.60e-02,
305,2.00e-01,5.60e-02,
306,2.20e-01,5.60e-02,
307,2.00e-01,5.80e-02,
308,2.00e-01,5.60e-02,
309,2.20e-01,5.80e-02,
310,2.00e-01,5.80e-02,
311,2.40e-01,5.60e-02,
312,2.20e-01,5.60e-02,
313,2.40e-01,5.80e-02,
314,2.20e-01,5.60e-02,
315,2.00e-01,5.80e-02,
316,2.20e-01,5.60e-02,
317,2.20e-01,5.60e-02,
318,2.40e-01,5.80e-02,
319,2.00e-01,5.60e-02,
320,2.40e-01,5.60e-02,
321,2.20e-01,5.80e-02,
322,2.20e-01,5.60e-02,
323,2.20e-01,5.80e-02,
324,2.20e-01,5.60e-02,
325,2.40e-01,5.80e-02,
326,2.60e-01,5.60e-02,
327,2.20e-01,5.80e-02,
328,2.60e-01,5.60e-02,
329,2.20e-01,5.80e-02,
330,2.20e-01,5.60e-02,
331,2.40e-01,5.80e-02,
332,2.20e-01,5.60e-02,
333,2.60e-01,5.80e-02,
334,2.60e-01,5.80e-02,
335,2.20e-01,5.60e-02,
336,2.40e-01,5.60e-02,
337,2.20e-01,5.80e-02,
338,2.60e-01,5.80e-02,
339,2.40e-01,5.60e-02,
340,2.40e-01,5.60e-02,
341,2.60e-01,5.80e-02,
342,2.40e-01,5.60e-02,
343,2.60e-01,5.80e-02,
344,2.60e-01,5.80e-02,
345,2.40e-01,5.60e-02,
346,2.40e-01,5.60e-02,
347,2.60e-01,5.80e-02,
348,2.40e-01,5.80e-02,
349,2.60e-01,5.60e-02,
350,2.40e-01,5.60e-02,
351,2.80e-01,5.60e-02,
352,2.40e-01,5.80e-02,
353,2.60e-01,5.60e-02,
354,2.40e-01,5.80e-02,
355,2.80e-01,5.60e-02,
356,2.80e-01,5.80e-02,
357,2.40e-01,5.60e-02,
358,2.80e-01,5.80e-02,
359,2.40e-01,5.60e-02,
360,2.80e-01,5.60e-02,
361,2.40e-01,5.80e-02,
362,2.80e-01,5.80e-02,
363,2.40e-01,5.60e-02,
364,2.40e-01,5.60e-02,
365,2.80e-01,5.80e-02,
366,2.60e-01,5.60e-02,
367,2.80e-01,5.80e-02,
368,2.60e-01,5.60e-02,
369,2.80e-01,5.80e-02,
370,2.40e-01,5.80e-02,
371,3.00e-01,5.60e-02,
372,2.80e-01,5.80e-02,
373,2.60e-01,5.60e-02,
374,2.60e-01,5.60e-02,
375,2.80e-01,5.80e-02,
376,2.80e-01,5.60e-02,
377,2.60e-01,5.80e-02,
378,3.00e-01,5.60e-02,
379,2.60e-01,5.80e-02,
380,2.60e-01,5.60e-02,
381,3.00e-01,5.80e-02,
382,3.00e-01,5.80e-02,
383,2.60e-01,5.60e-02,
384,3.00e-01,5.60e-02,
385,2.60e-01,5.80e-02,
386,2.60e-01,5.60e-02,
387,3.00e-01,5.60e-02,
388,2.80e-01,5.60e-02,
389,3.00e-01,5.80e-02,
390,2.60e-01,5.60e-02,
391,3.00e-01,5.80e-02,
392,2.60e-01,5.80e-02,
393,3.00e-01,5.60e-02,
394,2.80e-01,5.60e-02,
395,3.00e-01,5.80e-02,
396,2.80e-01,5.60e-02,
397,3.00e-01,5.80e-02,
398,3.20e-01,5.60e-02,
399,2.80e-01,5.80e-02,
400,3.20e-01,5.80e-02,
401,2.80e-01,5.60e-02,
402,2.80e-01,5.60e-02,
403,3.20e-01,5.60e-02,
404,2.80e-01,5.60e-02,
405,3.20e-01,5.80e-02,
406,2.80e-01,5.60e-02,
407,3.20e-01,5.60e-02,
408,2.80e-01,5.60e-02,
409,3.20e-01,5.80e-02,
410,3.20e-01,5.80e-02,
411,2.80e-01,5.60e-02,
412,3.20e-01,5.60e-02,
413,3.00e-01,5.80e-02,
414,3.00e-01,5.60e-02,
415,3.20e-01,5.80e-02,
416,3.20e-01,5.60e-02,
417,2.80e-01,5.80e-02,
418,3.20e-01,5.60e-02,
419,3.00e-01,5.60e-02,
420,3.20e-01,5.60e-02,
421,3.00e-01,5.80e-02,
422,3.40e-01,5.80e-02,
423,3.20e-01,5.60e-02,
424,2.80e-01,5.80e-02,
425,3.40e-01,5.60e-02,
426,3.00e-01,5.60e-02,
427,3.40e-01,5.80e-02,
428,3.20e-01,5.60e-02,
429,3.00e-01,5.80e-02,
430,3.40e-01,5.60e-02,
431,3.00e-01,5.80e-02,
432,3.00e-01,5.80e-02,
433,3.40e-01,5.60e-02,
434,3.40e-01,5.60e-02,
435,3.20e-01,5.80e-02,
436,3.20e-01,5.80e-02,
437,3.40e-01,5.60e-02,
438,3.40e-01,5.60e-02,
439,3.00e-01,5.80e-02,
440,3.20e-01,5.80e-02,
441,3.40e-01,5.60e-02,
442,3.40e-01,5.80e-02,
443,3.20e-01,5.60e-02,
444,3.40e-01,5.60e-02,
445,3.20e-01,5.80e-02,
446,3.40e-01,5.80e-02,
447,3.60e-01,5.60e-02,
448,3.60e-01,5.60e-02,
449,3.20e-01,5.80e-02,
450,3.60e-01,5.60e-02,
451,3.20e-01,5.80e-02,
452,3.40e-01,5.60e-02,
453,3.40e-01,5.80e-02,
454,3.60e-01,5.60e-02,
455,3.40e-01,5.80e-02,
456,3.40e-01,5.60e-02,
457,3.60e-01,5.80e-02,
458,3.60e-01,5.80e-02,
459,3.40e-01,5.60e-02,
460,3.60e-01,5.80e-02,
461,3.20e-01,5.60e-02,
462,3.40e-01,5.60e-02,
463,3.60e-01,5.80e-02,
464,3.40e-01,5.80e-02,
465,3.80e-01,5.60e-02,
466,3.60e-01,5.60e-02,
467,3.60e-01,5.80e-02,
468,3.60e-01,5.60e-02,
469,3.40e-01,5.80e-02,
470,3.60e-01,5.60e-02,
471,3.60e-01,5.80e-02,
472,3.60e-01,5.60e-02,
473,3.80e-01,5.80e-02,
474,3.80e-01,5.80e-02,
475,3.20e-01,5.60e-02,
476,3.60e-01,5.60e-02,
477,3.60e-01,5.80e-02,
478,3.60e-01,5.60e-02,
479,4.00e-01,5.80e-02,
480,3.60e-01,5.80e-02,
481,4.00e-01,5.60e-02,
482,3.60e-01,5.60e-02,
483,4.00e-01,5.80e-02,
484,3.60e-01,5.60e-02,
485,3.80e-01,5.80e-02,
486,3.60e-01,5.80e-02,
487,4.00e-01,5.60e-02,
488,3.60e-01,5.60e-02,
489,3.80e-01,5.60e-02,
490,3.80e-01,5.60e-02,
491,3.60e-01,5.80e-02,
492,3.80e-01,5.60e-02,
493,3.60e-01,5.60e-02,
494,3.80e-01,5.80e-02,
495,4.00e-01,5.60e-02,
496,3.60e-01,5.60e-02,
497,4.00e-01,5.80e-02,
498,3.80e-01,5.60e-02,
499,4.00e-01,5.80e-02,
500,3.80e-01,5.80e-02,
501,4.20e-01,5.60e-02,
502,3.80e-01,5.80e-02,
503,4.20e-01,5.60e-02,
504,4.00e-01,5.60e-02,
505,3.80e-01,5.60e-02,
506,3.80e-01,5.60e-02,
507,4.20e-01,5.80e-02,
508,4.20e-01,5.60e-02,
509,3.80e-01,5.60e-02,
510,3.80e-01,5.60e-02,
511,4.20e-01,5.80e-02,
512,4.00e-01,5.80e-02,
513,4.20e-01,5.60e-02,
514,4.00e-01,5.60e-02,
515,4.20e-01,5.60e-02,
516,4.20e-01,5.60e-02,
517,3.80e-01,5.80e-02,
518,4.00e-01,5.80e-02,
519,4.20e-01,5.60e-02,
520,4.00e-01,5.60e-02,
521,4.20e-01,5.80e-02,
522,4.00e-01,5.60e-02,
523,4.40e-01,5.80e-02,
524,4.00e-01,5.60e-02,
525,4.20e-01,5.80e-02,
526,4.00e-01,5.60e-02,
527,4.40e-01,5.80e-02,
528,4.00e-01,5.60e-02,
529,4.40e-01,5.80e-02,
530,4.00e-01,5.60e-02,
531,4.40e-01,5.80e-02,
532,4.40e-01,5.80e-02,
533,4.00e-01,5.60e-02,
534,4.40e-01,5.80e-02,
535,4.00e-01,5.60e-02,
536,4.20e-01,5.80e-02,
537,4.40e-01,5.20e-02,
538,4.40e-01,5.60e-02,
539,4.00e-01,5.80e-02,
540,4.00e-01,5.60e-02,
541,4.40e-01,5.40e-02,
542,4.40e-01,5.80e-02,
543,4.00e-01,5.20e-02,
544,4.40e-01,5.60e-02,
545,4.20e-01,5.80e-02,
546,4.00e-01,5.40e-02,
547,4.40e-01,5.80e-02,
548,4.20e-01,5.80e-02,
549,4.60e-01,5.40e-02,
550,4.40e-01,5.20e-02,
551,4.20e-01,5.80e-02,
552,4.40e-01,5.80e-02,
553,4.20e-01,5.40e-02,
554,4.20e-01,5.40e-02,
555,4.60e-01,5.80e-02,
556,4.20e-01,5.80e-02,
557,4.60e-01,5.40e-02,
558,4.20e-01,5.60e-02,
559,4.60e-01,5.80e-02,
560,4.60e-01,5.80e-02,
561,4.20e-01,5.40e-02,
562,4.60e-01,5.80e-02,
563,4.20e-01,5.40e-02,
564,4.60e-01,5.40e-02,
565,4.20e-01,5.80e-02,
566,4.40e-01,5.80e-02,
567,4.60e-01,5.40e-02,
568,4.60e-01,5.40e-02,
569,4.40e-01,5.80e-02,
570,4.60e-01,5.40e-02,
571,4.40e-01,5.80e-02,
572,4.60e-01,5.40e-02,
573,4.20e-01,5.80e-02,
574,4.60e-01,5.40e-02,
575,4.40e-01,5.80e-02,
576,4.60e-01,5.80e-02,
577,4.40e-01,5.20e-02,
578,4.60e-01,5.40e-02,
579,4.40e-01,5.80e-02,
580,4.60e-01,5.40e-02,
581,4.80e-01,5.60e-02,
582,4.80e-01,5.80e-02,
583,4.40e-01,5.20e-02,
584,4.60e-01,5.20e-02,
585,4.80e-01,5.60e-02,
586,4.80e-01,5.20e-02,
587,4.40e-01,5.80e-02,
588,4.60e-01,5.40e-02,
589,4.80e-01,5.80e-02,
590,4.40e-01,5.20e-02,
591,4.80e-01,5.60e-02,
592,4.60e-01,5.60e-02,
593,5.00e-01,5.20e-02,
594,4.80e-01,5.40e-02,
595,4.40e-01,5.20e-02,
596,4.80e-01,5.40e-02,
597,4.80e-01,5.40e-02,
598,5.00e-01,5.20e-02,
599,4.60e-01,5.60e-02,
600,4.80e-01,5.40e-02,
601,5.00e-01,5.20e-02,
602,4.60e-01,5.40e-02,
603,5.00e-01,5.20e-02,
604,4.80e-01,5.40e-02,
605,4.60e-01,5.40e-02,
606,5.00e-01,5.20e-02,
607,4.60e-01,5.40e-02,
608,4.80e-01,5.60e-02,
609,5.00e-01,5.20e-02,
610,4.80e-01,5.20e-02,
611,5.00e-01,5.60e-02,
612,4.80e-01,5.40e-02,
613,5.00e-01,5.20e-02,
614,4.60e-01,5.40e-02,
615,5.00e-01,5.20e-02,
616,4.80e-01,5.40e-02,
617,5.00e-01,5.20e-02,
618,5.00e-01,5.40e-02,
619,4.80e-01,5.20e-02,
620,5.20e-01,5.40e-02,
621,4.80e-01,5.40e-02,
622,5.20e-01,5.40e-02,
623,4.80e-01,5.20e-02,
624,5.20e-01,5.40e-02,
625,4.80e-01,5.40e-02,
626,5.00e-01,5.40e-02,
627,5.20e-01,5.20e-02,
628,4.80e-01,5.60e-02,
629,5.20e-01,5.20e-02,
630,5.00e-01,5.40e-02,
631,5.20e-01,5.20e-02,
632,5.20e-01,5.40e-02,
633,5.00e-01,5.20e-02,
634,5.00e-01,5.40e-02,
635,5.20e-01,5.40e-02,
636,5.20e-01,5.40e-02,
637,5.00e-01,5.40e-02,
638,5.20e-01,5.40e-02,
639,5.40e-01,5.20e-02,
640,5.20e-01,5.40e-02,
641,5.40e-01,5.40e-02,
642,5.20e-01,5.20e-02,
643,5.20e-01,5.40e-02,
644,5.40e-01,5.40e-02,
645,5.00e-01,5.20e-02,
646,5.40e-01,5.20e-02,
647,5.00e-01,5.40e-02,
648,5.40e-01,5.40e-02,
649,5.20e-01,5.20e-02,
650,5.20e-01,5.40e-02,
651,5.60e-01,5.20e-02,
652,5.40e-01,5.40e-02,
653,5.00e-01,5.20e-02,
654,5.20e-01,5.40e-02,
655,5.40e-01,5.40e-02,
656,5.20e-01,5.20e-02,
657,5.40e-01,5.40e-02,
658,5.20e-01,5.40e-02,
659,5.60e-01,5.40e-02,
660,5.20e-01,5.40e-02,
661,5.60e-01,5.20e-02,
662,5.20e-01,5.40e-02,
663,5.60e-01,5.40e-02,
664,5.20e-01,5.40e-02,
665,5.60e-01,5.40e-02,
666,5.40e-01,5.40e-02,
667,5.20e-01,5.20e-02,
668,5.20e-01,5.40e-02,
669,5.60e-01,5.20e-02,
670,5.20e-01,5.40e-02,
671,5.60e-01,5.40e-02,
672,5.60e-01,5.40e-02,
673,5.20e-01,5.40e-02,
674,5.40e-01,5.40e-02,
675,5.60e-01,5.20e-02,
676,5.40e-01,5.40e-02,
677,5.60e-01,5.20e-02,
678,5.40e-01,5.40e-02,
679,5.60e-01,5.20e-02,
680,5.80e-01,5.20e-02,
681,5.40e-01,5.40e-02,
682,5.40e-01,5.40e-02,
683,5.80e-01,5.40e-02,
684,5.80e-01,5.40e-02,
685,5.40e-01,5.20e-02,
686,5.40e-01,5.40e-02,
687,5.80e-01,5.20e-02,
688,5.60e-01,5.40e-02,
689,6.00e-01,5.20e-02,
690,5.60e-01,5.40e-02,
691,5.80e-01,5.40e-02,
692,5.40e-01,5.40e-02,
693,5.80e-01,5.20e-02,
694,5.60e-01,5.20e-02,
695,5.40e-01,5.40e-02,
696,5.80e-01,5.40e-02,
697,5.40e-01,5.20e-02,
698,5.60e-01,5.40e-02,
699,6.00e-01,5.20e-02,
700,5.80e-01,5.40e-02,
701,5.60e-01,5.20e-02,
702,5.60e-01,5.40e-02,
703,6.00e-01,5.20e-02,
704,5.60e-01,5.40e-02,
705,6.00e-01,5.40e-02,
706,5.60e-01,5.20e-02,
707,6.00e-01,5.40e-02,
708,5.60e-01,5.40e-02,
709,5.80e-01,5.20e-02,
710,6.00e-01,5.40e-02,
711,5.60e-01,5.20e-02,
712,5.60e-01,5.40e-02,
713,6.00e-01,5.20e-02,
714,6.00e-01,5.20e-02,
715,5.60e-01,5.40e-02,
716,5.80e-01,5.20e-02,
717,6.00e-01,5.40e-02,
718,6.00e-01,5.40e-02,
719,5.80e-01,5.20e-02,
720,6.00e-01,5.40e-02,
721,5.60e-01,5.20e-02,
722,5.80e-01,5.40e-02,
723,6.00e-01,5.40e-02,
724,6.20e-01,5.40e-02,
725,5.80e-01,5.20e-02,
726,6.20e-01,5.40e-02,
727,5.60e-01,5.40e-02,
728,6.00e-01,5.40e-02,
729,5.80e-01,5.40e-02,
730,6.20e-01,5.20e-02,
731,5.80e-01,5.40e-02,
732,6.20e-01,5.40e-02,
733,5.80e-01,5.40e-02,
734,6.20e-01,5.40e-02,
735,5.80e-01,5.20e-02,
736,6.20e-01,5.40e-02,
737,5.80e-01,5.20e-02,
738,5.80e-01,5.40e-02,
739,6.20e-01,5.40e-02,
740,6.20e-01,5.40e-02,
741,6.00e-01,5.20e-02,
742,6.00e-01,5.40e-02,
743,6.40e-01,5.40e-02,
744,6.00e-01,5.40e-02,
745,6.40e-01,5.20e-02,
746,6.20e-01,5.20e-02,
747,5.80e-01,5.40e-02,
748,6.20e-01,5.20e-02,
749,6.00e-01,5.40e-02,
750,6.40e-01,5.40e-02,
751,6.00e-01,5.20e-02,
752,6.20e-01,5.40e-02,
753,6.00e-01,5.40e-02,
754,6.00e-01,5.40e-02,
755,6.40e-01,5.20e-02,
756,6.00e-01,5.40e-02,
757,6.40e-01,5.20e-02,
758,6.00e-01,5.40e-02,
759,6.40e-01,5.20e-02,
760,6.40e-01,5.40e-02,
761,6.00e-01,5.20e-02,
762,6.40e-01,5.40e-02,
763,6.00e-01,5.20e-02,
764,6.40e-01,5.40e-02,
765,6.20e-01,5.40e-02,
766,6.60e-01,5.40e-02,
767,6.40e-01,5.40e-02,
768,6.40e-01,5.40e-02,
769,6.20e-01,5.40e-02,
770,6.20e-01,5.40e-02,
771,6.60e-01,5.20e-02,
772,6.40e-01,5.40e-02,
773,6.60e-01,5.40e-02,
774,6.40e-01,5.40e-02,
775,6.20e-01,5.40e-02,
776,6.80e-01,5.40e-02,
777,6.40e-01,5.40e-02,
778,6.20e-01,5.40e-02,
779,6.60e-01,5.20e-02,
780,6.20e-01,5.40e-02,
781,6.60e-01,5.40e-02,
782,6.40e-01,5.20e-02,
783,6.60e-01,5.40e-02,
784,6.40e-01,5.20e-02,
785,6.80e-01,5.40e-02,
786,6.60e-01,5.40e-02,
787,6.40e-01,5.20e-02,
788,6.60e-01,5.40e-02,
789,6.20e-01,5.00e-02,
790,6.80e-01,5.20e-02,
791,6.40e-01,3.80e-02,
792,6.40e-01,4.00e-02,
793,6.60e-01,3.00e-02,
794,6.60e-01,2.80e-02,
795,6.80e-01,1.80e-02,
796,6.40e-01,1.60e-02,
797,6.80e-01,1.20e-02,
798,6.60e-01,1.00e-02,
799,6.60e-01,4.00e-03,
800,6.60e-01,6.00e-03,
801,6.60e-01,2.00e-03,
802,6.80e-01,2.00e-03,
803,6.60e-01,1.60e-02,
804,6.60e-01,1.80e-02,
805,6.60e-01,3.40e-02,
806,7.00e-01,3.60e-02,
807,6.60e-01,4.60e-02,
808,6.60e-01,4.60e-02,
809,7.00e-01,4.80e-02,
810,7.00e-01,4.80e-02,
811,6.60e-01,5.20e-02,
812,6.60e-01,5.20e-02,
813,7.00e-01,5.00e-02,
814,6.60e-01,5.00e-02,
815,6.80e-01,5.40e-02,
816,6.80e-01,5.00e-02,
817,6.80e-01,5.40e-02,
818,7.00e-01,5.40e-02,
819,6.60e-01,5.20e-02,
820,7.00e-01,5.40e-02,
821,6.80e-01,5.20e-02,
822,6.80e-01,5.40e-02,
823,7.00e-01,5.20e-02,
824,6.80e-01,5.40e-02,
825,7.00e-01,5.40e-02,
826,6.60e-01,5.40e-02,
827,6.80e-01,5.20e-02,
828,6.80e-01,5.40e-02,
829,6.80e-01,5.20e-02,
830,7.20e-01,5.40e-02,
831,6.80e-01,5.40e-02,
832,7.20e-01,5.40e-02,
833,6.80e-01,5.20e-02,
834,7.20e-01,5.20e-02,
835,6.80e-01,5.40e-02,
836,6.80e-01,5.40e-02,
837,7.20e-01,5.40e-02,
838,6.80e-01,5.20e-02,
839,7.20e-01,5.40e-02,
840,7.20e-01,5.40e-02,
841,6.80e-01,5.40e-02,
842,6.80e-01,5.40e-02,
843,7.20e-01,5.20e-02,
844,7.00e-01,5.40e-02,
845,7.20e-01,5.40e-02,
846,7.00e-01,5.40e-02,
847,6.80e-01,5.20e-02,
848,7.00e-01,5.40e-02,
849,7.40e-01,5.40e-02,
850,7.00e-01,5.40e-02,
851,7.20e-01,5.20e-02,
852,7.00e-01,5.40e-02,
853,7.20e-01,5.20e-02,
854,7.00e-01,5.40e-02,
855,7.40e-01,5.40e-02,
856,7.40e-01,5.40e-02,
857,7.00e-01,5.40e-02,
858,7.20e-01,5.40e-02,
859,7.40e-01,5.20e-02,
860,7.40e-01,5.40e-02,
861,7.00e-01,5.20e-02,
862,7.00e-01,5.40e-02,
863,7.40e-01,5.20e-02,
864,7.40e-01,5.40e-02,
865,7.00e-01,5.40e-02,
866,7.40e-01,5.40e-02,
867,7.20e-01,5.40e-02,
868,7.40e-01,5.40e-02,
869,7.20e-01,5.40e-02,
