to_sort/2p5MHz_5s_299.csv

X,CH1,CH2,Start,Increment,
Sequence,Volt,Volt,-3.170000e+00,5.000000e-03
0,6.86e-01,3.20e-02,
1,6.94e-01,3.12e-02,
2,6.84e-01,3.24e-02,
3,6.98e-01,3.12e-02,
4,6.94e-01,3.20e-02,
5,6.82e-01,3.12e-02,
6,6.86e-01,3.16e-02,
7,6.98e-01,3.20e-02,
8,6.98e-01,3.12e-02,
9,6.88e-01,3.24e-02,
10,6.98e-01,3.20e-02,
11,6.86e-01,3.12e-02,
12,6.88e-01,3.12e-02,
13,7.00e-01,3.20e-02,
14,6.88e-01,3.20e-02,
15,7.00e-01,3.12e-02,
16,6.88e-01,3.24e-02,
17,7.00e-01,3.16e-02,
18,6.88e-01,3.16e-02,
19,7.00e-01,3.24e-02,
20,7.00e-01,3.12e-02,
21,6.88e-01,3.24e-02,
22,7.02e-01,3.16e-02,
23,6.88e-01,3.24e-02,
24,6.88e-01,3.24e-02,
25,7.00e-01,3.12e-02,
26,6.90e-01,3.16e-02,
27,6.98e-01,3.24e-02,
28,7.02e-01,3.20e-02,
29,6.88e-01,3.16e-02,
30,6.90e-01,3.16e-02,
31,7.00e-01,3.24e-02,
32,6.90e-01,3.12e-02,
33,7.06e-01,3.24e-02,
34,7.04e-01,3.16e-02,
35,6.90e-01,3.24e-02,
36,6.94e-01,3.12e-02,
37,7.04e-01,3.24e-02,
38,6.90e-01,3.20e-02,
39,7.04e-01,3.12e-02,
40,6.94e-01,3.24e-02,
41,7.04e-01,3.16e-02,
42,7.04e-01,3.24e-02,
43,6.90e-01,3.16e-02,
44,6.94e-01,3.16e-02,
45,7.04e-01,3.24e-02,
46,6.90e-01,3.24e-02,
47,7.04e-01,3.12e-02,
48,6.94e-01,3.12e-02,
49,7.06e-01,3.20e-02,
50,7.06e-01,3.20e-02,
51,6.96e-01,3.16e-02,
52,7.06e-01,3.16e-02,
53,6.94e-01,3.24e-02,
54,6.96e-01,3.24e-02,
55,7.08e-01,3.16e-02,
56,6.96e-01,3.16e-02,
57,7.06e-01,3.24e-02,
58,6.94e-01,3.24e-02,
59,7.08e-01,3.16e-02,
60,7.12e-01,3.20e-02,
61,6.96e-01,3.16e-02,
62,6.96e-01,3.20e-02,
63,7.08e-01,3.12e-02,
64,6.94e-01,3.24e-02,
65,7.10e-01,3.16e-02,
66,7.10e-01,3.24e-02,
67,6.96e-01,3.12e-02,
68,7.00e-01,3.12e-02,
69,7.06e-01,3.20e-02,
70,7.00e-01,3.24e-02,
71,7.08e-01,3.12e-02,
72,6.96e-01,3.12e-02,
73,7.08e-01,3.24e-02,
74,6.98e-01,3.16e-02,
75,7.10e-01,3.24e-02,
76,7.10e-01,3.24e-02,
77,7.00e-01,3.12e-02,
78,7.10e-01,3.20e-02,
79,7.00e-01,3.12e-02,
80,7.12e-01,3.24e-02,
81,7.00e-01,3.12e-02,
82,6.98e-01,3.20e-02,
83,7.10e-01,3.12e-02,
84,7.14e-01,3.20e-02,
85,6.98e-01,3.12e-02,
86,7.00e-01,3.20e-02,
87,7.14e-01,3.12e-02,
88,7.02e-01,3.12e-02,
89,7.12e-01,3.20e-02,
90,7.12e-01,3.24e-02,
91,7.00e-01,3.12e-02,
92,7.14e-01,3.16e-02,
93,5.04e-01,3.24e-02,
94,5.12e-01,3.28e-02,
95,5.04e-01,3.32e-02,
96,5.12e-01,3.32e-02,
97,5.04e-01,3.28e-02,
98,5.02e-01,3.24e-02,
99,5.12e-01,3.40e-02,
100,5.02e-01,3.28e-02,
101,5.12e-01,3.36e-02,
102,5.16e-01,3.28e-02,
103,5.06e-01,3.36e-02,
104,5.06e-01,3.32e-02,
105,5.12e-01,3.32e-02,
106,5.06e-01,3.32e-02,
107,5.18e-01,3.28e-02,
108,5.08e-01,3.24e-02,
109,5.18e-01,3.36e-02,
110,5.08e-01,3.36e-02,
111,5.20e-01,3.28e-02,
112,5.06e-01,3.28e-02,
113,5.18e-01,3.36e-02,
114,5.06e-01,3.32e-02,
115,5.16e-01,3.24e-02,
116,5.16e-01,3.36e-02,
117,5.06e-01,3.28e-02,
118,5.08e-01,3.32e-02,
119,5.18e-01,3.36e-02,
120,5.22e-01,3.40e-02,
121,5.08e-01,3.28e-02,
122,5.18e-01,3.36e-02,
123,5.06e-01,3.28e-02,
124,5.10e-01,3.36e-02,
125,5.20e-01,3.24e-02,
126,5.08e-01,3.32e-02,
127,5.18e-01,3.28e-02,
128,5.08e-01,3.32e-02,
129,5.22e-01,3.28e-02,
130,5.12e-01,3.32e-02,
131,5.18e-01,3.28e-02,
132,5.18e-01,3.28e-02,
133,5.08e-01,3.36e-02,
134,5.12e-01,3.32e-02,
135,5.22e-01,3.32e-02,
136,5.24e-01,3.32e-02,
137,5.10e-01,3.36e-02,
138,5.22e-01,3.32e-02,
139,5.12e-01,3.28e-02,
140,5.12e-01,3.32e-02,
141,5.24e-01,3.28e-02,
142,5.10e-01,3.36e-02,
143,5.24e-01,3.24e-02,
144,5.12e-01,3.28e-02,
145,5.20e-01,3.36e-02,
146,5.24e-01,3.32e-02,
147,5.08e-01,3.36e-02,
148,5.12e-01,3.28e-02,
149,5.24e-01,3.36e-02,
150,5.14e-01,3.32e-02,
151,5.26e-01,3.24e-02,
152,5.26e-01,3.32e-02,
153,5.12e-01,3.36e-02,
154,5.24e-01,3.40e-02,
155,5.12e-01,3.28e-02,
156,5.14e-01,3.32e-02,
157,5.26e-01,3.28e-02,
158,5.14e-01,3.32e-02,
159,5.24e-01,3.24e-02,
160,5.26e-01,3.36e-02,
161,5.16e-01,3.28e-02,
162,5.14e-01,3.32e-02,
163,5.26e-01,3.24e-02,
164,5.24e-01,3.32e-02,
165,5.14e-01,3.28e-02,
166,5.16e-01,3.32e-02,
167,5.28e-01,3.36e-02,
168,5.28e-01,3.32e-02,
169,5.16e-01,3.24e-02,
170,5.14e-01,3.28e-02,
171,5.26e-01,3.32e-02,
172,5.26e-01,3.28e-02,
173,5.16e-01,3.32e-02,
174,5.26e-01,3.32e-02,
175,5.16e-01,3.32e-02,
176,5.16e-01,3.36e-02,
177,5.28e-01,3.28e-02,
178,5.26e-01,3.28e-02,
179,5.16e-01,3.32e-02,
180,5.24e-01,3.36e-02,
181,5.18e-01,3.28e-02,
182,5.30e-01,3.36e-02,
183,5.16e-01,3.32e-02,
184,5.18e-01,3.28e-02,
185,5.32e-01,3.32e-02,
186,5.18e-01,3.28e-02,
187,5.32e-01,3.32e-02,
188,5.26e-01,3.32e-02,
189,5.20e-01,3.24e-02,
190,5.18e-01,3.32e-02,
191,5.32e-01,3.28e-02,
192,5.32e-01,3.32e-02,
193,5.22e-01,3.28e-02,
194,5.32e-01,3.36e-02,
195,5.20e-01,3.28e-02,
196,5.24e-01,3.28e-02,
197,5.36e-01,3.36e-02,
198,5.32e-01,3.28e-02,
199,5.26e-01,3.32e-02,
200,5.36e-01,3.32e-02,
201,5.22e-01,3.28e-02,
202,5.22e-01,3.36e-02,
203,5.36e-01,3.24e-02,
204,5.24e-01,3.28e-02,
205,5.34e-01,3.32e-02,
206,5.26e-01,3.32e-02,
207,5.34e-01,3.28e-02,
208,5.22e-01,3.28e-02,
209,5.36e-01,3.32e-02,
210,5.22e-01,3.32e-02,
211,5.34e-01,3.24e-02,
212,5.36e-01,3.32e-02,
213,5.26e-01,3.24e-02,
214,5.24e-01,3.32e-02,
215,5.42e-01,3.28e-02,
216,5.26e-01,3.32e-02,
217,5.36e-01,3.24e-02,
218,5.34e-01,3.32e-02,
219,5.26e-01,3.28e-02,
220,5.26e-01,3.28e-02,
221,5.38e-01,3.32e-02,
222,5.38e-01,3.36e-02,
223,5.28e-01,3.24e-02,
224,5.38e-01,3.28e-02,
225,5.26e-01,3.36e-02,
226,5.26e-01,3.36e-02,
227,5.38e-01,3.32e-02,
228,5.38e-01,3.28e-02,
229,5.26e-01,3.32e-02,
230,5.26e-01,3.28e-02,
231,5.38e-01,3.36e-02,
232,5.30e-01,3.32e-02,
233,5.38e-01,3.32e-02,
234,5.40e-01,3.28e-02,
235,5.28e-01,3.32e-02,
236,5.38e-01,3.28e-02,
237,5.26e-01,3.36e-02,
238,5.32e-01,3.24e-02,
239,5.42e-01,3.32e-02,
240,5.40e-01,3.32e-02,
241,5.28e-01,3.24e-02,
242,5.40e-01,3.32e-02,
243,5.28e-01,3.32e-02,
244,5.30e-01,3.32e-02,
245,5.42e-01,3.24e-02,
246,5.30e-01,3.28e-02,
247,5.40e-01,3.36e-02,
248,5.32e-01,3.32e-02,
249,5.42e-01,3.28e-02,
250,5.32e-01,3.32e-02,
251,5.42e-01,3.28e-02,
252,5.32e-01,3.32e-02,
253,5.44e-01,3.28e-02,
254,5.32e-01,3.32e-02,
255,5.48e-01,3.24e-02,
256,5.32e-01,3.36e-02,
257,5.44e-01,3.28e-02,
258,5.44e-01,3.24e-02,
259,5.32e-01,3.40e-02,
260,5.42e-01,3.32e-02,
261,5.34e-01,3.24e-02,
262,5.48e-01,3.28e-02,
263,5.34e-01,3.40e-02,
264,5.48e-01,3.24e-02,
265,5.32e-01,3.32e-02,
266,5.46e-01,3.28e-02,
267,5.34e-01,3.36e-02,
268,5.50e-01,3.28e-02,
269,5.36e-01,3.40e-02,
270,5.46e-01,3.32e-02,
271,5.34e-01,3.24e-02,
272,5.46e-01,3.32e-02,
273,5.34e-01,3.28e-02,
274,5.38e-01,3.32e-02,
275,5.48e-01,3.24e-02,
276,5.44e-01,3.32e-02,
277,5.34e-01,3.28e-02,
278,5.36e-01,3.28e-02,
279,5.46e-01,3.32e-02,
280,5.38e-01,3.32e-02,
281,5.48e-01,3.24e-02,
282,5.38e-01,3.36e-02,
283,5.48e-01,3.28e-02,
284,5.48e-01,3.32e-02,
285,5.38e-01,3.28e-02,
286,5.38e-01,3.24e-02,
287,5.54e-01,3.36e-02,
288,5.48e-01,3.36e-02,
289,5.38e-01,3.24e-02,
290,5.38e-01,3.32e-02,
291,5.52e-01,3.24e-02,
292,5.50e-01,3.28e-02,
293,5.38e-01,3.32e-02,
294,5.40e-01,3.32e-02,
295,5.52e-01,3.28e-02,
296,5.52e-01,3.28e-02,
297,5.40e-01,3.36e-02,
298,5.52e-01,3.28e-02,
299,5.40e-01,3.32e-02,
300,5.50e-01,3.32e-02,
301,5.40e-01,3.28e-02,
302,5.40e-01,3.32e-02,
303,5.52e-01,3.24e-02,
304,5.40e-01,3.32e-02,
305,5.52e-01,3.20e-02,
306,5.54e-01,3.24e-02,
307,5.42e-01,3.32e-02,
308,5.40e-01,3.24e-02,
309,5.56e-01,3.32e-02,
310,5.42e-01,3.32e-02,
311,5.54e-01,3.24e-02,
312,5.42e-01,3.24e-02,
313,5.52e-01,3.32e-02,
314,5.54e-01,3.32e-02,
315,5.40e-01,3.24e-02,
316,5.44e-01,3.32e-02,
317,5.56e-01,3.24e-02,
318,5.44e-01,3.28e-02,
319,5.58e-01,3.32e-02,
320,5.44e-01,3.32e-02,
321,5.54e-01,3.24e-02,
322,5.46e-01,3.32e-02,
323,5.56e-01,3.28e-02,
324,5.56e-01,3.36e-02,
325,5.46e-01,3.24e-02,
326,5.58e-01,3.32e-02,
327,5.44e-01,3.24e-02,
328,5.46e-01,3.28e-02,
329,5.56e-01,3.40e-02,
330,5.56e-01,3.32e-02,
331,5.46e-01,3.24e-02,
332,5.46e-01,3.32e-02,
333,5.58e-01,3.24e-02,
334,5.46e-01,3.32e-02,
335,5.58e-01,3.20e-02,
336,5.58e-01,3.32e-02,
337,5.46e-01,3.24e-02,
338,5.58e-01,3.32e-02,
339,5.46e-01,3.28e-02,
340,5.58e-01,3.32e-02,
341,5.48e-01,3.28e-02,
342,5.60e-01,3.32e-02,
343,5.48e-01,3.20e-02,
344,5.48e-01,3.20e-02,
345,5.62e-01,3.32e-02,
346,5.62e-01,3.28e-02,
347,5.50e-01,3.32e-02,
348,5.50e-01,3.24e-02,
349,5.58e-01,3.32e-02,
350,5.62e-01,3.28e-02,
351,5.48e-01,3.32e-02,
352,5.58e-01,3.28e-02,
353,5.50e-01,3.32e-02,
354,5.48e-01,3.32e-02,
355,5.64e-01,3.20e-02,
356,5.52e-01,3.32e-02,
357,5.64e-01,3.24e-02,
358,5.48e-01,3.32e-02,
359,5.64e-01,3.24e-02,
360,5.52e-01,3.28e-02,
361,5.62e-01,3.32e-02,
362,5.52e-01,3.32e-02,
363,5.64e-01,3.24e-02,
364,5.62e-01,3.32e-02,
365,5.52e-01,3.28e-02,
366,5.60e-01,3.32e-02,
367,5.52e-01,3.20e-02,
368,5.54e-01,3.24e-02,
369,5.64e-01,3.32e-02,
370,5.52e-01,3.32e-02,
371,5.64e-01,3.28e-02,
372,5.54e-01,3.32e-02,
373,5.64e-01,3.20e-02,
374,5.66e-01,3.32e-02,
375,5.52e-01,3.28e-02,
376,5.54e-01,3.32e-02,
377,5.66e-01,3.24e-02,
378,5.54e-01,3.32e-02,
379,5.64e-01,3.20e-02,
380,5.54e-01,3.32e-02,
381,5.66e-01,3.28e-02,
382,5.68e-01,3.32e-02,
383,5.54e-01,3.28e-02,
384,5.56e-01,3.32e-02,
385,5.68e-01,3.24e-02,
386,5.68e-01,3.28e-02,
387,5.54e-01,3.32e-02,
388,5.66e-01,3.32e-02,
389,5.56e-01,3.24e-02,
390,5.66e-01,3.28e-02,
391,5.58e-01,3.32e-02,
392,5.58e-01,3.28e-02,
393,5.70e-01,3.32e-02,
394,5.70e-01,3.24e-02,
395,5.58e-01,3.32e-02,
396,5.58e-01,3.32e-02,
397,5.70e-01,3.20e-02,
398,5.70e-01,3.28e-02,
399,5.58e-01,3.24e-02,
400,5.58e-01,3.32e-02,
401,5.66e-01,3.24e-02,
402,5.58e-01,3.32e-02,
403,5.74e-01,3.28e-02,
404,5.60e-01,3.24e-02,
405,5.70e-01,3.32e-02,
406,5.60e-01,3.40e-02,
407,5.72e-01,3.20e-02,
408,5.62e-01,3.20e-02,
409,5.70e-01,3.28e-02,
410,5.76e-01,3.28e-02,
411,5.62e-01,3.20e-02,
412,5.70e-01,3.28e-02,
413,5.60e-01,3.32e-02,
414,5.72e-01,3.20e-02,
415,5.60e-01,3.28e-02,
416,5.60e-01,3.24e-02,
417,5.74e-01,3.32e-02,
418,5.64e-01,3.28e-02,
419,5.72e-01,3.24e-02,
420,5.64e-01,3.28e-02,
421,5.72e-01,3.20e-02,
422,5.60e-01,3.20e-02,
423,5.76e-01,3.28e-02,
424,5.76e-01,3.32e-02,
425,5.64e-01,3.24e-02,
426,5.76e-01,3.36e-02,
427,5.64e-01,3.24e-02,
428,5.64e-01,3.32e-02,
429,5.78e-01,3.20e-02,
430,5.64e-01,3.32e-02,
431,5.74e-01,3.24e-02,
432,5.76e-01,3.28e-02,
433,5.64e-01,3.16e-02,
434,5.74e-01,3.16e-02,
435,5.62e-01,3.20e-02,
436,5.74e-01,3.20e-02,
437,5.66e-01,3.16e-02,
438,5.76e-01,3.16e-02,
439,5.66e-01,3.08e-02,
440,5.74e-01,3.16e-02,
441,5.64e-01,3.08e-02,
442,5.66e-01,3.08e-02,
443,5.76e-01,3.20e-02,
444,5.78e-01,3.12e-02,
445,5.66e-01,3.20e-02,
446,5.78e-01,3.16e-02,
447,5.66e-01,3.20e-02,
448,5.78e-01,3.24e-02,
449,5.68e-01,3.16e-02,
450,5.70e-01,3.28e-02,
451,5.76e-01,3.24e-02,
452,5.70e-01,3.24e-02,
453,5.80e-01,3.28e-02,
454,5.68e-01,3.28e-02,
455,5.78e-01,3.20e-02,
456,5.82e-01,3.28e-02,
457,5.70e-01,3.20e-02,
458,5.82e-01,3.32e-02,
459,5.70e-01,3.24e-02,
460,5.70e-01,3.32e-02,
461,5.80e-01,3.20e-02,
462,5.82e-01,3.28e-02,
463,5.72e-01,3.20e-02,
464,5.82e-01,3.28e-02,
465,5.72e-01,3.20e-02,
466,5.70e-01,3.24e-02,
467,5.82e-01,3.32e-02,
468,5.82e-01,3.32e-02,
469,5.68e-01,3.20e-02,
470,5.84e-01,3.32e-02,
471,5.72e-01,3.20e-02,
472,5.72e-01,3.24e-02,
473,5.84e-01,3.32e-02,
474,5.72e-01,3.28e-02,
475,5.84e-01,3.24e-02,
476,5.72e-01,3.24e-02,
477,5.84e-01,3.32e-02,
478,5.72e-01,3.28e-02,
479,5.84e-01,3.24e-02,
480,5.72e-01,3.20e-02,
481,5.84e-01,3.32e-02,
482,5.88e-01,3.32e-02,
483,5.72e-01,3.20e-02,
484,5.74e-01,3.28e-02,
485,5.88e-01,3.24e-02,
486,5.74e-01,3.28e-02,
487,5.88e-01,3.24e-02,
488,5.76e-01,3.24e-02,
489,5.88e-01,3.28e-02,
490,5.72e-01,3.32e-02,
491,5.86e-01,3.20e-02,
492,5.90e-01,3.32e-02,
493,5.74e-01,3.24e-02,
494,5.90e-01,3.28e-02,
495,5.76e-01,3.20e-02,
496,5.78e-01,3.20e-02,
497,5.88e-01,3.32e-02,
498,5.78e-01,3.28e-02,
499,5.90e-01,3.20e-02,
500,5.80e-01,3.28e-02,
501,5.90e-01,3.24e-02,
502,5.78e-01,3.24e-02,
503,5.90e-01,3.28e-02,
504,5.90e-01,3.28e-02,
505,5.80e-01,3.16e-02,
506,5.88e-01,3.20e-02,
507,5.78e-01,3.28e-02,
508,5.90e-01,3.24e-02,
509,5.80e-01,3.12e-02,
510,5.90e-01,3.16e-02,
511,5.82e-01,3.08e-02,
512,5.80e-01,3.12e-02,
513,5.90e-01,3.00e-02,
514,5.78e-01,3.04e-02,
515,5.92e-01,2.96e-02,
516,5.80e-01,2.92e-02,
517,5.90e-01,3.00e-02,
518,5.90e-01,2.96e-02,
519,5.80e-01,3.00e-02,
520,5.94e-01,3.00e-02,
521,5.80e-01,3.08e-02,
522,5.80e-01,3.04e-02,
523,5.92e-01,3.16e-02,
524,5.78e-01,3.16e-02,
525,5.90e-01,3.08e-02,
526,5.92e-01,3.16e-02,
527,5.82e-01,3.20e-02,
528,5.94e-01,3.12e-02,
529,5.84e-01,3.24e-02,
530,5.84e-01,3.24e-02,
531,5.96e-01,3.16e-02,
532,5.96e-01,3.16e-02,
533,5.84e-01,3.28e-02,
534,5.84e-01,3.28e-02,
535,5.96e-01,3.20e-02,
536,5.84e-01,3.28e-02,
537,5.96e-01,3.20e-02,
538,6.00e-01,3.24e-02,
539,5.86e-01,3.28e-02,
540,5.84e-01,3.24e-02,
541,5.98e-01,3.20e-02,
542,5.84e-01,3.20e-02,
543,5.98e-01,3.28e-02,
544,5.96e-01,3.28e-02,
545,5.84e-01,3.24e-02,
546,5.86e-01,3.24e-02,
547,5.98e-01,3.28e-02,
548,5.86e-01,3.20e-02,
549,5.98e-01,3.28e-02,
550,6.00e-01,3.24e-02,
551,5.88e-01,3.28e-02,
552,5.98e-01,3.24e-02,
553,5.86e-01,3.28e-02,
554,5.86e-01,3.28e-02,
555,5.98e-01,3.20e-02,
556,5.98e-01,3.28e-02,
557,5.88e-01,3.20e-02,
558,5.88e-01,3.16e-02,
559,6.00e-01,3.28e-02,
560,5.86e-01,3.28e-02,
561,6.02e-01,3.16e-02,
562,5.90e-01,3.24e-02,
563,6.00e-01,3.28e-02,
564,5.90e-01,3.20e-02,
565,6.02e-01,3.28e-02,
566,5.98e-01,3.28e-02,
567,5.90e-01,3.20e-02,
568,5.92e-01,3.20e-02,
569,6.00e-01,3.28e-02,
570,5.88e-01,3.28e-02,
571,6.00e-01,3.20e-02,
572,5.90e-01,3.28e-02,
573,6.00e-01,3.20e-02,
574,5.90e-01,3.20e-02,
575,6.02e-01,3.28e-02,
576,5.92e-01,3.28e-02,
577,6.04e-01,3.16e-02,
578,6.02e-01,3.24e-02,
579,5.90e-01,3.16e-02,
580,6.02e-01,3.28e-02,
581,5.92e-01,3.20e-02,
582,6.04e-01,3.20e-02,
583,5.94e-01,3.16e-02,
584,5.92e-01,3.20e-02,
585,6.04e-01,3.08e-02,
586,6.06e-01,3.16e-02,
587,5.92e-01,3.00e-02,
588,5.94e-01,2.96e-02,
589,6.04e-01,2.88e-02,
590,5.92e-01,2.92e-02,
591,6.06e-01,2.76e-02,
592,6.04e-01,2.76e-02,
593,5.94e-01,2.84e-02,
594,6.04e-01,2.76e-02,
595,5.96e-01,2.84e-02,
596,6.04e-01,2.76e-02,
597,5.96e-01,2.92e-02,
598,5.96e-01,2.84e-02,
599,6.08e-01,3.04e-02,
600,5.96e-01,2.96e-02,
601,6.06e-01,3.04e-02,
602,6.08e-01,3.04e-02,
603,5.96e-01,3.16e-02,
604,6.06e-01,3.08e-02,
605,5.96e-01,3.20e-02,
606,5.94e-01,3.12e-02,
607,6.10e-01,3.20e-02,
608,5.98e-01,3.24e-02,
609,6.10e-01,3.12e-02,
610,5.98e-01,3.24e-02,
611,6.08e-01,3.20e-02,
612,5.98e-01,3.20e-02,
613,6.12e-01,3.24e-02,
614,5.98e-01,3.28e-02,
615,6.10e-01,3.20e-02,
616,6.00e-01,3.24e-02,
617,6.10e-01,3.20e-02,
618,5.98e-01,3.16e-02,
619,6.10e-01,3.28e-02,
620,6.10e-01,3.20e-02,
621,6.00e-01,3.28e-02,
622,6.00e-01,3.16e-02,
623,6.14e-01,3.28e-02,
624,6.12e-01,3.24e-02,
625,6.00e-01,3.28e-02,
626,6.00e-01,3.20e-02,
627,6.14e-01,3.28e-02,
628,6.02e-01,3.16e-02,
629,6.14e-01,3.28e-02,
630,6.02e-01,3.28e-02,
631,6.14e-01,3.20e-02,
632,6.02e-01,3.28e-02,
633,6.12e-01,3.20e-02,
634,6.04e-01,3.24e-02,
635,6.14e-01,3.16e-02,
636,6.14e-01,3.28e-02,
637,6.02e-01,3.20e-02,
638,6.16e-01,3.16e-02,
639,6.04e-01,3.28e-02,
640,6.14e-01,3.28e-02,
641,6.00e-01,3.20e-02,
642,6.16e-01,3.20e-02,
643,6.04e-01,3.28e-02,
644,6.04e-01,3.16e-02,
645,6.14e-01,3.28e-02,
646,6.16e-01,3.24e-02,
647,6.04e-01,3.28e-02,
648,6.08e-01,3.20e-02,
649,6.16e-01,3.28e-02,
650,6.16e-01,3.24e-02,
651,6.04e-01,3.16e-02,
652,6.08e-01,3.28e-02,
653,6.16e-01,3.16e-02,
654,6.20e-01,3.24e-02,
655,6.06e-01,3.16e-02,
656,6.04e-01,3.24e-02,
657,6.20e-01,3.12e-02,
658,6.08e-01,3.20e-02,
659,6.18e-01,3.16e-02,
660,6.06e-01,3.20e-02,
661,6.18e-01,3.12e-02,
662,6.18e-01,3.12e-02,
663,6.06e-01,3.00e-02,
664,6.08e-01,3.00e-02,
665,6.20e-01,2.88e-02,
666,6.16e-01,2.88e-02,
667,6.08e-01,2.68e-02,
668,6.10e-01,2.64e-02,
669,6.18e-01,2.68e-02,
670,6.10e-01,2.60e-02,
671,6.18e-01,2.56e-02,
672,6.20e-01,2.60e-02,
673,6.12e-01,2.68e-02,
674,6.10e-01,2.64e-02,
675,6.22e-01,2.76e-02,
676,6.10e-01,2.76e-02,
677,6.24e-01,2.88e-02,
678,6.10e-01,2.84e-02,
679,6.22e-01,3.00e-02,
680,6.10e-01,2.96e-02,
681,6.22e-01,3.08e-02,
682,6.12e-01,3.04e-02,
683,6.18e-01,3.08e-02,
684,6.22e-01,3.08e-02,
685,6.06e-01,3.16e-02,
686,6.12e-01,3.12e-02,
687,6.24e-01,3.20e-02,
688,6.12e-01,3.12e-02,
689,6.22e-01,3.24e-02,
690,6.26e-01,3.24e-02,
691,6.12e-01,3.16e-02,
692,6.12e-01,3.20e-02,
693,6.26e-01,3.24e-02,
694,6.28e-01,3.16e-02,
695,6.16e-01,3.28e-02,
696,6.12e-01,3.24e-02,
697,6.24e-01,3.20e-02,
698,6.12e-01,3.24e-02,
699,6.26e-01,3.16e-02,
700,6.16e-01,3.28e-02,
701,6.26e-01,3.20e-02,
702,6.24e-01,3.16e-02,
703,6.12e-01,3.28e-02,
704,6.14e-01,3.20e-02,
705,6.28e-01,3.28e-02,
706,6.16e-01,3.28e-02,
707,6.26e-01,3.16e-02,
708,6.16e-01,3.24e-02,
709,6.26e-01,3.20e-02,
710,6.30e-01,3.24e-02,
711,6.16e-01,3.16e-02,
712,6.16e-01,3.24e-02,
713,6.30e-01,3.20e-02,
714,6.28e-01,3.20e-02,
715,6.20e-01,3.24e-02,
716,6.16e-01,3.20e-02,
717,6.30e-01,3.24e-02,
718,6.28e-01,3.24e-02,
719,6.18e-01,3.20e-02,
720,6.28e-01,3.28e-02,
721,6.18e-01,3.16e-02,
722,6.18e-01,3.24e-02,
723,6.30e-01,3.16e-02,
724,6.30e-01,3.24e-02,
725,6.18e-01,3.16e-02,
726,6.32e-01,3.16e-02,
727,6.20e-01,3.24e-02,
728,6.20e-01,3.16e-02,
729,6.32e-01,3.24e-02,
730,6.30e-01,3.16e-02,
731,6.22e-01,3.24e-02,
732,6.30e-01,3.24e-02,
733,6.18e-01,3.16e-02,
734,6.18e-01,3.16e-02,
735,6.34e-01,3.24e-02,
736,6.18e-01,3.24e-02,
737,6.34e-01,3.12e-02,
738,6.20e-01,3.16e-02,
739,6.34e-01,3.08e-02,
740,6.20e-01,3.12e-02,
741,6.30e-01,2.96e-02,
742,6.34e-01,3.00e-02,
743,6.22e-01,2.84e-02,
744,6.34e-01,2.76e-02,
745,6.24e-01,2.68e-02,
746,6.32e-01,2.64e-02,
747,6.20e-01,2.48e-02,
748,6.24e-01,2.48e-02,
749,6.36e-01,2.52e-02,
750,6.36e-01,2.44e-02,
751,6.24e-01,2.56e-02,
752,6.36e-01,2.56e-02,
753,6.24e-01,2.68e-02,
754,6.36e-01,2.68e-02,
755,6.24e-01,2.80e-02,
756,6.24e-01,2.84e-02,
757,6.40e-01,2.96e-02,
758,6.36e-01,3.04e-02,
759,6.24e-01,2.96e-02,
760,6.28e-01,3.08e-02,
761,6.40e-01,3.04e-02,
762,6.36e-01,3.04e-02,
763,6.24e-01,3.16e-02,
764,6.36e-01,3.12e-02,
765,6.24e-01,3.20e-02,
766,6.36e-01,3.16e-02,
767,6.28e-01,3.24e-02,
768,6.26e-01,3.24e-02,
769,6.40e-01,3.16e-02,
770,6.28e-01,3.24e-02,
771,6.38e-01,3.12e-02,
772,6.38e-01,3.16e-02,
773,6.26e-01,3.24e-02,
774,6.38e-01,3.24e-02,
775,6.30e-01,3.16e-02,
776,6.28e-01,3.24e-02,
777,6.38e-01,3.16e-02,
778,6.40e-01,3.16e-02,
779,6.30e-01,3.24e-02,
780,6.28e-01,3.24e-02,
781,6.40e-01,3.16e-02,
782,6.26e-01,3.16e-02,
783,6.40e-01,3.24e-02,
784,6.30e-01,3.24e-02,
785,6.42e-01,3.16e-02,
786,6.30e-01,3.24e-02,
787,6.42e-01,3.20e-02,
788,6.30e-01,3.24e-02,
789,6.42e-01,3.16e-02,
790,6.42e-01,3.24e-02,
791,6.30e-01,3.16e-02,
792,6.44e-01,3.24e-02,
793,6.32e-01,3.20e-02,
794,6.34e-01,3.20e-02,
795,6.42e-01,3.24e-02,
796,6.32e-01,3.16e-02,
797,6.42e-01,3.24e-02,
798,6.42e-01,3.20e-02,
799,6.30e-01,3.28e-02,
800,6.32e-01,3.24e-02,
801,6.46e-01,3.16e-02,
802,6.30e-01,3.16e-02,
803,6.46e-01,3.24e-02,
804,6.34e-01,3.24e-02,
805,6.46e-01,3.16e-02,
806,6.36e-01,3.24e-02,
807,6.46e-01,3.20e-02,
808,6.46e-01,3.16e-02,
809,6.32e-01,3.24e-02,
810,6.44e-01,3.24e-02,
811,6.36e-01,3.12e-02,
812,6.48e-01,3.24e-02,
813,6.36e-01,3.16e-02,
814,6.36e-01,3.12e-02,
815,6.46e-01,3.20e-02,
816,6.46e-01,3.20e-02,
817,6.32e-01,3.08e-02,
818,6.48e-01,3.08e-02,
819,6.38e-01,2.96e-02,
820,6.36e-01,2.88e-02,
821,6.48e-01,2.68e-02,
822,6.36e-01,2.72e-02,
823,6.48e-01,2.44e-02,
824,6.36e-01,2.44e-02,
825,6.50e-01,2.36e-02,
826,6.48e-01,2.36e-02,
827,6.38e-01,2.44e-02,
828,6.38e-01,2.40e-02,
829,6.50e-01,2.56e-02,
830,6.38e-01,2.56e-02,
831,6.52e-01,2.68e-02,
832,6.38e-01,2.68e-02,
833,6.50e-01,2.88e-02,
834,6.50e-01,2.88e-02,
835,6.38e-01,3.00e-02,
836,6.42e-01,2.96e-02,
837,6.50e-01,3.08e-02,
838,6.50e-01,3.04e-02,
839,6.40e-01,3.12e-02,
840,6.42e-01,3.08e-02,
841,6.52e-01,3.20e-02,
842,6.38e-01,3.16e-02,
843,6.54e-01,3.20e-02,
844,6.42e-01,3.20e-02,
845,6.54e-01,3.16e-02,
846,6.52e-01,3.16e-02,
847,6.44e-01,3.24e-02,
848,6.54e-01,3.12e-02,
849,6.42e-01,3.24e-02,
850,6.38e-01,3.24e-02,
851,6.52e-01,3.16e-02,
852,6.54e-01,3.24e-02,
853,6.44e-01,3.16e-02,
854,6.44e-01,3.20e-02,
855,6.56e-01,3.24e-02,
856,6.50e-01,3.28e-02,
857,6.42e-01,3.20e-02,
858,6.44e-01,3.24e-02,
859,6.54e-01,3.20e-02,
860,6.44e-01,3.24e-02,
861,6.54e-01,3.16e-02,
862,6.44e-01,3.16e-02,
863,6.56e-01,3.24e-02,
864,6.44e-01,3.24e-02,
865,6.56e-01,3.16e-02,
866,6.44e-01,3.28e-02,
867,6.60e-01,3.16e-02,
868,6.54e-01,3.24e-02,
869,6.44e-01,3.20e-02,
870,6.48e-01,3.24e-02,
