to_sort/3p7MH_10s.csv

X,CH1,CH2,Start,Increment,
Sequence,Volt,Volt,3.020000e+00,1.000000e-02
0,6.64e-01,-1.65e-01,
1,6.80e-01,-1.66e-01,
2,6.80e-01,-1.66e-01,
3,6.64e-01,-1.66e-01,
4,6.64e-01,-1.66e-01,
5,6.80e-01,-1.65e-01,
6,6.64e-01,-1.66e-01,
7,6.80e-01,-1.66e-01,
8,6.80e-01,-1.66e-01,
9,6.64e-01,-1.66e-01,
10,6.72e-01,-1.66e-01,
11,6.88e-01,-1.66e-01,
12,6.80e-01,-1.66e-01,
13,6.72e-01,-1.66e-01,
14,6.80e-01,-1.66e-01,
15,6.72e-01,-1.66e-01,
16,6.72e-01,-1.66e-01,
17,6.88e-01,-1.66e-01,
18,6.64e-01,-1.66e-01,
19,6.88e-01,-1.66e-01,
20,6.72e-01,-1.67e-01,
21,6.88e-01,-1.66e-01,
22,6.72e-01,-1.66e-01,
23,6.88e-01,-1.67e-01,
24,6.88e-01,-1.67e-01,
25,6.72e-01,-1.66e-01,
26,6.72e-01,-1.67e-01,
27,6.88e-01,-1.66e-01,
28,6.88e-01,-1.67e-01,
29,6.72e-01,-1.66e-01,
30,6.88e-01,-1.67e-01,
31,6.80e-01,-1.66e-01,
32,3.04e-01,-1.66e-01,
33,2.88e-01,-1.59e-01,
34,2.88e-01,-1.57e-01,
35,3.04e-01,-1.47e-01,
36,3.04e-01,-1.47e-01,
37,2.88e-01,-1.45e-01,
38,2.96e-01,-1.45e-01,
39,2.88e-01,-1.43e-01,
40,2.96e-01,-1.43e-01,
41,3.04e-01,-1.45e-01,
42,3.04e-01,-1.44e-01,
43,2.88e-01,-1.46e-01,
44,2.88e-01,-1.46e-01,
45,2.88e-01,-1.45e-01,
46,2.88e-01,-1.45e-01,
47,3.04e-01,-1.46e-01,
48,2.96e-01,-1.46e-01,
49,3.04e-01,-1.45e-01,
50,2.88e-01,-1.44e-01,
51,3.04e-01,-1.46e-01,
52,2.96e-01,-1.46e-01,
53,3.04e-01,-1.46e-01,
54,3.12e-01,-1.46e-01,
55,2.96e-01,-1.45e-01,
56,3.04e-01,-1.46e-01,
57,2.96e-01,-1.46e-01,
58,3.04e-01,-1.46e-01,
59,2.96e-01,-1.46e-01,
60,3.12e-01,-1.46e-01,
61,2.96e-01,-1.46e-01,
62,2.96e-01,-1.46e-01,
63,3.04e-01,-1.46e-01,
64,2.96e-01,-1.46e-01,
65,3.12e-01,-1.46e-01,
66,3.12e-01,-1.46e-01,
67,2.96e-01,-1.46e-01,
68,3.04e-01,-1.46e-01,
69,3.12e-01,-1.46e-01,
70,3.12e-01,-1.46e-01,
71,2.96e-01,-1.47e-01,
72,2.96e-01,-1.46e-01,
73,3.12e-01,-1.46e-01,
74,3.04e-01,-1.46e-01,
75,3.12e-01,-1.47e-01,
76,2.96e-01,-1.47e-01,
77,3.12e-01,-1.46e-01,
78,3.20e-01,-1.46e-01,
79,2.96e-01,-1.46e-01,
80,3.04e-01,-1.46e-01,
81,3.20e-01,-1.46e-01,
82,3.04e-01,-1.46e-01,
83,3.12e-01,-1.47e-01,
84,3.04e-01,-1.47e-01,
85,3.20e-01,-1.46e-01,
86,3.04e-01,-1.46e-01,
87,3.20e-01,-1.47e-01,
88,3.20e-01,-1.46e-01,
89,3.04e-01,-1.47e-01,
90,3.04e-01,-1.46e-01,
91,3.20e-01,-1.47e-01,
92,3.20e-01,-1.46e-01,
93,3.04e-01,-1.47e-01,
94,3.20e-01,-1.46e-01,
95,3.12e-01,-1.48e-01,
96,3.04e-01,-1.46e-01,
97,3.20e-01,-1.47e-01,
98,3.20e-01,-1.46e-01,
99,3.12e-01,-1.47e-01,
100,3.20e-01,-1.46e-01,
101,3.12e-01,-1.47e-01,
102,3.12e-01,-1.46e-01,
103,3.20e-01,-1.48e-01,
104,3.20e-01,-1.48e-01,
105,3.12e-01,-1.46e-01,
106,3.28e-01,-1.47e-01,
107,3.12e-01,-1.46e-01,
108,3.12e-01,-1.48e-01,
109,3.28e-01,-1.46e-01,
110,3.20e-01,-1.48e-01,
111,3.12e-01,-1.46e-01,
112,3.20e-01,-1.46e-01,
113,3.20e-01,-1.48e-01,
114,3.28e-01,-1.47e-01,
115,3.20e-01,-1.47e-01,
116,3.20e-01,-1.47e-01,
117,3.28e-01,-1.46e-01,
118,3.20e-01,-1.46e-01,
119,3.28e-01,-1.48e-01,
120,3.28e-01,-1.47e-01,
121,3.12e-01,-1.47e-01,
122,3.28e-01,-1.47e-01,
123,3.20e-01,-1.47e-01,
124,3.28e-01,-1.47e-01,
125,3.12e-01,-1.48e-01,
126,3.28e-01,-1.47e-01,
127,3.28e-01,-1.47e-01,
128,3.28e-01,-1.48e-01,
129,3.36e-01,-1.47e-01,
130,3.20e-01,-1.47e-01,
131,3.36e-01,-1.48e-01,
132,3.36e-01,-1.47e-01,
133,3.20e-01,-1.48e-01,
134,3.36e-01,-1.48e-01,
135,3.28e-01,-1.47e-01,
136,3.28e-01,-1.47e-01,
137,3.36e-01,-1.49e-01,
138,3.44e-01,-1.49e-01,
139,3.28e-01,-1.47e-01,
140,3.28e-01,-1.47e-01,
141,3.44e-01,-1.49e-01,
142,3.28e-01,-1.47e-01,
143,3.44e-01,-1.49e-01,
144,3.28e-01,-1.47e-01,
145,3.44e-01,-1.49e-01,
146,3.36e-01,-1.49e-01,
147,3.28e-01,-1.48e-01,
148,3.36e-01,-1.49e-01,
149,3.28e-01,-1.48e-01,
150,3.28e-01,-1.49e-01,
151,3.44e-01,-1.47e-01,
152,3.36e-01,-1.48e-01,
153,3.44e-01,-1.49e-01,
154,3.36e-01,-1.49e-01,
155,3.44e-01,-1.48e-01,
156,3.44e-01,-1.48e-01,
157,3.36e-01,-1.49e-01,
158,3.44e-01,-1.49e-01,
159,3.36e-01,-1.48e-01,
160,3.36e-01,-1.48e-01,
161,3.44e-01,-1.50e-01,
162,3.36e-01,-1.48e-01,
163,3.52e-01,-1.50e-01,
164,3.52e-01,-1.48e-01,
165,3.36e-01,-1.50e-01,
166,3.36e-01,-1.48e-01,
167,3.52e-01,-1.50e-01,
168,3.36e-01,-1.49e-01,
169,3.52e-01,-1.50e-01,
170,3.36e-01,-1.49e-01,
171,3.44e-01,-1.50e-01,
172,3.36e-01,-1.49e-01,
173,3.52e-01,-1.50e-01,
174,3.36e-01,-1.50e-01,
175,3.52e-01,-1.49e-01,
176,3.44e-01,-1.49e-01,
177,3.36e-01,-1.50e-01,
178,3.44e-01,-1.49e-01,
179,3.52e-01,-1.50e-01,
180,3.52e-01,-1.50e-01,
181,3.44e-01,-1.49e-01,
182,3.44e-01,-1.50e-01,
183,3.52e-01,-1.49e-01,
184,3.44e-01,-1.49e-01,
185,3.60e-01,-1.50e-01,
186,3.44e-01,-1.50e-01,
187,3.52e-01,-1.50e-01,
188,3.44e-01,-1.50e-01,
189,3.60e-01,-1.50e-01,
190,3.44e-01,-1.50e-01,
191,3.60e-01,-1.50e-01,
192,3.44e-01,-1.49e-01,
193,3.60e-01,-1.50e-01,
194,3.60e-01,-1.50e-01,
195,3.44e-01,-1.51e-01,
196,3.44e-01,-1.50e-01,
197,3.60e-01,-1.50e-01,
198,3.60e-01,-1.50e-01,
199,3.44e-01,-1.50e-01,
200,3.60e-01,-1.50e-01,
201,3.44e-01,-1.51e-01,
202,3.60e-01,-1.50e-01,
203,3.52e-01,-1.50e-01,
204,3.60e-01,-1.50e-01,
205,3.52e-01,-1.50e-01,
206,3.60e-01,-1.50e-01,
207,3.52e-01,-1.50e-01,
208,3.52e-01,-1.50e-01,
209,3.68e-01,-1.51e-01,
210,3.52e-01,-1.50e-01,
211,3.60e-01,-1.51e-01,
212,3.60e-01,-1.50e-01,
213,3.52e-01,-1.51e-01,
214,3.68e-01,-1.50e-01,
215,3.52e-01,-1.50e-01,
216,3.60e-01,-1.50e-01,
217,3.68e-01,-1.51e-01,
218,3.68e-01,-1.50e-01,
219,3.52e-01,-1.50e-01,
220,3.68e-01,-1.50e-01,
221,3.52e-01,-1.51e-01,
222,3.68e-01,-1.51e-01,
223,3.60e-01,-1.50e-01,
224,3.68e-01,-1.51e-01,
225,3.52e-01,-1.50e-01,
226,3.68e-01,-1.50e-01,
227,3.60e-01,-1.51e-01,
228,3.60e-01,-1.50e-01,
229,3.68e-01,-1.51e-01,
230,3.52e-01,-1.51e-01,
231,3.68e-01,-1.50e-01,
232,3.60e-01,-1.50e-01,
233,3.68e-01,-1.51e-01,
234,3.68e-01,-1.50e-01,
235,3.60e-01,-1.51e-01,
236,3.60e-01,-1.51e-01,
237,3.76e-01,-1.50e-01,
238,3.76e-01,-1.50e-01,
239,3.60e-01,-1.52e-01,
240,3.76e-01,-1.50e-01,
241,3.60e-01,-1.52e-01,
242,3.60e-01,-1.50e-01,
243,3.76e-01,-1.52e-01,
244,3.60e-01,-1.50e-01,
245,3.76e-01,-1.51e-01,
246,3.76e-01,-1.51e-01,
247,3.60e-01,-1.50e-01,
248,3.60e-01,-1.51e-01,
249,3.76e-01,-1.52e-01,
250,3.60e-01,-1.51e-01,
251,3.76e-01,-1.50e-01,
252,3.76e-01,-1.52e-01,
253,3.68e-01,-1.50e-01,
254,3.76e-01,-1.52e-01,
255,3.68e-01,-1.50e-01,
256,3.68e-01,-1.52e-01,
257,3.76e-01,-1.50e-01,
258,3.76e-01,-1.52e-01,
259,3.68e-01,-1.50e-01,
260,3.76e-01,-1.50e-01,
261,3.76e-01,-1.52e-01,
262,3.84e-01,-1.50e-01,
263,3.68e-01,-1.52e-01,
264,3.68e-01,-1.52e-01,
265,3.84e-01,-1.52e-01,
266,3.84e-01,-1.52e-01,
267,3.76e-01,-1.51e-01,
268,3.84e-01,-1.52e-01,
269,3.68e-01,-1.53e-01,
270,3.76e-01,-1.53e-01,
271,3.84e-01,-1.52e-01,
272,3.76e-01,-1.51e-01,
273,3.92e-01,-1.53e-01,
274,3.84e-01,-1.52e-01,
275,3.76e-01,-1.50e-01,
276,3.84e-01,-1.50e-01,
277,3.84e-01,-1.52e-01,
278,3.84e-01,-1.52e-01,
279,3.76e-01,-1.54e-01,
280,3.84e-01,-1.53e-01,
281,3.84e-01,-1.54e-01,
282,3.84e-01,-1.54e-01,
283,3.76e-01,-1.52e-01,
284,3.84e-01,-1.52e-01,
285,4.00e-01,-1.54e-01,
286,3.84e-01,-1.54e-01,
287,3.92e-01,-1.53e-01,
288,3.84e-01,-1.53e-01,
289,3.84e-01,-1.52e-01,
290,3.92e-01,-1.53e-01,
291,3.84e-01,-1.54e-01,
292,3.84e-01,-1.52e-01,
293,4.00e-01,-1.54e-01,
294,3.92e-01,-1.54e-01,
295,3.84e-01,-1.54e-01,
296,3.92e-01,-1.54e-01,
297,3.84e-01,-1.54e-01,
298,4.00e-01,-1.53e-01,
299,3.84e-01,-1.54e-01,
300,3.84e-01,-1.53e-01,
301,4.00e-01,-1.53e-01,
302,4.00e-01,-1.52e-01,
303,3.84e-01,-1.54e-01,
304,3.92e-01,-1.54e-01,
305,4.00e-01,-1.56e-01,
306,4.00e-01,-1.54e-01,
307,3.92e-01,-1.55e-01,
308,4.00e-01,-1.55e-01,
309,3.92e-01,-1.54e-01,
310,3.92e-01,-1.55e-01,
311,4.08e-01,-1.54e-01,
312,3.92e-01,-1.54e-01,
313,4.08e-01,-1.55e-01,
314,3.92e-01,-1.54e-01,
315,4.08e-01,-1.54e-01,
316,3.92e-01,-1.54e-01,
317,4.08e-01,-1.54e-01,
318,3.92e-01,-1.54e-01,
319,4.08e-01,-1.54e-01,
320,3.92e-01,-1.54e-01,
321,4.08e-01,-1.54e-01,
322,4.08e-01,-1.54e-01,
323,3.92e-01,-1.54e-01,
324,3.92e-01,-1.54e-01,
325,4.08e-01,-1.54e-01,
326,3.92e-01,-1.54e-01,
327,4.08e-01,-1.54e-01,
328,4.08e-01,-1.54e-01,
329,3.92e-01,-1.54e-01,
330,3.92e-01,-1.54e-01,
331,4.08e-01,-1.54e-01,
332,3.92e-01,-1.54e-01,
333,4.08e-01,-1.55e-01,
334,4.08e-01,-1.55e-01,
335,4.00e-01,-1.54e-01,
336,4.00e-01,-1.54e-01,
337,4.16e-01,-1.55e-01,
338,4.00e-01,-1.55e-01,
339,4.16e-01,-1.54e-01,
340,4.00e-01,-1.55e-01,
341,4.16e-01,-1.58e-01,
342,4.00e-01,-1.58e-01,
343,4.16e-01,-1.61e-01,
344,4.16e-01,-1.61e-01,
345,4.00e-01,-1.63e-01,
346,4.00e-01,-1.62e-01,
347,4.16e-01,-1.60e-01,
348,4.00e-01,-1.59e-01,
349,4.16e-01,-1.58e-01,
350,4.16e-01,-1.58e-01,
351,4.00e-01,-1.55e-01,
352,4.00e-01,-1.57e-01,
353,4.16e-01,-1.55e-01,
354,4.16e-01,-1.56e-01,
355,4.00e-01,-1.54e-01,
356,4.16e-01,-1.55e-01,
357,4.08e-01,-1.54e-01,
358,4.08e-01,-1.56e-01,
359,4.24e-01,-1.54e-01,
360,4.00e-01,-1.54e-01,
361,4.24e-01,-1.56e-01,
362,4.16e-01,-1.56e-01,
363,4.08e-01,-1.55e-01,
364,4.08e-01,-1.56e-01,
365,4.24e-01,-1.59e-01,
366,4.08e-01,-1.60e-01,
367,4.24e-01,-1.66e-01,
368,4.08e-01,-1.67e-01,
369,4.24e-01,-1.70e-01,
370,4.16e-01,-1.71e-01,
371,4.08e-01,-1.68e-01,
372,4.08e-01,-1.68e-01,
373,4.24e-01,-1.64e-01,
374,4.24e-01,-1.63e-01,
375,4.08e-01,-1.59e-01,
376,4.08e-01,-1.58e-01,
377,4.24e-01,-1.57e-01,
378,4.08e-01,-1.57e-01,
379,4.24e-01,-1.55e-01,
380,4.24e-01,-1.55e-01,
381,4.16e-01,-1.57e-01,
382,4.24e-01,-1.57e-01,
383,4.08e-01,-1.55e-01,
384,4.16e-01,-1.57e-01,
385,4.32e-01,-1.56e-01,
386,4.16e-01,-1.56e-01,
387,4.24e-01,-1.57e-01,
388,4.16e-01,-1.57e-01,
389,4.32e-01,-1.58e-01,
390,4.16e-01,-1.59e-01,
391,4.32e-01,-1.66e-01,
392,4.32e-01,-1.68e-01,
393,4.16e-01,-1.78e-01,
394,4.16e-01,-1.79e-01,
395,4.32e-01,-1.82e-01,
396,4.24e-01,-1.82e-01,
397,4.32e-01,-1.77e-01,
398,4.24e-01,-1.75e-01,
399,4.32e-01,-1.67e-01,
400,4.24e-01,-1.66e-01,
401,4.32e-01,-1.62e-01,
402,4.16e-01,-1.61e-01,
403,4.32e-01,-1.58e-01,
404,4.32e-01,-1.58e-01,
405,4.16e-01,-1.57e-01,
406,4.32e-01,-1.57e-01,
407,4.16e-01,-1.58e-01,
408,4.32e-01,-1.58e-01,
409,4.24e-01,-1.57e-01,
410,4.32e-01,-1.57e-01,
411,4.16e-01,-1.58e-01,
412,4.32e-01,-1.58e-01,
413,4.24e-01,-1.58e-01,
414,4.32e-01,-1.58e-01,
415,4.40e-01,-1.64e-01,
416,4.32e-01,-1.64e-01,
417,4.32e-01,-1.78e-01,
418,4.40e-01,-1.81e-01,
419,4.32e-01,-1.94e-01,
420,4.32e-01,-1.96e-01,
421,4.48e-01,-1.94e-01,
422,4.32e-01,-1.91e-01,
423,4.40e-01,-1.80e-01,
424,4.32e-01,-1.79e-01,
425,4.48e-01,-1.68e-01,
426,4.32e-01,-1.66e-01,
427,4.40e-01,-1.60e-01,
428,4.32e-01,-1.59e-01,
429,4.40e-01,-1.58e-01,
430,4.32e-01,-1.57e-01,
431,4.48e-01,-1.58e-01,
432,4.48e-01,-1.57e-01,
433,4.32e-01,-1.58e-01,
434,4.40e-01,-1.57e-01,
435,4.48e-01,-1.58e-01,
436,4.56e-01,-1.58e-01,
437,4.32e-01,-1.57e-01,
438,4.40e-01,-1.58e-01,
439,4.48e-01,-1.57e-01,
440,4.40e-01,-1.57e-01,
441,4.56e-01,-1.58e-01,
442,4.40e-01,-1.57e-01,
443,4.48e-01,-1.58e-01,
444,4.40e-01,-1.58e-01,
445,4.56e-01,-1.57e-01,
446,4.40e-01,-1.58e-01,
447,4.56e-01,-1.58e-01,
448,4.40e-01,-1.57e-01,
449,4.48e-01,-1.58e-01,
450,4.40e-01,-1.57e-01,
451,4.56e-01,-1.58e-01,
452,4.48e-01,-1.58e-01,
453,4.40e-01,-1.58e-01,
454,4.40e-01,-1.58e-01,
455,4.56e-01,-1.58e-01,
456,4.48e-01,-1.58e-01,
457,4.40e-01,-1.58e-01,
458,4.40e-01,-1.58e-01,
459,4.56e-01,-1.58e-01,
460,4.56e-01,-1.58e-01,
461,4.40e-01,-1.59e-01,
462,4.56e-01,-1.57e-01,
463,4.40e-01,-1.58e-01,
464,4.48e-01,-1.58e-01,
465,4.64e-01,-1.58e-01,
466,4.48e-01,-1.58e-01,
467,4.64e-01,-1.59e-01,
468,4.48e-01,-1.58e-01,
469,4.56e-01,-1.59e-01,
470,4.48e-01,-1.59e-01,
471,4.64e-01,-1.58e-01,
472,4.48e-01,-1.58e-01,
473,4.64e-01,-1.59e-01,
474,4.48e-01,-1.58e-01,
475,4.64e-01,-1.59e-01,
476,4.48e-01,-1.58e-01,
477,4.64e-01,-1.59e-01,
478,4.64e-01,-1.59e-01,
479,4.48e-01,-1.58e-01,
480,4.64e-01,-1.58e-01,
481,4.48e-01,-1.59e-01,
482,4.48e-01,-1.59e-01,
483,4.64e-01,-1.58e-01,
484,4.56e-01,-1.59e-01,
485,4.64e-01,-1.58e-01,
486,4.56e-01,-1.59e-01,
487,4.64e-01,-1.58e-01,
488,4.56e-01,-1.59e-01,
489,4.72e-01,-1.58e-01,
490,4.64e-01,-1.58e-01,
491,4.56e-01,-1.60e-01,
492,4.56e-01,-1.59e-01,
493,4.72e-01,-1.60e-01,
494,4.72e-01,-1.58e-01,
495,4.56e-01,-1.60e-01,
496,4.72e-01,-1.60e-01,
497,4.56e-01,-1.58e-01,
498,4.72e-01,-1.60e-01,
499,4.56e-01,-1.59e-01,
500,4.56e-01,-1.58e-01,
501,4.72e-01,-1.60e-01,
502,4.72e-01,-1.60e-01,
503,4.56e-01,-1.58e-01,
504,4.56e-01,-1.60e-01,
505,4.72e-01,-1.60e-01,
506,4.56e-01,-1.59e-01,
507,4.72e-01,-1.61e-01,
508,4.72e-01,-1.60e-01,
509,4.56e-01,-1.59e-01,
510,4.64e-01,-1.59e-01,
511,4.72e-01,-1.61e-01,
512,4.72e-01,-1.61e-01,
513,4.64e-01,-1.59e-01,
514,4.64e-01,-1.60e-01,
515,4.80e-01,-1.61e-01,
516,4.64e-01,-1.61e-01,
517,4.80e-01,-1.60e-01,
518,4.72e-01,-1.61e-01,
519,4.64e-01,-1.60e-01,
520,4.72e-01,-1.61e-01,
521,4.80e-01,-1.61e-01,
522,4.64e-01,-1.61e-01,
523,4.80e-01,-1.60e-01,
524,4.80e-01,-1.61e-01,
525,4.72e-01,-1.59e-01,
526,4.80e-01,-1.61e-01,
527,4.72e-01,-1.60e-01,
528,4.64e-01,-1.60e-01,
529,4.80e-01,-1.61e-01,
530,4.80e-01,-1.61e-01,
531,4.64e-01,-1.60e-01,
532,4.64e-01,-1.61e-01,
533,4.80e-01,-1.61e-01,
534,4.80e-01,-1.61e-01,
535,4.64e-01,-1.60e-01,
536,4.80e-01,-1.61e-01,
537,4.72e-01,-1.61e-01,
538,4.64e-01,-1.61e-01,
539,4.80e-01,-1.61e-01,
540,4.80e-01,-1.61e-01,
541,4.72e-01,-1.61e-01,
542,4.80e-01,-1.61e-01,
543,4.88e-01,-1.61e-01,
544,4.88e-01,-1.61e-01,
545,4.80e-01,-1.61e-01,
546,4.80e-01,-1.61e-01,
547,4.88e-01,-1.62e-01,
548,4.88e-01,-1.61e-01,
549,4.72e-01,-1.61e-01,
550,4.88e-01,-1.61e-01,
551,4.72e-01,-1.62e-01,
552,4.80e-01,-1.62e-01,
553,4.88e-01,-1.61e-01,
554,4.88e-01,-1.61e-01,
555,4.72e-01,-1.62e-01,
556,4.88e-01,-1.61e-01,
557,4.72e-01,-1.62e-01,
558,4.80e-01,-1.61e-01,
559,4.88e-01,-1.62e-01,
560,4.88e-01,-1.62e-01,
561,4.80e-01,-1.62e-01,
562,4.88e-01,-1.62e-01,
563,4.88e-01,-1.61e-01,
564,4.88e-01,-1.62e-01,
565,4.88e-01,-1.62e-01,
566,4.88e-01,-1.62e-01,
567,4.96e-01,-1.61e-01,
568,4.88e-01,-1.62e-01,
569,4.96e-01,-1.62e-01,
570,4.88e-01,-1.62e-01,
571,4.96e-01,-1.62e-01,
572,5.04e-01,-1.62e-01,
573,4.88e-01,-1.62e-01,
574,4.88e-01,-1.62e-01,
575,4.96e-01,-1.63e-01,
576,4.96e-01,-1.62e-01,
577,4.88e-01,-1.62e-01,
578,4.88e-01,-1.62e-01,
579,4.96e-01,-1.62e-01,
580,4.96e-01,-1.62e-01,
581,4.88e-01,-1.63e-01,
582,4.88e-01,-1.62e-01,
583,5.04e-01,-1.62e-01,
584,4.88e-01,-1.62e-01,
585,5.04e-01,-1.63e-01,
586,4.88e-01,-1.62e-01,
587,5.04e-01,-1.63e-01,
588,5.04e-01,-1.63e-01,
589,4.88e-01,-1.62e-01,
590,4.96e-01,-1.63e-01,
591,5.04e-01,-1.62e-01,
592,4.96e-01,-1.62e-01,
593,5.04e-01,-1.63e-01,
594,4.96e-01,-1.62e-01,
595,5.12e-01,-1.63e-01,
596,5.04e-01,-1.62e-01,
597,4.96e-01,-1.63e-01,
598,4.96e-01,-1.62e-01,
599,5.12e-01,-1.62e-01,
600,4.96e-01,-1.63e-01,
601,5.12e-01,-1.62e-01,
602,5.12e-01,-1.63e-01,
603,4.96e-01,-1.62e-01,
604,4.96e-01,-1.64e-01,
605,5.12e-01,-1.62e-01,
606,5.04e-01,-1.62e-01,
607,4.96e-01,-1.64e-01,
608,4.96e-01,-1.63e-01,
609,5.12e-01,-1.62e-01,
610,4.96e-01,-1.64e-01,
611,5.12e-01,-1.63e-01,
612,5.12e-01,-1.63e-01,
613,5.04e-01,-1.64e-01,
614,4.96e-01,-1.64e-01,
615,5.12e-01,-1.63e-01,
616,5.20e-01,-1.63e-01,
617,5.04e-01,-1.64e-01,
618,5.12e-01,-1.63e-01,
619,5.04e-01,-1.65e-01,
620,5.04e-01,-1.65e-01,
621,5.12e-01,-1.63e-01,
622,5.04e-01,-1.65e-01,
623,5.20e-01,-1.64e-01,
624,5.12e-01,-1.63e-01,
625,5.04e-01,-1.65e-01,
626,5.20e-01,-1.63e-01,
627,5.04e-01,-1.65e-01,
628,5.04e-01,-1.65e-01,
629,5.20e-01,-1.63e-01,
630,5.04e-01,-1.65e-01,
631,5.20e-01,-1.63e-01,
632,5.20e-01,-1.65e-01,
633,5.12e-01,-1.64e-01,
634,5.04e-01,-1.65e-01,
635,5.20e-01,-1.64e-01,
636,5.20e-01,-1.64e-01,
637,5.04e-01,-1.65e-01,
638,5.20e-01,-1.64e-01,
639,5.12e-01,-1.65e-01,
640,5.20e-01,-1.65e-01,
641,5.04e-01,-1.64e-01,
642,5.20e-01,-1.64e-01,
643,5.12e-01,-1.65e-01,
644,5.04e-01,-1.66e-01,
645,5.20e-01,-1.64e-01,
646,5.12e-01,-1.66e-01,
647,5.28e-01,-1.64e-01,
648,5.28e-01,-1.65e-01,
649,5.12e-01,-1.64e-01,
650,5.12e-01,-1.64e-01,
651,5.28e-01,-1.66e-01,
652,5.28e-01,-1.64e-01,
653,5.12e-01,-1.65e-01,
654,5.28e-01,-1.66e-01,
655,5.12e-01,-1.64e-01,
656,5.12e-01,-1.64e-01,
657,5.20e-01,-1.66e-01,
658,5.28e-01,-1.64e-01,
659,5.12e-01,-1.66e-01,
660,5.12e-01,-1.64e-01,
661,5.28e-01,-1.66e-01,
662,5.20e-01,-1.66e-01,
663,5.28e-01,-1.65e-01,
664,5.28e-01,-1.66e-01,
665,5.12e-01,-1.64e-01,
666,5.20e-01,-1.66e-01,
667,5.36e-01,-1.65e-01,
668,5.28e-01,-1.65e-01,
669,5.20e-01,-1.66e-01,
670,5.20e-01,-1.66e-01,
671,5.28e-01,-1.64e-01,
672,5.20e-01,-1.66e-01,
673,5.36e-01,-1.66e-01,
674,5.28e-01,-1.65e-01,
675,5.36e-01,-1.66e-01,
676,5.36e-01,-1.65e-01,
677,5.20e-01,-1.66e-01,
678,5.36e-01,-1.66e-01,
679,5.20e-01,-1.65e-01,
680,5.20e-01,-1.66e-01,
681,5.36e-01,-1.65e-01,
682,5.28e-01,-1.65e-01,
683,5.36e-01,-1.66e-01,
684,5.36e-01,-1.65e-01,
685,5.20e-01,-1.66e-01,
686,5.36e-01,-1.65e-01,
687,5.20e-01,-1.66e-01,
688,5.20e-01,-1.66e-01,
689,5.36e-01,-1.66e-01,
690,5.36e-01,-1.66e-01,
691,5.20e-01,-1.65e-01,
692,5.36e-01,-1.65e-01,
693,5.36e-01,-1.66e-01,
694,5.44e-01,-1.66e-01,
695,5.36e-01,-1.66e-01,
696,5.28e-01,-1.65e-01,
697,5.44e-01,-1.66e-01,
698,5.36e-01,-1.65e-01,
699,5.44e-01,-1.66e-01,
700,5.36e-01,-1.66e-01,
701,5.44e-01,-1.66e-01,
702,5.44e-01,-1.66e-01,
703,5.36e-01,-1.66e-01,
704,5.52e-01,-1.66e-01,
705,5.28e-01,-1.66e-01,
706,5.36e-01,-1.66e-01,
707,5.52e-01,-1.66e-01,
708,5.44e-01,-1.66e-01,
709,5.28e-01,-1.66e-01,
710,5.44e-01,-1.66e-01,
711,5.36e-01,-1.66e-01,
712,5.44e-01,-1.66e-01,
713,5.28e-01,-1.66e-01,
714,5.44e-01,-1.66e-01,
715,5.44e-01,-1.67e-01,
716,5.36e-01,-1.66e-01,
717,5.52e-01,-1.66e-01,
718,5.36e-01,-1.66e-01,
719,5.44e-01,-1.67e-01,
720,5.52e-01,-1.67e-01,
721,5.36e-01,-1.67e-01,
722,5.44e-01,-1.67e-01,
723,5.36e-01,-1.66e-01,
724,5.52e-01,-1.67e-01,
725,5.44e-01,-1.66e-01,
726,5.52e-01,-1.66e-01,
727,5.44e-01,-1.68e-01,
728,5.44e-01,-1.66e-01,
729,5.60e-01,-1.67e-01,
730,5.44e-01,-1.66e-01,
731,5.60e-01,-1.68e-01,
732,5.44e-01,-1.66e-01,
733,5.60e-01,-1.67e-01,
734,5.44e-01,-1.68e-01,
735,5.60e-01,-1.66e-01,
736,5.44e-01,-1.68e-01,
737,5.60e-01,-1.67e-01,
738,5.60e-01,-1.68e-01,
739,5.52e-01,-1.66e-01,
740,5.52e-01,-1.68e-01,
741,5.60e-01,-1.67e-01,
742,5.44e-01,-1.68e-01,
743,5.60e-01,-1.67e-01,
744,5.52e-01,-1.68e-01,
745,5.68e-01,-1.67e-01,
746,5.60e-01,-1.68e-01,
747,5.44e-01,-1.68e-01,
748,5.60e-01,-1.68e-01,
749,5.52e-01,-1.67e-01,
750,5.52e-01,-1.68e-01,
751,5.68e-01,-1.68e-01,
752,5.60e-01,-1.67e-01,
753,5.52e-01,-1.69e-01,
754,5.68e-01,-1.68e-01,
755,5.52e-01,-1.67e-01,
756,5.68e-01,-1.67e-01,
757,5.52e-01,-1.69e-01,
758,5.60e-01,-1.68e-01,
759,5.52e-01,-1.69e-01,
760,5.60e-01,-1.70e-01,
761,5.52e-01,-1.68e-01,
762,5.68e-01,-1.68e-01,
763,5.52e-01,-1.69e-01,
764,5.68e-01,-1.68e-01,
765,5.52e-01,-1.68e-01,
766,5.68e-01,-1.68e-01,
767,5.52e-01,-1.70e-01,
768,5.60e-01,-1.68e-01,
769,5.68e-01,-1.70e-01,
770,5.52e-01,-1.69e-01,
771,5.76e-01,-1.67e-01,
772,5.60e-01,-1.68e-01,
773,5.76e-01,-1.69e-01,
774,5.60e-01,-1.68e-01,
775,5.76e-01,-1.70e-01,
776,5.60e-01,-1.69e-01,
777,5.68e-01,-1.67e-01,
778,5.76e-01,-1.68e-01,
779,5.60e-01,-1.70e-01,
780,5.60e-01,-1.69e-01,
781,5.76e-01,-1.68e-01,
782,5.60e-01,-1.69e-01,
783,5.76e-01,-1.69e-01,
784,5.76e-01,-1.68e-01,
785,5.60e-01,-1.70e-01,
786,5.76e-01,-1.68e-01,
787,5.60e-01,-1.70e-01,
788,5.60e-01,-1.69e-01,
789,5.84e-01,-1.69e-01,
790,5.76e-01,-1.69e-01,
791,5.60e-01,-1.70e-01,
792,5.60e-01,-1.70e-01,
793,5.76e-01,-1.69e-01,
794,5.76e-01,-1.69e-01,
795,5.60e-01,-1.69e-01,
796,5.84e-01,-1.69e-01,
797,5.68e-01,-1.68e-01,
798,5.68e-01,-1.69e-01,
799,5.76e-01,-1.70e-01,
800,5.68e-01,-1.69e-01,
801,5.84e-01,-1.70e-01,
802,5.68e-01,-1.69e-01,
803,5.84e-01,-1.70e-01,
804,5.84e-01,-1.69e-01,
805,5.68e-01,-1.70e-01,
806,5.84e-01,-1.69e-01,
807,5.68e-01,-1.70e-01,
808,5.76e-01,-1.69e-01,
809,5.84e-01,-1.70e-01,
810,5.84e-01,-1.70e-01,
811,5.68e-01,-1.70e-01,
812,5.84e-01,-1.70e-01,
813,5.68e-01,-1.69e-01,
814,5.84e-01,-1.70e-01,
815,5.68e-01,-1.70e-01,
816,5.84e-01,-1.70e-01,
817,5.68e-01,-1.70e-01,
818,5.68e-01,-1.70e-01,
819,5.92e-01,-1.70e-01,
820,5.84e-01,-1.70e-01,
821,5.68e-01,-1.71e-01,
822,5.84e-01,-1.70e-01,
823,5.76e-01,-1.71e-01,
824,5.84e-01,-1.70e-01,
825,5.76e-01,-1.71e-01,
826,5.76e-01,-1.70e-01,
827,5.92e-01,-1.70e-01,
828,5.84e-01,-1.70e-01,
829,5.76e-01,-1.71e-01,
830,5.84e-01,-1.70e-01,
831,5.92e-01,-1.70e-01,
832,5.84e-01,-1.70e-01,
833,5.92e-01,-1.70e-01,
