to_sort/5p9MHz_735p27mV.csv

X,CH1,CH2,Start,Increment,
Sequence,Volt,Volt,-1.140000e+01,1.000000e-02
0,5.44e-01,8.96e-02,
1,5.60e-01,8.88e-02,
2,5.60e-01,8.96e-02,
3,5.48e-01,8.88e-02,
4,5.64e-01,8.96e-02,
5,5.48e-01,8.88e-02,
6,5.44e-01,8.96e-02,
7,5.60e-01,8.88e-02,
8,5.60e-01,8.88e-02,
9,5.48e-01,9.04e-02,
10,5.52e-01,8.96e-02,
11,5.64e-01,8.88e-02,
12,5.56e-01,8.96e-02,
13,5.64e-01,8.88e-02,
14,5.64e-01,8.88e-02,
15,5.52e-01,8.96e-02,
16,5.68e-01,8.88e-02,
17,5.56e-01,9.04e-02,
18,5.56e-01,8.96e-02,
19,5.68e-01,8.88e-02,
20,5.72e-01,8.96e-02,
21,5.56e-01,8.88e-02,
22,5.60e-01,8.88e-02,
23,5.72e-01,8.96e-02,
24,5.60e-01,8.96e-02,
25,5.72e-01,8.88e-02,
26,5.72e-01,8.96e-02,
27,5.60e-01,8.88e-02,
28,5.72e-01,8.96e-02,
29,5.60e-01,8.88e-02,
30,5.64e-01,8.80e-02,
31,5.76e-01,8.96e-02,
32,5.76e-01,8.88e-02,
33,5.64e-01,8.96e-02,
34,5.64e-01,8.88e-02,
35,5.80e-01,8.96e-02,
36,5.64e-01,8.96e-02,
37,5.80e-01,8.88e-02,
38,5.80e-01,8.96e-02,
39,5.64e-01,8.88e-02,
40,5.68e-01,8.96e-02,
41,5.80e-01,8.88e-02,
42,5.68e-01,8.88e-02,
43,5.80e-01,8.96e-02,
44,5.80e-01,8.96e-02,
45,5.72e-01,8.88e-02,
46,5.84e-01,8.96e-02,
47,5.68e-01,8.88e-02,
48,5.72e-01,8.96e-02,
49,5.84e-01,8.88e-02,
50,5.88e-01,8.88e-02,
51,5.72e-01,8.96e-02,
52,5.88e-01,8.96e-02,
53,5.72e-01,8.88e-02,
54,5.76e-01,8.88e-02,
55,5.88e-01,9.04e-02,
56,5.88e-01,8.96e-02,
57,5.76e-01,8.88e-02,
58,5.80e-01,8.88e-02,
59,5.92e-01,8.96e-02,
60,5.80e-01,8.88e-02,
61,5.92e-01,8.96e-02,
62,5.92e-01,8.88e-02,
63,5.80e-01,8.96e-02,
64,5.80e-01,8.88e-02,
65,5.96e-01,8.96e-02,
66,5.84e-01,8.88e-02,
67,5.96e-01,8.96e-02,
68,5.92e-01,8.96e-02,
69,5.84e-01,8.88e-02,
70,5.84e-01,8.96e-02,
71,6.00e-01,8.88e-02,
72,6.00e-01,8.88e-02,
73,0.00e+00,9.12e-02,
74,0.00e+00,9.04e-02,
75,8.00e-03,9.20e-02,
76,0.00e+00,9.20e-02,
77,8.00e-03,9.44e-02,
78,4.00e-03,9.36e-02,
79,1.20e-02,9.36e-02,
80,4.00e-03,9.36e-02,
81,1.20e-02,9.52e-02,
82,4.00e-03,9.36e-02,
83,1.60e-02,9.36e-02,
84,4.00e-03,9.36e-02,
85,1.20e-02,9.44e-02,
86,1.20e-02,9.36e-02,
87,8.00e-03,9.44e-02,
88,1.60e-02,9.36e-02,
89,8.00e-03,9.44e-02,
90,8.00e-03,9.44e-02,
91,1.60e-02,9.36e-02,
92,1.60e-02,9.36e-02,
93,8.00e-03,9.44e-02,
94,8.00e-03,9.28e-02,
95,1.60e-02,9.44e-02,
96,1.20e-02,9.36e-02,
97,2.00e-02,9.44e-02,
98,2.00e-02,9.36e-02,
99,1.20e-02,9.52e-02,
100,1.60e-02,9.36e-02,
101,2.00e-02,9.28e-02,
102,1.60e-02,9.36e-02,
103,2.40e-02,9.36e-02,
104,1.60e-02,9.36e-02,
105,2.40e-02,9.44e-02,
106,2.00e-02,9.36e-02,
107,2.80e-02,9.44e-02,
108,2.40e-02,9.36e-02,
109,1.60e-02,9.44e-02,
110,1.60e-02,9.36e-02,
111,2.80e-02,9.44e-02,
112,2.40e-02,9.36e-02,
113,2.80e-02,9.44e-02,
114,2.40e-02,9.36e-02,
115,3.20e-02,9.52e-02,
116,2.40e-02,9.44e-02,
117,3.20e-02,9.28e-02,
118,2.40e-02,9.36e-02,
119,3.20e-02,9.52e-02,
120,2.40e-02,9.36e-02,
121,3.60e-02,9.36e-02,
122,2.80e-02,9.36e-02,
123,3.60e-02,9.28e-02,
124,3.20e-02,9.36e-02,
125,2.80e-02,9.44e-02,
126,3.60e-02,9.28e-02,
127,2.80e-02,9.44e-02,
128,3.60e-02,9.36e-02,
129,3.20e-02,9.36e-02,
130,3.20e-02,9.36e-02,
131,4.00e-02,9.28e-02,
132,3.20e-02,9.36e-02,
133,4.00e-02,9.28e-02,
134,4.00e-02,9.36e-02,
135,3.20e-02,9.44e-02,
136,3.20e-02,9.44e-02,
137,4.00e-02,9.28e-02,
138,4.00e-02,9.36e-02,
139,3.60e-02,9.44e-02,
140,4.40e-02,9.36e-02,
141,3.60e-02,9.44e-02,
142,3.60e-02,9.36e-02,
143,4.40e-02,9.44e-02,
144,4.00e-02,9.28e-02,
145,4.40e-02,9.44e-02,
146,4.00e-02,9.44e-02,
147,4.80e-02,9.28e-02,
148,4.80e-02,9.36e-02,
149,4.00e-02,9.44e-02,
150,4.40e-02,9.36e-02,
151,4.80e-02,9.44e-02,
152,4.80e-02,9.36e-02,
153,4.40e-02,9.44e-02,
154,4.80e-02,9.28e-02,
155,5.60e-02,9.44e-02,
156,5.20e-02,9.36e-02,
157,4.80e-02,9.28e-02,
158,5.20e-02,9.36e-02,
159,4.80e-02,9.28e-02,
160,5.20e-02,9.36e-02,
161,4.80e-02,9.44e-02,
162,4.80e-02,9.36e-02,
163,6.00e-02,9.28e-02,
164,5.60e-02,9.44e-02,
165,5.20e-02,9.28e-02,
166,5.20e-02,9.36e-02,
167,6.00e-02,9.28e-02,
168,5.20e-02,9.28e-02,
169,6.00e-02,9.44e-02,
170,5.20e-02,9.28e-02,
171,6.00e-02,9.36e-02,
172,5.60e-02,9.36e-02,
173,6.00e-02,9.28e-02,
174,5.60e-02,9.28e-02,
175,6.00e-02,9.44e-02,
176,5.60e-02,9.36e-02,
177,6.40e-02,9.28e-02,
178,6.40e-02,9.28e-02,
179,5.60e-02,9.44e-02,
180,5.60e-02,9.28e-02,
181,6.80e-02,9.44e-02,
182,6.40e-02,9.28e-02,
183,6.80e-02,9.44e-02,
184,6.80e-02,9.28e-02,
185,6.00e-02,9.44e-02,
186,6.40e-02,9.28e-02,
187,6.80e-02,9.44e-02,
188,6.00e-02,9.44e-02,
189,7.20e-02,9.36e-02,
190,7.20e-02,9.44e-02,
191,6.00e-02,9.28e-02,
192,7.20e-02,9.28e-02,
193,6.40e-02,9.44e-02,
194,7.60e-02,9.28e-02,
195,6.40e-02,9.44e-02,
196,7.20e-02,9.44e-02,
197,6.80e-02,9.28e-02,
198,6.80e-02,9.28e-02,
199,7.60e-02,9.44e-02,
200,7.60e-02,9.36e-02,
201,7.20e-02,9.28e-02,
202,7.20e-02,9.36e-02,
203,8.00e-02,9.28e-02,
204,7.20e-02,9.36e-02,
205,8.00e-02,9.28e-02,
206,7.60e-02,9.36e-02,
207,8.40e-02,9.28e-02,
208,7.60e-02,9.36e-02,
209,8.00e-02,9.28e-02,
210,7.60e-02,9.36e-02,
211,8.00e-02,9.28e-02,
212,8.00e-02,9.28e-02,
213,7.20e-02,9.36e-02,
214,8.00e-02,9.28e-02,
215,8.00e-02,9.28e-02,
216,8.00e-02,9.28e-02,
217,8.40e-02,9.20e-02,
218,8.00e-02,9.28e-02,
219,8.80e-02,9.12e-02,
220,8.00e-02,9.28e-02,
221,8.80e-02,9.12e-02,
222,8.40e-02,9.28e-02,
223,9.20e-02,9.20e-02,
224,8.00e-02,9.28e-02,
225,9.20e-02,9.20e-02,
226,8.80e-02,9.28e-02,
227,8.40e-02,9.36e-02,
228,8.40e-02,9.36e-02,
229,9.60e-02,9.28e-02,
230,9.20e-02,9.28e-02,
231,8.40e-02,9.36e-02,
232,8.80e-02,9.28e-02,
233,9.60e-02,9.36e-02,
234,8.80e-02,9.36e-02,
235,9.60e-02,9.28e-02,
236,9.60e-02,9.28e-02,
237,8.80e-02,9.36e-02,
238,9.20e-02,9.28e-02,
239,1.00e-01,9.44e-02,
240,9.20e-02,9.28e-02,
241,1.00e-01,9.44e-02,
242,9.20e-02,9.28e-02,
243,1.00e-01,9.44e-02,
244,9.20e-02,9.36e-02,
245,1.00e-01,9.28e-02,
246,1.00e-01,9.28e-02,
247,9.60e-02,9.36e-02,
248,1.00e-01,9.44e-02,
249,9.60e-02,9.28e-02,
250,1.04e-01,9.36e-02,
251,9.60e-02,9.28e-02,
252,1.04e-01,9.44e-02,
253,9.60e-02,9.28e-02,
254,1.04e-01,9.28e-02,
255,1.04e-01,9.36e-02,
256,1.00e-01,9.28e-02,
257,1.04e-01,9.36e-02,
258,1.04e-01,9.28e-02,
259,1.08e-01,9.36e-02,
260,1.12e-01,9.28e-02,
261,1.04e-01,9.36e-02,
262,1.04e-01,9.28e-02,
263,1.12e-01,9.44e-02,
264,1.08e-01,9.28e-02,
265,1.12e-01,9.28e-02,
266,1.08e-01,9.28e-02,
267,1.12e-01,9.28e-02,
268,1.08e-01,9.28e-02,
269,1.16e-01,9.36e-02,
270,1.08e-01,9.28e-02,
271,1.16e-01,9.36e-02,
272,1.08e-01,9.28e-02,
273,1.16e-01,9.36e-02,
274,1.08e-01,9.28e-02,
275,1.16e-01,9.36e-02,
276,1.12e-01,9.28e-02,
277,1.20e-01,9.28e-02,
278,1.12e-01,9.28e-02,
279,1.20e-01,9.28e-02,
280,1.24e-01,9.28e-02,
281,1.12e-01,9.28e-02,
282,1.16e-01,9.28e-02,
283,1.24e-01,9.28e-02,
284,1.16e-01,9.28e-02,
285,1.24e-01,9.28e-02,
286,1.20e-01,9.28e-02,
287,1.24e-01,9.36e-02,
288,1.16e-01,9.28e-02,
289,1.24e-01,9.28e-02,
290,1.28e-01,9.28e-02,
291,1.16e-01,9.36e-02,
292,1.20e-01,9.36e-02,
293,1.28e-01,9.28e-02,
294,1.24e-01,9.28e-02,
295,1.28e-01,9.44e-02,
296,1.28e-01,9.28e-02,
297,1.20e-01,9.28e-02,
298,1.20e-01,9.28e-02,
299,1.36e-01,9.36e-02,
300,1.28e-01,9.28e-02,
301,1.36e-01,9.28e-02,
302,1.36e-01,9.28e-02,
303,1.20e-01,9.36e-02,
304,1.28e-01,9.28e-02,
305,1.36e-01,9.28e-02,
306,1.36e-01,9.28e-02,
307,1.32e-01,9.28e-02,
308,1.32e-01,9.28e-02,
309,1.40e-01,9.28e-02,
310,1.32e-01,9.36e-02,
311,1.40e-01,9.28e-02,
312,1.40e-01,9.36e-02,
313,1.32e-01,9.28e-02,
314,1.36e-01,9.28e-02,
315,1.32e-01,9.28e-02,
316,1.40e-01,9.28e-02,
317,1.32e-01,9.28e-02,
318,1.36e-01,9.36e-02,
319,1.44e-01,9.28e-02,
320,1.44e-01,9.28e-02,
321,1.40e-01,9.28e-02,
322,1.36e-01,9.28e-02,
323,1.48e-01,9.36e-02,
324,1.36e-01,9.36e-02,
325,1.48e-01,9.28e-02,
326,1.48e-01,9.28e-02,
327,1.40e-01,9.28e-02,
328,1.48e-01,9.28e-02,
329,1.40e-01,9.28e-02,
330,1.40e-01,9.28e-02,
331,1.52e-01,9.28e-02,
332,1.44e-01,9.28e-02,
333,1.48e-01,9.28e-02,
334,1.44e-01,9.28e-02,
335,1.48e-01,9.20e-02,
336,1.52e-01,9.28e-02,
337,1.44e-01,9.28e-02,
338,1.52e-01,9.28e-02,
339,1.44e-01,9.28e-02,
340,1.56e-01,9.28e-02,
341,1.44e-01,9.36e-02,
342,1.48e-01,9.28e-02,
343,1.56e-01,9.12e-02,
344,1.56e-01,9.28e-02,
345,1.52e-01,9.20e-02,
346,1.48e-01,9.28e-02,
347,1.60e-01,9.20e-02,
348,1.64e-01,9.28e-02,
349,1.52e-01,9.28e-02,
350,1.56e-01,9.28e-02,
351,1.48e-01,9.28e-02,
352,1.64e-01,9.28e-02,
353,1.52e-01,9.36e-02,
354,1.56e-01,9.20e-02,
355,1.64e-01,9.28e-02,
356,1.64e-01,9.20e-02,
357,1.56e-01,9.28e-02,
358,1.56e-01,9.20e-02,
359,1.68e-01,9.12e-02,
360,1.68e-01,9.12e-02,
361,1.60e-01,8.96e-02,
362,1.68e-01,8.96e-02,
363,1.60e-01,9.12e-02,
364,1.60e-01,9.04e-02,
365,1.68e-01,9.20e-02,
366,1.64e-01,9.20e-02,
367,1.68e-01,9.28e-02,
368,1.64e-01,9.20e-02,
369,1.72e-01,9.36e-02,
370,1.64e-01,9.28e-02,
371,1.72e-01,9.20e-02,
372,1.64e-01,9.28e-02,
373,1.72e-01,9.20e-02,
374,1.68e-01,9.20e-02,
375,1.76e-01,9.28e-02,
376,1.76e-01,9.20e-02,
377,1.64e-01,9.36e-02,
378,1.76e-01,9.28e-02,
379,1.68e-01,9.36e-02,
380,1.76e-01,9.36e-02,
381,1.68e-01,9.20e-02,
382,1.76e-01,9.28e-02,
383,1.68e-01,9.20e-02,
384,1.76e-01,9.20e-02,
385,1.80e-01,9.28e-02,
386,1.76e-01,9.28e-02,
387,1.80e-01,9.20e-02,
388,1.76e-01,9.28e-02,
389,1.80e-01,9.20e-02,
390,1.76e-01,9.28e-02,
391,1.84e-01,9.20e-02,
392,1.88e-01,9.20e-02,
393,1.72e-01,9.36e-02,
394,1.84e-01,9.28e-02,
395,1.76e-01,9.12e-02,
396,1.80e-01,9.20e-02,
397,1.92e-01,9.36e-02,
398,1.80e-01,9.28e-02,
399,1.84e-01,9.20e-02,
400,1.80e-01,9.20e-02,
401,1.92e-01,9.36e-02,
402,1.80e-01,9.20e-02,
403,1.92e-01,9.28e-02,
404,1.84e-01,9.28e-02,
405,1.92e-01,9.20e-02,
406,1.84e-01,9.28e-02,
407,1.92e-01,9.20e-02,
408,1.92e-01,9.36e-02,
409,1.84e-01,9.20e-02,
410,1.84e-01,9.28e-02,
411,1.96e-01,9.20e-02,
412,1.88e-01,9.20e-02,
413,1.96e-01,9.36e-02,
414,1.88e-01,9.28e-02,
415,1.96e-01,9.20e-02,
416,1.88e-01,9.28e-02,
417,1.96e-01,9.36e-02,
418,1.88e-01,9.36e-02,
419,1.96e-01,9.20e-02,
420,1.88e-01,9.28e-02,
421,2.00e-01,9.20e-02,
422,2.00e-01,9.28e-02,
423,1.92e-01,9.20e-02,
424,1.92e-01,9.12e-02,
425,2.00e-01,9.28e-02,
426,1.92e-01,9.28e-02,
427,2.04e-01,9.20e-02,
428,2.00e-01,9.28e-02,
429,1.96e-01,9.20e-02,
430,2.04e-01,9.28e-02,
431,1.96e-01,9.20e-02,
432,1.96e-01,9.28e-02,
433,2.04e-01,9.20e-02,
434,2.08e-01,9.20e-02,
435,2.00e-01,9.28e-02,
436,2.00e-01,9.20e-02,
437,2.08e-01,9.28e-02,
438,2.08e-01,9.28e-02,
439,2.00e-01,9.20e-02,
440,2.04e-01,9.28e-02,
441,2.08e-01,9.12e-02,
442,2.00e-01,9.20e-02,
443,2.12e-01,9.28e-02,
444,2.08e-01,9.28e-02,
445,2.08e-01,9.12e-02,
446,2.12e-01,9.20e-02,
447,2.04e-01,9.28e-02,
448,2.08e-01,9.20e-02,
449,2.12e-01,9.28e-02,
450,2.12e-01,9.20e-02,
451,2.08e-01,9.36e-02,
452,2.20e-01,9.28e-02,
453,2.12e-01,9.20e-02,
454,2.12e-01,9.28e-02,
455,2.16e-01,9.12e-02,
456,2.12e-01,9.28e-02,
457,2.20e-01,9.12e-02,
458,2.16e-01,9.28e-02,
459,2.12e-01,9.20e-02,
460,2.12e-01,9.20e-02,
461,2.20e-01,9.28e-02,
462,2.16e-01,9.20e-02,
463,2.20e-01,9.28e-02,
464,2.16e-01,9.12e-02,
465,2.24e-01,9.28e-02,
466,2.24e-01,9.28e-02,
467,2.16e-01,9.20e-02,
468,2.20e-01,9.20e-02,
469,2.28e-01,9.28e-02,
470,2.24e-01,9.28e-02,
471,2.20e-01,9.12e-02,
472,2.28e-01,9.20e-02,
473,2.20e-01,9.36e-02,
474,2.28e-01,9.36e-02,
475,2.20e-01,9.20e-02,
476,2.20e-01,9.20e-02,
477,2.32e-01,9.20e-02,
478,2.32e-01,9.20e-02,
479,2.20e-01,9.12e-02,
480,2.24e-01,9.20e-02,
481,2.32e-01,9.20e-02,
482,2.32e-01,9.20e-02,
483,2.24e-01,9.20e-02,
484,2.28e-01,9.28e-02,
485,2.32e-01,9.12e-02,
486,2.28e-01,9.20e-02,
487,2.36e-01,9.20e-02,
488,2.40e-01,9.28e-02,
489,2.28e-01,9.12e-02,
490,2.36e-01,9.20e-02,
491,2.32e-01,9.28e-02,
492,2.40e-01,9.20e-02,
493,2.36e-01,9.20e-02,
494,2.32e-01,9.20e-02,
495,2.44e-01,9.28e-02,
496,2.36e-01,9.20e-02,
497,2.40e-01,9.28e-02,
498,2.36e-01,9.20e-02,
499,2.40e-01,9.20e-02,
500,2.44e-01,9.20e-02,
501,2.36e-01,8.96e-02,
502,2.48e-01,9.04e-02,
503,2.36e-01,8.88e-02,
504,2.44e-01,8.80e-02,
505,2.36e-01,8.96e-02,
506,2.48e-01,8.88e-02,
507,2.40e-01,9.04e-02,
508,2.40e-01,9.04e-02,
509,2.48e-01,9.20e-02,
510,2.48e-01,9.12e-02,
511,2.40e-01,9.20e-02,
512,2.44e-01,9.20e-02,
513,2.48e-01,9.20e-02,
514,2.44e-01,9.20e-02,
515,2.52e-01,9.20e-02,
516,2.52e-01,9.20e-02,
517,2.44e-01,9.20e-02,
518,2.44e-01,9.20e-02,
519,2.52e-01,9.20e-02,
520,2.48e-01,9.20e-02,
521,2.56e-01,9.28e-02,
522,2.48e-01,9.20e-02,
523,2.56e-01,9.28e-02,
524,2.56e-01,9.20e-02,
525,2.52e-01,9.20e-02,
526,2.48e-01,9.20e-02,
527,2.56e-01,9.12e-02,
528,2.52e-01,9.20e-02,
529,2.60e-01,9.28e-02,
530,2.60e-01,9.20e-02,
531,2.52e-01,9.28e-02,
532,2.56e-01,9.20e-02,
533,2.64e-01,9.20e-02,
534,2.52e-01,9.20e-02,
535,2.64e-01,9.12e-02,
536,2.60e-01,9.20e-02,
537,2.56e-01,9.20e-02,
538,2.64e-01,9.20e-02,
539,2.56e-01,9.12e-02,
540,2.56e-01,9.20e-02,
541,2.64e-01,9.20e-02,
542,2.60e-01,9.20e-02,
543,2.68e-01,9.20e-02,
544,2.60e-01,9.20e-02,
545,2.68e-01,9.20e-02,
546,2.60e-01,9.20e-02,
547,2.64e-01,9.12e-02,
548,2.64e-01,9.12e-02,
549,2.68e-01,9.20e-02,
550,2.64e-01,9.20e-02,
551,2.72e-01,9.20e-02,
552,2.64e-01,9.20e-02,
553,2.72e-01,9.20e-02,
554,2.72e-01,9.20e-02,
555,2.64e-01,9.20e-02,
556,2.72e-01,9.12e-02,
557,2.68e-01,9.20e-02,
558,2.76e-01,9.20e-02,
559,2.68e-01,9.20e-02,
560,2.80e-01,9.12e-02,
561,2.68e-01,9.20e-02,
562,2.76e-01,9.20e-02,
563,2.72e-01,9.12e-02,
564,2.72e-01,9.20e-02,
565,2.80e-01,9.20e-02,
566,2.72e-01,9.20e-02,
567,2.80e-01,9.20e-02,
568,2.84e-01,9.20e-02,
569,2.72e-01,9.20e-02,
570,2.72e-01,9.20e-02,
571,2.84e-01,9.20e-02,
572,2.84e-01,9.20e-02,
573,2.76e-01,9.12e-02,
574,2.76e-01,9.20e-02,
575,2.84e-01,9.20e-02,
576,2.84e-01,9.20e-02,
577,2.76e-01,9.12e-02,
578,2.84e-01,9.20e-02,
579,2.80e-01,9.12e-02,
580,2.84e-01,9.20e-02,
581,2.80e-01,9.12e-02,
582,2.84e-01,9.20e-02,
583,2.88e-01,9.12e-02,
584,2.88e-01,9.20e-02,
585,2.80e-01,9.04e-02,
586,2.88e-01,9.20e-02,
587,2.80e-01,9.12e-02,
588,2.92e-01,9.20e-02,
589,2.84e-01,9.12e-02,
590,2.88e-01,9.20e-02,
591,2.92e-01,9.20e-02,
592,2.96e-01,9.20e-02,
593,2.88e-01,9.20e-02,
594,2.88e-01,9.20e-02,
595,2.92e-01,9.20e-02,
596,2.96e-01,9.12e-02,
597,2.88e-01,9.20e-02,
598,2.88e-01,9.20e-02,
599,3.00e-01,9.12e-02,
600,2.92e-01,9.20e-02,
601,3.00e-01,9.12e-02,
602,2.92e-01,9.12e-02,
603,3.00e-01,9.20e-02,
604,2.92e-01,9.20e-02,
605,3.00e-01,9.12e-02,
606,3.04e-01,9.12e-02,
607,2.96e-01,9.20e-02,
608,3.04e-01,9.20e-02,
609,2.96e-01,9.12e-02,
610,3.04e-01,9.20e-02,
611,3.00e-01,9.20e-02,
612,2.96e-01,9.20e-02,
613,3.08e-01,9.20e-02,
614,2.96e-01,9.20e-02,
615,3.08e-01,9.04e-02,
616,2.96e-01,9.20e-02,
617,3.08e-01,9.12e-02,
618,3.00e-01,9.12e-02,
619,3.12e-01,9.20e-02,
620,3.04e-01,9.20e-02,
621,3.00e-01,9.12e-02,
622,3.00e-01,9.20e-02,
623,3.08e-01,9.12e-02,
624,3.04e-01,9.20e-02,
625,3.12e-01,9.12e-02,
626,3.08e-01,9.20e-02,
627,3.12e-01,9.20e-02,
628,3.12e-01,9.20e-02,
629,3.04e-01,9.04e-02,
630,3.04e-01,9.20e-02,
631,3.20e-01,9.04e-02,
632,3.08e-01,9.20e-02,
633,3.16e-01,9.04e-02,
634,3.16e-01,9.20e-02,
635,3.08e-01,9.12e-02,
636,3.16e-01,9.20e-02,
637,3.08e-01,9.04e-02,
638,3.08e-01,9.20e-02,
639,3.24e-01,9.12e-02,
640,3.16e-01,9.20e-02,
641,3.20e-01,9.12e-02,
642,3.12e-01,9.12e-02,
643,3.20e-01,8.96e-02,
644,3.16e-01,8.96e-02,
645,3.24e-01,8.72e-02,
646,3.16e-01,8.80e-02,
647,3.24e-01,8.64e-02,
648,3.16e-01,8.72e-02,
649,3.24e-01,8.88e-02,
650,3.24e-01,8.88e-02,
651,3.16e-01,9.04e-02,
652,3.24e-01,9.04e-02,
653,3.20e-01,9.12e-02,
654,3.28e-01,9.20e-02,
655,3.20e-01,8.96e-02,
656,3.24e-01,9.12e-02,
657,3.32e-01,9.20e-02,
658,3.24e-01,9.20e-02,
659,3.32e-01,9.04e-02,
660,3.32e-01,9.20e-02,
661,3.24e-01,9.04e-02,
662,3.24e-01,9.20e-02,
663,3.32e-01,9.12e-02,
664,3.24e-01,9.20e-02,
665,3.36e-01,9.12e-02,
666,3.32e-01,9.12e-02,
667,3.24e-01,9.20e-02,
668,3.36e-01,9.20e-02,
669,3.28e-01,9.04e-02,
670,3.28e-01,9.20e-02,
671,3.36e-01,9.04e-02,
672,3.32e-01,9.20e-02,
673,3.36e-01,9.04e-02,
674,3.40e-01,9.20e-02,
675,3.32e-01,9.04e-02,
676,3.36e-01,9.12e-02,
677,3.40e-01,9.20e-02,
678,3.32e-01,9.20e-02,
679,3.40e-01,9.04e-02,
680,3.40e-01,9.04e-02,
681,3.32e-01,9.20e-02,
682,3.32e-01,9.20e-02,
683,3.44e-01,9.04e-02,
684,3.36e-01,9.12e-02,
685,3.44e-01,9.20e-02,
686,3.44e-01,9.20e-02,
687,3.40e-01,9.12e-02,
688,3.40e-01,9.20e-02,
689,3.48e-01,9.04e-02,
690,3.40e-01,9.20e-02,
691,3.44e-01,9.04e-02,
692,3.40e-01,9.20e-02,
693,3.52e-01,9.04e-02,
694,3.44e-01,9.04e-02,
695,3.52e-01,9.20e-02,
696,3.44e-01,9.20e-02,
697,3.52e-01,9.04e-02,
698,3.52e-01,9.04e-02,
699,3.44e-01,9.20e-02,
700,3.44e-01,9.12e-02,
701,3.56e-01,9.20e-02,
702,3.48e-01,9.04e-02,
703,3.56e-01,9.20e-02,
704,3.48e-01,9.20e-02,
705,3.56e-01,9.04e-02,
706,3.56e-01,9.20e-02,
707,3.48e-01,9.12e-02,
708,3.52e-01,9.20e-02,
709,3.60e-01,9.04e-02,
710,3.60e-01,9.20e-02,
711,3.52e-01,9.12e-02,
712,3.52e-01,9.20e-02,
713,3.60e-01,9.04e-02,
714,3.60e-01,9.04e-02,
715,3.52e-01,9.20e-02,
716,3.52e-01,9.04e-02,
717,3.64e-01,9.20e-02,
718,3.56e-01,9.12e-02,
719,3.64e-01,9.20e-02,
720,3.56e-01,9.04e-02,
721,3.64e-01,9.20e-02,
722,3.56e-01,9.12e-02,
723,3.68e-01,9.20e-02,
724,3.68e-01,8.96e-02,
725,3.56e-01,9.12e-02,
726,3.60e-01,9.12e-02,
727,3.68e-01,9.04e-02,
728,3.60e-01,9.12e-02,
729,3.72e-01,9.12e-02,
730,3.72e-01,9.04e-02,
731,3.60e-01,9.20e-02,
732,3.56e-01,9.04e-02,
733,3.76e-01,9.20e-02,
734,3.64e-01,9.12e-02,
735,3.72e-01,9.04e-02,
736,3.64e-01,9.12e-02,
737,3.76e-01,9.20e-02,
738,3.72e-01,9.12e-02,
739,3.68e-01,9.04e-02,
740,3.68e-01,9.20e-02,
741,3.80e-01,9.04e-02,
742,3.76e-01,9.12e-02,
743,3.68e-01,9.04e-02,
744,3.76e-01,9.04e-02,
745,3.72e-01,9.20e-02,
746,3.72e-01,9.04e-02,
747,3.84e-01,9.20e-02,
748,3.80e-01,9.12e-02,
749,3.72e-01,9.20e-02,
750,3.72e-01,9.20e-02,
751,3.84e-01,9.04e-02,
752,3.84e-01,9.04e-02,
753,3.72e-01,9.20e-02,
754,3.88e-01,9.04e-02,
755,3.76e-01,9.20e-02,
756,3.76e-01,9.12e-02,
757,3.84e-01,9.20e-02,
758,3.76e-01,9.12e-02,
759,3.84e-01,9.04e-02,
760,3.76e-01,9.12e-02,
761,3.84e-01,9.04e-02,
762,3.88e-01,9.12e-02,
763,3.80e-01,9.04e-02,
764,3.88e-01,9.04e-02,
765,3.84e-01,9.20e-02,
766,3.84e-01,9.20e-02,
767,3.92e-01,9.04e-02,
768,3.92e-01,9.12e-02,
769,3.84e-01,9.20e-02,
770,3.80e-01,9.12e-02,
771,3.92e-01,9.20e-02,
772,3.84e-01,9.12e-02,
773,3.96e-01,9.12e-02,
774,3.96e-01,9.20e-02,
775,3.84e-01,9.12e-02,
776,3.84e-01,9.12e-02,
777,4.00e-01,9.12e-02,
778,3.92e-01,9.20e-02,
779,3.96e-01,9.04e-02,
780,3.96e-01,9.12e-02,
781,3.92e-01,9.04e-02,
782,3.92e-01,9.04e-02,
783,4.04e-01,9.12e-02,
784,4.00e-01,9.12e-02,
785,3.92e-01,9.04e-02,
786,3.96e-01,9.12e-02,
787,4.00e-01,8.80e-02,
788,4.00e-01,8.88e-02,
789,3.96e-01,8.56e-02,
790,3.96e-01,8.48e-02,
791,4.08e-01,8.64e-02,
792,4.04e-01,8.56e-02,
793,3.96e-01,8.72e-02,
794,3.96e-01,8.80e-02,
795,4.12e-01,8.96e-02,
796,3.96e-01,8.88e-02,
797,4.08e-01,9.04e-02,
798,4.00e-01,8.96e-02,
799,4.08e-01,9.12e-02,
800,4.12e-01,9.12e-02,
801,4.00e-01,9.04e-02,
802,4.04e-01,9.12e-02,
803,4.12e-01,9.04e-02,
804,4.00e-01,9.12e-02,
805,4.12e-01,9.12e-02,
806,4.12e-01,9.04e-02,
807,4.00e-01,9.20e-02,
808,4.04e-01,9.04e-02,
809,4.12e-01,9.12e-02,
810,4.16e-01,9.12e-02,
811,4.04e-01,9.12e-02,
812,4.16e-01,9.12e-02,
813,4.08e-01,9.04e-02,
814,4.04e-01,9.12e-02,
815,4.16e-01,9.04e-02,
816,4.08e-01,9.12e-02,
817,4.16e-01,8.96e-02,
818,4.08e-01,9.12e-02,
819,4.20e-01,9.04e-02,
820,4.24e-01,9.12e-02,
821,4.12e-01,8.96e-02,
822,4.20e-01,9.12e-02,
823,4.16e-01,9.12e-02,
824,4.12e-01,9.12e-02,
825,4.24e-01,9.04e-02,
826,4.16e-01,9.12e-02,
827,4.24e-01,9.04e-02,
828,4.16e-01,9.12e-02,
829,4.28e-01,9.12e-02,
830,4.28e-01,9.12e-02,
831,4.16e-01,9.04e-02,
832,4.20e-01,9.12e-02,
833,4.28e-01,9.04e-02,
834,4.20e-01,9.04e-02,
835,4.24e-01,9.12e-02,
836,4.20e-01,9.12e-02,
837,4.32e-01,9.04e-02,
838,4.28e-01,9.12e-02,
839,4.20e-01,8.96e-02,
840,4.28e-01,9.12e-02,
841,4.24e-01,8.96e-02,
842,4.24e-01,9.12e-02,
843,4.36e-01,8.96e-02,
844,4.24e-01,9.12e-02,
845,4.32e-01,9.04e-02,
846,4.28e-01,9.12e-02,
847,4.32e-01,9.04e-02,
848,4.24e-01,9.12e-02,
849,4.36e-01,9.04e-02,
850,4.36e-01,9.12e-02,
851,4.24e-01,8.96e-02,
852,4.40e-01,9.12e-02,
853,4.28e-01,9.04e-02,
854,4.32e-01,9.12e-02,
855,4.40e-01,9.04e-02,
856,4.32e-01,9.12e-02,
857,4.40e-01,9.04e-02,
858,4.32e-01,9.12e-02,
859,4.44e-01,8.96e-02,
860,4.32e-01,9.12e-02,
861,4.44e-01,9.04e-02,
862,4.44e-01,9.12e-02,
863,4.32e-01,8.96e-02,
864,4.44e-01,9.04e-02,
865,4.32e-01,9.12e-02,
866,4.44e-01,9.04e-02,
867,4.32e-01,9.12e-02,
868,4.48e-01,8.96e-02,
869,4.36e-01,9.12e-02,
870,4.40e-01,9.12e-02,
