to_sort/6p9MHz_852mV.csv

X,CH1,CH2,Start,Increment,
Sequence,Volt,Volt,-4.200000e-01,1.000000e-02
0,8.08e-01,2.53e-02,
1,8.16e-01,2.58e-02,
2,8.16e-01,2.59e-02,
3,8.08e-01,2.53e-02,
4,8.08e-01,2.58e-02,
5,8.16e-01,2.54e-02,
6,8.20e-01,2.54e-02,
7,8.12e-01,2.60e-02,
8,8.20e-01,2.58e-02,
9,8.08e-01,2.54e-02,
10,8.28e-01,2.54e-02,
11,8.08e-01,2.50e-02,
12,8.24e-01,2.58e-02,
13,8.08e-01,2.53e-02,
14,8.12e-01,2.52e-02,
15,8.24e-01,2.57e-02,
16,8.28e-01,2.53e-02,
17,8.12e-01,2.59e-02,
18,8.12e-01,2.56e-02,
19,8.32e-01,2.52e-02,
20,8.32e-01,2.51e-02,
21,8.12e-01,2.58e-02,
22,8.28e-01,2.52e-02,
23,8.20e-01,2.59e-02,
24,8.16e-01,2.56e-02,
25,8.32e-01,2.51e-02,
26,8.32e-01,2.50e-02,
27,8.20e-01,2.58e-02,
28,8.24e-01,2.51e-02,
29,8.32e-01,2.57e-02,
30,8.24e-01,2.52e-02,
31,8.32e-01,2.58e-02,
32,8.24e-01,2.51e-02,
33,8.32e-01,2.60e-02,
34,8.24e-01,2.57e-02,
35,8.36e-01,2.54e-02,
36,8.36e-01,2.51e-02,
37,8.24e-01,2.58e-02,
38,8.28e-01,2.58e-02,
39,8.44e-01,2.50e-02,
40,8.44e-01,2.51e-02,
41,2.36e-01,2.71e-02,
42,2.44e-01,2.65e-02,
43,2.32e-01,2.82e-02,
44,2.44e-01,2.84e-02,
45,2.28e-01,2.95e-02,
46,2.44e-01,2.94e-02,
47,2.32e-01,3.00e-02,
48,2.52e-01,2.96e-02,
49,2.32e-01,3.02e-02,
50,2.36e-01,3.03e-02,
51,2.48e-01,2.95e-02,
52,2.48e-01,3.03e-02,
53,2.40e-01,2.95e-02,
54,2.48e-01,3.01e-02,
55,2.40e-01,2.91e-02,
56,2.44e-01,2.95e-02,
57,2.52e-01,2.83e-02,
58,2.44e-01,2.86e-02,
59,2.48e-01,2.91e-02,
60,2.44e-01,2.90e-02,
61,2.52e-01,2.94e-02,
62,2.52e-01,2.92e-02,
63,2.44e-01,2.97e-02,
64,2.44e-01,2.99e-02,
65,2.56e-01,2.94e-02,
66,2.48e-01,2.96e-02,
67,2.60e-01,3.01e-02,
68,2.48e-01,3.00e-02,
69,2.60e-01,2.96e-02,
70,2.48e-01,2.94e-02,
71,2.60e-01,3.04e-02,
72,2.48e-01,2.97e-02,
73,2.60e-01,3.02e-02,
74,2.52e-01,3.02e-02,
75,2.60e-01,2.95e-02,
76,2.52e-01,2.97e-02,
77,2.60e-01,3.02e-02,
78,2.52e-01,3.03e-02,
79,2.64e-01,2.95e-02,
80,2.52e-01,2.97e-02,
81,2.64e-01,3.01e-02,
82,2.68e-01,3.00e-02,
83,2.56e-01,2.97e-02,
84,2.60e-01,2.97e-02,
85,2.68e-01,3.01e-02,
86,2.56e-01,3.02e-02,
87,2.68e-01,2.96e-02,
88,2.60e-01,2.98e-02,
89,2.68e-01,2.94e-02,
90,2.64e-01,3.02e-02,
91,2.72e-01,2.96e-02,
92,2.72e-01,3.00e-02,
93,2.64e-01,2.94e-02,
94,2.68e-01,2.94e-02,
95,2.72e-01,2.99e-02,
96,2.60e-01,3.05e-02,
97,2.76e-01,2.95e-02,
98,2.76e-01,2.94e-02,
99,2.68e-01,3.02e-02,
100,2.64e-01,2.94e-02,
101,2.76e-01,2.99e-02,
102,2.72e-01,2.94e-02,
103,2.64e-01,3.00e-02,
104,2.68e-01,2.98e-02,
105,2.80e-01,2.94e-02,
106,2.80e-01,3.00e-02,
107,2.68e-01,2.94e-02,
108,2.72e-01,3.02e-02,
109,2.80e-01,2.94e-02,
110,2.84e-01,2.98e-02,
111,2.72e-01,2.92e-02,
112,2.72e-01,2.94e-02,
113,2.84e-01,3.00e-02,
114,2.76e-01,2.98e-02,
115,2.84e-01,2.94e-02,
116,2.84e-01,2.91e-02,
117,2.76e-01,2.99e-02,
118,2.84e-01,2.93e-02,
119,2.76e-01,2.99e-02,
120,2.76e-01,2.97e-02,
121,2.88e-01,2.90e-02,
122,2.80e-01,2.93e-02,
123,2.92e-01,2.99e-02,
124,2.80e-01,2.92e-02,
125,2.88e-01,2.99e-02,
126,2.88e-01,2.95e-02,
127,2.80e-01,2.98e-02,
128,2.80e-01,2.99e-02,
129,2.92e-01,2.92e-02,
130,2.84e-01,2.97e-02,
131,2.92e-01,2.91e-02,
132,2.96e-01,2.91e-02,
133,2.88e-01,2.99e-02,
134,2.88e-01,2.97e-02,
135,2.96e-01,2.91e-02,
136,2.84e-01,2.92e-02,
137,2.96e-01,2.98e-02,
138,2.92e-01,2.99e-02,
139,2.84e-01,2.90e-02,
140,2.92e-01,2.97e-02,
141,2.96e-01,2.89e-02,
142,2.96e-01,3.00e-02,
143,2.88e-01,2.93e-02,
144,2.92e-01,2.94e-02,
145,2.96e-01,2.97e-02,
146,2.96e-01,2.90e-02,
147,2.92e-01,2.97e-02,
148,2.88e-01,2.98e-02,
149,3.00e-01,2.90e-02,
150,3.00e-01,2.91e-02,
151,2.96e-01,2.98e-02,
152,3.00e-01,2.90e-02,
153,2.92e-01,2.98e-02,
154,3.00e-01,2.91e-02,
155,3.04e-01,2.98e-02,
156,3.00e-01,2.97e-02,
157,3.04e-01,2.91e-02,
158,3.00e-01,2.90e-02,
159,3.08e-01,2.95e-02,
160,3.00e-01,2.97e-02,
161,3.08e-01,2.92e-02,
162,3.08e-01,2.90e-02,
163,3.00e-01,2.96e-02,
164,3.00e-01,2.94e-02,
165,3.12e-01,2.90e-02,
166,3.04e-01,2.90e-02,
167,3.12e-01,2.95e-02,
168,3.04e-01,2.91e-02,
169,3.12e-01,2.96e-02,
170,3.04e-01,2.91e-02,
171,3.12e-01,2.98e-02,
172,3.12e-01,2.98e-02,
173,3.04e-01,2.91e-02,
174,3.16e-01,2.98e-02,
175,3.08e-01,2.90e-02,
176,3.08e-01,2.97e-02,
177,3.20e-01,2.91e-02,
178,3.12e-01,2.89e-02,
179,3.24e-01,2.93e-02,
180,3.12e-01,2.96e-02,
181,3.20e-01,2.89e-02,
182,3.20e-01,2.90e-02,
183,3.16e-01,2.98e-02,
184,3.24e-01,2.94e-02,
185,3.16e-01,2.88e-02,
186,3.16e-01,2.94e-02,
187,3.24e-01,2.87e-02,
188,3.24e-01,2.90e-02,
189,3.16e-01,2.94e-02,
190,3.16e-01,2.90e-02,
191,3.24e-01,2.97e-02,
192,3.16e-01,2.90e-02,
193,3.24e-01,2.94e-02,
194,3.24e-01,2.88e-02,
195,3.16e-01,2.96e-02,
196,3.20e-01,2.96e-02,
197,3.28e-01,2.92e-02,
198,3.24e-01,2.91e-02,
199,3.20e-01,2.94e-02,
200,3.24e-01,2.91e-02,
201,3.28e-01,2.98e-02,
202,3.24e-01,2.90e-02,
203,3.32e-01,2.97e-02,
204,3.32e-01,2.88e-02,
205,3.36e-01,2.94e-02,
206,3.36e-01,2.95e-02,
207,3.28e-01,2.90e-02,
208,3.32e-01,2.93e-02,
209,3.36e-01,2.86e-02,
210,3.40e-01,2.92e-02,
211,3.28e-01,2.88e-02,
212,3.32e-01,2.94e-02,
213,3.28e-01,2.86e-02,
214,3.28e-01,2.92e-02,
215,3.36e-01,2.86e-02,
216,3.32e-01,2.89e-02,
217,3.36e-01,2.94e-02,
218,3.40e-01,2.86e-02,
219,3.32e-01,2.96e-02,
220,3.32e-01,2.94e-02,
221,3.40e-01,2.88e-02,
222,3.40e-01,2.92e-02,
223,3.48e-01,2.82e-02,
224,3.40e-01,2.91e-02,
225,3.44e-01,2.87e-02,
226,3.36e-01,2.92e-02,
227,3.48e-01,2.86e-02,
228,3.36e-01,2.84e-02,
229,3.48e-01,2.93e-02,
230,3.40e-01,2.92e-02,
231,3.44e-01,2.87e-02,
232,3.48e-01,2.88e-02,
233,3.40e-01,2.93e-02,
234,3.40e-01,2.86e-02,
235,3.48e-01,2.94e-02,
236,3.44e-01,2.94e-02,
237,3.48e-01,2.88e-02,
238,3.52e-01,2.86e-02,
239,3.48e-01,2.92e-02,
240,3.48e-01,2.87e-02,
241,3.60e-01,2.91e-02,
242,3.52e-01,2.86e-02,
243,3.44e-01,2.92e-02,
244,3.44e-01,2.88e-02,
245,3.52e-01,2.80e-02,
246,3.52e-01,2.80e-02,
247,3.44e-01,2.70e-02,
248,3.52e-01,2.69e-02,
249,3.52e-01,2.66e-02,
250,3.52e-01,2.68e-02,
251,3.64e-01,2.74e-02,
252,3.56e-01,2.74e-02,
253,3.64e-01,2.82e-02,
254,3.56e-01,2.86e-02,
255,3.60e-01,2.78e-02,
256,3.56e-01,2.83e-02,
257,3.64e-01,2.90e-02,
258,3.56e-01,2.83e-02,
259,3.64e-01,2.92e-02,
260,3.56e-01,2.90e-02,
261,3.64e-01,2.84e-02,
262,3.56e-01,2.85e-02,
263,3.64e-01,2.92e-02,
264,3.64e-01,2.82e-02,
265,3.68e-01,2.92e-02,
266,3.60e-01,2.90e-02,
267,3.72e-01,2.85e-02,
268,3.60e-01,2.91e-02,
269,3.68e-01,2.86e-02,
270,3.60e-01,2.85e-02,
271,3.68e-01,2.90e-02,
272,3.60e-01,2.83e-02,
273,3.72e-01,2.90e-02,
274,3.64e-01,2.85e-02,
275,3.76e-01,2.90e-02,
276,3.76e-01,2.90e-02,
277,3.68e-01,2.85e-02,
278,3.72e-01,2.82e-02,
279,3.68e-01,2.90e-02,
280,3.64e-01,2.85e-02,
281,3.76e-01,2.90e-02,
282,3.72e-01,2.86e-02,
283,3.68e-01,2.90e-02,
284,3.72e-01,2.82e-02,
285,3.80e-01,2.89e-02,
286,3.84e-01,2.90e-02,
287,3.72e-01,2.82e-02,
288,3.76e-01,2.84e-02,
289,3.80e-01,2.90e-02,
290,3.72e-01,2.84e-02,
291,3.76e-01,2.91e-02,
292,3.76e-01,2.83e-02,
293,3.80e-01,2.90e-02,
294,3.84e-01,2.84e-02,
295,3.80e-01,2.88e-02,
296,3.80e-01,2.84e-02,
297,3.84e-01,2.88e-02,
298,3.88e-01,2.88e-02,
299,3.76e-01,2.84e-02,
300,3.80e-01,2.88e-02,
301,3.92e-01,2.83e-02,
302,3.92e-01,2.90e-02,
303,3.80e-01,2.83e-02,
304,3.88e-01,2.83e-02,
305,3.80e-01,2.90e-02,
306,3.80e-01,2.90e-02,
307,3.88e-01,2.83e-02,
308,3.92e-01,2.82e-02,
309,3.84e-01,2.88e-02,
310,3.84e-01,2.82e-02,
311,3.92e-01,2.90e-02,
312,3.88e-01,2.82e-02,
313,3.96e-01,2.91e-02,
314,3.92e-01,2.87e-02,
315,3.88e-01,2.81e-02,
316,3.84e-01,2.82e-02,
317,3.96e-01,2.88e-02,
318,4.00e-01,2.90e-02,
319,3.92e-01,2.82e-02,
320,3.96e-01,2.82e-02,
321,3.88e-01,2.88e-02,
322,3.92e-01,2.91e-02,
323,4.04e-01,2.81e-02,
324,4.04e-01,2.86e-02,
325,3.88e-01,2.81e-02,
326,3.92e-01,2.83e-02,
327,4.04e-01,2.87e-02,
328,4.00e-01,2.81e-02,
329,3.92e-01,2.90e-02,
330,3.92e-01,2.87e-02,
331,4.04e-01,2.82e-02,
332,4.04e-01,2.86e-02,
333,3.92e-01,2.81e-02,
334,4.08e-01,2.89e-02,
335,4.00e-01,2.80e-02,
336,3.96e-01,2.86e-02,
337,4.08e-01,2.82e-02,
338,4.04e-01,2.82e-02,
339,3.96e-01,2.88e-02,
340,4.04e-01,2.87e-02,
341,4.16e-01,2.82e-02,
342,4.04e-01,2.86e-02,
343,4.12e-01,2.82e-02,
344,4.04e-01,2.80e-02,
345,4.12e-01,2.86e-02,
346,4.16e-01,2.79e-02,
347,4.04e-01,2.86e-02,
348,4.04e-01,2.88e-02,
349,4.12e-01,2.79e-02,
350,4.08e-01,2.80e-02,
351,4.16e-01,2.86e-02,
352,4.16e-01,2.87e-02,
353,4.08e-01,2.80e-02,
354,4.20e-01,2.84e-02,
355,4.08e-01,2.80e-02,
356,4.20e-01,2.85e-02,
357,4.08e-01,2.79e-02,
358,4.12e-01,2.78e-02,
359,4.20e-01,2.88e-02,
360,4.24e-01,2.81e-02,
361,4.12e-01,2.85e-02,
362,4.20e-01,2.79e-02,
363,4.12e-01,2.86e-02,
364,4.24e-01,2.88e-02,
365,4.12e-01,2.81e-02,
366,4.24e-01,2.79e-02,
367,4.16e-01,2.86e-02,
368,4.28e-01,2.77e-02,
369,4.20e-01,2.83e-02,
370,4.28e-01,2.79e-02,
371,4.16e-01,2.83e-02,
372,4.28e-01,2.82e-02,
373,4.16e-01,2.77e-02,
374,4.20e-01,2.78e-02,
375,4.32e-01,2.85e-02,
376,4.24e-01,2.79e-02,
377,4.32e-01,2.85e-02,
378,4.24e-01,2.85e-02,
379,4.36e-01,2.78e-02,
380,4.24e-01,2.85e-02,
381,4.32e-01,2.78e-02,
382,4.28e-01,2.85e-02,
383,4.36e-01,2.79e-02,
384,4.28e-01,2.85e-02,
385,4.32e-01,2.79e-02,
386,4.40e-01,2.80e-02,
387,4.28e-01,2.86e-02,
388,4.32e-01,2.79e-02,
389,4.36e-01,2.86e-02,
390,4.24e-01,2.85e-02,
391,4.40e-01,2.78e-02,
392,4.44e-01,2.76e-02,
393,4.28e-01,2.87e-02,
394,4.32e-01,2.84e-02,
395,4.44e-01,2.79e-02,
396,4.32e-01,2.82e-02,
397,4.44e-01,2.77e-02,
398,4.32e-01,2.78e-02,
399,4.40e-01,2.85e-02,
400,4.32e-01,2.79e-02,
401,4.44e-01,2.84e-02,
402,4.48e-01,2.83e-02,
403,4.36e-01,2.77e-02,
404,4.36e-01,2.78e-02,
405,4.48e-01,2.85e-02,
406,4.36e-01,2.78e-02,
407,4.48e-01,2.86e-02,
408,4.40e-01,2.79e-02,
409,4.52e-01,2.84e-02,
410,4.48e-01,2.77e-02,
411,4.40e-01,2.82e-02,
412,4.40e-01,2.77e-02,
413,4.52e-01,2.84e-02,
414,4.52e-01,2.82e-02,
415,4.40e-01,2.78e-02,
416,4.52e-01,2.74e-02,
417,4.48e-01,2.82e-02,
418,4.40e-01,2.83e-02,
419,4.52e-01,2.77e-02,
420,4.48e-01,2.78e-02,
421,4.56e-01,2.82e-02,
422,4.48e-01,2.82e-02,
423,4.60e-01,2.77e-02,
424,4.44e-01,2.83e-02,
425,4.56e-01,2.76e-02,
426,4.48e-01,2.84e-02,
427,4.56e-01,2.76e-02,
428,4.56e-01,2.82e-02,
429,4.48e-01,2.76e-02,
430,4.60e-01,2.74e-02,
431,4.48e-01,2.81e-02,
432,4.52e-01,2.75e-02,
433,4.64e-01,2.85e-02,
434,4.52e-01,2.79e-02,
435,4.64e-01,2.75e-02,
436,4.56e-01,2.75e-02,
437,4.68e-01,2.69e-02,
438,4.64e-01,2.72e-02,
439,4.52e-01,2.52e-02,
440,4.52e-01,2.54e-02,
441,4.68e-01,2.46e-02,
442,4.56e-01,2.43e-02,
443,4.72e-01,2.58e-02,
444,4.60e-01,2.54e-02,
445,4.72e-01,2.65e-02,
446,4.64e-01,2.66e-02,
447,4.72e-01,2.74e-02,
448,4.60e-01,2.69e-02,
449,4.76e-01,2.76e-02,
450,4.64e-01,2.71e-02,
451,4.72e-01,2.80e-02,
452,4.64e-01,2.74e-02,
453,4.76e-01,2.79e-02,
454,4.64e-01,2.78e-02,
455,4.72e-01,2.71e-02,
456,4.76e-01,2.74e-02,
457,4.64e-01,2.82e-02,
458,4.64e-01,2.80e-02,
459,4.80e-01,2.72e-02,
460,4.76e-01,2.79e-02,
461,4.68e-01,2.74e-02,
462,4.76e-01,2.73e-02,
463,4.68e-01,2.81e-02,
464,4.76e-01,2.78e-02,
465,4.68e-01,2.74e-02,
466,4.68e-01,2.80e-02,
467,4.84e-01,2.72e-02,
468,4.80e-01,2.80e-02,
469,4.72e-01,2.72e-02,
470,4.72e-01,2.74e-02,
471,4.84e-01,2.79e-02,
472,4.76e-01,2.79e-02,
473,4.84e-01,2.74e-02,
474,4.76e-01,2.73e-02,
475,4.88e-01,2.80e-02,
476,4.76e-01,2.78e-02,
477,4.84e-01,2.71e-02,
478,4.84e-01,2.71e-02,
479,4.76e-01,2.78e-02,
480,4.80e-01,2.78e-02,
481,4.92e-01,2.74e-02,
482,4.88e-01,2.79e-02,
483,4.80e-01,2.72e-02,
484,4.80e-01,2.74e-02,
485,4.92e-01,2.79e-02,
486,4.84e-01,2.74e-02,
487,4.92e-01,2.79e-02,
488,4.84e-01,2.78e-02,
489,4.92e-01,2.71e-02,
490,4.84e-01,2.77e-02,
491,4.96e-01,2.71e-02,
492,4.96e-01,2.73e-02,
493,4.84e-01,2.78e-02,
494,5.00e-01,2.76e-02,
495,4.88e-01,2.71e-02,
496,5.00e-01,2.73e-02,
497,4.88e-01,2.79e-02,
498,4.88e-01,2.74e-02,
499,5.04e-01,2.79e-02,
500,5.00e-01,2.79e-02,
501,4.88e-01,2.74e-02,
502,4.92e-01,2.78e-02,
503,5.04e-01,2.68e-02,
504,4.88e-01,2.78e-02,
505,5.04e-01,2.71e-02,
506,4.92e-01,2.77e-02,
507,5.04e-01,2.70e-02,
508,5.04e-01,2.70e-02,
509,4.92e-01,2.77e-02,
510,5.08e-01,2.76e-02,
511,4.92e-01,2.71e-02,
512,5.00e-01,2.77e-02,
513,5.08e-01,2.70e-02,
514,5.08e-01,2.76e-02,
515,5.00e-01,2.71e-02,
516,5.08e-01,2.75e-02,
517,5.04e-01,2.71e-02,
518,5.08e-01,2.71e-02,
519,5.00e-01,2.77e-02,
520,4.96e-01,2.71e-02,
521,5.12e-01,2.78e-02,
522,5.00e-01,2.74e-02,
523,5.16e-01,2.71e-02,
524,5.04e-01,2.76e-02,
525,5.16e-01,2.71e-02,
526,5.00e-01,2.71e-02,
527,5.12e-01,2.78e-02,
528,5.04e-01,2.75e-02,
529,5.12e-01,2.70e-02,
530,5.16e-01,2.76e-02,
531,5.08e-01,2.71e-02,
532,5.08e-01,2.76e-02,
533,5.24e-01,2.72e-02,
534,5.08e-01,2.71e-02,
535,5.20e-01,2.76e-02,
536,5.12e-01,2.78e-02,
537,5.24e-01,2.70e-02,
538,5.20e-01,2.70e-02,
539,5.12e-01,2.74e-02,
540,5.16e-01,2.70e-02,
541,5.24e-01,2.76e-02,
542,5.24e-01,2.74e-02,
543,5.12e-01,2.69e-02,
544,5.12e-01,2.76e-02,
545,5.28e-01,2.68e-02,
546,5.24e-01,2.71e-02,
547,5.12e-01,2.74e-02,
548,5.16e-01,2.74e-02,
549,5.28e-01,2.66e-02,
550,5.16e-01,2.68e-02,
551,5.32e-01,2.75e-02,
552,5.28e-01,2.71e-02,
553,5.20e-01,2.69e-02,
554,5.32e-01,2.68e-02,
555,5.20e-01,2.72e-02,
556,5.16e-01,2.74e-02,
557,5.32e-01,2.68e-02,
558,5.20e-01,2.73e-02,
559,5.28e-01,2.66e-02,
560,5.24e-01,2.70e-02,
561,5.32e-01,2.62e-02,
562,5.24e-01,2.63e-02,
563,5.36e-01,2.70e-02,
564,5.36e-01,2.62e-02,
565,5.24e-01,2.71e-02,
566,5.36e-01,2.62e-02,
567,5.28e-01,2.71e-02,
568,5.40e-01,2.66e-02,
569,5.28e-01,2.72e-02,
570,5.36e-01,2.70e-02,
571,5.28e-01,2.74e-02,
572,5.44e-01,2.73e-02,
573,5.32e-01,2.66e-02,
574,5.40e-01,2.66e-02,
575,5.32e-01,2.74e-02,
576,5.32e-01,2.68e-02,
577,5.44e-01,2.73e-02,
578,5.36e-01,2.67e-02,
579,5.44e-01,2.71e-02,
580,5.36e-01,2.66e-02,
581,5.44e-01,2.74e-02,
582,5.48e-01,2.74e-02,
583,5.36e-01,2.67e-02,
584,5.44e-01,2.74e-02,
585,5.36e-01,2.67e-02,
586,5.48e-01,2.73e-02,
587,5.36e-01,2.69e-02,
588,5.40e-01,2.73e-02,
589,5.48e-01,2.67e-02,
590,5.52e-01,2.73e-02,
591,5.40e-01,2.66e-02,
592,5.40e-01,2.72e-02,
593,5.48e-01,2.65e-02,
594,5.52e-01,2.66e-02,
595,5.40e-01,2.71e-02,
596,5.40e-01,2.72e-02,
597,5.56e-01,2.66e-02,
598,5.56e-01,2.63e-02,
599,5.40e-01,2.74e-02,
600,5.48e-01,2.71e-02,
601,5.56e-01,2.65e-02,
602,5.60e-01,2.66e-02,
603,5.44e-01,2.74e-02,
604,5.60e-01,2.71e-02,
605,5.48e-01,2.66e-02,
606,5.60e-01,2.66e-02,
607,5.52e-01,2.71e-02,
608,5.48e-01,2.72e-02,
609,5.60e-01,2.66e-02,
610,5.52e-01,2.67e-02,
611,5.64e-01,2.73e-02,
612,5.52e-01,2.66e-02,
613,5.68e-01,2.72e-02,
614,5.64e-01,2.66e-02,
615,5.48e-01,2.71e-02,
616,5.52e-01,2.71e-02,
617,5.64e-01,2.64e-02,
618,5.68e-01,2.66e-02,
619,5.56e-01,2.71e-02,
620,5.68e-01,2.64e-02,
621,5.56e-01,2.70e-02,
622,5.56e-01,2.66e-02,
623,5.68e-01,2.71e-02,
624,5.72e-01,2.64e-02,
625,5.60e-01,2.72e-02,
626,5.60e-01,2.74e-02,
627,5.68e-01,2.65e-02,
628,5.68e-01,2.70e-02,
629,5.64e-01,2.58e-02,
630,5.64e-01,2.63e-02,
631,5.72e-01,2.51e-02,
632,5.64e-01,2.54e-02,
633,5.72e-01,2.29e-02,
634,5.64e-01,2.28e-02,
635,5.80e-01,2.22e-02,
636,5.64e-01,2.27e-02,
637,5.72e-01,2.42e-02,
638,5.68e-01,2.41e-02,
639,5.80e-01,2.54e-02,
640,5.80e-01,2.53e-02,
641,5.68e-01,2.62e-02,
642,5.80e-01,2.60e-02,
643,5.68e-01,2.69e-02,
644,5.72e-01,2.60e-02,
645,5.80e-01,2.66e-02,
646,5.72e-01,2.64e-02,
647,5.84e-01,2.68e-02,
648,5.84e-01,2.63e-02,
649,5.72e-01,2.68e-02,
650,5.72e-01,2.69e-02,
651,5.84e-01,2.63e-02,
652,5.88e-01,2.69e-02,
653,5.76e-01,2.64e-02,
654,5.88e-01,2.69e-02,
655,5.76e-01,2.62e-02,
656,5.80e-01,2.63e-02,
657,5.88e-01,2.68e-02,
658,5.88e-01,2.62e-02,
659,5.76e-01,2.68e-02,
660,5.88e-01,2.68e-02,
661,5.76e-01,2.63e-02,
662,5.92e-01,2.62e-02,
663,5.76e-01,2.67e-02,
664,5.76e-01,2.61e-02,
665,5.92e-01,2.68e-02,
666,5.96e-01,2.69e-02,
667,5.80e-01,2.62e-02,
668,5.92e-01,2.67e-02,
669,5.80e-01,2.60e-02,
670,5.92e-01,2.68e-02,
671,5.84e-01,2.62e-02,
672,5.88e-01,2.61e-02,
673,6.00e-01,2.68e-02,
674,5.96e-01,2.68e-02,
675,5.84e-01,2.62e-02,
676,5.88e-01,2.64e-02,
677,6.00e-01,2.68e-02,
678,5.88e-01,2.62e-02,
679,6.04e-01,2.68e-02,
680,6.00e-01,2.67e-02,
681,5.88e-01,2.62e-02,
682,5.92e-01,2.66e-02,
683,6.04e-01,2.61e-02,
684,5.92e-01,2.62e-02,
685,6.04e-01,2.66e-02,
686,6.04e-01,2.66e-02,
687,5.92e-01,2.58e-02,
688,6.04e-01,2.69e-02,
689,5.96e-01,2.60e-02,
690,6.08e-01,2.66e-02,
691,5.92e-01,2.62e-02,
692,5.96e-01,2.62e-02,
693,6.12e-01,2.65e-02,
694,6.12e-01,2.62e-02,
695,5.96e-01,2.67e-02,
696,6.00e-01,2.66e-02,
697,6.08e-01,2.62e-02,
698,6.04e-01,2.65e-02,
699,6.12e-01,2.59e-02,
700,6.12e-01,2.60e-02,
701,6.04e-01,2.66e-02,
702,6.00e-01,2.68e-02,
703,6.16e-01,2.59e-02,
704,6.00e-01,2.60e-02,
705,6.16e-01,2.66e-02,
706,6.04e-01,2.66e-02,
707,6.16e-01,2.61e-02,
708,6.16e-01,2.65e-02,
709,6.04e-01,2.59e-02,
710,6.16e-01,2.66e-02,
711,6.04e-01,2.62e-02,
712,6.16e-01,2.66e-02,
713,6.08e-01,2.60e-02,
714,6.08e-01,2.66e-02,
715,6.24e-01,2.57e-02,
716,6.08e-01,2.66e-02,
717,6.16e-01,2.59e-02,
718,6.12e-01,2.60e-02,
719,6.24e-01,2.66e-02,
720,6.16e-01,2.57e-02,
721,6.24e-01,2.66e-02,
722,6.12e-01,2.58e-02,
723,6.28e-01,2.64e-02,
724,6.16e-01,2.67e-02,
725,6.28e-01,2.60e-02,
726,6.28e-01,2.60e-02,
727,6.16e-01,2.64e-02,
728,6.16e-01,2.65e-02,
729,6.28e-01,2.59e-02,
730,6.20e-01,2.58e-02,
731,6.32e-01,2.66e-02,
732,6.20e-01,2.60e-02,
733,6.32e-01,2.66e-02,
734,6.28e-01,2.65e-02,
735,6.20e-01,2.58e-02,
736,6.20e-01,2.58e-02,
737,6.36e-01,2.63e-02,
738,6.24e-01,2.63e-02,
739,6.32e-01,2.56e-02,
740,6.36e-01,2.58e-02,
741,6.20e-01,2.65e-02,
742,6.24e-01,2.60e-02,
743,6.36e-01,2.63e-02,
744,6.24e-01,2.63e-02,
745,6.40e-01,2.58e-02,
746,6.24e-01,2.58e-02,
747,6.40e-01,2.66e-02,
748,6.28e-01,2.63e-02,
749,6.40e-01,2.58e-02,
750,6.40e-01,2.59e-02,
751,6.24e-01,2.52e-02,
752,6.28e-01,2.58e-02,
753,6.40e-01,2.53e-02,
754,6.36e-01,2.53e-02,
755,6.44e-01,2.57e-02,
756,6.28e-01,2.62e-02,
757,6.44e-01,2.56e-02,
758,6.44e-01,2.57e-02,
759,6.32e-01,2.62e-02,
760,6.40e-01,2.57e-02,
761,6.44e-01,2.65e-02,
762,6.40e-01,2.58e-02,
763,6.48e-01,2.62e-02,
764,6.44e-01,2.62e-02,
765,6.36e-01,2.59e-02,
766,6.52e-01,2.62e-02,
767,6.36e-01,2.57e-02,
768,6.40e-01,2.62e-02,
769,6.52e-01,2.56e-02,
770,6.40e-01,2.57e-02,
771,6.52e-01,2.63e-02,
772,6.44e-01,2.56e-02,
773,6.56e-01,2.63e-02,
774,6.40e-01,2.54e-02,
775,6.52e-01,2.62e-02,
776,6.56e-01,2.64e-02,
777,6.44e-01,2.57e-02,
778,6.56e-01,2.63e-02,
779,6.44e-01,2.56e-02,
780,6.44e-01,2.56e-02,
781,6.60e-01,2.62e-02,
782,6.48e-01,2.62e-02,
783,6.60e-01,2.57e-02,
784,6.48e-01,2.64e-02,
785,6.60e-01,2.54e-02,
786,6.48e-01,2.52e-02,
787,6.64e-01,2.62e-02,
788,6.48e-01,2.54e-02,
789,6.64e-01,2.61e-02,
790,6.48e-01,2.54e-02,
791,6.64e-01,2.63e-02,
792,6.64e-01,2.56e-02,
793,6.52e-01,2.62e-02,
794,6.64e-01,2.63e-02,
795,6.48e-01,2.54e-02,
796,6.56e-01,2.57e-02,
797,6.68e-01,2.61e-02,
798,6.52e-01,2.55e-02,
799,6.68e-01,2.60e-02,
800,6.68e-01,2.54e-02,
801,6.56e-01,2.62e-02,
802,6.64e-01,2.60e-02,
803,6.68e-01,2.54e-02,
804,6.60e-01,2.54e-02,
805,6.76e-01,2.60e-02,
806,6.60e-01,2.55e-02,
807,6.72e-01,2.61e-02,
808,6.60e-01,2.58e-02,
809,6.72e-01,2.55e-02,
810,6.72e-01,2.54e-02,
811,6.64e-01,2.60e-02,
812,6.68e-01,2.62e-02,
813,6.80e-01,2.55e-02,
814,6.64e-01,2.60e-02,
815,6.76e-01,2.54e-02,
816,6.68e-01,2.52e-02,
817,6.80e-01,2.58e-02,
818,6.68e-01,2.54e-02,
819,6.80e-01,2.58e-02,
820,6.64e-01,2.58e-02,
821,6.80e-01,2.52e-02,
822,6.68e-01,2.56e-02,
823,6.84e-01,2.47e-02,
824,6.72e-01,2.49e-02,
825,6.84e-01,2.26e-02,
826,6.72e-01,2.27e-02,
827,6.84e-01,2.06e-02,
828,6.88e-01,1.99e-02,
829,6.72e-01,2.08e-02,
830,6.84e-01,2.10e-02,
831,6.72e-01,2.26e-02,
832,6.76e-01,2.29e-02,
833,6.88e-01,2.45e-02,
834,6.76e-01,2.43e-02,
835,6.88e-01,2.52e-02,
836,6.76e-01,2.50e-02,
837,6.88e-01,2.55e-02,
838,6.76e-01,2.58e-02,
839,6.88e-01,2.50e-02,
840,6.80e-01,2.52e-02,
841,6.92e-01,2.57e-02,
842,6.92e-01,2.52e-02,
843,6.76e-01,2.58e-02,
844,6.92e-01,2.58e-02,
845,6.80e-01,2.50e-02,
846,6.84e-01,2.52e-02,
847,6.96e-01,2.58e-02,
848,6.84e-01,2.58e-02,
849,6.96e-01,2.52e-02,
850,6.96e-01,2.57e-02,
851,6.84e-01,2.52e-02,
852,6.96e-01,2.52e-02,
853,6.84e-01,2.59e-02,
854,6.88e-01,2.59e-02,
855,7.00e-01,2.51e-02,
856,7.04e-01,2.58e-02,
857,6.88e-01,2.50e-02,
858,6.88e-01,2.53e-02,
859,7.04e-01,2.58e-02,
860,6.92e-01,2.58e-02,
861,7.04e-01,2.53e-02,
862,7.04e-01,2.53e-02,
863,6.92e-01,2.57e-02,
864,6.92e-01,2.59e-02,
865,7.04e-01,2.51e-02,
866,6.96e-01,2.57e-02,
867,7.04e-01,2.50e-02,
868,6.96e-01,2.57e-02,
869,7.12e-01,2.52e-02,
870,6.96e-01,2.58e-02,
