to_sort/NewFile150kHz.csv

X,CH1,CH2,Start,Increment,
Sequence,Volt,Volt,-5.060000e+00,5.000000e-03
0,7.80e-01,1.05e+00,
1,7.96e-01,1.06e+00,
2,7.92e-01,1.05e+00,
3,7.80e-01,1.06e+00,
4,7.88e-01,1.06e+00,
5,7.96e-01,1.05e+00,
6,7.84e-01,1.05e+00,
7,7.96e-01,1.06e+00,
8,7.96e-01,1.05e+00,
9,7.88e-01,1.06e+00,
10,7.96e-01,1.05e+00,
11,7.84e-01,1.06e+00,
12,7.84e-01,1.05e+00,
13,8.00e-01,1.06e+00,
14,7.88e-01,1.06e+00,
15,8.00e-01,1.05e+00,
16,7.88e-01,1.05e+00,
17,8.00e-01,1.06e+00,
18,7.92e-01,1.06e+00,
19,8.04e-01,1.04e+00,
20,7.88e-01,1.04e+00,
21,8.04e-01,1.05e+00,
22,7.92e-01,1.04e+00,
23,8.04e-01,1.04e+00,
24,7.92e-01,1.04e+00,
25,8.08e-01,1.05e+00,
26,7.96e-01,1.04e+00,
27,8.08e-01,1.03e+00,
28,7.96e-01,1.03e+00,
29,8.08e-01,1.02e+00,
30,8.08e-01,1.02e+00,
31,7.96e-01,1.01e+00,
32,8.00e-01,1.01e+00,
33,8.08e-01,9.92e-01,
34,8.12e-01,9.84e-01,
35,7.96e-01,9.60e-01,
36,8.00e-01,9.52e-01,
37,8.16e-01,9.12e-01,
38,8.04e-01,9.12e-01,
39,8.20e-01,8.72e-01,
40,8.04e-01,8.72e-01,
41,8.12e-01,8.56e-01,
42,8.12e-01,8.48e-01,
43,8.04e-01,8.64e-01,
44,8.20e-01,8.72e-01,
45,8.08e-01,8.96e-01,
46,8.16e-01,9.04e-01,
47,8.08e-01,9.36e-01,
48,8.08e-01,9.36e-01,
49,8.20e-01,9.60e-01,
50,8.08e-01,9.68e-01,
51,8.20e-01,9.92e-01,
52,8.20e-01,9.92e-01,
53,8.08e-01,1.02e+00,
54,8.12e-01,1.01e+00,
55,8.20e-01,1.02e+00,
56,8.08e-01,1.02e+00,
57,8.24e-01,1.03e+00,
58,8.12e-01,1.03e+00,
59,8.28e-01,1.05e+00,
60,8.12e-01,1.04e+00,
61,8.24e-01,1.05e+00,
62,8.12e-01,1.04e+00,
63,8.28e-01,1.05e+00,
64,8.28e-01,1.05e+00,
65,8.16e-01,1.06e+00,
66,8.32e-01,1.05e+00,
67,8.12e-01,1.06e+00,
68,8.16e-01,1.06e+00,
69,8.32e-01,1.05e+00,
70,8.32e-01,1.05e+00,
71,8.16e-01,1.06e+00,
72,8.32e-01,1.05e+00,
73,8.20e-01,1.06e+00,
74,8.20e-01,1.05e+00,
75,8.32e-01,1.06e+00,
76,8.20e-01,1.05e+00,
77,8.36e-01,1.06e+00,
78,8.20e-01,1.06e+00,
79,8.36e-01,1.05e+00,
80,8.24e-01,1.06e+00,
81,8.36e-01,1.05e+00,
82,8.40e-01,1.05e+00,
83,8.20e-01,1.06e+00,
84,8.44e-01,1.06e+00,
85,8.24e-01,1.05e+00,
86,8.40e-01,1.05e+00,
87,2.44e-01,1.06e+00,
88,2.56e-01,1.05e+00,
89,2.40e-01,1.01e+00,
90,2.44e-01,1.00e+00,
91,2.56e-01,9.68e-01,
92,2.44e-01,9.68e-01,
93,2.56e-01,9.60e-01,
94,2.48e-01,9.60e-01,
95,2.56e-01,9.76e-01,
96,2.44e-01,9.84e-01,
97,2.56e-01,1.01e+00,
98,2.52e-01,1.01e+00,
99,2.48e-01,1.02e+00,
100,2.52e-01,1.02e+00,
101,2.56e-01,1.03e+00,
102,2.52e-01,1.04e+00,
103,2.64e-01,1.06e+00,
104,2.60e-01,1.06e+00,
105,2.56e-01,1.05e+00,
106,2.56e-01,1.06e+00,
107,2.64e-01,1.05e+00,
108,2.56e-01,1.05e+00,
109,2.64e-01,1.06e+00,
110,2.56e-01,1.06e+00,
111,2.64e-01,1.05e+00,
112,2.56e-01,1.05e+00,
113,2.68e-01,1.05e+00,
114,2.60e-01,1.05e+00,
115,2.68e-01,1.06e+00,
116,2.60e-01,1.06e+00,
117,2.72e-01,1.05e+00,
118,2.60e-01,1.04e+00,
119,2.72e-01,1.04e+00,
120,2.60e-01,1.04e+00,
121,2.72e-01,1.05e+00,
122,2.60e-01,1.05e+00,
123,2.72e-01,1.04e+00,
124,2.72e-01,1.04e+00,
125,2.64e-01,1.05e+00,
126,2.64e-01,1.04e+00,
127,2.76e-01,1.05e+00,
128,2.68e-01,1.05e+00,
129,2.76e-01,1.03e+00,
130,2.76e-01,1.03e+00,
131,2.64e-01,1.03e+00,
132,2.64e-01,1.03e+00,
133,2.76e-01,1.03e+00,
134,2.76e-01,1.03e+00,
135,2.68e-01,1.02e+00,
136,2.68e-01,1.02e+00,
137,2.76e-01,1.02e+00,
138,2.80e-01,1.02e+00,
139,2.72e-01,1.02e+00,
140,2.84e-01,1.02e+00,
141,2.76e-01,1.01e+00,
142,2.76e-01,1.01e+00,
143,2.84e-01,1.00e+00,
144,2.76e-01,9.92e-01,
145,2.84e-01,1.00e+00,
146,2.80e-01,9.92e-01,
147,2.88e-01,9.76e-01,
148,2.80e-01,9.76e-01,
149,2.84e-01,9.68e-01,
150,2.88e-01,9.60e-01,
151,2.76e-01,9.44e-01,
152,2.80e-01,9.52e-01,
153,2.92e-01,9.28e-01,
154,2.84e-01,9.20e-01,
155,2.80e-01,8.96e-01,
156,2.88e-01,8.96e-01,
157,2.80e-01,8.72e-01,
158,2.80e-01,8.64e-01,
159,2.88e-01,8.32e-01,
160,2.84e-01,8.32e-01,
161,2.96e-01,8.00e-01,
162,2.84e-01,8.00e-01,
163,2.96e-01,7.68e-01,
164,2.92e-01,7.68e-01,
165,2.84e-01,7.52e-01,
166,2.88e-01,7.44e-01,
167,2.96e-01,7.44e-01,
168,2.96e-01,7.44e-01,
169,2.88e-01,7.44e-01,
170,2.96e-01,7.44e-01,
171,2.92e-01,7.60e-01,
172,3.00e-01,7.60e-01,
173,2.92e-01,7.92e-01,
174,3.00e-01,7.92e-01,
175,2.88e-01,8.24e-01,
176,3.00e-01,8.24e-01,
177,2.96e-01,8.56e-01,
178,3.00e-01,8.56e-01,
179,2.96e-01,8.88e-01,
180,2.92e-01,8.96e-01,
181,3.04e-01,9.12e-01,
182,2.96e-01,9.20e-01,
183,3.04e-01,9.36e-01,
184,2.96e-01,9.44e-01,
185,3.12e-01,9.52e-01,
186,3.12e-01,9.52e-01,
187,2.96e-01,9.68e-01,
188,3.00e-01,9.68e-01,
189,3.12e-01,9.76e-01,
190,3.00e-01,9.84e-01,
191,3.12e-01,1.00e+00,
192,3.08e-01,1.00e+00,
193,3.00e-01,9.92e-01,
194,3.04e-01,1.00e+00,
195,3.08e-01,1.01e+00,
196,3.08e-01,1.00e+00,
197,3.04e-01,1.02e+00,
198,3.04e-01,1.02e+00,
199,3.16e-01,1.01e+00,
200,3.16e-01,1.01e+00,
201,3.08e-01,1.02e+00,
202,3.04e-01,1.02e+00,
203,3.12e-01,1.02e+00,
204,3.16e-01,1.02e+00,
205,3.08e-01,1.02e+00,
206,3.08e-01,1.03e+00,
207,3.16e-01,1.04e+00,
208,3.12e-01,1.03e+00,
209,3.20e-01,1.04e+00,
210,3.08e-01,1.03e+00,
211,3.20e-01,1.03e+00,
212,3.12e-01,1.03e+00,
213,3.24e-01,1.04e+00,
214,3.20e-01,1.04e+00,
215,3.12e-01,1.04e+00,
216,3.12e-01,1.04e+00,
217,3.24e-01,1.05e+00,
218,3.16e-01,1.05e+00,
219,3.24e-01,1.04e+00,
220,3.24e-01,1.05e+00,
221,3.16e-01,1.04e+00,
222,3.24e-01,1.04e+00,
223,3.16e-01,1.05e+00,
224,3.24e-01,1.04e+00,
225,3.16e-01,1.05e+00,
226,3.16e-01,1.04e+00,
227,3.28e-01,1.05e+00,
228,3.20e-01,1.04e+00,
229,3.28e-01,1.06e+00,
230,3.20e-01,1.06e+00,
231,3.32e-01,1.04e+00,
232,3.24e-01,1.05e+00,
233,3.36e-01,1.06e+00,
234,3.24e-01,1.06e+00,
235,3.32e-01,1.05e+00,
236,3.32e-01,1.06e+00,
237,3.24e-01,1.05e+00,
238,3.20e-01,1.06e+00,
239,3.32e-01,1.05e+00,
240,3.28e-01,1.05e+00,
241,3.36e-01,1.06e+00,
242,3.32e-01,1.06e+00,
243,3.36e-01,1.05e+00,
244,3.32e-01,1.06e+00,
245,3.36e-01,1.05e+00,
246,3.32e-01,1.05e+00,
247,3.36e-01,1.06e+00,
248,3.40e-01,1.05e+00,
249,3.32e-01,1.06e+00,
250,3.32e-01,1.05e+00,
251,3.44e-01,1.06e+00,
252,3.40e-01,1.05e+00,
253,3.36e-01,1.06e+00,
254,3.36e-01,1.05e+00,
255,3.48e-01,1.06e+00,
256,3.36e-01,1.05e+00,
257,3.44e-01,1.06e+00,
258,3.44e-01,1.05e+00,
259,3.36e-01,1.06e+00,
260,3.36e-01,1.05e+00,
261,3.48e-01,1.06e+00,
262,3.40e-01,1.05e+00,
263,3.52e-01,1.06e+00,
264,3.40e-01,1.06e+00,
265,3.52e-01,1.05e+00,
266,3.48e-01,1.05e+00,
267,3.40e-01,1.06e+00,
268,3.48e-01,1.05e+00,
269,3.40e-01,1.06e+00,
270,3.44e-01,1.06e+00,
271,3.52e-01,1.05e+00,
272,3.52e-01,1.05e+00,
273,3.44e-01,1.06e+00,
274,3.44e-01,1.05e+00,
275,3.56e-01,1.06e+00,
276,3.44e-01,1.06e+00,
277,3.56e-01,1.05e+00,
278,3.48e-01,1.05e+00,
279,3.56e-01,1.06e+00,
280,3.52e-01,1.05e+00,
281,3.56e-01,1.06e+00,
282,3.52e-01,1.05e+00,
283,3.60e-01,1.06e+00,
284,3.56e-01,1.05e+00,
285,3.52e-01,1.06e+00,
286,3.52e-01,1.06e+00,
287,3.60e-01,1.05e+00,
288,3.52e-01,1.05e+00,
289,3.64e-01,1.06e+00,
290,3.56e-01,1.06e+00,
291,3.64e-01,1.05e+00,
292,3.56e-01,1.06e+00,
293,3.64e-01,1.05e+00,
294,3.64e-01,1.06e+00,
295,3.56e-01,1.05e+00,
296,3.60e-01,1.06e+00,
297,3.64e-01,1.05e+00,
298,3.60e-01,1.05e+00,
299,3.64e-01,1.06e+00,
300,3.60e-01,1.06e+00,
301,3.64e-01,1.06e+00,
302,3.64e-01,1.06e+00,
303,3.72e-01,1.05e+00,
304,3.64e-01,1.06e+00,
305,3.72e-01,1.06e+00,
306,3.64e-01,1.06e+00,
307,3.72e-01,1.06e+00,
308,3.64e-01,1.06e+00,
309,3.76e-01,1.06e+00,
310,3.68e-01,1.06e+00,
311,3.76e-01,1.06e+00,
312,3.76e-01,1.06e+00,
313,3.64e-01,1.06e+00,
314,3.76e-01,1.06e+00,
315,3.64e-01,1.06e+00,
316,3.68e-01,1.06e+00,
317,3.80e-01,1.06e+00,
318,3.68e-01,1.06e+00,
319,3.76e-01,1.06e+00,
320,3.76e-01,1.06e+00,
321,3.72e-01,1.06e+00,
322,3.80e-01,1.06e+00,
323,3.72e-01,1.06e+00,
324,3.80e-01,1.06e+00,
325,3.72e-01,1.06e+00,
326,3.76e-01,1.06e+00,
327,3.84e-01,1.06e+00,
328,3.72e-01,1.06e+00,
329,3.84e-01,1.06e+00,
330,3.72e-01,1.06e+00,
331,3.88e-01,1.06e+00,
332,3.76e-01,1.06e+00,
333,3.88e-01,1.06e+00,
334,3.80e-01,1.06e+00,
335,3.84e-01,1.06e+00,
336,3.84e-01,1.06e+00,
337,3.76e-01,1.06e+00,
338,3.84e-01,1.06e+00,
339,3.88e-01,1.06e+00,
340,3.84e-01,1.06e+00,
341,3.92e-01,1.06e+00,
342,3.84e-01,1.06e+00,
343,3.92e-01,1.06e+00,
344,3.84e-01,1.06e+00,
345,3.92e-01,1.06e+00,
346,3.84e-01,1.06e+00,
347,3.92e-01,1.06e+00,
348,3.92e-01,1.06e+00,
349,3.84e-01,1.06e+00,
350,4.00e-01,1.06e+00,
351,3.84e-01,1.06e+00,
352,3.96e-01,1.06e+00,
353,3.88e-01,1.06e+00,
354,3.96e-01,1.06e+00,
355,3.92e-01,1.06e+00,
356,3.88e-01,1.06e+00,
357,4.00e-01,1.06e+00,
358,3.88e-01,1.06e+00,
359,4.00e-01,1.06e+00,
360,3.92e-01,1.06e+00,
361,4.00e-01,1.06e+00,
362,3.92e-01,1.06e+00,
363,4.00e-01,1.06e+00,
364,4.04e-01,1.06e+00,
365,3.92e-01,1.06e+00,
366,3.96e-01,1.06e+00,
367,4.04e-01,1.06e+00,
368,4.04e-01,1.06e+00,
369,3.96e-01,1.06e+00,
370,4.00e-01,1.06e+00,
371,4.08e-01,1.06e+00,
372,4.04e-01,1.06e+00,
373,3.96e-01,1.06e+00,
374,4.04e-01,1.06e+00,
375,4.08e-01,1.06e+00,
376,4.00e-01,1.06e+00,
377,4.08e-01,1.06e+00,
378,4.04e-01,1.06e+00,
379,4.16e-01,1.06e+00,
380,4.04e-01,1.06e+00,
381,4.08e-01,1.06e+00,
382,4.04e-01,1.06e+00,
383,4.12e-01,1.06e+00,
384,4.04e-01,1.06e+00,
385,4.12e-01,1.06e+00,
386,4.08e-01,1.06e+00,
387,4.12e-01,1.06e+00,
388,4.08e-01,1.06e+00,
389,4.16e-01,1.06e+00,
390,4.08e-01,1.06e+00,
391,4.20e-01,1.06e+00,
392,4.08e-01,1.06e+00,
393,4.16e-01,1.06e+00,
394,4.20e-01,1.06e+00,
395,4.12e-01,1.06e+00,
396,4.20e-01,1.06e+00,
397,4.12e-01,1.06e+00,
398,4.12e-01,1.06e+00,
399,4.24e-01,1.06e+00,
400,4.20e-01,1.06e+00,
401,4.12e-01,1.06e+00,
402,4.16e-01,1.06e+00,
403,4.24e-01,1.06e+00,
404,4.16e-01,1.06e+00,
405,4.28e-01,1.06e+00,
406,4.28e-01,1.06e+00,
407,4.16e-01,1.06e+00,
408,4.28e-01,1.06e+00,
409,4.20e-01,1.06e+00,
410,4.28e-01,1.06e+00,
411,4.20e-01,1.06e+00,
412,4.20e-01,1.06e+00,
413,4.28e-01,1.06e+00,
414,4.28e-01,1.06e+00,
415,4.20e-01,1.06e+00,
416,4.32e-01,1.06e+00,
417,4.20e-01,1.06e+00,
418,4.32e-01,1.06e+00,
419,4.24e-01,1.06e+00,
420,4.24e-01,1.06e+00,
421,4.32e-01,1.06e+00,
422,4.36e-01,1.06e+00,
423,4.24e-01,1.06e+00,
424,4.24e-01,1.06e+00,
425,4.36e-01,1.06e+00,
426,4.40e-01,1.06e+00,
427,4.28e-01,1.06e+00,
428,4.36e-01,1.06e+00,
429,4.32e-01,1.06e+00,
430,4.28e-01,1.06e+00,
431,4.40e-01,1.06e+00,
432,4.36e-01,1.06e+00,
433,4.28e-01,1.06e+00,
434,4.40e-01,1.06e+00,
435,4.28e-01,1.06e+00,
436,4.36e-01,1.06e+00,
437,4.44e-01,1.06e+00,
438,4.36e-01,1.06e+00,
439,4.40e-01,1.06e+00,
440,4.36e-01,1.06e+00,
441,4.40e-01,1.06e+00,
442,4.40e-01,1.06e+00,
443,4.44e-01,1.06e+00,
444,4.40e-01,1.06e+00,
445,4.48e-01,1.06e+00,
446,4.48e-01,1.06e+00,
447,4.36e-01,1.06e+00,
448,4.40e-01,1.06e+00,
449,4.52e-01,1.06e+00,
450,4.44e-01,1.06e+00,
451,4.40e-01,1.06e+00,
452,4.48e-01,1.06e+00,
453,4.40e-01,1.06e+00,
454,4.52e-01,1.06e+00,
455,4.40e-01,1.06e+00,
456,4.52e-01,1.06e+00,
457,4.40e-01,1.06e+00,
458,4.52e-01,1.06e+00,
459,4.44e-01,1.06e+00,
460,4.52e-01,1.06e+00,
461,4.44e-01,1.06e+00,
462,4.56e-01,1.06e+00,
463,4.48e-01,1.06e+00,
464,4.48e-01,1.06e+00,
465,4.60e-01,1.06e+00,
466,4.44e-01,1.06e+00,
467,4.56e-01,1.06e+00,
468,4.48e-01,1.06e+00,
469,4.60e-01,1.06e+00,
470,4.48e-01,1.06e+00,
471,4.60e-01,1.06e+00,
472,4.52e-01,1.06e+00,
473,4.60e-01,1.06e+00,
474,4.56e-01,1.06e+00,
475,4.60e-01,1.06e+00,
476,4.52e-01,1.06e+00,
477,4.60e-01,1.06e+00,
478,4.60e-01,1.06e+00,
479,4.64e-01,1.06e+00,
480,4.64e-01,1.06e+00,
481,4.56e-01,1.06e+00,
482,4.60e-01,1.06e+00,
483,4.68e-01,1.06e+00,
484,4.64e-01,1.06e+00,
485,4.60e-01,1.06e+00,
486,4.72e-01,1.06e+00,
487,4.60e-01,1.06e+00,
488,4.60e-01,1.06e+00,
489,4.72e-01,1.06e+00,
490,4.72e-01,1.06e+00,
491,4.64e-01,1.06e+00,
492,4.60e-01,1.06e+00,
493,4.76e-01,1.06e+00,
494,4.72e-01,1.06e+00,
495,4.68e-01,1.06e+00,
496,4.64e-01,1.06e+00,
497,4.76e-01,1.06e+00,
498,4.76e-01,1.06e+00,
499,4.64e-01,1.06e+00,
500,4.76e-01,1.06e+00,
501,4.68e-01,1.06e+00,
502,4.68e-01,1.06e+00,
503,4.76e-01,1.06e+00,
504,4.72e-01,1.06e+00,
505,4.76e-01,1.06e+00,
506,4.72e-01,1.06e+00,
507,4.80e-01,1.06e+00,
508,4.80e-01,1.06e+00,
509,4.72e-01,1.06e+00,
510,4.72e-01,1.06e+00,
511,4.84e-01,1.06e+00,
512,4.76e-01,1.06e+00,
513,4.84e-01,1.06e+00,
514,4.84e-01,1.06e+00,
515,4.72e-01,1.06e+00,
516,4.80e-01,1.06e+00,
517,4.76e-01,1.06e+00,
518,4.76e-01,1.06e+00,
519,4.84e-01,1.06e+00,
520,4.88e-01,1.06e+00,
521,4.76e-01,1.06e+00,
522,4.80e-01,1.06e+00,
523,4.88e-01,1.06e+00,
524,4.88e-01,1.06e+00,
525,4.84e-01,1.06e+00,
526,4.88e-01,1.06e+00,
527,4.80e-01,1.06e+00,
528,4.96e-01,1.06e+00,
529,4.80e-01,1.06e+00,
530,4.88e-01,1.06e+00,
531,4.92e-01,1.06e+00,
532,4.88e-01,1.06e+00,
533,4.96e-01,1.06e+00,
534,4.80e-01,1.06e+00,
535,4.96e-01,1.06e+00,
536,5.00e-01,1.06e+00,
537,4.88e-01,1.06e+00,
538,4.96e-01,1.06e+00,
539,4.88e-01,1.06e+00,
540,4.96e-01,1.06e+00,
541,4.88e-01,1.06e+00,
542,4.92e-01,1.06e+00,
543,5.00e-01,1.06e+00,
544,5.00e-01,1.06e+00,
545,4.92e-01,1.06e+00,
546,5.04e-01,1.06e+00,
547,4.92e-01,1.06e+00,
548,4.92e-01,1.06e+00,
549,5.08e-01,1.06e+00,
550,4.96e-01,1.06e+00,
551,5.04e-01,1.06e+00,
552,4.96e-01,1.06e+00,
553,5.08e-01,1.06e+00,
554,4.96e-01,1.06e+00,
555,5.08e-01,1.06e+00,
556,5.08e-01,1.06e+00,
557,4.96e-01,1.06e+00,
558,5.00e-01,1.06e+00,
559,5.08e-01,1.06e+00,
560,5.00e-01,1.06e+00,
561,5.08e-01,1.06e+00,
562,5.00e-01,1.06e+00,
563,5.12e-01,1.06e+00,
564,5.00e-01,1.06e+00,
565,5.12e-01,1.06e+00,
566,5.04e-01,1.06e+00,
567,5.12e-01,1.06e+00,
568,5.12e-01,1.06e+00,
569,5.04e-01,1.06e+00,
570,5.16e-01,1.06e+00,
571,5.04e-01,1.06e+00,
572,5.12e-01,1.06e+00,
573,5.16e-01,1.06e+00,
574,5.16e-01,1.06e+00,
575,5.08e-01,1.06e+00,
576,5.20e-01,1.06e+00,
577,5.08e-01,1.06e+00,
578,5.08e-01,1.06e+00,
579,5.24e-01,1.06e+00,
580,5.12e-01,1.06e+00,
581,5.16e-01,1.06e+00,
582,5.20e-01,1.06e+00,
583,5.12e-01,1.06e+00,
584,5.12e-01,1.06e+00,
585,5.20e-01,1.06e+00,
586,5.16e-01,1.06e+00,
587,5.24e-01,1.06e+00,
588,5.28e-01,1.06e+00,
589,5.12e-01,1.06e+00,
590,5.20e-01,1.06e+00,
591,5.24e-01,1.06e+00,
592,5.16e-01,1.06e+00,
593,5.24e-01,1.06e+00,
594,5.16e-01,1.06e+00,
595,5.32e-01,1.06e+00,
596,5.28e-01,1.06e+00,
597,5.20e-01,1.06e+00,
598,5.32e-01,1.06e+00,
599,5.20e-01,1.06e+00,
600,5.32e-01,1.06e+00,
601,5.20e-01,1.06e+00,
602,5.32e-01,1.06e+00,
603,5.20e-01,1.06e+00,
604,5.24e-01,1.06e+00,
605,5.32e-01,1.06e+00,
606,5.24e-01,1.06e+00,
607,5.36e-01,1.06e+00,
608,5.24e-01,1.06e+00,
609,5.36e-01,1.06e+00,
610,5.24e-01,1.06e+00,
611,5.36e-01,1.06e+00,
612,5.36e-01,1.06e+00,
613,5.28e-01,1.06e+00,
614,5.28e-01,1.06e+00,
615,5.40e-01,1.06e+00,
616,5.40e-01,1.06e+00,
617,5.28e-01,1.06e+00,
618,5.40e-01,1.06e+00,
619,5.28e-01,1.06e+00,
620,5.36e-01,1.06e+00,
621,5.40e-01,1.06e+00,
622,5.44e-01,1.06e+00,
623,5.32e-01,1.06e+00,
624,5.32e-01,1.06e+00,
625,5.44e-01,1.06e+00,
626,5.40e-01,1.06e+00,
627,5.48e-01,1.06e+00,
628,5.48e-01,1.06e+00,
629,5.36e-01,1.06e+00,
630,5.40e-01,1.06e+00,
631,5.52e-01,1.06e+00,
632,5.40e-01,1.06e+00,
633,5.48e-01,1.06e+00,
634,5.36e-01,1.06e+00,
635,5.48e-01,1.06e+00,
636,5.52e-01,1.06e+00,
637,5.36e-01,1.06e+00,
638,5.52e-01,1.06e+00,
639,5.40e-01,1.06e+00,
640,5.52e-01,1.06e+00,
641,5.44e-01,1.06e+00,
642,5.44e-01,1.06e+00,
643,5.52e-01,1.06e+00,
644,5.52e-01,1.06e+00,
645,5.44e-01,1.06e+00,
646,5.48e-01,1.06e+00,
647,5.56e-01,1.06e+00,
648,5.60e-01,1.06e+00,
649,5.48e-01,1.06e+00,
650,5.48e-01,1.06e+00,
651,5.60e-01,1.06e+00,
652,5.48e-01,1.06e+00,
653,5.60e-01,1.06e+00,
654,5.48e-01,1.06e+00,
655,5.60e-01,1.06e+00,
656,5.60e-01,1.06e+00,
657,5.48e-01,1.06e+00,
658,5.64e-01,1.06e+00,
659,5.52e-01,1.06e+00,
660,5.56e-01,1.06e+00,
661,5.64e-01,1.06e+00,
662,5.60e-01,1.06e+00,
663,5.52e-01,1.06e+00,
664,5.68e-01,1.06e+00,
665,5.56e-01,1.06e+00,
666,5.56e-01,1.06e+00,
667,5.68e-01,1.06e+00,
668,5.56e-01,1.06e+00,
669,5.72e-01,1.06e+00,
670,5.68e-01,1.06e+00,
671,5.56e-01,1.06e+00,
672,5.68e-01,1.06e+00,
673,5.64e-01,1.06e+00,
674,5.64e-01,1.06e+00,
675,5.72e-01,1.06e+00,
676,5.64e-01,1.06e+00,
677,5.72e-01,1.06e+00,
678,5.80e-01,1.06e+00,
679,5.64e-01,1.06e+00,
680,5.72e-01,1.06e+00,
681,5.64e-01,1.06e+00,
682,5.80e-01,1.06e+00,
683,5.68e-01,1.06e+00,
684,5.68e-01,1.06e+00,
685,5.76e-01,1.06e+00,
686,5.68e-01,1.06e+00,
687,5.80e-01,1.06e+00,
688,5.68e-01,1.06e+00,
689,5.76e-01,1.06e+00,
690,5.80e-01,1.06e+00,
691,5.72e-01,1.06e+00,
692,5.80e-01,1.06e+00,
693,5.76e-01,1.06e+00,
694,5.72e-01,1.06e+00,
695,5.84e-01,1.06e+00,
696,5.76e-01,1.06e+00,
697,5.84e-01,1.06e+00,
698,5.72e-01,1.06e+00,
699,5.88e-01,1.06e+00,
700,5.80e-01,1.06e+00,
701,5.84e-01,1.06e+00,
702,5.76e-01,1.06e+00,
703,5.88e-01,1.06e+00,
704,5.88e-01,1.06e+00,
705,5.76e-01,1.06e+00,
706,5.76e-01,1.06e+00,
707,5.88e-01,1.06e+00,
708,5.76e-01,1.06e+00,
709,5.92e-01,1.06e+00,
710,5.84e-01,1.06e+00,
711,5.92e-01,1.06e+00,
712,5.88e-01,1.06e+00,
713,5.92e-01,1.06e+00,
714,5.84e-01,1.06e+00,
715,5.92e-01,1.06e+00,
716,5.92e-01,1.06e+00,
717,5.84e-01,1.06e+00,
718,5.88e-01,1.06e+00,
719,5.92e-01,1.06e+00,
720,5.88e-01,1.06e+00,
721,5.96e-01,1.06e+00,
722,5.88e-01,1.06e+00,
723,5.96e-01,1.06e+00,
724,5.96e-01,1.06e+00,
725,5.92e-01,1.06e+00,
726,5.88e-01,1.06e+00,
727,5.96e-01,1.06e+00,
728,6.00e-01,1.06e+00,
729,5.92e-01,1.06e+00,
730,6.04e-01,1.06e+00,
731,5.92e-01,1.06e+00,
732,6.04e-01,1.06e+00,
733,5.96e-01,1.06e+00,
734,5.96e-01,1.06e+00,
735,6.04e-01,1.06e+00,
736,6.08e-01,1.06e+00,
737,5.96e-01,1.06e+00,
738,5.96e-01,1.06e+00,
739,6.08e-01,1.06e+00,
740,6.00e-01,1.06e+00,
741,6.08e-01,1.06e+00,
742,5.96e-01,1.06e+00,
743,6.12e-01,1.06e+00,
744,6.08e-01,1.06e+00,
745,6.00e-01,1.06e+00,
746,6.00e-01,1.06e+00,
747,6.12e-01,1.06e+00,
748,6.08e-01,1.06e+00,
749,6.04e-01,1.06e+00,
750,6.12e-01,1.06e+00,
751,6.00e-01,1.06e+00,
752,6.04e-01,1.06e+00,
753,6.12e-01,1.05e+00,
754,6.04e-01,1.06e+00,
755,6.16e-01,1.06e+00,
756,6.12e-01,1.06e+00,
757,6.04e-01,1.06e+00,
758,6.08e-01,1.06e+00,
759,6.16e-01,1.06e+00,
760,6.08e-01,1.06e+00,
761,6.16e-01,1.06e+00,
762,6.20e-01,1.06e+00,
763,6.08e-01,1.06e+00,
764,6.20e-01,1.06e+00,
765,6.08e-01,1.05e+00,
766,6.24e-01,1.06e+00,
767,6.12e-01,1.05e+00,
768,6.12e-01,1.05e+00,
769,6.20e-01,1.06e+00,
770,6.20e-01,1.06e+00,
771,6.20e-01,1.05e+00,
772,6.12e-01,1.05e+00,
773,6.24e-01,1.06e+00,
774,6.24e-01,1.05e+00,
775,6.16e-01,1.06e+00,
776,6.20e-01,1.05e+00,
777,6.24e-01,1.06e+00,
778,6.20e-01,1.05e+00,
779,6.32e-01,1.06e+00,
780,6.20e-01,1.06e+00,
781,6.32e-01,1.05e+00,
782,6.32e-01,1.05e+00,
783,6.20e-01,1.06e+00,
784,6.20e-01,1.06e+00,
785,6.36e-01,1.05e+00,
786,6.24e-01,1.06e+00,
787,6.32e-01,1.05e+00,
788,6.24e-01,1.06e+00,
789,6.36e-01,1.05e+00,
790,6.36e-01,1.06e+00,
791,6.24e-01,1.04e+00,
792,6.24e-01,1.04e+00,
793,6.36e-01,1.05e+00,
794,6.28e-01,1.05e+00,
795,6.36e-01,1.03e+00,
796,6.40e-01,1.03e+00,
797,6.24e-01,1.02e+00,
798,6.40e-01,1.02e+00,
799,6.28e-01,9.92e-01,
800,6.40e-01,1.00e+00,
801,6.28e-01,9.84e-01,
802,6.40e-01,9.76e-01,
803,6.28e-01,9.60e-01,
804,6.28e-01,9.68e-01,
805,6.44e-01,9.68e-01,
806,6.44e-01,9.68e-01,
807,6.32e-01,9.84e-01,
808,6.48e-01,9.84e-01,
809,6.32e-01,9.92e-01,
810,6.32e-01,1.00e+00,
811,6.48e-01,1.02e+00,
812,6.32e-01,1.02e+00,
813,6.44e-01,1.02e+00,
814,6.48e-01,1.03e+00,
815,6.40e-01,1.05e+00,
816,6.40e-01,1.04e+00,
817,6.48e-01,1.05e+00,
818,6.36e-01,1.04e+00,
819,6.52e-01,1.06e+00,
820,6.40e-01,1.05e+00,
821,6.48e-01,1.06e+00,
822,6.52e-01,1.05e+00,
823,6.44e-01,1.06e+00,
824,6.44e-01,1.05e+00,
825,6.52e-01,1.06e+00,
826,6.48e-01,1.05e+00,
827,6.52e-01,1.06e+00,
828,6.44e-01,1.05e+00,
829,6.52e-01,1.06e+00,
830,6.44e-01,1.05e+00,
831,6.60e-01,1.06e+00,
832,6.48e-01,1.06e+00,
833,6.56e-01,1.05e+00,
834,6.56e-01,1.05e+00,
835,6.48e-01,1.06e+00,
836,6.52e-01,1.06e+00,
837,6.64e-01,1.05e+00,
838,6.48e-01,1.06e+00,
839,6.64e-01,1.05e+00,
840,6.52e-01,1.05e+00,
841,6.64e-01,1.06e+00,
842,6.64e-01,1.05e+00,
843,6.52e-01,1.06e+00,
844,6.52e-01,1.05e+00,
845,6.64e-01,1.06e+00,
846,6.56e-01,1.05e+00,
847,6.64e-01,1.06e+00,
848,6.56e-01,1.05e+00,
849,6.68e-01,1.06e+00,
850,6.64e-01,1.05e+00,
851,6.56e-01,1.06e+00,
852,6.68e-01,1.05e+00,
853,6.56e-01,1.06e+00,
854,6.56e-01,1.06e+00,
855,6.72e-01,1.05e+00,
856,6.60e-01,1.06e+00,
857,6.72e-01,1.05e+00,
858,6.72e-01,1.06e+00,
859,6.60e-01,1.06e+00,
860,6.64e-01,1.06e+00,
861,6.68e-01,1.06e+00,
862,6.72e-01,1.06e+00,
863,6.64e-01,1.05e+00,
864,6.64e-01,1.06e+00,
865,6.76e-01,1.05e+00,
866,6.76e-01,1.06e+00,
867,6.64e-01,1.06e+00,
868,6.80e-01,1.06e+00,
869,6.64e-01,1.06e+00,
870,6.80e-01,1.05e+00,
