to_sort/NewFiletest.csv

X,CH1,CH2,Start,Increment,
Sequence,Volt,Volt,1.298000e+00,1.000000e-03
0,4.06e-01,1.04e+00,
1,4.14e-01,1.03e+00,
2,4.16e-01,1.03e+00,
3,4.10e-01,1.03e+00,
4,4.10e-01,1.03e+00,
5,4.18e-01,1.04e+00,
6,4.16e-01,1.03e+00,
7,4.08e-01,1.04e+00,
8,4.12e-01,1.04e+00,
9,4.18e-01,1.03e+00,
10,4.10e-01,1.03e+00,
11,4.16e-01,1.04e+00,
12,4.16e-01,1.03e+00,
13,4.10e-01,1.03e+00,
14,4.20e-01,1.03e+00,
15,4.10e-01,1.03e+00,
16,4.12e-01,1.03e+00,
17,4.20e-01,1.03e+00,
18,4.14e-01,1.03e+00,
19,4.22e-01,1.03e+00,
20,4.20e-01,1.03e+00,
21,4.12e-01,1.03e+00,
22,4.18e-01,1.03e+00,
23,4.12e-01,1.03e+00,
24,4.14e-01,1.03e+00,
25,4.22e-01,1.03e+00,
26,4.12e-01,1.03e+00,
27,4.22e-01,1.04e+00,
28,4.16e-01,1.03e+00,
29,4.22e-01,1.03e+00,
30,4.16e-01,1.03e+00,
31,4.22e-01,1.03e+00,
32,4.16e-01,1.03e+00,
33,4.22e-01,1.03e+00,
34,4.16e-01,1.03e+00,
35,4.22e-01,1.03e+00,
36,4.22e-01,1.03e+00,
37,4.16e-01,1.04e+00,
38,4.24e-01,1.03e+00,
39,4.14e-01,1.04e+00,
40,4.24e-01,1.04e+00,
41,4.16e-01,1.03e+00,
42,4.16e-01,1.03e+00,
43,4.28e-01,1.04e+00,
44,4.16e-01,1.03e+00,
45,4.26e-01,1.03e+00,
46,4.28e-01,1.03e+00,
47,4.18e-01,1.03e+00,
48,4.26e-01,1.03e+00,
49,4.18e-01,1.03e+00,
50,4.20e-01,1.03e+00,
51,4.28e-01,1.04e+00,
52,4.18e-01,1.03e+00,
53,4.28e-01,1.04e+00,
54,4.26e-01,1.03e+00,
55,4.18e-01,1.03e+00,
56,4.20e-01,1.03e+00,
57,4.28e-01,1.03e+00,
58,4.20e-01,1.03e+00,
59,4.32e-01,1.03e+00,
60,4.18e-01,1.03e+00,
61,4.30e-01,1.04e+00,
62,4.28e-01,1.03e+00,
63,4.20e-01,1.04e+00,
64,4.30e-01,1.03e+00,
65,4.22e-01,1.04e+00,
66,4.22e-01,1.03e+00,
67,4.34e-01,1.03e+00,
68,4.32e-01,1.03e+00,
69,4.20e-01,1.04e+00,
70,4.34e-01,1.03e+00,
71,4.24e-01,1.03e+00,
72,4.34e-01,1.03e+00,
73,4.24e-01,1.04e+00,
74,4.24e-01,1.03e+00,
75,4.34e-01,1.03e+00,
76,4.32e-01,1.03e+00,
77,4.24e-01,1.03e+00,
78,4.34e-01,1.03e+00,
79,4.24e-01,1.03e+00,
80,4.28e-01,1.03e+00,
81,4.34e-01,1.03e+00,
82,4.26e-01,1.03e+00,
83,4.34e-01,1.03e+00,
84,4.36e-01,1.03e+00,
85,4.24e-01,1.03e+00,
86,4.36e-01,1.03e+00,
87,4.26e-01,1.04e+00,
88,4.34e-01,1.03e+00,
89,1.90e-01,1.03e+00,
90,1.86e-01,1.03e+00,
91,1.96e-01,9.52e-01,
92,1.94e-01,9.36e-01,
93,1.88e-01,7.44e-01,
94,1.88e-01,7.36e-01,
95,1.98e-01,6.96e-01,
96,1.96e-01,6.96e-01,
97,1.90e-01,7.60e-01,
98,1.90e-01,7.68e-01,
99,1.96e-01,8.16e-01,
100,1.90e-01,8.32e-01,
101,2.00e-01,8.72e-01,
102,2.00e-01,8.72e-01,
103,1.90e-01,9.04e-01,
104,2.00e-01,9.04e-01,
105,1.90e-01,9.20e-01,
106,2.00e-01,9.20e-01,
107,1.92e-01,9.36e-01,
108,2.00e-01,9.36e-01,
109,1.92e-01,9.52e-01,
110,2.02e-01,9.52e-01,
111,1.92e-01,9.68e-01,
112,1.92e-01,9.68e-01,
113,2.00e-01,9.68e-01,
114,2.02e-01,9.76e-01,
115,1.92e-01,9.84e-01,
116,1.96e-01,9.76e-01,
117,2.02e-01,9.84e-01,
118,1.94e-01,9.84e-01,
119,2.02e-01,9.84e-01,
120,1.96e-01,9.84e-01,
121,2.02e-01,9.92e-01,
122,1.96e-01,1.00e+00,
123,2.02e-01,9.92e-01,
124,2.06e-01,1.00e+00,
125,1.96e-01,9.92e-01,
126,1.96e-01,9.92e-01,
127,2.04e-01,1.00e+00,
128,2.02e-01,1.00e+00,
129,1.96e-01,9.92e-01,
130,2.06e-01,9.92e-01,
131,1.98e-01,9.84e-01,
132,2.06e-01,9.84e-01,
133,1.96e-01,9.92e-01,
134,2.00e-01,9.92e-01,
135,2.06e-01,9.76e-01,
136,2.00e-01,9.84e-01,
137,2.06e-01,9.76e-01,
138,1.98e-01,9.76e-01,
139,2.06e-01,9.60e-01,
140,1.98e-01,9.68e-01,
141,2.08e-01,9.44e-01,
142,2.02e-01,9.52e-01,
143,2.08e-01,9.28e-01,
144,2.08e-01,9.36e-01,
145,1.98e-01,9.04e-01,
146,2.08e-01,9.04e-01,
147,2.02e-01,8.72e-01,
148,2.08e-01,8.72e-01,
149,2.02e-01,8.40e-01,
150,2.02e-01,8.40e-01,
151,2.08e-01,8.24e-01,
152,2.08e-01,8.24e-01,
153,2.02e-01,8.08e-01,
154,2.02e-01,8.08e-01,
155,2.08e-01,8.00e-01,
156,2.10e-01,8.00e-01,
157,2.02e-01,8.00e-01,
158,2.04e-01,8.08e-01,
159,2.12e-01,8.16e-01,
160,2.04e-01,8.08e-01,
161,2.12e-01,8.32e-01,
162,2.04e-01,8.24e-01,
163,2.12e-01,8.48e-01,
164,2.06e-01,8.48e-01,
165,2.14e-01,8.72e-01,
166,2.14e-01,8.72e-01,
167,2.04e-01,8.96e-01,
168,2.08e-01,8.88e-01,
169,2.14e-01,9.12e-01,
170,2.14e-01,9.12e-01,
171,2.08e-01,9.28e-01,
172,2.08e-01,9.20e-01,
173,2.14e-01,9.36e-01,
174,2.06e-01,9.36e-01,
175,2.16e-01,9.52e-01,
176,2.12e-01,9.44e-01,
177,2.10e-01,9.60e-01,
178,2.08e-01,9.60e-01,
179,2.16e-01,9.52e-01,
180,2.16e-01,9.68e-01,
181,2.08e-01,9.68e-01,
182,2.10e-01,9.68e-01,
183,2.16e-01,9.76e-01,
184,2.10e-01,9.76e-01,
185,2.14e-01,9.84e-01,
186,2.10e-01,9.84e-01,
187,2.18e-01,9.92e-01,
188,2.10e-01,9.92e-01,
189,2.16e-01,9.84e-01,
190,2.16e-01,1.00e+00,
191,2.10e-01,9.92e-01,
192,2.22e-01,9.92e-01,
193,2.10e-01,1.00e+00,
194,2.12e-01,9.92e-01,
195,2.18e-01,1.01e+00,
196,2.14e-01,1.01e+00,
197,2.20e-01,1.00e+00,
198,2.14e-01,1.01e+00,
199,2.20e-01,1.00e+00,
200,2.22e-01,1.00e+00,
201,2.12e-01,1.01e+00,
202,2.20e-01,1.00e+00,
203,2.14e-01,1.01e+00,
204,2.12e-01,1.02e+00,
205,2.20e-01,1.02e+00,
206,2.16e-01,1.02e+00,
207,2.20e-01,1.01e+00,
208,2.16e-01,1.01e+00,
209,2.22e-01,1.02e+00,
210,2.22e-01,1.02e+00,
211,2.14e-01,1.01e+00,
212,2.14e-01,1.02e+00,
213,2.24e-01,1.01e+00,
214,2.16e-01,1.01e+00,
215,2.26e-01,1.02e+00,
216,2.22e-01,1.02e+00,
217,2.16e-01,1.01e+00,
218,2.24e-01,1.01e+00,
219,2.16e-01,1.02e+00,
220,2.16e-01,1.02e+00,
221,2.26e-01,1.02e+00,
222,2.16e-01,1.02e+00,
223,2.26e-01,1.02e+00,
224,2.18e-01,1.02e+00,
225,2.26e-01,1.02e+00,
226,2.18e-01,1.02e+00,
227,2.26e-01,1.02e+00,
228,2.18e-01,1.02e+00,
229,2.24e-01,1.02e+00,
230,2.18e-01,1.02e+00,
231,2.28e-01,1.02e+00,
232,2.28e-01,1.02e+00,
233,2.22e-01,1.02e+00,
234,2.22e-01,1.02e+00,
235,2.32e-01,1.02e+00,
236,2.22e-01,1.02e+00,
237,2.28e-01,1.02e+00,
238,2.22e-01,1.02e+00,
239,2.28e-01,1.02e+00,
240,2.22e-01,1.02e+00,
241,2.28e-01,1.02e+00,
242,2.24e-01,1.02e+00,
243,2.30e-01,1.02e+00,
244,2.28e-01,1.02e+00,
245,2.22e-01,1.02e+00,
246,2.22e-01,1.02e+00,
247,2.32e-01,1.02e+00,
248,2.24e-01,1.02e+00,
249,2.34e-01,1.02e+00,
250,2.28e-01,1.02e+00,
251,2.22e-01,1.02e+00,
252,2.34e-01,1.02e+00,
253,2.24e-01,1.02e+00,
254,2.24e-01,1.02e+00,
255,2.32e-01,1.01e+00,
256,2.32e-01,1.02e+00,
257,2.24e-01,1.01e+00,
258,2.24e-01,1.02e+00,
259,2.34e-01,1.01e+00,
260,2.28e-01,1.01e+00,
261,2.34e-01,1.02e+00,
262,2.28e-01,1.01e+00,
263,2.34e-01,1.02e+00,
264,2.26e-01,1.02e+00,
265,2.34e-01,1.00e+00,
266,2.34e-01,1.00e+00,
267,2.28e-01,1.01e+00,
268,2.36e-01,1.01e+00,
269,2.28e-01,1.01e+00,
270,2.34e-01,1.01e+00,
271,2.28e-01,9.92e-01,
272,2.30e-01,1.00e+00,
273,2.38e-01,9.84e-01,
274,2.28e-01,9.92e-01,
275,2.38e-01,9.84e-01,
276,2.30e-01,9.76e-01,
277,2.34e-01,9.68e-01,
278,2.30e-01,9.68e-01,
279,2.38e-01,9.60e-01,
280,2.30e-01,9.60e-01,
281,2.38e-01,9.36e-01,
282,2.38e-01,9.36e-01,
283,2.30e-01,9.28e-01,
284,2.30e-01,9.36e-01,
285,2.40e-01,9.20e-01,
286,2.38e-01,9.20e-01,
287,2.30e-01,9.20e-01,
288,2.40e-01,9.20e-01,
289,2.30e-01,9.36e-01,
290,2.34e-01,9.28e-01,
291,2.38e-01,9.36e-01,
292,2.36e-01,9.28e-01,
293,2.32e-01,9.44e-01,
294,2.40e-01,9.36e-01,
295,2.32e-01,9.52e-01,
296,2.34e-01,9.44e-01,
297,2.42e-01,9.60e-01,
298,2.36e-01,9.60e-01,
299,2.40e-01,9.68e-01,
300,2.42e-01,9.60e-01,
301,2.32e-01,9.76e-01,
302,2.38e-01,9.76e-01,
303,2.42e-01,9.92e-01,
304,2.34e-01,9.84e-01,
305,2.42e-01,9.84e-01,
306,2.42e-01,9.84e-01,
307,2.36e-01,1.00e+00,
308,2.36e-01,1.00e+00,
309,2.44e-01,9.92e-01,
310,2.44e-01,1.00e+00,
311,2.38e-01,9.92e-01,
312,2.42e-01,9.92e-01,
313,2.36e-01,1.01e+00,
314,2.44e-01,1.01e+00,
315,2.36e-01,1.00e+00,
316,2.46e-01,1.00e+00,
317,2.38e-01,1.01e+00,
318,2.40e-01,1.01e+00,
319,2.46e-01,1.00e+00,
320,2.46e-01,1.02e+00,
321,2.40e-01,1.00e+00,
322,2.50e-01,1.01e+00,
323,2.40e-01,1.02e+00,
324,2.46e-01,1.02e+00,
325,2.40e-01,1.01e+00,
326,2.46e-01,1.01e+00,
327,2.40e-01,1.02e+00,
328,2.42e-01,1.02e+00,
329,2.48e-01,1.01e+00,
330,2.38e-01,1.01e+00,
331,2.48e-01,1.02e+00,
332,2.42e-01,1.01e+00,
333,2.50e-01,1.02e+00,
334,2.42e-01,1.02e+00,
335,2.52e-01,1.01e+00,
336,2.44e-01,1.02e+00,
337,2.54e-01,1.01e+00,
338,2.42e-01,1.02e+00,
339,2.54e-01,1.01e+00,
340,2.44e-01,1.02e+00,
341,2.50e-01,1.01e+00,
342,2.48e-01,1.01e+00,
343,2.46e-01,1.02e+00,
344,2.46e-01,1.02e+00,
345,2.52e-01,1.01e+00,
346,2.44e-01,1.01e+00,
347,2.52e-01,1.02e+00,
348,2.46e-01,1.02e+00,
349,2.54e-01,1.01e+00,
350,2.50e-01,1.02e+00,
351,2.44e-01,1.01e+00,
352,2.52e-01,1.02e+00,
353,2.48e-01,1.01e+00,
354,2.48e-01,1.02e+00,
355,2.52e-01,1.01e+00,
356,2.48e-01,1.02e+00,
357,2.54e-01,1.02e+00,
358,2.48e-01,1.02e+00,
359,2.54e-01,1.01e+00,
360,2.48e-01,1.02e+00,
361,2.58e-01,1.01e+00,
362,2.50e-01,1.02e+00,
363,2.54e-01,1.01e+00,
364,2.56e-01,1.02e+00,
365,2.48e-01,1.01e+00,
366,2.50e-01,1.02e+00,
367,2.58e-01,1.02e+00,
368,2.50e-01,1.02e+00,
369,2.58e-01,1.01e+00,
370,2.52e-01,1.02e+00,
371,2.58e-01,1.01e+00,
372,2.52e-01,1.02e+00,
373,2.58e-01,1.01e+00,
374,2.50e-01,1.01e+00,
375,2.58e-01,1.02e+00,
376,2.52e-01,1.02e+00,
377,2.58e-01,1.00e+00,
378,2.60e-01,1.00e+00,
379,2.50e-01,1.01e+00,
380,2.54e-01,1.00e+00,
381,2.60e-01,1.01e+00,
382,2.54e-01,1.01e+00,
383,2.58e-01,1.00e+00,
384,2.54e-01,1.00e+00,
385,2.62e-01,1.01e+00,
386,2.60e-01,1.01e+00,
387,2.54e-01,1.00e+00,
388,2.60e-01,1.01e+00,
389,2.58e-01,1.00e+00,
390,2.64e-01,1.00e+00,
391,2.56e-01,1.01e+00,
392,2.64e-01,1.01e+00,
393,2.54e-01,1.00e+00,
394,2.62e-01,1.00e+00,
395,2.54e-01,1.01e+00,
396,2.64e-01,1.01e+00,
397,2.56e-01,1.00e+00,
398,2.66e-01,1.01e+00,
399,2.56e-01,9.92e-01,
400,2.64e-01,1.01e+00,
401,2.56e-01,9.92e-01,
402,2.58e-01,9.92e-01,
403,2.64e-01,1.00e+00,
404,2.66e-01,1.00e+00,
405,2.56e-01,9.92e-01,
406,2.56e-01,9.92e-01,
407,2.66e-01,1.00e+00,
408,2.58e-01,9.92e-01,
409,2.66e-01,1.00e+00,
410,2.66e-01,9.92e-01,
411,2.60e-01,1.00e+00,
412,2.60e-01,1.00e+00,
413,2.66e-01,9.92e-01,
414,2.66e-01,1.00e+00,
415,2.60e-01,9.84e-01,
416,2.60e-01,1.00e+00,
417,2.70e-01,9.84e-01,
418,2.68e-01,9.84e-01,
419,2.58e-01,9.92e-01,
420,2.68e-01,9.84e-01,
421,2.62e-01,9.92e-01,
422,2.62e-01,9.84e-01,
423,2.70e-01,9.92e-01,
424,2.72e-01,9.84e-01,
425,2.62e-01,9.92e-01,
426,2.62e-01,9.92e-01,
427,2.72e-01,9.84e-01,
428,2.68e-01,9.92e-01,
429,2.62e-01,9.76e-01,
430,2.62e-01,9.84e-01,
431,2.68e-01,9.76e-01,
432,2.64e-01,9.76e-01,
433,2.72e-01,9.84e-01,
434,2.64e-01,9.76e-01,
435,2.72e-01,9.84e-01,
436,2.64e-01,9.76e-01,
437,2.72e-01,9.76e-01,
438,2.66e-01,9.76e-01,
439,2.72e-01,9.76e-01,
440,2.68e-01,9.76e-01,
441,2.74e-01,9.68e-01,
442,2.74e-01,9.68e-01,
443,2.66e-01,9.60e-01,
444,2.74e-01,9.68e-01,
445,2.66e-01,9.60e-01,
446,2.74e-01,9.68e-01,
447,2.66e-01,9.52e-01,
448,2.64e-01,9.52e-01,
449,2.74e-01,9.60e-01,
450,2.70e-01,9.60e-01,
451,2.74e-01,9.52e-01,
452,2.76e-01,9.60e-01,
453,2.68e-01,9.60e-01,
454,2.68e-01,9.60e-01,
455,2.74e-01,9.52e-01,
456,2.72e-01,9.52e-01,
457,2.80e-01,9.44e-01,
458,2.70e-01,9.44e-01,
459,2.78e-01,9.52e-01,
460,2.72e-01,9.44e-01,
461,2.78e-01,9.36e-01,
462,2.70e-01,9.36e-01,
463,2.80e-01,9.44e-01,
464,2.76e-01,9.44e-01,
465,2.70e-01,9.28e-01,
466,2.72e-01,9.28e-01,
467,2.80e-01,9.36e-01,
468,2.80e-01,9.28e-01,
469,2.72e-01,9.36e-01,
470,2.80e-01,9.36e-01,
471,2.72e-01,9.20e-01,
472,2.80e-01,9.20e-01,
473,2.72e-01,9.20e-01,
474,2.80e-01,9.20e-01,
475,2.74e-01,9.20e-01,
476,2.80e-01,9.12e-01,
477,2.74e-01,9.12e-01,
478,2.74e-01,9.12e-01,
479,2.80e-01,8.96e-01,
480,2.80e-01,9.04e-01,
481,2.74e-01,8.88e-01,
482,2.82e-01,8.88e-01,
483,2.74e-01,8.96e-01,
484,2.82e-01,8.96e-01,
485,2.74e-01,8.80e-01,
486,2.76e-01,8.80e-01,
487,2.84e-01,8.88e-01,
488,2.84e-01,8.80e-01,
489,2.74e-01,8.88e-01,
490,2.86e-01,8.88e-01,
491,2.78e-01,8.72e-01,
492,2.78e-01,8.80e-01,
493,2.86e-01,8.64e-01,
494,2.78e-01,8.72e-01,
495,2.84e-01,8.48e-01,
496,2.76e-01,8.56e-01,
497,2.84e-01,8.48e-01,
498,2.76e-01,8.48e-01,
499,2.86e-01,8.32e-01,
500,2.80e-01,8.40e-01,
501,2.84e-01,8.32e-01,
502,2.86e-01,8.24e-01,
503,2.80e-01,8.24e-01,
504,2.86e-01,8.32e-01,
505,2.80e-01,8.16e-01,
506,2.80e-01,8.16e-01,
507,2.86e-01,8.24e-01,
508,2.90e-01,8.16e-01,
509,2.80e-01,8.08e-01,
510,2.80e-01,8.08e-01,
511,2.90e-01,8.00e-01,
512,2.88e-01,7.92e-01,
513,2.80e-01,7.84e-01,
514,2.80e-01,7.76e-01,
515,2.90e-01,7.84e-01,
516,2.80e-01,7.84e-01,
517,2.88e-01,7.68e-01,
518,2.88e-01,7.76e-01,
519,2.82e-01,7.60e-01,
520,2.92e-01,7.60e-01,
521,2.84e-01,7.68e-01,
522,2.92e-01,7.60e-01,
523,2.84e-01,7.52e-01,
524,2.82e-01,7.52e-01,
525,2.92e-01,7.44e-01,
526,2.92e-01,7.44e-01,
527,2.86e-01,7.28e-01,
528,2.86e-01,7.36e-01,
529,2.92e-01,7.36e-01,
530,2.92e-01,7.36e-01,
531,2.84e-01,7.28e-01,
532,2.86e-01,7.28e-01,
533,2.92e-01,7.20e-01,
534,2.88e-01,7.28e-01,
535,2.94e-01,7.12e-01,
536,2.88e-01,7.12e-01,
537,2.92e-01,7.20e-01,
538,2.96e-01,7.12e-01,
539,2.88e-01,7.20e-01,
540,2.86e-01,7.20e-01,
541,2.98e-01,7.12e-01,
542,2.86e-01,7.12e-01,
543,2.96e-01,7.20e-01,
544,2.92e-01,7.12e-01,
545,2.96e-01,7.20e-01,
546,2.92e-01,7.20e-01,
547,2.96e-01,7.12e-01,
548,2.88e-01,7.20e-01,
549,2.98e-01,7.12e-01,
550,2.90e-01,7.12e-01,
551,2.98e-01,7.20e-01,
552,2.92e-01,7.12e-01,
553,2.98e-01,7.28e-01,
554,2.90e-01,7.20e-01,
555,2.98e-01,7.28e-01,
556,2.88e-01,7.28e-01,
557,3.00e-01,7.20e-01,
558,2.90e-01,7.20e-01,
559,2.98e-01,7.36e-01,
560,2.98e-01,7.36e-01,
561,2.92e-01,7.44e-01,
562,2.92e-01,7.44e-01,
563,3.00e-01,7.44e-01,
564,2.90e-01,7.36e-01,
565,3.00e-01,7.52e-01,
566,2.94e-01,7.52e-01,
567,3.00e-01,7.68e-01,
568,2.94e-01,7.60e-01,
569,3.00e-01,7.68e-01,
570,2.96e-01,7.68e-01,
571,3.04e-01,7.76e-01,
572,2.94e-01,7.68e-01,
573,3.02e-01,7.84e-01,
574,3.02e-01,7.76e-01,
575,2.96e-01,7.92e-01,
576,3.04e-01,7.84e-01,
577,2.96e-01,7.92e-01,
578,2.94e-01,7.92e-01,
579,3.04e-01,8.00e-01,
580,2.98e-01,8.00e-01,
581,3.04e-01,8.08e-01,
582,2.98e-01,8.08e-01,
583,3.04e-01,8.16e-01,
584,3.00e-01,8.24e-01,
585,3.06e-01,8.16e-01,
586,2.96e-01,8.24e-01,
587,3.04e-01,8.32e-01,
588,3.06e-01,8.32e-01,
589,2.96e-01,8.40e-01,
590,3.00e-01,8.32e-01,
591,3.04e-01,8.48e-01,
592,3.06e-01,8.48e-01,
593,2.98e-01,8.40e-01,
594,3.00e-01,8.40e-01,
595,3.08e-01,8.56e-01,
596,3.00e-01,8.56e-01,
597,3.06e-01,8.64e-01,
598,3.10e-01,8.64e-01,
599,3.00e-01,8.64e-01,
600,3.06e-01,8.64e-01,
601,3.02e-01,8.72e-01,
602,3.00e-01,8.72e-01,
603,3.08e-01,8.88e-01,
604,3.06e-01,8.88e-01,
605,3.00e-01,8.80e-01,
606,3.10e-01,8.80e-01,
607,3.02e-01,8.96e-01,
608,3.04e-01,8.96e-01,
609,3.12e-01,8.88e-01,
610,3.10e-01,8.88e-01,
611,3.02e-01,9.04e-01,
612,3.10e-01,8.96e-01,
613,3.04e-01,9.04e-01,
614,3.04e-01,9.04e-01,
615,3.10e-01,9.12e-01,
616,3.06e-01,9.12e-01,
617,3.12e-01,9.12e-01,
618,3.06e-01,9.04e-01,
619,3.16e-01,9.20e-01,
620,3.02e-01,9.20e-01,
621,3.12e-01,9.28e-01,
622,3.12e-01,9.20e-01,
623,3.06e-01,9.36e-01,
624,3.04e-01,9.28e-01,
625,3.16e-01,9.36e-01,
626,3.06e-01,9.28e-01,
627,3.12e-01,9.36e-01,
628,3.14e-01,9.36e-01,
629,3.06e-01,9.28e-01,
630,3.12e-01,9.36e-01,
631,3.10e-01,9.44e-01,
632,3.08e-01,9.36e-01,
633,3.14e-01,9.44e-01,
634,3.08e-01,9.36e-01,
635,3.14e-01,9.52e-01,
636,3.14e-01,9.44e-01,
637,3.08e-01,9.52e-01,
638,3.14e-01,9.52e-01,
639,3.08e-01,9.44e-01,
640,3.08e-01,9.52e-01,
641,3.16e-01,9.44e-01,
642,3.08e-01,9.44e-01,
643,3.16e-01,9.60e-01,
644,3.14e-01,9.52e-01,
645,3.12e-01,9.60e-01,
646,3.18e-01,9.52e-01,
647,3.10e-01,9.60e-01,
648,3.18e-01,9.52e-01,
649,3.12e-01,9.60e-01,
650,3.12e-01,9.52e-01,
651,3.22e-01,9.68e-01,
652,3.10e-01,9.68e-01,
653,3.20e-01,9.60e-01,
654,3.12e-01,9.68e-01,
655,3.20e-01,9.60e-01,
656,3.14e-01,9.68e-01,
657,3.22e-01,9.68e-01,
658,3.16e-01,9.68e-01,
659,3.22e-01,9.68e-01,
660,3.16e-01,9.60e-01,
661,3.22e-01,9.76e-01,
662,3.22e-01,9.76e-01,
663,3.14e-01,9.76e-01,
664,3.24e-01,9.76e-01,
665,3.14e-01,9.76e-01,
666,3.22e-01,9.76e-01,
667,3.16e-01,9.84e-01,
668,3.16e-01,9.76e-01,
669,3.20e-01,9.84e-01,
670,3.22e-01,9.76e-01,
671,3.14e-01,9.92e-01,
672,3.16e-01,9.76e-01,
673,3.24e-01,9.92e-01,
674,3.18e-01,9.92e-01,
675,3.24e-01,9.84e-01,
676,3.24e-01,9.84e-01,
677,3.16e-01,9.84e-01,
678,3.18e-01,9.84e-01,
679,3.26e-01,9.92e-01,
680,3.16e-01,9.84e-01,
681,3.26e-01,9.92e-01,
682,3.20e-01,9.92e-01,
683,3.26e-01,9.84e-01,
684,3.20e-01,9.84e-01,
685,3.28e-01,9.92e-01,
686,3.18e-01,9.84e-01,
687,3.30e-01,1.00e+00,
688,3.26e-01,1.00e+00,
689,3.20e-01,9.92e-01,
690,3.20e-01,1.00e+00,
691,3.26e-01,9.92e-01,
692,3.26e-01,1.00e+00,
693,3.24e-01,9.92e-01,
694,3.24e-01,1.00e+00,
695,3.30e-01,9.92e-01,
696,3.32e-01,9.92e-01,
697,3.22e-01,1.00e+00,
698,3.28e-01,9.92e-01,
699,3.22e-01,1.00e+00,
700,3.24e-01,9.92e-01,
701,3.32e-01,1.00e+00,
702,3.32e-01,1.00e+00,
703,3.24e-01,9.92e-01,
704,3.22e-01,1.00e+00,
705,3.30e-01,9.92e-01,
706,3.24e-01,9.92e-01,
707,3.32e-01,1.01e+00,
708,3.34e-01,9.92e-01,
709,3.24e-01,1.01e+00,
710,3.24e-01,1.00e+00,
711,3.32e-01,1.01e+00,
712,3.36e-01,1.01e+00,
713,3.22e-01,1.00e+00,
714,3.32e-01,1.01e+00,
715,3.26e-01,1.00e+00,
716,3.32e-01,1.00e+00,
717,3.26e-01,1.01e+00,
718,3.36e-01,1.01e+00,
719,3.26e-01,1.00e+00,
720,3.26e-01,1.01e+00,
721,3.36e-01,1.00e+00,
722,3.26e-01,1.00e+00,
723,3.36e-01,1.01e+00,
724,3.30e-01,1.01e+00,
725,3.36e-01,1.00e+00,
726,3.36e-01,1.01e+00,
727,3.28e-01,1.00e+00,
728,3.38e-01,1.01e+00,
729,3.28e-01,1.00e+00,
730,3.28e-01,1.00e+00,
731,3.38e-01,1.01e+00,
732,3.36e-01,1.00e+00,
733,3.32e-01,1.01e+00,
734,3.38e-01,1.01e+00,
735,3.28e-01,1.00e+00,
736,3.38e-01,1.01e+00,
737,3.32e-01,1.00e+00,
738,3.32e-01,1.00e+00,
739,3.36e-01,1.01e+00,
740,3.38e-01,1.01e+00,
741,3.32e-01,1.00e+00,
742,3.32e-01,1.00e+00,
743,3.40e-01,1.02e+00,
744,3.32e-01,1.01e+00,
745,3.42e-01,1.00e+00,
746,3.32e-01,1.00e+00,
747,3.42e-01,1.02e+00,
748,3.34e-01,1.00e+00,
749,3.42e-01,1.01e+00,
750,3.32e-01,1.02e+00,
751,3.42e-01,1.00e+00,
752,3.36e-01,1.02e+00,
753,3.42e-01,1.00e+00,
754,3.42e-01,1.02e+00,
755,3.36e-01,1.01e+00,
756,3.44e-01,1.01e+00,
757,3.36e-01,1.02e+00,
758,3.38e-01,1.02e+00,
759,3.44e-01,1.01e+00,
760,3.36e-01,1.00e+00,
761,3.44e-01,1.02e+00,
762,3.38e-01,1.01e+00,
763,3.46e-01,1.00e+00,
764,3.34e-01,1.01e+00,
765,3.48e-01,1.01e+00,
766,3.38e-01,1.01e+00,
767,3.46e-01,1.00e+00,
768,3.40e-01,1.00e+00,
769,3.44e-01,1.01e+00,
770,3.44e-01,1.00e+00,
771,3.38e-01,1.01e+00,
772,3.44e-01,1.01e+00,
773,3.38e-01,1.00e+00,
774,3.48e-01,1.00e+00,
775,3.40e-01,1.01e+00,
776,3.40e-01,1.01e+00,
777,3.48e-01,9.92e-01,
778,3.48e-01,9.92e-01,
779,3.40e-01,1.00e+00,
780,3.50e-01,1.00e+00,
781,3.42e-01,9.84e-01,
782,3.48e-01,9.84e-01,
783,3.38e-01,9.92e-01,
784,3.48e-01,9.76e-01,
785,3.42e-01,9.76e-01,
786,3.42e-01,9.76e-01,
787,3.50e-01,9.68e-01,
788,3.40e-01,9.68e-01,
789,3.50e-01,9.60e-01,
790,3.40e-01,9.60e-01,
791,3.50e-01,9.44e-01,
792,3.44e-01,9.44e-01,
793,3.50e-01,9.28e-01,
794,3.44e-01,9.36e-01,
795,3.52e-01,9.20e-01,
796,3.50e-01,9.20e-01,
797,3.44e-01,9.12e-01,
798,3.44e-01,9.20e-01,
799,3.52e-01,9.20e-01,
800,3.44e-01,9.20e-01,
801,3.50e-01,9.36e-01,
802,3.46e-01,9.28e-01,
803,3.52e-01,9.36e-01,
804,3.46e-01,9.36e-01,
805,3.56e-01,9.52e-01,
806,3.52e-01,9.44e-01,
807,3.46e-01,9.52e-01,
808,3.48e-01,9.60e-01,
809,3.54e-01,9.52e-01,
810,3.46e-01,9.68e-01,
811,3.58e-01,9.68e-01,
812,3.52e-01,9.68e-01,
813,3.48e-01,9.76e-01,
814,3.48e-01,9.76e-01,
815,3.56e-01,9.84e-01,
816,3.56e-01,9.92e-01,
817,3.48e-01,9.84e-01,
818,3.56e-01,9.84e-01,
819,3.48e-01,1.00e+00,
820,3.50e-01,9.92e-01,
821,3.56e-01,1.00e+00,
822,3.56e-01,1.00e+00,
823,3.48e-01,9.92e-01,
824,3.56e-01,9.92e-01,
825,3.48e-01,1.01e+00,
826,3.60e-01,1.00e+00,
827,3.50e-01,1.01e+00,
828,3.50e-01,1.01e+00,
829,3.60e-01,1.00e+00,
830,3.48e-01,1.01e+00,
831,3.60e-01,1.00e+00,
832,3.58e-01,1.00e+00,
833,3.52e-01,1.02e+00,
834,3.58e-01,1.01e+00,
835,3.52e-01,1.02e+00,
836,3.54e-01,1.01e+00,
837,3.64e-01,1.02e+00,
838,3.62e-01,1.01e+00,
839,3.54e-01,1.02e+00,
840,3.54e-01,1.02e+00,
841,3.62e-01,1.01e+00,
842,3.56e-01,1.02e+00,
843,3.62e-01,1.01e+00,
844,3.60e-01,1.02e+00,
845,3.52e-01,1.02e+00,
846,3.66e-01,1.02e+00,
847,3.56e-01,1.01e+00,
848,3.64e-01,1.01e+00,
849,3.56e-01,1.02e+00,
850,3.58e-01,1.01e+00,
851,3.62e-01,1.02e+00,
852,3.64e-01,1.01e+00,
853,3.58e-01,1.02e+00,
854,3.64e-01,1.01e+00,
855,3.58e-01,1.02e+00,
856,3.64e-01,1.01e+00,
857,3.54e-01,1.02e+00,
858,3.56e-01,1.01e+00,
859,3.66e-01,1.02e+00,
860,3.58e-01,1.01e+00,
861,3.66e-01,1.02e+00,
862,3.64e-01,1.02e+00,
863,3.58e-01,1.02e+00,
864,3.58e-01,1.02e+00,
865,3.66e-01,1.01e+00,
866,3.68e-01,1.02e+00,
867,3.58e-01,1.01e+00,
868,3.62e-01,1.02e+00,
869,3.68e-01,1.01e+00,
870,3.62e-01,1.02e+00,
