to_sort/NewFile195.csv

X,CH1,CH2,Start,Increment,
Sequence,Volt,Volt,-1.115000e+00,5.000000e-03
0,9.68e-01,-8.00e-02,
1,9.76e-01,-4.00e-02,
2,9.84e-01,-8.00e-02,
3,9.60e-01,-4.00e-02,
4,9.68e-01,-8.00e-02,
5,9.84e-01,-4.00e-02,
6,9.76e-01,-8.00e-02,
7,9.68e-01,-4.00e-02,
8,9.68e-01,-8.00e-02,
9,9.84e-01,-4.00e-02,
10,9.84e-01,-4.00e-02,
11,9.60e-01,-8.00e-02,
12,9.76e-01,-8.00e-02,
13,9.84e-01,-4.00e-02,
14,9.76e-01,-4.00e-02,
15,9.92e-01,-8.00e-02,
16,9.92e-01,-8.00e-02,
17,9.76e-01,-4.00e-02,
18,9.84e-01,-8.00e-02,
19,9.92e-01,-4.00e-02,
20,9.76e-01,-8.00e-02,
21,1.00e+00,-4.00e-02,
22,9.92e-01,-4.00e-02,
23,-8.00e-03,-1.00e+00,
24,8.00e-03,-3.76e+00,
25,-8.00e-03,-1.80e+00,
26,0.00e+00,-1.60e+00,
27,8.00e-03,-8.80e-01,
28,0.00e+00,-8.00e-01,
29,8.00e-03,-4.40e-01,
30,0.00e+00,-4.00e-01,
31,0.00e+00,-2.00e-01,
32,1.60e-02,-2.40e-01,
33,0.00e+00,-1.20e-01,
34,1.60e-02,-1.20e-01,
35,8.00e-03,-4.00e-02,
36,1.60e-02,-8.00e-02,
37,8.00e-03,-4.00e-02,
38,8.00e-03,0.00e+00,
39,1.60e-02,-4.00e-02,
40,1.60e-02,-4.00e-02,
41,8.00e-03,0.00e+00,
42,2.40e-02,-4.00e-02,
43,8.00e-03,0.00e+00,
44,1.60e-02,0.00e+00,
45,2.40e-02,-4.00e-02,
46,2.40e-02,-4.00e-02,
47,2.40e-02,0.00e+00,
48,2.40e-02,-4.00e-02,
49,3.20e-02,0.00e+00,
50,2.40e-02,-4.00e-02,
51,2.40e-02,0.00e+00,
52,2.40e-02,0.00e+00,
53,4.00e-02,-4.00e-02,
54,2.40e-02,0.00e+00,
55,4.00e-02,-4.00e-02,
56,2.40e-02,0.00e+00,
57,4.00e-02,-4.00e-02,
58,3.20e-02,0.00e+00,
59,4.00e-02,-4.00e-02,
60,3.20e-02,-4.00e-02,
61,4.00e-02,-4.00e-02,
62,3.20e-02,-4.00e-02,
63,4.80e-02,0.00e+00,
64,4.80e-02,0.00e+00,
65,3.20e-02,-4.00e-02,
66,3.20e-02,0.00e+00,
67,4.80e-02,-4.00e-02,
68,4.00e-02,-4.00e-02,
69,4.80e-02,0.00e+00,
70,4.00e-02,-4.00e-02,
71,4.80e-02,0.00e+00,
72,4.00e-02,-4.00e-02,
73,5.60e-02,0.00e+00,
74,5.60e-02,0.00e+00,
75,4.00e-02,-4.00e-02,
76,5.60e-02,-4.00e-02,
77,4.00e-02,0.00e+00,
78,5.60e-02,-4.00e-02,
79,4.80e-02,0.00e+00,
80,4.80e-02,-4.00e-02,
81,6.40e-02,0.00e+00,
82,4.80e-02,-4.00e-02,
83,5.60e-02,0.00e+00,
84,4.80e-02,-4.00e-02,
85,6.40e-02,0.00e+00,
86,6.40e-02,-4.00e-02,
87,5.60e-02,0.00e+00,
88,6.40e-02,-4.00e-02,
89,5.60e-02,0.00e+00,
90,6.40e-02,0.00e+00,
91,5.60e-02,-4.00e-02,
92,7.20e-02,0.00e+00,
93,5.60e-02,-4.00e-02,
94,7.20e-02,-4.00e-02,
95,5.60e-02,0.00e+00,
96,7.20e-02,-4.00e-02,
97,6.40e-02,0.00e+00,
98,7.20e-02,0.00e+00,
99,7.20e-02,-4.00e-02,
100,7.20e-02,0.00e+00,
101,8.00e-02,-4.00e-02,
102,8.00e-02,0.00e+00,
103,7.20e-02,-4.00e-02,
104,7.20e-02,0.00e+00,
105,8.00e-02,-4.00e-02,
106,8.00e-02,-4.00e-02,
107,8.00e-02,0.00e+00,
108,8.00e-02,-4.00e-02,
109,8.00e-02,0.00e+00,
110,8.00e-02,-4.00e-02,
111,8.80e-02,0.00e+00,
112,8.00e-02,0.00e+00,
113,8.80e-02,-4.00e-02,
114,8.00e-02,-4.00e-02,
115,9.60e-02,-4.00e-02,
116,8.80e-02,0.00e+00,
117,9.60e-02,-4.00e-02,
118,9.60e-02,-4.00e-02,
119,8.80e-02,0.00e+00,
120,8.80e-02,0.00e+00,
121,9.60e-02,-4.00e-02,
122,8.80e-02,-4.00e-02,
123,9.60e-02,0.00e+00,
124,9.60e-02,0.00e+00,
125,8.80e-02,-4.00e-02,
126,8.80e-02,-4.00e-02,
127,1.04e-01,0.00e+00,
128,1.04e-01,0.00e+00,
129,8.80e-02,-8.00e-02,
130,9.60e-02,0.00e+00,
131,1.12e-01,-4.00e-02,
132,9.60e-02,-4.00e-02,
133,1.04e-01,-8.00e-02,
134,9.60e-02,0.00e+00,
135,1.04e-01,-8.00e-02,
136,9.60e-02,-4.00e-02,
137,1.12e-01,0.00e+00,
138,1.04e-01,0.00e+00,
139,1.12e-01,-4.00e-02,
140,1.04e-01,-4.00e-02,
141,1.12e-01,0.00e+00,
142,1.04e-01,-8.00e-02,
143,1.20e-01,0.00e+00,
144,1.20e-01,0.00e+00,
145,1.04e-01,-8.00e-02,
146,1.04e-01,0.00e+00,
147,1.20e-01,-8.00e-02,
148,1.04e-01,-8.00e-02,
149,1.20e-01,0.00e+00,
150,1.20e-01,0.00e+00,
151,1.12e-01,-8.00e-02,
152,1.12e-01,0.00e+00,
153,1.28e-01,-8.00e-02,
154,1.28e-01,-8.00e-02,
155,1.12e-01,0.00e+00,
156,1.28e-01,-4.00e-02,
157,1.12e-01,0.00e+00,
158,1.20e-01,-4.00e-02,
159,1.28e-01,0.00e+00,
160,1.28e-01,-8.00e-02,
161,1.28e-01,0.00e+00,
162,1.28e-01,0.00e+00,
163,1.28e-01,-8.00e-02,
164,1.28e-01,-8.00e-02,
165,1.28e-01,-4.00e-02,
166,1.28e-01,-8.00e-02,
167,1.44e-01,-4.00e-02,
168,1.28e-01,0.00e+00,
169,1.44e-01,-8.00e-02,
170,1.36e-01,-8.00e-02,
171,1.44e-01,0.00e+00,
172,1.44e-01,-4.00e-02,
173,1.36e-01,-8.00e-02,
174,1.36e-01,-8.00e-02,
175,1.44e-01,0.00e+00,
176,1.44e-01,-4.00e-02,
177,1.36e-01,-8.00e-02,
178,1.44e-01,-8.00e-02,
179,1.52e-01,0.00e+00,
180,1.52e-01,-8.00e-02,
181,1.36e-01,-4.00e-02,
182,1.52e-01,-4.00e-02,
183,1.44e-01,-8.00e-02,
184,1.44e-01,-8.00e-02,
185,1.52e-01,-4.00e-02,
186,1.52e-01,-4.00e-02,
187,1.44e-01,-8.00e-02,
188,1.60e-01,-8.00e-02,
189,1.44e-01,-4.00e-02,
190,1.52e-01,-8.00e-02,
191,1.60e-01,-4.00e-02,
192,1.60e-01,-4.00e-02,
193,1.52e-01,-8.00e-02,
194,1.52e-01,-8.00e-02,
195,1.68e-01,-8.00e-02,
196,1.52e-01,-8.00e-02,
197,1.68e-01,-4.00e-02,
198,1.52e-01,-8.00e-02,
199,1.68e-01,-4.00e-02,
200,1.68e-01,-8.00e-02,
201,1.52e-01,-4.00e-02,
202,1.68e-01,-8.00e-02,
203,1.68e-01,-4.00e-02,
204,1.60e-01,-4.00e-02,
205,1.76e-01,-8.00e-02,
206,1.60e-01,-4.00e-02,
207,1.76e-01,-8.00e-02,
208,1.68e-01,-8.00e-02,
209,1.76e-01,-4.00e-02,
210,1.76e-01,-4.00e-02,
211,1.68e-01,-1.20e-01,
212,1.76e-01,-1.20e-01,
213,1.76e-01,-4.00e-02,
214,1.76e-01,-1.20e-01,
215,1.68e-01,-8.00e-02,
216,1.76e-01,-1.20e-01,
217,1.84e-01,-8.00e-02,
218,1.76e-01,-8.00e-02,
219,1.92e-01,-1.20e-01,
220,1.92e-01,-1.20e-01,
221,1.76e-01,-8.00e-02,
222,1.76e-01,-1.20e-01,
223,1.84e-01,-8.00e-02,
224,1.84e-01,-1.20e-01,
225,1.84e-01,-8.00e-02,
226,1.84e-01,-1.20e-01,
227,1.92e-01,-8.00e-02,
228,1.84e-01,-1.20e-01,
229,2.00e-01,-8.00e-02,
230,2.00e-01,-1.60e-01,
231,1.84e-01,-8.00e-02,
232,1.92e-01,-1.20e-01,
233,2.00e-01,-2.00e-01,
234,1.92e-01,-1.20e-01,
235,1.92e-01,-2.00e-01,
236,1.92e-01,-1.60e-01,
237,2.00e-01,-1.60e-01,
238,1.92e-01,-1.60e-01,
239,2.08e-01,-1.60e-01,
240,1.92e-01,-1.60e-01,
241,2.08e-01,-2.00e-01,
242,2.00e-01,-2.00e-01,
243,2.08e-01,-1.60e-01,
244,2.00e-01,-2.40e-01,
245,2.08e-01,-1.60e-01,
246,2.00e-01,-2.00e-01,
247,2.08e-01,-2.40e-01,
248,2.08e-01,-2.00e-01,
249,2.16e-01,-2.40e-01,
250,2.00e-01,-2.40e-01,
251,2.16e-01,-2.00e-01,
252,2.16e-01,-2.00e-01,
253,2.00e-01,-2.80e-01,
254,2.16e-01,-2.80e-01,
255,2.08e-01,-2.40e-01,
256,2.16e-01,-2.40e-01,
257,2.08e-01,-2.80e-01,
258,2.16e-01,-3.20e-01,
259,2.08e-01,-2.40e-01,
260,2.24e-01,-3.20e-01,
261,2.16e-01,-2.80e-01,
262,2.08e-01,-2.80e-01,
263,2.24e-01,-3.60e-01,
264,2.16e-01,-3.60e-01,
265,2.24e-01,-2.80e-01,
266,2.16e-01,-3.20e-01,
267,2.32e-01,-4.00e-01,
268,2.16e-01,-3.60e-01,
269,2.32e-01,-4.40e-01,
270,2.16e-01,-4.40e-01,
271,2.32e-01,-4.40e-01,
272,2.32e-01,-4.40e-01,
273,2.32e-01,-5.60e-01,
274,2.32e-01,-5.60e-01,
275,2.32e-01,-5.20e-01,
276,2.32e-01,-5.20e-01,
277,2.32e-01,-6.40e-01,
278,2.24e-01,-5.60e-01,
279,2.40e-01,-6.80e-01,
280,2.32e-01,-7.20e-01,
281,2.48e-01,-6.40e-01,
282,2.40e-01,-7.20e-01,
283,2.40e-01,-8.40e-01,
284,2.48e-01,-8.00e-01,
285,2.32e-01,-9.20e-01,
286,2.40e-01,-8.80e-01,
287,2.48e-01,-1.04e+00,
288,2.48e-01,-9.60e-01,
289,2.40e-01,-1.16e+00,
290,2.48e-01,-1.16e+00,
291,2.56e-01,-1.24e+00,
292,2.40e-01,-1.20e+00,
293,2.56e-01,-1.48e+00,
294,2.56e-01,-1.48e+00,
295,2.48e-01,-1.60e+00,
296,2.48e-01,-1.64e+00,
297,2.56e-01,-1.80e+00,
298,2.48e-01,-1.84e+00,
299,2.56e-01,-2.08e+00,
300,2.64e-01,-2.12e+00,
301,2.48e-01,-2.28e+00,
302,2.64e-01,-2.32e+00,
303,2.48e-01,-2.64e+00,
304,2.64e-01,-2.68e+00,
305,2.56e-01,-2.84e+00,
306,2.64e-01,-2.88e+00,
307,2.56e-01,-3.08e+00,
308,2.72e-01,-3.08e+00,
309,2.56e-01,-3.28e+00,
310,2.56e-01,-3.32e+00,
311,2.72e-01,-3.36e+00,
312,2.56e-01,-3.36e+00,
313,2.72e-01,-3.32e+00,
314,2.56e-01,-3.36e+00,
315,2.72e-01,-3.24e+00,
316,2.72e-01,-3.28e+00,
317,2.64e-01,-3.08e+00,
318,2.72e-01,-3.08e+00,
319,2.64e-01,-2.88e+00,
320,2.64e-01,-2.88e+00,
321,2.80e-01,-2.64e+00,
322,2.80e-01,-2.60e+00,
323,2.64e-01,-2.40e+00,
324,2.80e-01,-2.32e+00,
325,2.80e-01,-2.12e+00,
326,2.80e-01,-2.12e+00,
327,2.72e-01,-1.92e+00,
328,2.80e-01,-1.88e+00,
329,2.72e-01,-1.72e+00,
330,2.72e-01,-1.72e+00,
331,2.96e-01,-1.52e+00,
332,2.80e-01,-1.52e+00,
333,2.88e-01,-1.32e+00,
334,2.88e-01,-1.32e+00,
335,2.80e-01,-1.24e+00,
336,2.88e-01,-1.24e+00,
337,2.88e-01,-1.08e+00,
338,2.88e-01,-1.08e+00,
339,2.88e-01,-1.04e+00,
340,2.88e-01,-1.00e+00,
341,2.96e-01,-8.80e-01,
342,3.04e-01,-8.80e-01,
343,2.88e-01,-8.40e-01,
344,2.96e-01,-8.40e-01,
345,2.88e-01,-7.60e-01,
346,2.96e-01,-7.60e-01,
347,3.04e-01,-7.20e-01,
348,2.96e-01,-6.80e-01,
349,3.04e-01,-6.00e-01,
350,2.96e-01,-6.40e-01,
351,3.04e-01,-5.60e-01,
352,2.96e-01,-6.00e-01,
353,3.12e-01,-5.20e-01,
354,2.96e-01,-5.20e-01,
355,3.12e-01,-4.80e-01,
356,3.12e-01,-5.60e-01,
357,2.96e-01,-4.80e-01,
358,3.04e-01,-4.40e-01,
359,3.12e-01,-4.40e-01,
360,3.12e-01,-4.40e-01,
361,3.04e-01,-3.60e-01,
362,3.20e-01,-4.00e-01,
363,3.04e-01,-3.60e-01,
364,3.20e-01,-4.00e-01,
365,3.04e-01,-3.20e-01,
366,3.04e-01,-3.60e-01,
367,3.20e-01,-3.20e-01,
368,3.12e-01,-3.60e-01,
369,3.20e-01,-2.80e-01,
370,3.12e-01,-3.60e-01,
371,3.28e-01,-2.80e-01,
372,3.28e-01,-2.80e-01,
373,3.12e-01,-3.20e-01,
374,3.28e-01,-3.20e-01,
375,3.12e-01,-2.40e-01,
376,3.28e-01,-3.20e-01,
377,3.12e-01,-2.40e-01,
378,3.20e-01,-2.40e-01,
379,3.36e-01,-2.80e-01,
380,3.20e-01,-2.40e-01,
381,3.36e-01,-2.80e-01,
382,3.20e-01,-2.80e-01,
383,3.36e-01,-2.00e-01,
384,3.36e-01,-2.40e-01,
385,3.20e-01,-2.00e-01,
386,3.36e-01,-2.00e-01,
387,3.36e-01,-2.40e-01,
388,3.36e-01,-2.00e-01,
389,3.28e-01,-2.40e-01,
390,3.44e-01,-2.00e-01,
391,3.28e-01,-1.60e-01,
392,3.36e-01,-2.00e-01,
393,3.44e-01,-2.40e-01,
394,3.36e-01,-2.00e-01,
395,3.52e-01,-1.60e-01,
396,3.44e-01,-1.60e-01,
397,3.52e-01,-2.00e-01,
398,3.44e-01,-1.60e-01,
399,3.44e-01,-2.00e-01,
400,3.44e-01,-1.60e-01,
401,3.44e-01,-1.60e-01,
402,3.44e-01,-1.60e-01,
403,3.44e-01,-1.60e-01,
404,3.44e-01,-1.60e-01,
405,3.60e-01,-2.00e-01,
406,3.60e-01,-1.60e-01,
407,3.44e-01,-1.60e-01,
408,3.44e-01,-1.60e-01,
409,3.60e-01,-1.20e-01,
410,3.52e-01,-1.60e-01,
411,3.60e-01,-1.20e-01,
412,3.52e-01,-1.60e-01,
413,3.60e-01,-1.20e-01,
414,3.60e-01,-1.20e-01,
415,3.68e-01,-8.00e-02,
416,3.68e-01,-1.60e-01,
417,3.52e-01,-8.00e-02,
418,3.68e-01,-8.00e-02,
419,3.60e-01,-1.20e-01,
420,3.68e-01,-1.20e-01,
421,3.60e-01,-1.20e-01,
422,3.60e-01,-1.20e-01,
423,3.76e-01,-1.20e-01,
424,3.76e-01,-1.20e-01,
425,3.60e-01,-8.00e-02,
426,3.68e-01,-1.20e-01,
427,3.76e-01,-8.00e-02,
428,3.76e-01,-1.20e-01,
429,3.60e-01,-8.00e-02,
430,3.76e-01,-1.20e-01,
431,3.76e-01,-8.00e-02,
432,3.68e-01,-1.20e-01,
433,3.84e-01,-8.00e-02,
434,3.84e-01,-1.20e-01,
435,3.68e-01,-1.20e-01,
436,3.76e-01,-1.20e-01,
437,3.84e-01,-8.00e-02,
438,3.84e-01,-1.20e-01,
439,3.68e-01,-1.20e-01,
440,3.76e-01,-8.00e-02,
441,3.92e-01,-1.20e-01,
442,3.92e-01,-1.20e-01,
443,3.76e-01,-1.20e-01,
444,3.92e-01,-1.20e-01,
445,3.84e-01,-8.00e-02,
446,3.76e-01,-1.20e-01,
447,3.92e-01,-8.00e-02,
448,3.84e-01,-1.20e-01,
449,3.92e-01,-8.00e-02,
450,3.92e-01,-1.20e-01,
451,4.00e-01,-4.00e-02,
452,3.92e-01,-4.00e-02,
453,4.08e-01,-1.20e-01,
454,3.84e-01,-1.20e-01,
455,4.00e-01,-4.00e-02,
456,3.92e-01,-1.20e-01,
457,4.08e-01,-4.00e-02,
458,4.00e-01,-4.00e-02,
459,3.92e-01,-1.20e-01,
460,4.00e-01,-1.20e-01,
461,4.08e-01,-4.00e-02,
462,4.00e-01,-8.00e-02,
463,4.08e-01,-4.00e-02,
464,4.08e-01,-1.20e-01,
465,4.00e-01,-4.00e-02,
466,4.16e-01,-1.20e-01,
467,4.00e-01,-8.00e-02,
468,4.00e-01,-8.00e-02,
469,4.16e-01,-4.00e-02,
470,4.08e-01,-1.20e-01,
471,4.16e-01,-4.00e-02,
472,4.08e-01,-8.00e-02,
473,4.16e-01,-4.00e-02,
474,4.24e-01,-8.00e-02,
475,4.08e-01,-4.00e-02,
476,4.24e-01,-1.20e-01,
477,4.08e-01,-4.00e-02,
478,4.08e-01,-8.00e-02,
479,4.24e-01,-4.00e-02,
480,4.08e-01,-4.00e-02,
481,4.24e-01,-8.00e-02,
482,4.16e-01,-4.00e-02,
483,4.24e-01,-1.20e-01,
484,4.32e-01,-8.00e-02,
485,4.16e-01,-4.00e-02,
486,4.32e-01,-8.00e-02,
487,4.16e-01,-4.00e-02,
488,4.24e-01,-4.00e-02,
489,4.32e-01,-8.00e-02,
490,4.16e-01,-8.00e-02,
491,4.32e-01,-4.00e-02,
492,4.24e-01,-8.00e-02,
493,4.32e-01,-4.00e-02,
494,4.40e-01,-8.00e-02,
495,4.24e-01,-4.00e-02,
496,4.40e-01,-8.00e-02,
497,4.24e-01,-4.00e-02,
498,4.40e-01,-8.00e-02,
499,4.32e-01,-4.00e-02,
500,4.24e-01,-8.00e-02,
501,4.40e-01,-8.00e-02,
502,4.40e-01,-4.00e-02,
503,4.48e-01,-8.00e-02,
504,4.32e-01,-4.00e-02,
505,4.48e-01,-8.00e-02,
506,4.40e-01,-8.00e-02,
507,4.48e-01,-4.00e-02,
508,4.32e-01,-8.00e-02,
509,4.48e-01,-4.00e-02,
510,4.48e-01,-4.00e-02,
511,4.40e-01,-8.00e-02,
512,4.48e-01,-8.00e-02,
513,4.56e-01,-4.00e-02,
514,4.48e-01,-8.00e-02,
515,4.56e-01,-4.00e-02,
516,4.48e-01,-8.00e-02,
517,4.64e-01,-8.00e-02,
518,4.48e-01,-8.00e-02,
519,4.64e-01,-4.00e-02,
520,4.64e-01,-4.00e-02,
521,4.48e-01,-8.00e-02,
522,4.56e-01,-8.00e-02,
523,4.64e-01,-8.00e-02,
524,4.56e-01,-8.00e-02,
525,4.64e-01,-4.00e-02,
526,4.56e-01,-8.00e-02,
527,4.72e-01,-4.00e-02,
528,4.56e-01,-8.00e-02,
529,4.72e-01,-4.00e-02,
530,4.56e-01,-8.00e-02,
531,4.72e-01,-4.00e-02,
532,4.56e-01,-8.00e-02,
533,4.72e-01,-4.00e-02,
534,4.72e-01,-8.00e-02,
535,4.64e-01,0.00e+00,
536,4.64e-01,-8.00e-02,
537,4.80e-01,-4.00e-02,
538,4.64e-01,-8.00e-02,
539,4.80e-01,-4.00e-02,
540,4.80e-01,-8.00e-02,
541,4.64e-01,-8.00e-02,
542,4.72e-01,-8.00e-02,
543,4.80e-01,-4.00e-02,
544,4.72e-01,-8.00e-02,
545,4.88e-01,-8.00e-02,
546,4.72e-01,-8.00e-02,
547,4.88e-01,-4.00e-02,
548,4.72e-01,-8.00e-02,
549,4.88e-01,-8.00e-02,
550,4.88e-01,-8.00e-02,
551,4.72e-01,-4.00e-02,
552,4.80e-01,-8.00e-02,
553,4.88e-01,-4.00e-02,
554,4.80e-01,-8.00e-02,
555,4.88e-01,-4.00e-02,
556,4.80e-01,-8.00e-02,
557,4.96e-01,-8.00e-02,
558,4.88e-01,-4.00e-02,
559,4.96e-01,-8.00e-02,
560,4.96e-01,-8.00e-02,
561,4.80e-01,-4.00e-02,
562,4.80e-01,-8.00e-02,
563,4.96e-01,-4.00e-02,
564,4.96e-01,-8.00e-02,
565,5.04e-01,-4.00e-02,
566,4.96e-01,-8.00e-02,
567,5.04e-01,-4.00e-02,
568,5.04e-01,-4.00e-02,
569,4.88e-01,-8.00e-02,
570,5.12e-01,-8.00e-02,
571,4.96e-01,-8.00e-02,
572,5.04e-01,-8.00e-02,
573,4.88e-01,-4.00e-02,
574,5.04e-01,-8.00e-02,
575,5.20e-01,-4.00e-02,
576,5.04e-01,-8.00e-02,
577,5.12e-01,-4.00e-02,
578,5.04e-01,-4.00e-02,
579,5.12e-01,-8.00e-02,
580,5.04e-01,-8.00e-02,
581,5.12e-01,0.00e+00,
582,5.04e-01,-8.00e-02,
583,5.20e-01,-4.00e-02,
584,5.04e-01,-8.00e-02,
585,5.20e-01,-4.00e-02,
586,5.12e-01,-8.00e-02,
587,5.20e-01,-4.00e-02,
588,5.28e-01,-8.00e-02,
589,5.12e-01,-4.00e-02,
590,5.28e-01,-8.00e-02,
591,5.12e-01,-4.00e-02,
592,5.12e-01,-8.00e-02,
593,5.28e-01,-8.00e-02,
594,5.20e-01,-8.00e-02,
595,5.28e-01,-4.00e-02,
596,5.12e-01,-8.00e-02,
597,5.36e-01,-4.00e-02,
598,5.20e-01,-8.00e-02,
599,5.36e-01,-4.00e-02,
600,5.36e-01,-8.00e-02,
601,5.20e-01,-4.00e-02,
602,5.36e-01,-8.00e-02,
603,5.20e-01,-8.00e-02,
604,5.36e-01,-8.00e-02,
605,5.28e-01,-4.00e-02,
606,5.28e-01,-8.00e-02,
607,5.36e-01,-4.00e-02,
608,5.28e-01,-8.00e-02,
609,5.44e-01,-4.00e-02,
610,5.44e-01,-8.00e-02,
611,5.28e-01,-4.00e-02,
612,5.44e-01,0.00e+00,
613,5.28e-01,-8.00e-02,
614,5.36e-01,-8.00e-02,
615,5.44e-01,-4.00e-02,
616,5.52e-01,-8.00e-02,
617,5.36e-01,-4.00e-02,
618,5.44e-01,-8.00e-02,
619,5.52e-01,-4.00e-02,
620,5.36e-01,-8.00e-02,
621,5.52e-01,-8.00e-02,
622,5.52e-01,-8.00e-02,
623,5.44e-01,-4.00e-02,
624,5.52e-01,-4.00e-02,
625,5.44e-01,-8.00e-02,
626,5.52e-01,-8.00e-02,
627,5.60e-01,-4.00e-02,
628,5.52e-01,-8.00e-02,
629,5.68e-01,-4.00e-02,
630,5.52e-01,-8.00e-02,
631,5.68e-01,-4.00e-02,
632,5.52e-01,-4.00e-02,
633,5.68e-01,-8.00e-02,
634,5.52e-01,-8.00e-02,
635,5.68e-01,-4.00e-02,
636,5.52e-01,-8.00e-02,
637,5.76e-01,-4.00e-02,
638,5.76e-01,-4.00e-02,
639,5.52e-01,-8.00e-02,
640,5.60e-01,-8.00e-02,
641,5.76e-01,-4.00e-02,
642,5.76e-01,-8.00e-02,
643,5.60e-01,-8.00e-02,
644,5.60e-01,-8.00e-02,
645,5.76e-01,-4.00e-02,
646,5.68e-01,-8.00e-02,
647,5.76e-01,-8.00e-02,
648,5.68e-01,-8.00e-02,
649,5.84e-01,-4.00e-02,
650,5.76e-01,-8.00e-02,
651,5.68e-01,-4.00e-02,
652,5.84e-01,-8.00e-02,
653,5.68e-01,-4.00e-02,
654,5.68e-01,-8.00e-02,
655,5.84e-01,-4.00e-02,
656,5.76e-01,-8.00e-02,
657,5.84e-01,-4.00e-02,
658,5.76e-01,-4.00e-02,
659,5.92e-01,-8.00e-02,
660,5.76e-01,-8.00e-02,
661,5.92e-01,0.00e+00,
662,5.92e-01,-8.00e-02,
663,5.76e-01,-4.00e-02,
664,5.76e-01,-8.00e-02,
665,6.00e-01,-4.00e-02,
666,5.84e-01,-8.00e-02,
667,6.00e-01,-4.00e-02,
668,5.92e-01,0.00e+00,
669,5.76e-01,-8.00e-02,
670,6.00e-01,-8.00e-02,
671,5.84e-01,0.00e+00,
672,5.92e-01,-8.00e-02,
673,6.00e-01,-4.00e-02,
674,6.00e-01,-4.00e-02,
675,5.84e-01,-8.00e-02,
676,6.00e-01,-8.00e-02,
677,5.84e-01,-4.00e-02,
678,6.08e-01,-8.00e-02,
679,6.00e-01,0.00e+00,
680,6.08e-01,-8.00e-02,
681,5.92e-01,0.00e+00,
682,6.08e-01,-8.00e-02,
683,5.92e-01,-8.00e-02,
684,6.00e-01,-4.00e-02,
685,6.08e-01,-8.00e-02,
686,6.08e-01,-8.00e-02,
687,6.00e-01,0.00e+00,
688,6.16e-01,-4.00e-02,
689,6.00e-01,-8.00e-02,
690,6.08e-01,-8.00e-02,
691,6.24e-01,-4.00e-02,
692,6.08e-01,-8.00e-02,
693,6.24e-01,0.00e+00,
694,6.08e-01,-8.00e-02,
695,6.16e-01,-8.00e-02,
696,6.24e-01,0.00e+00,
697,6.08e-01,-8.00e-02,
698,6.16e-01,-8.00e-02,
699,6.24e-01,-4.00e-02,
700,6.32e-01,-8.00e-02,
701,6.16e-01,-4.00e-02,
702,6.16e-01,-8.00e-02,
703,6.24e-01,-4.00e-02,
704,6.16e-01,-8.00e-02,
705,6.32e-01,-4.00e-02,
706,6.32e-01,-4.00e-02,
707,6.24e-01,-8.00e-02,
708,6.24e-01,-8.00e-02,
709,6.32e-01,-4.00e-02,
710,6.24e-01,-8.00e-02,
711,6.40e-01,-4.00e-02,
712,6.40e-01,-8.00e-02,
713,6.24e-01,-4.00e-02,
714,6.24e-01,-8.00e-02,
715,6.40e-01,0.00e+00,
716,6.40e-01,0.00e+00,
717,6.24e-01,-8.00e-02,
718,6.32e-01,-4.00e-02,
719,6.48e-01,-8.00e-02,
720,6.32e-01,-8.00e-02,
721,6.48e-01,-4.00e-02,
722,6.32e-01,-4.00e-02,
723,6.48e-01,-8.00e-02,
724,6.32e-01,-8.00e-02,
725,6.48e-01,0.00e+00,
726,6.40e-01,-8.00e-02,
727,6.56e-01,0.00e+00,
728,6.32e-01,-8.00e-02,
729,6.56e-01,-4.00e-02,
730,6.40e-01,-8.00e-02,
731,6.56e-01,0.00e+00,
732,6.56e-01,-8.00e-02,
733,6.40e-01,-4.00e-02,
734,6.56e-01,-8.00e-02,
735,6.40e-01,-4.00e-02,
736,6.56e-01,-8.00e-02,
737,6.40e-01,-4.00e-02,
738,6.56e-01,-4.00e-02,
739,6.40e-01,-8.00e-02,
740,6.64e-01,-8.00e-02,
741,6.40e-01,-4.00e-02,
742,6.64e-01,-8.00e-02,
743,6.56e-01,0.00e+00,
744,6.64e-01,-8.00e-02,
745,6.48e-01,-4.00e-02,
746,6.64e-01,-8.00e-02,
747,6.48e-01,-8.00e-02,
748,6.56e-01,-8.00e-02,
749,6.64e-01,-4.00e-02,
750,6.56e-01,-8.00e-02,
751,6.80e-01,-4.00e-02,
752,6.64e-01,-8.00e-02,
753,6.72e-01,0.00e+00,
754,6.64e-01,-8.00e-02,
755,6.72e-01,0.00e+00,
756,6.64e-01,-8.00e-02,
757,6.80e-01,-4.00e-02,
758,6.80e-01,-8.00e-02,
759,6.64e-01,-4.00e-02,
760,6.80e-01,-8.00e-02,
761,6.64e-01,-4.00e-02,
762,6.88e-01,-8.00e-02,
763,6.72e-01,-4.00e-02,
764,6.88e-01,-8.00e-02,
765,6.72e-01,-8.00e-02,
766,6.72e-01,-4.00e-02,
767,6.88e-01,-8.00e-02,
768,6.72e-01,-8.00e-02,
769,6.96e-01,-4.00e-02,
770,6.88e-01,-4.00e-02,
771,6.80e-01,-8.00e-02,
772,6.80e-01,-8.00e-02,
773,6.96e-01,-4.00e-02,
774,6.80e-01,-8.00e-02,
775,6.96e-01,-4.00e-02,
776,6.80e-01,-8.00e-02,
777,6.96e-01,-4.00e-02,
778,6.80e-01,-8.00e-02,
779,6.96e-01,-4.00e-02,
780,6.88e-01,-8.00e-02,
781,7.04e-01,-4.00e-02,
782,6.80e-01,-8.00e-02,
783,7.04e-01,-4.00e-02,
784,6.96e-01,-8.00e-02,
785,7.04e-01,-4.00e-02,
786,7.04e-01,-8.00e-02,
787,6.96e-01,-4.00e-02,
788,7.04e-01,-8.00e-02,
789,6.88e-01,-4.00e-02,
790,7.04e-01,-4.00e-02,
791,6.96e-01,-8.00e-02,
792,7.12e-01,-8.00e-02,
793,6.88e-01,-4.00e-02,
794,7.12e-01,-8.00e-02,
795,7.04e-01,-4.00e-02,
796,7.12e-01,-1.20e-01,
797,6.96e-01,-1.20e-01,
798,7.04e-01,-1.20e-01,
799,7.20e-01,-2.00e-01,
800,7.04e-01,-2.00e-01,
801,7.20e-01,-4.00e-01,
802,7.20e-01,-4.40e-01,
803,6.96e-01,-1.00e+00,
804,7.12e-01,-1.08e+00,
805,7.28e-01,-9.20e-01,
806,7.20e-01,-8.80e-01,
807,7.12e-01,-5.60e-01,
808,7.20e-01,-4.80e-01,
809,7.12e-01,-2.80e-01,
810,7.12e-01,-2.40e-01,
811,7.28e-01,-2.00e-01,
812,7.20e-01,-1.60e-01,
813,7.36e-01,-1.20e-01,
814,7.28e-01,-1.20e-01,
815,7.20e-01,-8.00e-02,
816,7.20e-01,-1.20e-01,
817,7.36e-01,-4.00e-02,
818,7.36e-01,-1.20e-01,
819,7.20e-01,-4.00e-02,
820,7.20e-01,-4.00e-02,
821,7.44e-01,-8.00e-02,
822,7.36e-01,-8.00e-02,
823,7.20e-01,-4.00e-02,
824,7.28e-01,-8.00e-02,
825,7.44e-01,-4.00e-02,
826,7.28e-01,-8.00e-02,
827,7.44e-01,-4.00e-02,
828,7.44e-01,-4.00e-02,
829,7.28e-01,-8.00e-02,
830,7.44e-01,-8.00e-02,
831,7.28e-01,-4.00e-02,
832,7.36e-01,-4.00e-02,
833,7.52e-01,-8.00e-02,
834,7.28e-01,-4.00e-02,
835,7.52e-01,-8.00e-02,
836,7.36e-01,-8.00e-02,
837,7.52e-01,-4.00e-02,
