to_sort/NewFile75kHz.csv

X,CH1,CH2,Start,Increment,
Sequence,Volt,Volt,-2.740000e+00,5.000000e-03
0,5.66e-01,1.05e+00,
1,5.60e-01,1.06e+00,
2,5.62e-01,1.05e+00,
3,5.68e-01,1.06e+00,
4,5.74e-01,1.06e+00,
5,5.62e-01,1.05e+00,
6,5.68e-01,1.05e+00,
7,5.58e-01,1.06e+00,
8,5.64e-01,1.05e+00,
9,5.74e-01,1.06e+00,
10,5.68e-01,1.06e+00,
11,5.62e-01,1.05e+00,
12,5.64e-01,1.05e+00,
13,5.72e-01,1.06e+00,
14,5.74e-01,1.05e+00,
15,5.68e-01,1.06e+00,
16,5.72e-01,1.05e+00,
17,5.64e-01,1.06e+00,
18,5.64e-01,1.05e+00,
19,5.78e-01,1.06e+00,
20,5.72e-01,1.05e+00,
21,5.68e-01,1.06e+00,
22,5.68e-01,1.06e+00,
23,5.72e-01,1.05e+00,
24,5.78e-01,1.05e+00,
25,5.70e-01,1.05e+00,
26,5.64e-01,1.05e+00,
27,5.74e-01,1.06e+00,
28,5.68e-01,1.05e+00,
29,5.80e-01,1.06e+00,
30,5.78e-01,1.05e+00,
31,5.70e-01,1.06e+00,
32,5.68e-01,1.05e+00,
33,5.80e-01,1.05e+00,
34,5.80e-01,1.06e+00,
35,5.72e-01,1.05e+00,
36,5.80e-01,1.05e+00,
37,5.70e-01,1.06e+00,
38,5.74e-01,1.05e+00,
39,5.80e-01,1.06e+00,
40,5.80e-01,1.05e+00,
41,5.74e-01,1.06e+00,
42,5.70e-01,1.05e+00,
43,5.78e-01,1.06e+00,
44,5.76e-01,1.05e+00,
45,5.82e-01,1.06e+00,
46,5.80e-01,1.05e+00,
47,5.74e-01,1.06e+00,
48,5.80e-01,1.05e+00,
49,5.86e-01,1.06e+00,
50,5.84e-01,1.05e+00,
51,5.76e-01,1.06e+00,
52,5.82e-01,1.05e+00,
53,5.78e-01,1.06e+00,
54,5.86e-01,1.05e+00,
55,5.82e-01,1.06e+00,
56,5.78e-01,1.05e+00,
57,5.84e-01,1.06e+00,
58,5.80e-01,1.05e+00,
59,5.88e-01,1.06e+00,
60,5.88e-01,1.06e+00,
61,5.78e-01,1.05e+00,
62,5.82e-01,1.06e+00,
63,5.88e-01,1.05e+00,
64,5.90e-01,1.06e+00,
65,5.78e-01,1.05e+00,
66,5.82e-01,1.06e+00,
67,5.86e-01,1.05e+00,
68,5.82e-01,1.05e+00,
69,5.92e-01,1.06e+00,
70,5.86e-01,1.05e+00,
71,5.82e-01,1.06e+00,
72,5.90e-01,1.05e+00,
73,5.84e-01,1.06e+00,
74,5.92e-01,1.05e+00,
75,5.82e-01,1.06e+00,
76,5.84e-01,1.05e+00,
77,5.92e-01,1.06e+00,
78,5.88e-01,1.05e+00,
79,5.98e-01,1.06e+00,
80,5.84e-01,1.05e+00,
81,5.92e-01,1.06e+00,
82,5.94e-01,1.06e+00,
83,5.88e-01,1.05e+00,
84,2.44e-01,1.06e+00,
85,2.54e-01,1.02e+00,
86,2.46e-01,1.01e+00,
87,2.56e-01,9.76e-01,
88,2.50e-01,9.68e-01,
89,2.56e-01,9.44e-01,
90,2.54e-01,9.44e-01,
91,2.46e-01,9.60e-01,
92,2.50e-01,9.52e-01,
93,2.56e-01,9.92e-01,
94,2.58e-01,9.84e-01,
95,2.50e-01,1.01e+00,
96,2.50e-01,1.02e+00,
97,2.56e-01,1.03e+00,
98,2.60e-01,1.03e+00,
99,2.50e-01,1.05e+00,
100,2.50e-01,1.04e+00,
101,2.62e-01,1.06e+00,
102,2.50e-01,1.05e+00,
103,2.60e-01,1.06e+00,
104,2.62e-01,1.05e+00,
105,2.54e-01,1.06e+00,
106,2.62e-01,1.05e+00,
107,2.52e-01,1.06e+00,
108,2.60e-01,1.06e+00,
109,2.54e-01,1.05e+00,
110,2.62e-01,1.06e+00,
111,2.52e-01,1.05e+00,
112,2.62e-01,1.06e+00,
113,2.54e-01,1.05e+00,
114,2.66e-01,1.05e+00,
115,2.56e-01,1.06e+00,
116,2.62e-01,1.06e+00,
117,2.56e-01,1.05e+00,
118,2.58e-01,1.05e+00,
119,2.66e-01,1.06e+00,
120,2.58e-01,1.05e+00,
121,2.68e-01,1.06e+00,
122,2.58e-01,1.06e+00,
123,2.64e-01,1.05e+00,
124,2.66e-01,1.06e+00,
125,2.62e-01,1.05e+00,
126,2.58e-01,1.05e+00,
127,2.66e-01,1.06e+00,
128,2.66e-01,1.05e+00,
129,2.58e-01,1.05e+00,
130,2.68e-01,1.05e+00,
131,2.60e-01,1.06e+00,
132,2.62e-01,1.05e+00,
133,2.70e-01,1.06e+00,
134,2.70e-01,1.04e+00,
135,2.60e-01,1.05e+00,
136,2.70e-01,1.05e+00,
137,2.60e-01,1.04e+00,
138,2.62e-01,1.05e+00,
139,2.70e-01,1.04e+00,
140,2.68e-01,1.04e+00,
141,2.72e-01,1.05e+00,
142,2.74e-01,1.04e+00,
143,2.64e-01,1.05e+00,
144,2.64e-01,1.04e+00,
145,2.74e-01,1.05e+00,
146,2.76e-01,1.04e+00,
147,2.66e-01,1.05e+00,
148,2.66e-01,1.04e+00,
149,2.74e-01,1.05e+00,
150,2.66e-01,1.04e+00,
151,2.74e-01,1.05e+00,
152,2.76e-01,1.05e+00,
153,2.66e-01,1.04e+00,
154,2.70e-01,1.04e+00,
155,2.76e-01,1.05e+00,
156,2.68e-01,1.03e+00,
157,2.76e-01,1.03e+00,
158,2.76e-01,1.03e+00,
159,2.70e-01,1.03e+00,
160,2.78e-01,1.03e+00,
161,2.70e-01,1.03e+00,
162,2.72e-01,1.03e+00,
163,2.76e-01,1.04e+00,
164,2.80e-01,1.03e+00,
165,2.72e-01,1.03e+00,
166,2.72e-01,1.03e+00,
167,2.82e-01,1.02e+00,
168,2.80e-01,1.02e+00,
169,2.72e-01,1.02e+00,
170,2.82e-01,1.02e+00,
171,2.72e-01,1.02e+00,
172,2.80e-01,1.02e+00,
173,2.76e-01,1.02e+00,
174,2.76e-01,1.02e+00,
175,2.82e-01,1.01e+00,
176,2.76e-01,1.02e+00,
177,2.82e-01,1.01e+00,
178,2.78e-01,1.02e+00,
179,2.82e-01,1.00e+00,
180,2.82e-01,1.01e+00,
181,2.78e-01,1.00e+00,
182,2.76e-01,1.01e+00,
183,2.84e-01,9.92e-01,
184,2.78e-01,1.00e+00,
185,2.84e-01,9.92e-01,
186,2.88e-01,9.92e-01,
187,2.80e-01,9.84e-01,
188,2.80e-01,9.84e-01,
189,2.86e-01,9.76e-01,
190,2.86e-01,9.84e-01,
191,2.80e-01,9.68e-01,
192,2.82e-01,9.68e-01,
193,2.88e-01,9.52e-01,
194,2.84e-01,9.52e-01,
195,2.88e-01,9.52e-01,
196,2.90e-01,9.52e-01,
197,2.82e-01,9.28e-01,
198,2.82e-01,9.36e-01,
199,2.92e-01,9.20e-01,
200,2.84e-01,9.20e-01,
201,2.92e-01,9.04e-01,
202,2.82e-01,9.04e-01,
203,2.90e-01,8.80e-01,
204,2.94e-01,8.88e-01,
205,2.84e-01,8.64e-01,
206,2.90e-01,8.64e-01,
207,2.84e-01,8.40e-01,
208,2.86e-01,8.40e-01,
209,2.94e-01,8.16e-01,
210,2.94e-01,8.24e-01,
211,2.86e-01,8.00e-01,
212,2.94e-01,7.92e-01,
213,2.88e-01,7.76e-01,
214,2.90e-01,7.76e-01,
215,2.92e-01,7.60e-01,
216,2.90e-01,7.52e-01,
217,3.00e-01,7.44e-01,
218,2.90e-01,7.44e-01,
219,2.96e-01,7.36e-01,
220,2.90e-01,7.28e-01,
221,2.96e-01,7.36e-01,
222,2.86e-01,7.36e-01,
223,2.96e-01,7.28e-01,
224,2.98e-01,7.36e-01,
225,2.90e-01,7.44e-01,
226,3.00e-01,7.52e-01,
227,2.90e-01,7.68e-01,
228,2.98e-01,7.60e-01,
229,2.90e-01,7.76e-01,
230,2.90e-01,7.76e-01,
231,3.02e-01,8.00e-01,
232,2.92e-01,8.08e-01,
233,2.98e-01,8.24e-01,
234,2.92e-01,8.24e-01,
235,3.02e-01,8.48e-01,
236,3.00e-01,8.48e-01,
237,2.92e-01,8.64e-01,
238,2.92e-01,8.64e-01,
239,3.00e-01,8.88e-01,
240,3.06e-01,8.88e-01,
241,2.96e-01,9.04e-01,
242,3.04e-01,8.96e-01,
243,2.96e-01,9.12e-01,
244,3.04e-01,9.20e-01,
245,2.96e-01,9.36e-01,
246,3.06e-01,9.28e-01,
247,2.96e-01,9.44e-01,
248,2.98e-01,9.36e-01,
249,3.04e-01,9.52e-01,
250,2.98e-01,9.60e-01,
251,3.06e-01,9.52e-01,
252,2.96e-01,9.60e-01,
253,3.08e-01,9.68e-01,
254,2.98e-01,9.68e-01,
255,3.04e-01,9.76e-01,
256,3.02e-01,9.76e-01,
257,3.06e-01,9.84e-01,
258,3.02e-01,9.92e-01,
259,3.08e-01,9.84e-01,
260,3.04e-01,9.84e-01,
261,3.10e-01,9.92e-01,
262,3.10e-01,9.92e-01,
263,3.02e-01,1.00e+00,
264,3.10e-01,1.00e+00,
265,3.04e-01,1.01e+00,
266,3.12e-01,1.00e+00,
267,3.04e-01,1.01e+00,
268,3.14e-01,1.00e+00,
269,3.04e-01,1.02e+00,
270,3.12e-01,1.01e+00,
271,3.04e-01,1.02e+00,
272,3.12e-01,1.02e+00,
273,3.08e-01,1.01e+00,
274,3.08e-01,1.02e+00,
275,3.14e-01,1.02e+00,
276,3.14e-01,1.02e+00,
277,3.06e-01,1.02e+00,
278,3.14e-01,1.02e+00,
279,3.08e-01,1.02e+00,
280,3.08e-01,1.02e+00,
281,3.18e-01,1.02e+00,
282,3.16e-01,1.02e+00,
283,3.08e-01,1.02e+00,
284,3.20e-01,1.02e+00,
285,3.10e-01,1.03e+00,
286,3.10e-01,1.03e+00,
287,3.18e-01,1.04e+00,
288,3.12e-01,1.03e+00,
289,3.20e-01,1.04e+00,
290,3.16e-01,1.03e+00,
291,3.10e-01,1.03e+00,
292,3.20e-01,1.03e+00,
293,3.12e-01,1.03e+00,
294,3.20e-01,1.03e+00,
295,3.14e-01,1.03e+00,
296,3.22e-01,1.03e+00,
297,3.14e-01,1.03e+00,
298,3.20e-01,1.03e+00,
299,3.14e-01,1.05e+00,
300,3.22e-01,1.04e+00,
301,3.14e-01,1.05e+00,
302,3.24e-01,1.04e+00,
303,3.16e-01,1.05e+00,
304,3.22e-01,1.04e+00,
305,3.16e-01,1.05e+00,
306,3.18e-01,1.04e+00,
307,3.26e-01,1.05e+00,
308,3.18e-01,1.04e+00,
309,3.24e-01,1.05e+00,
310,3.18e-01,1.05e+00,
311,3.26e-01,1.04e+00,
312,3.18e-01,1.05e+00,
313,3.28e-01,1.04e+00,
314,3.18e-01,1.04e+00,
315,3.26e-01,1.05e+00,
316,3.18e-01,1.04e+00,
317,3.28e-01,1.05e+00,
318,3.22e-01,1.04e+00,
319,3.28e-01,1.05e+00,
320,3.28e-01,1.04e+00,
321,3.20e-01,1.05e+00,
322,3.28e-01,1.05e+00,
323,3.22e-01,1.04e+00,
324,3.28e-01,1.05e+00,
325,3.22e-01,1.04e+00,
326,3.30e-01,1.04e+00,
327,3.22e-01,1.05e+00,
328,3.22e-01,1.04e+00,
329,3.32e-01,1.06e+00,
330,3.24e-01,1.06e+00,
331,3.30e-01,1.04e+00,
332,3.24e-01,1.05e+00,
333,3.34e-01,1.05e+00,
334,3.30e-01,1.06e+00,
335,3.24e-01,1.05e+00,
336,3.34e-01,1.05e+00,
337,3.26e-01,1.06e+00,
338,3.34e-01,1.05e+00,
339,3.26e-01,1.06e+00,
340,3.28e-01,1.05e+00,
341,3.34e-01,1.06e+00,
342,3.24e-01,1.06e+00,
343,3.34e-01,1.05e+00,
344,3.28e-01,1.06e+00,
345,3.36e-01,1.05e+00,
346,3.28e-01,1.05e+00,
347,3.36e-01,1.06e+00,
348,3.36e-01,1.05e+00,
349,3.30e-01,1.06e+00,
350,3.40e-01,1.05e+00,
351,3.30e-01,1.06e+00,
352,3.30e-01,1.05e+00,
353,3.36e-01,1.06e+00,
354,3.30e-01,1.06e+00,
355,3.38e-01,1.05e+00,
356,3.32e-01,1.06e+00,
357,3.40e-01,1.05e+00,
358,3.38e-01,1.05e+00,
359,3.32e-01,1.06e+00,
360,3.42e-01,1.06e+00,
361,3.34e-01,1.05e+00,
362,3.44e-01,1.05e+00,
363,3.32e-01,1.05e+00,
364,3.34e-01,1.05e+00,
365,3.44e-01,1.06e+00,
366,3.40e-01,1.05e+00,
367,3.34e-01,1.06e+00,
368,3.42e-01,1.05e+00,
369,3.36e-01,1.06e+00,
370,3.44e-01,1.05e+00,
371,3.38e-01,1.06e+00,
372,3.38e-01,1.05e+00,
373,3.46e-01,1.06e+00,
374,3.36e-01,1.06e+00,
375,3.46e-01,1.05e+00,
376,3.46e-01,1.06e+00,
377,3.38e-01,1.05e+00,
378,3.46e-01,1.05e+00,
379,3.38e-01,1.06e+00,
380,3.40e-01,1.05e+00,
381,3.46e-01,1.06e+00,
382,3.38e-01,1.06e+00,
383,3.46e-01,1.05e+00,
384,3.48e-01,1.05e+00,
385,3.40e-01,1.06e+00,
386,3.48e-01,1.06e+00,
387,3.42e-01,1.05e+00,
388,3.40e-01,1.05e+00,
389,3.52e-01,1.06e+00,
390,3.46e-01,1.06e+00,
391,3.42e-01,1.05e+00,
392,3.48e-01,1.06e+00,
393,3.42e-01,1.05e+00,
394,3.44e-01,1.05e+00,
395,3.52e-01,1.06e+00,
396,3.44e-01,1.05e+00,
397,3.52e-01,1.06e+00,
398,3.52e-01,1.05e+00,
399,3.44e-01,1.06e+00,
400,3.48e-01,1.06e+00,
401,3.52e-01,1.05e+00,
402,3.52e-01,1.05e+00,
403,3.48e-01,1.06e+00,
404,3.54e-01,1.05e+00,
405,3.46e-01,1.06e+00,
406,3.48e-01,1.06e+00,
407,3.54e-01,1.05e+00,
408,3.48e-01,1.05e+00,
409,3.58e-01,1.06e+00,
410,3.58e-01,1.06e+00,
411,3.48e-01,1.05e+00,
412,3.50e-01,1.05e+00,
413,3.56e-01,1.06e+00,
414,3.52e-01,1.06e+00,
415,3.58e-01,1.05e+00,
416,3.58e-01,1.06e+00,
417,3.50e-01,1.05e+00,
418,3.52e-01,1.05e+00,
419,3.60e-01,1.06e+00,
420,3.50e-01,1.06e+00,
421,3.60e-01,1.05e+00,
422,3.60e-01,1.06e+00,
423,3.54e-01,1.05e+00,
424,3.54e-01,1.06e+00,
425,3.62e-01,1.05e+00,
426,3.64e-01,1.06e+00,
427,3.54e-01,1.05e+00,
428,3.62e-01,1.05e+00,
429,3.56e-01,1.06e+00,
430,3.60e-01,1.06e+00,
431,3.56e-01,1.05e+00,
432,3.62e-01,1.06e+00,
433,3.56e-01,1.05e+00,
434,3.56e-01,1.05e+00,
435,3.62e-01,1.05e+00,
436,3.64e-01,1.05e+00,
437,3.58e-01,1.06e+00,
438,3.56e-01,1.05e+00,
439,3.66e-01,1.06e+00,
440,3.64e-01,1.06e+00,
441,3.60e-01,1.05e+00,
442,3.62e-01,1.05e+00,
443,3.68e-01,1.06e+00,
444,3.60e-01,1.06e+00,
445,3.66e-01,1.05e+00,
446,3.68e-01,1.06e+00,
447,3.60e-01,1.05e+00,
448,3.62e-01,1.06e+00,
449,3.68e-01,1.05e+00,
450,3.68e-01,1.05e+00,
451,3.62e-01,1.06e+00,
452,3.62e-01,1.06e+00,
453,3.70e-01,1.05e+00,
454,3.68e-01,1.05e+00,
455,3.62e-01,1.06e+00,
456,3.66e-01,1.06e+00,
457,3.70e-01,1.05e+00,
458,3.72e-01,1.05e+00,
459,3.64e-01,1.06e+00,
460,3.66e-01,1.05e+00,
461,3.74e-01,1.06e+00,
462,3.72e-01,1.05e+00,
463,3.66e-01,1.06e+00,
464,3.68e-01,1.05e+00,
465,3.74e-01,1.05e+00,
466,3.68e-01,1.05e+00,
467,3.72e-01,1.06e+00,
468,3.72e-01,1.05e+00,
469,3.76e-01,1.06e+00,
470,3.72e-01,1.05e+00,
471,3.68e-01,1.06e+00,
472,3.78e-01,1.05e+00,
473,3.70e-01,1.06e+00,
474,3.76e-01,1.05e+00,
475,3.68e-01,1.06e+00,
476,3.80e-01,1.05e+00,
477,3.72e-01,1.06e+00,
478,3.74e-01,1.05e+00,
479,3.70e-01,1.06e+00,
480,3.74e-01,1.05e+00,
481,3.80e-01,1.06e+00,
482,3.72e-01,1.06e+00,
483,3.78e-01,1.05e+00,
484,3.72e-01,1.05e+00,
485,3.78e-01,1.06e+00,
486,3.80e-01,1.05e+00,
487,3.74e-01,1.06e+00,
488,3.74e-01,1.06e+00,
489,3.80e-01,1.05e+00,
490,3.84e-01,1.06e+00,
491,3.74e-01,1.05e+00,
492,3.74e-01,1.06e+00,
493,3.80e-01,1.05e+00,
494,3.86e-01,1.06e+00,
495,3.74e-01,1.05e+00,
496,3.76e-01,1.05e+00,
497,3.84e-01,1.06e+00,
498,3.80e-01,1.05e+00,
499,3.86e-01,1.06e+00,
500,3.76e-01,1.06e+00,
501,3.80e-01,1.05e+00,
502,3.80e-01,1.05e+00,
503,3.86e-01,1.06e+00,
504,3.84e-01,1.05e+00,
505,3.80e-01,1.06e+00,
506,3.80e-01,1.05e+00,
507,3.86e-01,1.06e+00,
508,3.90e-01,1.05e+00,
509,3.82e-01,1.06e+00,
510,3.84e-01,1.05e+00,
511,3.80e-01,1.06e+00,
512,3.86e-01,1.06e+00,
513,3.90e-01,1.05e+00,
514,3.86e-01,1.06e+00,
515,3.80e-01,1.05e+00,
516,3.80e-01,1.05e+00,
517,3.92e-01,1.06e+00,
518,3.90e-01,1.05e+00,
519,3.82e-01,1.06e+00,
520,3.84e-01,1.06e+00,
521,3.90e-01,1.05e+00,
522,3.92e-01,1.06e+00,
523,3.88e-01,1.05e+00,
524,3.88e-01,1.06e+00,
525,3.86e-01,1.05e+00,
526,3.82e-01,1.05e+00,
527,3.92e-01,1.06e+00,
528,3.92e-01,1.06e+00,
529,3.86e-01,1.05e+00,
530,3.86e-01,1.05e+00,
531,3.92e-01,1.06e+00,
532,3.90e-01,1.06e+00,
533,3.98e-01,1.06e+00,
534,3.92e-01,1.05e+00,
535,3.88e-01,1.06e+00,
536,3.84e-01,1.05e+00,
537,3.94e-01,1.06e+00,
538,3.94e-01,1.06e+00,
539,4.00e-01,1.05e+00,
540,3.88e-01,1.05e+00,
541,3.94e-01,1.06e+00,
542,3.96e-01,1.05e+00,
543,3.92e-01,1.06e+00,
544,3.98e-01,1.05e+00,
545,3.94e-01,1.06e+00,
546,3.96e-01,1.06e+00,
547,3.92e-01,1.05e+00,
548,3.94e-01,1.05e+00,
549,4.00e-01,1.06e+00,
550,4.02e-01,1.06e+00,
551,3.94e-01,1.05e+00,
552,3.98e-01,1.05e+00,
553,3.92e-01,1.06e+00,
554,3.96e-01,1.06e+00,
555,4.04e-01,1.05e+00,
556,4.00e-01,1.05e+00,
557,4.04e-01,1.06e+00,
558,4.00e-01,1.06e+00,
559,3.94e-01,1.06e+00,
560,3.96e-01,1.06e+00,
561,4.04e-01,1.06e+00,
562,4.00e-01,1.06e+00,
563,4.06e-01,1.05e+00,
564,4.06e-01,1.05e+00,
565,3.98e-01,1.06e+00,
566,4.00e-01,1.06e+00,
567,3.96e-01,1.05e+00,
568,4.00e-01,1.05e+00,
569,4.06e-01,1.06e+00,
570,4.10e-01,1.06e+00,
571,4.02e-01,1.05e+00,
572,4.00e-01,1.06e+00,
573,4.06e-01,1.06e+00,
574,4.00e-01,1.06e+00,
575,4.10e-01,1.05e+00,
576,4.06e-01,1.05e+00,
577,4.12e-01,1.06e+00,
578,4.08e-01,1.06e+00,
579,4.02e-01,1.05e+00,
580,4.06e-01,1.06e+00,
581,4.02e-01,1.06e+00,
582,4.06e-01,1.06e+00,
583,4.12e-01,1.06e+00,
584,4.06e-01,1.06e+00,
585,4.12e-01,1.05e+00,
586,4.10e-01,1.06e+00,
587,4.02e-01,1.06e+00,
588,4.06e-01,1.06e+00,
589,4.10e-01,1.05e+00,
590,4.02e-01,1.06e+00,
591,4.10e-01,1.05e+00,
592,4.16e-01,1.06e+00,
593,4.08e-01,1.06e+00,
594,4.18e-01,1.06e+00,
595,4.10e-01,1.06e+00,
596,4.12e-01,1.06e+00,
597,4.08e-01,1.05e+00,
598,4.08e-01,1.06e+00,
599,4.12e-01,1.06e+00,
600,4.08e-01,1.06e+00,
601,4.14e-01,1.05e+00,
602,4.14e-01,1.06e+00,
603,4.18e-01,1.06e+00,
604,4.18e-01,1.06e+00,
605,4.12e-01,1.06e+00,
606,4.12e-01,1.06e+00,
607,4.16e-01,1.06e+00,
608,4.12e-01,1.06e+00,
609,4.16e-01,1.06e+00,
610,4.12e-01,1.06e+00,
611,4.18e-01,1.05e+00,
612,4.20e-01,1.06e+00,
613,4.16e-01,1.05e+00,
614,4.18e-01,1.06e+00,
615,4.24e-01,1.05e+00,
616,4.20e-01,1.05e+00,
617,4.14e-01,1.06e+00,
618,4.18e-01,1.06e+00,
619,4.14e-01,1.05e+00,
620,4.18e-01,1.06e+00,
621,4.14e-01,1.06e+00,
622,4.18e-01,1.06e+00,
623,4.14e-01,1.06e+00,
624,4.18e-01,1.06e+00,
625,4.24e-01,1.05e+00,
626,4.24e-01,1.06e+00,
627,4.22e-01,1.05e+00,
628,4.24e-01,1.06e+00,
629,4.28e-01,1.06e+00,
630,4.26e-01,1.06e+00,
631,4.16e-01,1.06e+00,
632,4.18e-01,1.06e+00,
633,4.22e-01,1.06e+00,
634,4.20e-01,1.05e+00,
635,4.24e-01,1.06e+00,
636,4.18e-01,1.06e+00,
637,4.24e-01,1.06e+00,
638,4.20e-01,1.06e+00,
639,4.26e-01,1.05e+00,
640,4.22e-01,1.06e+00,
641,4.32e-01,1.06e+00,
642,4.26e-01,1.05e+00,
643,4.32e-01,1.06e+00,
644,4.26e-01,1.06e+00,
645,4.32e-01,1.06e+00,
646,4.32e-01,1.06e+00,
647,4.28e-01,1.06e+00,
648,4.30e-01,1.06e+00,
649,4.26e-01,1.06e+00,
650,4.24e-01,1.06e+00,
651,4.28e-01,1.06e+00,
652,4.28e-01,1.06e+00,
653,4.24e-01,1.05e+00,
654,4.30e-01,1.06e+00,
655,4.26e-01,1.06e+00,
656,4.26e-01,1.06e+00,
657,4.32e-01,1.06e+00,
658,4.28e-01,1.06e+00,
659,4.32e-01,1.05e+00,
660,4.28e-01,1.06e+00,
661,4.32e-01,1.05e+00,
662,4.36e-01,1.05e+00,
663,4.32e-01,1.06e+00,
664,4.36e-01,1.05e+00,
665,4.32e-01,1.06e+00,
666,4.32e-01,1.06e+00,
667,4.38e-01,1.05e+00,
668,4.38e-01,1.06e+00,
669,4.34e-01,1.06e+00,
670,4.38e-01,1.06e+00,
671,4.34e-01,1.06e+00,
672,4.36e-01,1.06e+00,
673,4.42e-01,1.06e+00,
674,4.38e-01,1.06e+00,
675,4.42e-01,1.06e+00,
676,4.42e-01,1.06e+00,
677,4.40e-01,1.05e+00,
678,4.42e-01,1.06e+00,
679,4.40e-01,1.05e+00,
680,4.38e-01,1.06e+00,
681,4.44e-01,1.05e+00,
682,4.38e-01,1.06e+00,
683,4.42e-01,1.06e+00,
684,4.42e-01,1.06e+00,
685,4.38e-01,1.05e+00,
686,4.42e-01,1.05e+00,
687,4.38e-01,1.06e+00,
688,4.38e-01,1.06e+00,
689,4.42e-01,1.06e+00,
690,4.36e-01,1.06e+00,
691,4.44e-01,1.06e+00,
692,4.44e-01,1.06e+00,
693,4.40e-01,1.05e+00,
694,4.40e-01,1.06e+00,
695,4.44e-01,1.05e+00,
696,4.40e-01,1.06e+00,
697,4.48e-01,1.05e+00,
698,4.44e-01,1.06e+00,
699,4.42e-01,1.05e+00,
700,4.46e-01,1.06e+00,
701,4.42e-01,1.05e+00,
702,4.48e-01,1.06e+00,
703,4.40e-01,1.05e+00,
704,4.44e-01,1.06e+00,
705,4.50e-01,1.05e+00,
706,4.42e-01,1.05e+00,
707,4.54e-01,1.06e+00,
708,4.48e-01,1.05e+00,
709,4.54e-01,1.06e+00,
710,4.54e-01,1.05e+00,
711,4.48e-01,1.06e+00,
712,4.56e-01,1.06e+00,
713,4.52e-01,1.05e+00,
714,4.54e-01,1.05e+00,
715,4.48e-01,1.06e+00,
716,4.56e-01,1.05e+00,
717,4.48e-01,1.06e+00,
718,4.48e-01,1.05e+00,
719,4.54e-01,1.06e+00,
720,4.48e-01,1.05e+00,
721,4.56e-01,1.06e+00,
722,4.52e-01,1.06e+00,
723,4.56e-01,1.05e+00,
724,4.56e-01,1.05e+00,
725,4.50e-01,1.06e+00,
726,4.60e-01,1.06e+00,
727,4.50e-01,1.05e+00,
728,4.56e-01,1.05e+00,
729,4.50e-01,1.06e+00,
730,4.50e-01,1.06e+00,
731,4.54e-01,1.05e+00,
732,4.48e-01,1.05e+00,
733,4.54e-01,1.06e+00,
734,4.48e-01,1.05e+00,
735,4.56e-01,1.06e+00,
736,4.56e-01,1.06e+00,
737,4.50e-01,1.05e+00,
738,4.52e-01,1.06e+00,
739,4.56e-01,1.05e+00,
740,4.52e-01,1.05e+00,
741,4.58e-01,1.05e+00,
742,4.54e-01,1.05e+00,
743,4.62e-01,1.06e+00,
744,4.60e-01,1.05e+00,
745,4.64e-01,1.06e+00,
746,4.64e-01,1.06e+00,
747,4.58e-01,1.05e+00,
748,4.60e-01,1.06e+00,
749,4.64e-01,1.05e+00,
750,4.58e-01,1.05e+00,
751,4.64e-01,1.06e+00,
752,4.58e-01,1.06e+00,
753,4.62e-01,1.04e+00,
754,4.54e-01,1.05e+00,
755,4.62e-01,1.04e+00,
756,4.62e-01,1.04e+00,
757,4.56e-01,1.03e+00,
758,4.58e-01,1.03e+00,
759,4.68e-01,1.02e+00,
760,4.62e-01,1.02e+00,
761,4.66e-01,1.00e+00,
762,4.70e-01,1.00e+00,
763,4.62e-01,9.84e-01,
764,4.70e-01,9.84e-01,
765,4.64e-01,9.76e-01,
766,4.68e-01,9.68e-01,
767,4.64e-01,9.68e-01,
768,4.68e-01,9.60e-01,
769,4.60e-01,9.76e-01,
770,4.68e-01,9.76e-01,
771,4.62e-01,9.84e-01,
772,4.64e-01,9.84e-01,
773,4.68e-01,9.92e-01,
774,4.66e-01,1.00e+00,
775,4.74e-01,1.02e+00,
776,4.74e-01,1.01e+00,
777,4.68e-01,1.02e+00,
778,4.74e-01,1.03e+00,
779,4.68e-01,1.03e+00,
780,4.70e-01,1.04e+00,
781,4.66e-01,1.05e+00,
782,4.70e-01,1.04e+00,
783,4.66e-01,1.06e+00,
784,4.66e-01,1.05e+00,
785,4.72e-01,1.06e+00,
786,4.68e-01,1.06e+00,
787,4.80e-01,1.05e+00,
788,4.72e-01,1.06e+00,
789,4.76e-01,1.05e+00,
790,4.76e-01,1.06e+00,
791,4.70e-01,1.05e+00,
792,4.70e-01,1.05e+00,
793,4.74e-01,1.06e+00,
794,4.74e-01,1.05e+00,
795,4.70e-01,1.06e+00,
796,4.72e-01,1.06e+00,
797,4.80e-01,1.05e+00,
798,4.82e-01,1.05e+00,
799,4.74e-01,1.06e+00,
800,4.80e-01,1.05e+00,
801,4.72e-01,1.06e+00,
802,4.76e-01,1.05e+00,
803,4.68e-01,1.06e+00,
804,4.72e-01,1.05e+00,
805,4.80e-01,1.06e+00,
806,4.76e-01,1.05e+00,
807,4.84e-01,1.06e+00,
808,4.78e-01,1.05e+00,
809,4.84e-01,1.06e+00,
810,4.76e-01,1.05e+00,
811,4.82e-01,1.06e+00,
812,4.76e-01,1.06e+00,
813,4.80e-01,1.05e+00,
814,4.78e-01,1.06e+00,
815,4.88e-01,1.05e+00,
816,4.80e-01,1.06e+00,
817,4.88e-01,1.05e+00,
818,4.78e-01,1.06e+00,
819,4.82e-01,1.05e+00,
820,4.74e-01,1.06e+00,
821,4.90e-01,1.05e+00,
822,4.72e-01,1.06e+00,
823,4.96e-01,1.05e+00,
824,4.94e-01,1.05e+00,
825,4.78e-01,1.06e+00,
826,4.74e-01,1.06e+00,
827,4.92e-01,1.05e+00,
828,4.76e-01,1.05e+00,
829,4.90e-01,1.06e+00,
830,4.84e-01,1.06e+00,
831,4.90e-01,1.05e+00,
832,4.92e-01,1.06e+00,
833,4.84e-01,1.05e+00,
834,4.88e-01,1.05e+00,
835,4.82e-01,1.06e+00,
836,4.80e-01,1.06e+00,
837,4.90e-01,1.05e+00,
838,4.94e-01,1.06e+00,
839,4.86e-01,1.05e+00,
840,4.94e-01,1.05e+00,
841,4.84e-01,1.06e+00,
842,4.86e-01,1.05e+00,
843,4.90e-01,1.06e+00,
844,4.86e-01,1.06e+00,
845,4.96e-01,1.05e+00,
846,4.96e-01,1.05e+00,
847,4.86e-01,1.06e+00,
848,4.88e-01,1.05e+00,
849,4.94e-01,1.06e+00,
850,4.92e-01,1.06e+00,
851,4.96e-01,1.05e+00,
852,4.92e-01,1.06e+00,
853,4.96e-01,1.05e+00,
854,4.90e-01,1.06e+00,
855,4.94e-01,1.06e+00,
856,4.90e-01,1.06e+00,
857,5.00e-01,1.05e+00,
858,4.98e-01,1.05e+00,
859,4.90e-01,1.06e+00,
860,4.96e-01,1.06e+00,
861,4.90e-01,1.06e+00,
862,4.92e-01,1.06e+00,
863,5.02e-01,1.06e+00,
864,5.00e-01,1.05e+00,
865,4.92e-01,1.06e+00,
866,4.92e-01,1.06e+00,
867,5.00e-01,1.05e+00,
868,5.06e-01,1.05e+00,
869,4.94e-01,1.06e+00,
870,4.96e-01,1.05e+00,
