to_sort/NewFile6p6m.csv

X,CH1,CH2,Start,Increment,
Sequence,Volt,Volt,-2.540000e+00,5.000000e-03
0,5.59e-01,2.76e-02,
1,5.50e-01,2.88e-02,
2,5.52e-01,2.80e-02,
3,5.59e-01,3.00e-02,
4,5.62e-01,2.96e-02,
5,5.52e-01,3.12e-02,
6,5.50e-01,3.08e-02,
7,5.61e-01,3.24e-02,
8,5.63e-01,3.24e-02,
9,5.52e-01,3.36e-02,
10,5.54e-01,3.36e-02,
11,5.63e-01,3.48e-02,
12,5.53e-01,3.52e-02,
13,5.62e-01,3.48e-02,
14,5.63e-01,3.52e-02,
15,5.53e-01,3.60e-02,
16,5.54e-01,3.56e-02,
17,5.63e-01,3.68e-02,
18,5.62e-01,3.60e-02,
19,5.52e-01,3.72e-02,
20,5.63e-01,3.64e-02,
21,5.54e-01,3.68e-02,
22,5.53e-01,3.64e-02,
23,5.64e-01,3.72e-02,
24,5.53e-01,3.68e-02,
25,5.63e-01,3.80e-02,
26,5.54e-01,3.68e-02,
27,5.64e-01,3.76e-02,
28,5.64e-01,3.80e-02,
29,5.53e-01,3.68e-02,
30,5.56e-01,3.80e-02,
31,5.63e-01,3.72e-02,
32,5.64e-01,3.80e-02,
33,5.56e-01,3.72e-02,
34,5.66e-01,3.76e-02,
35,5.57e-01,3.84e-02,
36,5.57e-01,3.80e-02,
37,5.66e-01,3.72e-02,
38,5.57e-01,3.84e-02,
39,5.64e-01,3.72e-02,
40,5.54e-01,3.80e-02,
41,5.67e-01,3.72e-02,
42,5.67e-01,3.84e-02,
43,5.56e-01,3.76e-02,
44,5.67e-01,3.76e-02,
45,5.58e-01,3.84e-02,
46,5.68e-01,3.72e-02,
47,5.58e-01,3.80e-02,
48,5.58e-01,3.84e-02,
49,5.67e-01,3.72e-02,
50,5.57e-01,3.76e-02,
51,5.70e-01,3.84e-02,
52,5.68e-01,3.84e-02,
53,5.57e-01,3.76e-02,
54,5.68e-01,3.80e-02,
55,5.57e-01,3.84e-02,
56,5.58e-01,3.84e-02,
57,5.71e-01,3.76e-02,
58,5.68e-01,3.84e-02,
59,5.61e-01,3.76e-02,
60,5.59e-01,3.84e-02,
61,5.70e-01,3.76e-02,
62,5.59e-01,3.84e-02,
63,5.71e-01,3.76e-02,
64,5.68e-01,3.76e-02,
65,5.59e-01,3.80e-02,
66,5.70e-01,3.84e-02,
67,5.61e-01,3.76e-02,
68,5.61e-01,3.84e-02,
69,5.70e-01,3.72e-02,
70,5.59e-01,3.72e-02,
71,5.71e-01,3.84e-02,
72,5.70e-01,3.76e-02,
73,5.59e-01,3.84e-02,
74,5.70e-01,3.76e-02,
75,5.62e-01,3.84e-02,
76,5.61e-01,3.84e-02,
77,5.71e-01,3.76e-02,
78,5.61e-01,3.84e-02,
79,5.73e-01,3.76e-02,
80,5.73e-01,3.72e-02,
81,5.62e-01,3.84e-02,
82,5.63e-01,3.84e-02,
83,5.72e-01,3.76e-02,
84,5.63e-01,3.76e-02,
85,5.72e-01,3.84e-02,
86,5.75e-01,3.80e-02,
87,5.62e-01,3.76e-02,
88,5.75e-01,3.72e-02,
89,5.63e-01,3.84e-02,
90,5.73e-01,3.84e-02,
91,5.62e-01,3.72e-02,
92,5.75e-01,3.76e-02,
93,5.64e-01,3.80e-02,
94,5.62e-01,3.76e-02,
95,5.75e-01,3.84e-02,
96,5.64e-01,3.80e-02,
97,5.76e-01,3.76e-02,
98,5.66e-01,3.84e-02,
99,5.75e-01,3.76e-02,
100,5.62e-01,3.84e-02,
101,5.75e-01,3.76e-02,
102,5.66e-01,3.72e-02,
103,5.75e-01,3.84e-02,
104,5.76e-01,3.76e-02,
105,5.66e-01,3.84e-02,
106,5.67e-01,3.80e-02,
107,5.76e-01,3.84e-02,
108,5.76e-01,3.72e-02,
109,5.66e-01,3.84e-02,
110,5.67e-01,3.84e-02,
111,5.77e-01,3.72e-02,
112,5.79e-01,3.84e-02,
113,5.64e-01,3.76e-02,
114,5.68e-01,3.80e-02,
115,5.77e-01,3.84e-02,
116,5.68e-01,3.84e-02,
117,5.77e-01,3.72e-02,
118,5.76e-01,3.76e-02,
119,5.68e-01,3.84e-02,
120,5.76e-01,3.76e-02,
121,5.70e-01,3.84e-02,
122,5.67e-01,3.80e-02,
123,5.77e-01,3.84e-02,
124,5.79e-01,3.76e-02,
125,5.70e-01,3.84e-02,
126,5.70e-01,3.84e-02,
127,5.79e-01,3.76e-02,
128,5.80e-01,3.76e-02,
129,5.70e-01,3.80e-02,
130,5.68e-01,3.76e-02,
131,5.79e-01,3.80e-02,
132,5.80e-01,3.84e-02,
133,5.70e-01,3.72e-02,
134,5.70e-01,3.76e-02,
135,5.81e-01,3.84e-02,
136,5.71e-01,3.80e-02,
137,5.80e-01,3.72e-02,
138,5.68e-01,3.76e-02,
139,5.80e-01,3.84e-02,
140,5.71e-01,3.84e-02,
141,5.80e-01,3.76e-02,
142,5.71e-01,3.76e-02,
143,5.81e-01,3.84e-02,
144,5.71e-01,3.84e-02,
145,5.84e-01,3.76e-02,
146,5.71e-01,3.72e-02,
147,5.81e-01,3.84e-02,
148,5.71e-01,3.80e-02,
149,5.82e-01,3.84e-02,
150,5.71e-01,3.84e-02,
151,5.81e-01,3.76e-02,
152,5.72e-01,3.84e-02,
153,5.82e-01,3.72e-02,
154,5.71e-01,3.80e-02,
155,5.85e-01,3.76e-02,
156,5.72e-01,3.76e-02,
157,5.84e-01,3.84e-02,
158,5.73e-01,3.76e-02,
159,5.85e-01,3.84e-02,
160,5.73e-01,3.76e-02,
161,5.84e-01,3.84e-02,
162,5.73e-01,3.84e-02,
163,5.84e-01,3.76e-02,
164,5.84e-01,3.84e-02,
165,4.22e-01,3.76e-02,
166,4.20e-01,3.76e-02,
167,4.31e-01,3.84e-02,
168,4.29e-01,3.88e-02,
169,4.19e-01,3.80e-02,
170,4.19e-01,3.80e-02,
171,4.30e-01,3.88e-02,
172,4.31e-01,3.84e-02,
173,4.21e-01,3.88e-02,
174,4.30e-01,3.84e-02,
175,4.22e-01,3.92e-02,
176,4.21e-01,3.88e-02,
177,4.33e-01,3.92e-02,
178,4.30e-01,3.88e-02,
179,4.20e-01,3.92e-02,
180,4.30e-01,3.92e-02,
181,4.21e-01,3.88e-02,
182,4.22e-01,3.96e-02,
183,4.33e-01,3.88e-02,
184,4.22e-01,3.96e-02,
185,4.31e-01,3.88e-02,
186,4.21e-01,3.92e-02,
187,4.33e-01,3.88e-02,
188,4.24e-01,3.92e-02,
189,4.33e-01,3.88e-02,
190,4.24e-01,3.92e-02,
191,4.34e-01,3.88e-02,
192,4.24e-01,3.88e-02,
193,4.35e-01,3.92e-02,
194,4.25e-01,3.92e-02,
195,4.34e-01,3.88e-02,
196,4.22e-01,4.00e-02,
197,4.34e-01,3.88e-02,
198,4.33e-01,3.92e-02,
199,4.22e-01,3.92e-02,
200,4.25e-01,3.88e-02,
201,4.34e-01,3.96e-02,
202,4.34e-01,3.92e-02,
203,4.25e-01,3.88e-02,
204,4.35e-01,3.84e-02,
205,4.24e-01,3.92e-02,
206,4.34e-01,3.92e-02,
207,4.24e-01,3.88e-02,
208,4.26e-01,3.92e-02,
209,4.35e-01,3.88e-02,
210,4.26e-01,3.92e-02,
211,4.36e-01,3.84e-02,
212,4.35e-01,3.92e-02,
213,4.25e-01,3.84e-02,
214,4.25e-01,3.92e-02,
215,4.36e-01,3.84e-02,
216,4.28e-01,3.84e-02,
217,4.35e-01,3.96e-02,
218,4.36e-01,3.92e-02,
219,4.26e-01,3.88e-02,
220,4.28e-01,3.96e-02,
221,4.36e-01,3.88e-02,
222,4.29e-01,3.88e-02,
223,4.39e-01,3.92e-02,
224,4.26e-01,3.92e-02,
225,4.38e-01,3.84e-02,
226,4.28e-01,3.92e-02,
227,4.38e-01,3.92e-02,
228,4.29e-01,3.92e-02,
229,4.39e-01,3.88e-02,
230,4.40e-01,3.88e-02,
231,4.30e-01,3.96e-02,
232,4.39e-01,3.88e-02,
233,4.29e-01,3.92e-02,
234,4.29e-01,3.88e-02,
235,4.39e-01,4.00e-02,
236,4.30e-01,3.96e-02,
237,4.38e-01,3.88e-02,
238,4.33e-01,3.88e-02,
239,4.40e-01,3.92e-02,
240,4.42e-01,3.88e-02,
241,4.31e-01,4.00e-02,
242,4.42e-01,3.92e-02,
243,4.31e-01,3.96e-02,
244,4.31e-01,3.88e-02,
245,4.40e-01,3.96e-02,
246,4.30e-01,3.92e-02,
247,4.43e-01,4.00e-02,
248,4.40e-01,3.88e-02,
249,4.30e-01,4.00e-02,
250,4.42e-01,3.96e-02,
251,4.31e-01,3.88e-02,
252,4.42e-01,3.88e-02,
253,4.31e-01,3.92e-02,
254,4.31e-01,3.92e-02,
255,4.43e-01,3.84e-02,
256,4.31e-01,3.92e-02,
257,4.43e-01,3.84e-02,
258,4.44e-01,3.88e-02,
259,4.31e-01,3.92e-02,
260,4.42e-01,3.88e-02,
261,4.34e-01,3.96e-02,
262,4.33e-01,3.92e-02,
263,4.43e-01,3.80e-02,
264,4.43e-01,3.92e-02,
265,4.33e-01,3.88e-02,
266,4.35e-01,3.92e-02,
267,4.43e-01,3.84e-02,
268,4.35e-01,3.92e-02,
269,4.44e-01,3.88e-02,
270,4.43e-01,3.88e-02,
271,4.34e-01,3.92e-02,
272,4.45e-01,3.96e-02,
273,4.36e-01,3.84e-02,
274,4.35e-01,3.88e-02,
275,4.44e-01,3.92e-02,
276,4.35e-01,3.92e-02,
277,4.44e-01,3.84e-02,
278,4.35e-01,3.92e-02,
279,4.47e-01,3.88e-02,
280,4.44e-01,3.92e-02,
281,4.35e-01,3.88e-02,
282,4.45e-01,3.88e-02,
283,4.36e-01,3.96e-02,
284,4.45e-01,3.92e-02,
285,4.38e-01,3.84e-02,
286,4.47e-01,3.88e-02,
287,4.38e-01,3.92e-02,
288,4.38e-01,3.84e-02,
289,4.47e-01,3.92e-02,
290,4.48e-01,3.92e-02,
291,4.38e-01,3.84e-02,
292,4.47e-01,3.88e-02,
293,4.36e-01,3.92e-02,
294,4.48e-01,3.88e-02,
295,4.38e-01,3.92e-02,
296,4.47e-01,3.96e-02,
297,4.38e-01,3.88e-02,
298,4.48e-01,3.92e-02,
299,4.38e-01,3.84e-02,
300,4.40e-01,3.88e-02,
301,4.47e-01,3.92e-02,
302,4.39e-01,3.92e-02,
303,4.52e-01,3.84e-02,
304,4.38e-01,3.88e-02,
305,4.51e-01,3.92e-02,
306,4.40e-01,3.96e-02,
307,4.49e-01,3.88e-02,
308,4.39e-01,3.88e-02,
309,4.49e-01,3.92e-02,
310,4.39e-01,3.88e-02,
311,4.52e-01,4.00e-02,
312,4.52e-01,3.92e-02,
313,4.40e-01,3.84e-02,
314,4.40e-01,3.88e-02,
315,4.51e-01,3.92e-02,
316,4.53e-01,3.84e-02,
317,4.42e-01,3.92e-02,
318,4.42e-01,3.88e-02,
319,4.53e-01,3.96e-02,
320,4.53e-01,3.92e-02,
321,4.40e-01,3.84e-02,
322,4.52e-01,3.84e-02,
323,4.42e-01,3.92e-02,
324,4.42e-01,3.88e-02,
325,4.48e-01,3.92e-02,
326,4.42e-01,3.92e-02,
327,4.54e-01,3.84e-02,
328,4.51e-01,3.88e-02,
329,4.44e-01,3.92e-02,
330,4.43e-01,3.84e-02,
331,4.53e-01,3.92e-02,
332,4.43e-01,3.92e-02,
333,4.54e-01,3.88e-02,
334,4.44e-01,3.84e-02,
335,4.53e-01,3.92e-02,
336,4.53e-01,3.84e-02,
337,4.47e-01,3.92e-02,
338,4.43e-01,3.88e-02,
339,4.54e-01,3.92e-02,
340,4.53e-01,3.92e-02,
341,4.48e-01,3.84e-02,
342,4.43e-01,3.92e-02,
343,4.54e-01,3.88e-02,
344,4.57e-01,3.88e-02,
345,4.47e-01,3.84e-02,
346,4.45e-01,3.88e-02,
347,4.57e-01,3.92e-02,
348,4.45e-01,3.88e-02,
349,4.56e-01,3.88e-02,
350,4.56e-01,3.92e-02,
351,4.45e-01,3.84e-02,
352,4.47e-01,3.88e-02,
353,4.57e-01,3.88e-02,
354,4.57e-01,3.92e-02,
355,4.47e-01,3.88e-02,
356,4.47e-01,3.88e-02,
357,4.56e-01,3.96e-02,
358,4.48e-01,3.92e-02,
359,4.56e-01,3.84e-02,
360,4.57e-01,3.92e-02,
361,4.48e-01,3.88e-02,
362,4.57e-01,3.84e-02,
363,4.48e-01,3.92e-02,
364,4.48e-01,3.92e-02,
365,4.60e-01,3.84e-02,
366,4.49e-01,3.88e-02,
367,4.58e-01,3.92e-02,
368,4.51e-01,3.92e-02,
369,4.58e-01,3.80e-02,
370,4.57e-01,3.88e-02,
371,4.47e-01,3.92e-02,
372,4.49e-01,3.92e-02,
373,4.58e-01,3.88e-02,
374,4.60e-01,3.88e-02,
375,4.49e-01,3.80e-02,
376,4.60e-01,3.88e-02,
377,4.52e-01,3.92e-02,
378,4.49e-01,3.88e-02,
379,4.60e-01,3.92e-02,
380,4.49e-01,3.88e-02,
381,4.58e-01,3.92e-02,
382,4.51e-01,3.92e-02,
383,4.63e-01,3.80e-02,
384,4.63e-01,3.92e-02,
385,4.51e-01,3.84e-02,
386,4.52e-01,3.88e-02,
387,4.62e-01,3.96e-02,
388,4.62e-01,3.88e-02,
389,4.51e-01,3.80e-02,
390,4.53e-01,3.88e-02,
391,4.61e-01,3.92e-02,
392,4.52e-01,3.88e-02,
393,4.62e-01,3.92e-02,
394,4.52e-01,3.88e-02,
395,4.61e-01,3.92e-02,
396,4.53e-01,3.92e-02,
397,4.63e-01,3.88e-02,
398,4.63e-01,3.84e-02,
399,4.53e-01,3.92e-02,
400,4.61e-01,3.84e-02,
401,4.54e-01,3.96e-02,
402,4.53e-01,3.84e-02,
403,4.65e-01,3.92e-02,
404,4.53e-01,3.88e-02,
405,4.66e-01,3.92e-02,
406,4.63e-01,3.84e-02,
407,4.54e-01,3.92e-02,
408,4.65e-01,3.88e-02,
409,4.54e-01,3.92e-02,
410,4.54e-01,3.88e-02,
411,4.66e-01,3.92e-02,
412,4.65e-01,3.92e-02,
413,4.56e-01,3.84e-02,
414,4.56e-01,3.96e-02,
415,4.66e-01,3.84e-02,
416,4.56e-01,3.84e-02,
417,4.66e-01,3.92e-02,
418,4.54e-01,3.92e-02,
419,4.66e-01,3.84e-02,
420,4.66e-01,3.88e-02,
421,4.57e-01,3.84e-02,
422,4.65e-01,3.92e-02,
423,4.57e-01,3.84e-02,
424,4.67e-01,3.92e-02,
425,4.57e-01,3.84e-02,
426,4.56e-01,3.84e-02,
427,4.67e-01,3.92e-02,
428,4.57e-01,3.92e-02,
429,4.68e-01,3.84e-02,
430,4.60e-01,3.92e-02,
431,4.68e-01,3.80e-02,
432,4.57e-01,3.84e-02,
433,4.67e-01,3.92e-02,
434,4.60e-01,3.92e-02,
435,4.66e-01,3.84e-02,
436,4.58e-01,3.84e-02,
437,4.68e-01,3.92e-02,
438,4.60e-01,3.88e-02,
439,4.68e-01,3.92e-02,
440,4.60e-01,3.84e-02,
441,4.70e-01,3.92e-02,
442,4.68e-01,3.84e-02,
443,4.60e-01,3.88e-02,
444,4.68e-01,3.84e-02,
445,4.60e-01,3.92e-02,
446,4.60e-01,3.92e-02,
447,4.68e-01,3.80e-02,
448,4.70e-01,3.80e-02,
449,4.61e-01,3.88e-02,
450,4.72e-01,3.84e-02,
451,4.61e-01,3.76e-02,
452,4.62e-01,3.80e-02,
453,4.70e-01,3.68e-02,
454,4.70e-01,3.76e-02,
455,4.60e-01,3.64e-02,
456,4.63e-01,3.64e-02,
457,4.70e-01,3.60e-02,
458,4.61e-01,3.64e-02,
459,4.71e-01,3.56e-02,
460,4.74e-01,3.64e-02,
461,4.61e-01,3.56e-02,
462,4.71e-01,3.60e-02,
463,4.63e-01,3.56e-02,
464,4.61e-01,3.56e-02,
465,4.72e-01,3.64e-02,
466,4.61e-01,3.60e-02,
467,4.75e-01,3.68e-02,
468,4.63e-01,3.64e-02,
469,4.72e-01,3.72e-02,
470,4.71e-01,3.64e-02,
471,4.62e-01,3.76e-02,
472,4.65e-01,3.76e-02,
473,4.75e-01,3.68e-02,
474,4.63e-01,3.72e-02,
475,4.72e-01,3.80e-02,
476,4.65e-01,3.76e-02,
477,4.74e-01,3.84e-02,
478,4.63e-01,3.76e-02,
479,4.75e-01,3.88e-02,
480,4.62e-01,3.84e-02,
481,4.75e-01,3.76e-02,
482,4.75e-01,3.84e-02,
483,4.66e-01,3.80e-02,
484,4.72e-01,3.80e-02,
485,4.63e-01,3.88e-02,
486,4.76e-01,3.80e-02,
487,4.63e-01,3.88e-02,
488,4.66e-01,3.88e-02,
489,4.75e-01,3.80e-02,
490,4.76e-01,3.84e-02,
491,4.66e-01,3.88e-02,
492,4.75e-01,3.88e-02,
493,4.66e-01,3.80e-02,
494,4.67e-01,3.92e-02,
495,4.77e-01,3.84e-02,
496,4.68e-01,3.80e-02,
497,4.77e-01,3.88e-02,
498,4.66e-01,3.88e-02,
499,4.77e-01,3.84e-02,
500,4.67e-01,3.88e-02,
501,4.77e-01,3.92e-02,
502,4.68e-01,3.92e-02,
503,4.79e-01,3.80e-02,
504,4.67e-01,3.84e-02,
505,4.77e-01,3.92e-02,
506,4.68e-01,3.92e-02,
507,4.77e-01,3.80e-02,
508,4.67e-01,3.92e-02,
509,4.79e-01,3.84e-02,
510,4.70e-01,3.84e-02,
511,4.77e-01,3.92e-02,
512,4.79e-01,3.88e-02,
513,4.68e-01,3.92e-02,
514,4.79e-01,3.84e-02,
515,4.70e-01,3.92e-02,
516,4.71e-01,3.92e-02,
517,4.81e-01,3.84e-02,
518,4.81e-01,3.88e-02,
519,4.70e-01,3.80e-02,
520,4.71e-01,3.88e-02,
521,4.81e-01,3.84e-02,
522,4.72e-01,3.88e-02,
523,4.81e-01,3.84e-02,
524,4.80e-01,3.80e-02,
525,4.71e-01,3.92e-02,
526,4.72e-01,3.92e-02,
527,4.83e-01,3.84e-02,
528,4.80e-01,3.88e-02,
529,4.72e-01,3.84e-02,
530,4.71e-01,3.92e-02,
531,4.83e-01,3.80e-02,
532,4.74e-01,3.92e-02,
533,4.84e-01,3.80e-02,
534,4.72e-01,3.88e-02,
535,4.84e-01,3.92e-02,
536,4.71e-01,3.88e-02,
537,4.84e-01,3.80e-02,
538,4.81e-01,3.88e-02,
539,4.72e-01,3.80e-02,
540,4.81e-01,3.88e-02,
541,4.74e-01,3.80e-02,
542,4.74e-01,3.88e-02,
543,4.84e-01,3.80e-02,
544,4.84e-01,3.88e-02,
545,4.75e-01,3.84e-02,
546,4.84e-01,3.88e-02,
547,4.74e-01,3.80e-02,
548,4.84e-01,3.88e-02,
549,4.75e-01,3.80e-02,
550,4.83e-01,3.88e-02,
551,4.74e-01,3.80e-02,
552,4.88e-01,3.84e-02,
553,4.74e-01,3.88e-02,
554,4.75e-01,3.84e-02,
555,4.86e-01,3.92e-02,
556,4.76e-01,3.88e-02,
557,4.85e-01,3.84e-02,
558,4.85e-01,3.84e-02,
559,4.76e-01,3.88e-02,
560,4.77e-01,3.84e-02,
561,4.85e-01,3.88e-02,
562,4.79e-01,3.88e-02,
563,4.88e-01,3.84e-02,
564,4.77e-01,3.84e-02,
565,4.86e-01,3.92e-02,
566,4.88e-01,3.88e-02,
567,4.77e-01,3.80e-02,
568,4.77e-01,3.88e-02,
569,4.85e-01,3.84e-02,
570,4.88e-01,3.92e-02,
571,4.77e-01,3.84e-02,
572,4.77e-01,3.84e-02,
573,4.88e-01,3.88e-02,
574,4.79e-01,3.92e-02,
575,4.88e-01,3.80e-02,
576,4.88e-01,3.84e-02,
577,4.79e-01,3.88e-02,
578,4.88e-01,3.88e-02,
579,4.79e-01,3.80e-02,
580,4.89e-01,3.88e-02,
581,4.79e-01,3.84e-02,
582,4.80e-01,3.84e-02,
583,4.90e-01,3.92e-02,
584,4.80e-01,3.80e-02,
585,4.89e-01,3.92e-02,
586,4.80e-01,3.88e-02,
587,4.90e-01,3.84e-02,
588,4.80e-01,3.92e-02,
589,4.92e-01,3.84e-02,
590,4.89e-01,3.84e-02,
591,4.80e-01,3.92e-02,
592,4.90e-01,3.88e-02,
593,4.80e-01,3.80e-02,
594,4.90e-01,3.88e-02,
595,4.81e-01,3.84e-02,
596,4.94e-01,3.84e-02,
597,4.81e-01,3.88e-02,
598,4.81e-01,3.88e-02,
599,4.93e-01,3.84e-02,
600,4.92e-01,3.88e-02,
601,4.83e-01,3.80e-02,
602,4.81e-01,3.88e-02,
603,4.93e-01,3.80e-02,
604,4.81e-01,3.84e-02,
605,4.92e-01,3.92e-02,
606,4.94e-01,3.80e-02,
607,4.83e-01,3.88e-02,
608,4.92e-01,3.88e-02,
609,4.83e-01,3.84e-02,
610,4.92e-01,3.88e-02,
611,4.84e-01,3.84e-02,
612,4.95e-01,3.88e-02,
613,4.84e-01,3.80e-02,
614,4.83e-01,3.88e-02,
615,4.94e-01,3.84e-02,
616,4.84e-01,3.88e-02,
617,4.97e-01,3.84e-02,
618,4.94e-01,3.88e-02,
619,4.84e-01,3.80e-02,
620,4.95e-01,3.80e-02,
621,4.85e-01,3.88e-02,
622,4.84e-01,3.80e-02,
623,4.97e-01,3.88e-02,
624,4.85e-01,3.80e-02,
625,4.94e-01,3.88e-02,
626,4.86e-01,3.88e-02,
627,4.95e-01,3.84e-02,
628,4.85e-01,3.80e-02,
629,4.94e-01,3.88e-02,
630,4.98e-01,3.88e-02,
631,4.85e-01,3.80e-02,
632,4.86e-01,3.84e-02,
633,4.97e-01,3.88e-02,
634,4.95e-01,3.88e-02,
635,4.85e-01,3.80e-02,
636,4.97e-01,3.80e-02,
637,4.88e-01,3.88e-02,
638,4.86e-01,3.88e-02,
639,4.98e-01,3.80e-02,
640,4.88e-01,3.80e-02,
641,4.99e-01,3.88e-02,
642,4.89e-01,3.88e-02,
643,4.97e-01,3.80e-02,
644,4.98e-01,3.88e-02,
645,4.88e-01,3.76e-02,
646,4.97e-01,3.84e-02,
647,4.88e-01,3.76e-02,
648,4.89e-01,3.84e-02,
649,4.98e-01,3.80e-02,
650,4.99e-01,3.84e-02,
651,4.89e-01,3.72e-02,
652,5.08e-01,3.84e-02,
653,4.90e-01,3.72e-02,
654,4.99e-01,3.76e-02,
655,4.90e-01,3.68e-02,
656,4.90e-01,3.72e-02,
657,5.00e-01,3.64e-02,
658,4.92e-01,3.64e-02,
659,4.99e-01,3.56e-02,
660,4.92e-01,3.60e-02,
661,5.00e-01,3.52e-02,
662,4.90e-01,3.52e-02,
663,5.00e-01,3.40e-02,
664,5.00e-01,3.48e-02,
665,4.90e-01,3.44e-02,
666,5.00e-01,3.36e-02,
667,4.92e-01,3.44e-02,
668,5.02e-01,3.36e-02,
669,4.92e-01,3.48e-02,
670,4.93e-01,3.48e-02,
671,5.03e-01,3.40e-02,
672,5.06e-01,3.48e-02,
673,4.92e-01,3.52e-02,
674,4.93e-01,3.48e-02,
675,5.04e-01,3.60e-02,
676,4.93e-01,3.56e-02,
677,5.03e-01,3.64e-02,
678,5.03e-01,3.60e-02,
679,4.93e-01,3.72e-02,
680,4.94e-01,3.64e-02,
681,5.04e-01,3.72e-02,
682,4.93e-01,3.64e-02,
683,5.06e-01,3.76e-02,
684,4.93e-01,3.80e-02,
685,5.03e-01,3.68e-02,
686,5.04e-01,3.72e-02,
687,4.95e-01,3.80e-02,
688,5.06e-01,3.84e-02,
689,4.93e-01,3.72e-02,
690,4.94e-01,3.76e-02,
691,5.06e-01,3.84e-02,
692,5.04e-01,3.84e-02,
693,4.95e-01,3.76e-02,
694,4.95e-01,3.84e-02,
695,5.04e-01,3.76e-02,
696,5.06e-01,3.76e-02,
697,4.95e-01,3.88e-02,
698,5.07e-01,3.76e-02,
699,4.95e-01,3.88e-02,
700,4.97e-01,3.84e-02,
701,5.06e-01,3.80e-02,
702,4.97e-01,3.84e-02,
703,5.08e-01,3.80e-02,
704,5.06e-01,3.84e-02,
705,4.97e-01,3.88e-02,
706,4.98e-01,3.80e-02,
707,5.07e-01,3.88e-02,
708,5.08e-01,3.88e-02,
709,4.97e-01,3.76e-02,
710,4.99e-01,3.88e-02,
711,5.08e-01,3.80e-02,
712,5.08e-01,3.84e-02,
713,4.98e-01,3.88e-02,
714,5.08e-01,3.84e-02,
715,4.97e-01,3.88e-02,
716,4.99e-01,3.80e-02,
717,5.07e-01,3.88e-02,
718,4.99e-01,3.80e-02,
719,5.08e-01,3.88e-02,
720,4.98e-01,3.88e-02,
721,5.08e-01,3.80e-02,
722,5.11e-01,3.88e-02,
723,4.98e-01,3.76e-02,
724,5.11e-01,3.88e-02,
725,5.00e-01,3.76e-02,
726,4.99e-01,3.80e-02,
727,5.11e-01,3.88e-02,
728,5.00e-01,3.88e-02,
729,5.11e-01,3.80e-02,
730,5.09e-01,3.80e-02,
731,4.98e-01,3.88e-02,
732,5.09e-01,3.84e-02,
733,5.00e-01,3.88e-02,
734,5.03e-01,3.88e-02,
735,5.12e-01,3.80e-02,
736,5.00e-01,3.88e-02,
737,5.12e-01,3.80e-02,
738,5.13e-01,3.80e-02,
739,5.02e-01,3.88e-02,
740,5.03e-01,3.80e-02,
741,5.11e-01,3.88e-02,
742,5.02e-01,3.88e-02,
743,5.12e-01,3.80e-02,
744,5.02e-01,3.80e-02,
745,5.12e-01,3.88e-02,
746,5.12e-01,3.80e-02,
747,5.03e-01,3.88e-02,
748,5.03e-01,3.88e-02,
749,5.13e-01,3.80e-02,
750,5.02e-01,3.84e-02,
751,5.16e-01,3.88e-02,
752,5.12e-01,3.80e-02,
753,5.03e-01,3.88e-02,
754,5.06e-01,3.76e-02,
755,5.13e-01,3.88e-02,
756,5.03e-01,3.80e-02,
757,5.15e-01,3.88e-02,
758,5.06e-01,3.84e-02,
759,5.15e-01,3.80e-02,
760,5.06e-01,3.88e-02,
761,5.15e-01,3.80e-02,
762,5.15e-01,3.84e-02,
763,5.04e-01,3.88e-02,
764,5.06e-01,3.84e-02,
765,5.13e-01,3.88e-02,
766,5.06e-01,3.88e-02,
767,5.17e-01,3.80e-02,
768,5.07e-01,3.88e-02,
769,5.16e-01,3.80e-02,
770,5.06e-01,3.80e-02,
771,5.16e-01,3.88e-02,
772,5.08e-01,3.80e-02,
773,5.18e-01,3.88e-02,
774,5.07e-01,3.80e-02,
775,5.17e-01,3.88e-02,
776,5.18e-01,3.84e-02,
777,5.08e-01,3.84e-02,
778,5.18e-01,3.88e-02,
779,5.08e-01,3.80e-02,
780,5.17e-01,3.76e-02,
781,5.08e-01,3.88e-02,
782,5.20e-01,3.88e-02,
783,5.08e-01,3.80e-02,
784,5.16e-01,3.80e-02,
785,5.08e-01,3.88e-02,
786,5.20e-01,3.84e-02,
787,5.09e-01,3.88e-02,
788,5.09e-01,3.88e-02,
789,5.17e-01,3.80e-02,
790,5.09e-01,3.88e-02,
791,5.18e-01,3.80e-02,
792,5.08e-01,3.80e-02,
793,5.22e-01,3.88e-02,
794,5.20e-01,3.84e-02,
795,5.09e-01,3.88e-02,
796,5.09e-01,3.88e-02,
797,5.18e-01,3.80e-02,
798,5.20e-01,3.80e-02,
799,5.12e-01,3.88e-02,
800,5.11e-01,3.84e-02,
801,5.21e-01,3.88e-02,
802,5.11e-01,3.84e-02,
803,5.21e-01,3.88e-02,
804,5.09e-01,3.80e-02,
805,5.22e-01,3.88e-02,
806,5.12e-01,3.88e-02,
807,5.22e-01,3.80e-02,
808,5.12e-01,3.88e-02,
809,5.20e-01,3.80e-02,
810,5.21e-01,3.88e-02,
811,5.13e-01,3.80e-02,
812,5.12e-01,3.84e-02,
813,5.22e-01,3.76e-02,
814,5.22e-01,3.88e-02,
815,5.13e-01,3.80e-02,
816,5.12e-01,3.76e-02,
817,5.22e-01,3.88e-02,
818,5.11e-01,3.84e-02,
819,5.24e-01,3.80e-02,
820,5.13e-01,3.80e-02,
821,5.25e-01,3.88e-02,
822,5.15e-01,3.80e-02,
823,5.24e-01,3.88e-02,
824,5.24e-01,3.84e-02,
825,5.15e-01,3.80e-02,
826,5.13e-01,3.84e-02,
827,5.26e-01,3.80e-02,
828,5.25e-01,3.84e-02,
829,5.15e-01,3.80e-02,
830,5.22e-01,3.84e-02,
831,5.13e-01,3.80e-02,
832,5.26e-01,3.88e-02,
833,5.15e-01,3.80e-02,
834,5.25e-01,3.80e-02,
835,5.16e-01,3.84e-02,
836,5.15e-01,3.76e-02,
837,5.25e-01,3.88e-02,
838,5.16e-01,3.88e-02,
839,5.25e-01,3.76e-02,
840,5.25e-01,3.76e-02,
841,5.15e-01,3.80e-02,
842,5.15e-01,3.76e-02,
843,5.27e-01,3.84e-02,
844,5.27e-01,3.84e-02,
845,5.18e-01,3.76e-02,
846,5.29e-01,3.84e-02,
847,5.17e-01,3.76e-02,
848,5.25e-01,3.76e-02,
849,5.17e-01,3.84e-02,
850,5.17e-01,3.76e-02,
851,5.30e-01,3.80e-02,
852,5.18e-01,3.80e-02,
853,5.26e-01,3.72e-02,
854,5.17e-01,3.72e-02,
855,5.29e-01,3.80e-02,
856,5.29e-01,3.76e-02,
857,5.20e-01,3.68e-02,
858,5.18e-01,3.76e-02,
859,5.30e-01,3.64e-02,
860,5.30e-01,3.64e-02,
861,5.21e-01,3.60e-02,
862,5.29e-01,3.64e-02,
863,5.20e-01,3.48e-02,
864,5.29e-01,3.52e-02,
865,5.18e-01,3.36e-02,
866,5.21e-01,3.36e-02,
867,5.30e-01,3.24e-02,
868,5.22e-01,3.32e-02,
869,5.31e-01,3.16e-02,
870,5.18e-01,3.16e-02,
