to_sort/NewFile125kHz.csv

X,CH1,CH2,Start,Increment,
Sequence,Volt,Volt,-5.330000e+00,5.000000e-03
0,7.04e-01,1.06e+00,
1,6.92e-01,1.06e+00,
2,7.04e-01,1.06e+00,
3,6.92e-01,1.06e+00,
4,6.92e-01,1.06e+00,
5,7.04e-01,1.06e+00,
6,6.96e-01,1.06e+00,
7,7.04e-01,1.06e+00,
8,7.08e-01,1.06e+00,
9,7.00e-01,1.06e+00,
10,7.12e-01,1.06e+00,
11,6.96e-01,1.06e+00,
12,7.00e-01,1.06e+00,
13,7.08e-01,1.06e+00,
14,7.00e-01,1.06e+00,
15,7.08e-01,1.06e+00,
16,7.00e-01,1.06e+00,
17,7.12e-01,1.06e+00,
18,7.00e-01,1.05e+00,
19,7.20e-01,1.06e+00,
20,7.12e-01,1.05e+00,
21,7.00e-01,1.06e+00,
22,7.12e-01,1.06e+00,
23,7.04e-01,1.05e+00,
24,7.04e-01,1.05e+00,
25,7.16e-01,1.06e+00,
26,7.16e-01,1.06e+00,
27,7.04e-01,1.05e+00,
28,7.12e-01,1.05e+00,
29,7.08e-01,1.06e+00,
30,7.20e-01,1.06e+00,
31,7.04e-01,1.04e+00,
32,7.16e-01,1.04e+00,
33,7.12e-01,1.05e+00,
34,7.08e-01,1.05e+00,
35,7.20e-01,1.03e+00,
36,7.04e-01,1.03e+00,
37,7.24e-01,1.02e+00,
38,7.12e-01,1.02e+00,
39,7.24e-01,1.01e+00,
40,7.12e-01,1.02e+00,
41,7.20e-01,1.00e+00,
42,7.24e-01,1.00e+00,
43,7.12e-01,9.68e-01,
44,7.16e-01,9.68e-01,
45,7.24e-01,9.36e-01,
46,7.12e-01,9.36e-01,
47,7.28e-01,8.88e-01,
48,7.12e-01,8.96e-01,
49,7.24e-01,8.64e-01,
50,7.24e-01,8.72e-01,
51,7.16e-01,8.48e-01,
52,7.32e-01,8.56e-01,
53,7.12e-01,8.72e-01,
54,7.20e-01,8.72e-01,
55,7.28e-01,9.04e-01,
56,7.28e-01,9.04e-01,
57,7.20e-01,9.28e-01,
58,7.28e-01,9.36e-01,
59,7.20e-01,9.68e-01,
60,7.32e-01,9.68e-01,
61,7.16e-01,9.92e-01,
62,7.32e-01,9.92e-01,
63,7.20e-01,1.02e+00,
64,7.20e-01,1.02e+00,
65,7.36e-01,1.02e+00,
66,7.24e-01,1.02e+00,
67,7.36e-01,1.03e+00,
68,7.36e-01,1.03e+00,
69,7.24e-01,1.05e+00,
70,7.40e-01,1.05e+00,
71,7.24e-01,1.04e+00,
72,7.28e-01,1.04e+00,
73,7.36e-01,1.06e+00,
74,7.28e-01,1.06e+00,
75,7.40e-01,1.05e+00,
76,7.36e-01,1.06e+00,
77,7.28e-01,1.05e+00,
78,7.40e-01,1.05e+00,
79,7.28e-01,1.06e+00,
80,7.44e-01,1.06e+00,
81,7.28e-01,1.05e+00,
82,7.32e-01,1.06e+00,
83,7.44e-01,1.05e+00,
84,7.32e-01,1.05e+00,
85,7.48e-01,1.06e+00,
86,7.32e-01,1.06e+00,
87,7.48e-01,1.06e+00,
88,7.44e-01,1.06e+00,
89,2.40e-01,1.06e+00,
90,2.48e-01,1.05e+00,
91,2.56e-01,1.00e+00,
92,2.48e-01,1.00e+00,
93,2.60e-01,9.68e-01,
94,2.52e-01,9.68e-01,
95,2.48e-01,9.52e-01,
96,2.48e-01,9.68e-01,
97,2.56e-01,9.76e-01,
98,2.56e-01,9.84e-01,
99,2.44e-01,1.00e+00,
100,2.52e-01,1.00e+00,
101,2.52e-01,1.02e+00,
102,2.52e-01,1.03e+00,
103,2.56e-01,1.05e+00,
104,2.52e-01,1.05e+00,
105,2.64e-01,1.06e+00,
106,2.52e-01,1.05e+00,
107,2.60e-01,1.06e+00,
108,2.64e-01,1.06e+00,
109,2.52e-01,1.06e+00,
110,2.64e-01,1.06e+00,
111,2.56e-01,1.06e+00,
112,2.56e-01,1.06e+00,
113,2.64e-01,1.06e+00,
114,2.56e-01,1.06e+00,
115,2.68e-01,1.06e+00,
116,2.68e-01,1.06e+00,
117,2.56e-01,1.05e+00,
118,2.56e-01,1.05e+00,
119,2.68e-01,1.06e+00,
120,2.56e-01,1.05e+00,
121,2.64e-01,1.06e+00,
122,2.60e-01,1.06e+00,
123,2.68e-01,1.05e+00,
124,2.60e-01,1.05e+00,
125,2.72e-01,1.06e+00,
126,2.60e-01,1.06e+00,
127,2.68e-01,1.05e+00,
128,2.72e-01,1.05e+00,
129,2.60e-01,1.06e+00,
130,2.68e-01,1.05e+00,
131,2.64e-01,1.06e+00,
132,2.64e-01,1.06e+00,
133,2.72e-01,1.04e+00,
134,2.76e-01,1.05e+00,
135,2.68e-01,1.04e+00,
136,2.64e-01,1.04e+00,
137,2.76e-01,1.05e+00,
138,2.64e-01,1.04e+00,
139,2.76e-01,1.05e+00,
140,2.68e-01,1.04e+00,
141,2.72e-01,1.05e+00,
142,2.76e-01,1.04e+00,
143,2.72e-01,1.03e+00,
144,2.68e-01,1.04e+00,
145,2.80e-01,1.03e+00,
146,2.76e-01,1.03e+00,
147,2.68e-01,1.03e+00,
148,2.76e-01,1.02e+00,
149,2.68e-01,1.02e+00,
150,2.76e-01,1.02e+00,
151,2.80e-01,1.02e+00,
152,2.76e-01,1.02e+00,
153,2.80e-01,1.01e+00,
154,2.76e-01,1.02e+00,
155,2.88e-01,1.00e+00,
156,2.80e-01,1.00e+00,
157,2.76e-01,1.01e+00,
158,2.76e-01,1.00e+00,
159,2.80e-01,9.84e-01,
160,2.76e-01,9.92e-01,
161,2.88e-01,9.76e-01,
162,2.88e-01,9.76e-01,
163,2.76e-01,9.68e-01,
164,2.80e-01,9.68e-01,
165,2.88e-01,9.52e-01,
166,2.80e-01,9.52e-01,
167,2.88e-01,9.28e-01,
168,2.80e-01,9.36e-01,
169,2.92e-01,9.12e-01,
170,2.92e-01,9.12e-01,
171,2.80e-01,8.80e-01,
172,2.92e-01,8.88e-01,
173,2.84e-01,8.56e-01,
174,2.84e-01,8.56e-01,
175,2.92e-01,8.24e-01,
176,2.92e-01,8.32e-01,
177,2.84e-01,8.00e-01,
178,2.92e-01,7.92e-01,
179,2.84e-01,7.76e-01,
180,2.84e-01,7.68e-01,
181,2.96e-01,7.52e-01,
182,2.96e-01,7.52e-01,
183,2.88e-01,7.44e-01,
184,2.88e-01,7.44e-01,
185,2.96e-01,7.36e-01,
186,2.96e-01,7.44e-01,
187,2.88e-01,7.52e-01,
188,2.88e-01,7.60e-01,
189,3.00e-01,7.76e-01,
190,3.00e-01,7.76e-01,
191,2.88e-01,8.00e-01,
192,2.92e-01,8.08e-01,
193,3.00e-01,8.32e-01,
194,2.92e-01,8.32e-01,
195,3.04e-01,8.56e-01,
196,2.96e-01,8.64e-01,
197,3.04e-01,8.88e-01,
198,3.00e-01,8.88e-01,
199,3.04e-01,9.12e-01,
200,3.00e-01,9.12e-01,
201,2.96e-01,9.28e-01,
202,2.96e-01,9.28e-01,
203,3.08e-01,9.52e-01,
204,2.96e-01,9.44e-01,
205,3.08e-01,9.60e-01,
206,3.00e-01,9.68e-01,
207,3.04e-01,9.76e-01,
208,3.04e-01,9.76e-01,
209,2.96e-01,9.92e-01,
210,3.00e-01,9.84e-01,
211,3.12e-01,1.00e+00,
212,3.04e-01,1.00e+00,
213,3.08e-01,9.92e-01,
214,3.00e-01,1.01e+00,
215,3.12e-01,1.00e+00,
216,3.04e-01,1.00e+00,
217,3.12e-01,1.02e+00,
218,3.16e-01,1.02e+00,
219,3.04e-01,1.01e+00,
220,3.12e-01,1.01e+00,
221,3.08e-01,1.02e+00,
222,3.08e-01,1.02e+00,
223,3.16e-01,1.02e+00,
224,3.08e-01,1.02e+00,
225,3.16e-01,1.02e+00,
226,3.08e-01,1.03e+00,
227,3.16e-01,1.03e+00,
228,3.08e-01,1.03e+00,
229,3.16e-01,1.04e+00,
230,3.16e-01,1.03e+00,
231,3.08e-01,1.03e+00,
232,3.08e-01,1.03e+00,
233,3.20e-01,1.05e+00,
234,3.20e-01,1.04e+00,
235,3.08e-01,1.05e+00,
236,3.12e-01,1.04e+00,
237,3.20e-01,1.05e+00,
238,3.20e-01,1.04e+00,
239,3.12e-01,1.05e+00,
240,3.12e-01,1.04e+00,
241,3.24e-01,1.05e+00,
242,3.20e-01,1.04e+00,
243,3.12e-01,1.05e+00,
244,3.16e-01,1.04e+00,
245,3.24e-01,1.06e+00,
246,3.16e-01,1.06e+00,
247,3.28e-01,1.05e+00,
248,3.16e-01,1.05e+00,
249,3.28e-01,1.06e+00,
250,3.28e-01,1.05e+00,
251,3.16e-01,1.06e+00,
252,3.28e-01,1.05e+00,
253,3.16e-01,1.06e+00,
254,3.20e-01,1.06e+00,
255,3.32e-01,1.05e+00,
256,3.20e-01,1.05e+00,
257,3.28e-01,1.06e+00,
258,3.28e-01,1.05e+00,
259,3.20e-01,1.06e+00,
260,3.32e-01,1.06e+00,
261,3.24e-01,1.05e+00,
262,3.24e-01,1.05e+00,
263,3.32e-01,1.06e+00,
264,3.32e-01,1.06e+00,
265,3.24e-01,1.05e+00,
266,3.24e-01,1.05e+00,
267,3.36e-01,1.06e+00,
268,3.36e-01,1.06e+00,
269,3.24e-01,1.05e+00,
270,3.28e-01,1.05e+00,
271,3.40e-01,1.06e+00,
272,3.36e-01,1.05e+00,
273,3.32e-01,1.06e+00,
274,3.28e-01,1.06e+00,
275,3.36e-01,1.06e+00,
276,3.32e-01,1.06e+00,
277,3.36e-01,1.06e+00,
278,3.40e-01,1.06e+00,
279,3.32e-01,1.06e+00,
280,3.44e-01,1.06e+00,
281,3.32e-01,1.06e+00,
282,3.32e-01,1.06e+00,
283,3.44e-01,1.06e+00,
284,3.32e-01,1.06e+00,
285,3.40e-01,1.06e+00,
286,3.36e-01,1.06e+00,
287,3.48e-01,1.06e+00,
288,3.44e-01,1.06e+00,
289,3.36e-01,1.06e+00,
290,3.36e-01,1.06e+00,
291,3.48e-01,1.06e+00,
292,3.44e-01,1.06e+00,
293,3.36e-01,1.06e+00,
294,3.36e-01,1.06e+00,
295,3.48e-01,1.06e+00,
296,3.40e-01,1.06e+00,
297,3.52e-01,1.06e+00,
298,3.40e-01,1.06e+00,
299,3.52e-01,1.06e+00,
300,3.48e-01,1.06e+00,
301,3.40e-01,1.06e+00,
302,3.48e-01,1.06e+00,
303,3.40e-01,1.06e+00,
304,3.52e-01,1.06e+00,
305,3.40e-01,1.06e+00,
306,3.44e-01,1.06e+00,
307,3.52e-01,1.06e+00,
308,3.52e-01,1.06e+00,
309,3.44e-01,1.06e+00,
310,3.52e-01,1.06e+00,
311,3.44e-01,1.06e+00,
312,3.48e-01,1.06e+00,
313,3.56e-01,1.06e+00,
314,3.56e-01,1.06e+00,
315,3.44e-01,1.06e+00,
316,3.52e-01,1.06e+00,
317,3.56e-01,1.06e+00,
318,3.56e-01,1.06e+00,
319,3.48e-01,1.06e+00,
320,3.52e-01,1.06e+00,
321,3.64e-01,1.06e+00,
322,3.52e-01,1.06e+00,
323,3.56e-01,1.06e+00,
324,3.60e-01,1.06e+00,
325,3.52e-01,1.06e+00,
326,3.52e-01,1.06e+00,
327,3.64e-01,1.06e+00,
328,3.56e-01,1.06e+00,
329,3.64e-01,1.06e+00,
330,3.56e-01,1.06e+00,
331,3.60e-01,1.06e+00,
332,3.60e-01,1.06e+00,
333,3.52e-01,1.06e+00,
334,3.64e-01,1.06e+00,
335,3.56e-01,1.06e+00,
336,3.64e-01,1.06e+00,
337,3.56e-01,1.06e+00,
338,3.68e-01,1.06e+00,
339,3.56e-01,1.06e+00,
340,3.60e-01,1.06e+00,
341,3.68e-01,1.06e+00,
342,3.60e-01,1.06e+00,
343,3.68e-01,1.06e+00,
344,3.64e-01,1.06e+00,
345,3.68e-01,1.06e+00,
346,3.68e-01,1.06e+00,
347,3.64e-01,1.06e+00,
348,3.72e-01,1.06e+00,
349,3.60e-01,1.06e+00,
350,3.72e-01,1.06e+00,
351,3.64e-01,1.06e+00,
352,3.64e-01,1.06e+00,
353,3.76e-01,1.06e+00,
354,3.64e-01,1.06e+00,
355,3.76e-01,1.06e+00,
356,3.76e-01,1.06e+00,
357,3.64e-01,1.06e+00,
358,3.68e-01,1.06e+00,
359,3.80e-01,1.06e+00,
360,3.64e-01,1.06e+00,
361,3.80e-01,1.06e+00,
362,3.80e-01,1.06e+00,
363,3.68e-01,1.06e+00,
364,3.76e-01,1.06e+00,
365,3.68e-01,1.06e+00,
366,3.80e-01,1.06e+00,
367,3.72e-01,1.06e+00,
368,3.80e-01,1.06e+00,
369,3.72e-01,1.06e+00,
370,3.80e-01,1.06e+00,
371,3.72e-01,1.06e+00,
372,3.72e-01,1.06e+00,
373,3.84e-01,1.06e+00,
374,3.76e-01,1.06e+00,
375,3.84e-01,1.06e+00,
376,3.84e-01,1.06e+00,
377,3.76e-01,1.06e+00,
378,3.72e-01,1.06e+00,
379,3.88e-01,1.06e+00,
380,3.80e-01,1.06e+00,
381,3.88e-01,1.06e+00,
382,3.80e-01,1.06e+00,
383,3.84e-01,1.06e+00,
384,3.80e-01,1.06e+00,
385,3.92e-01,1.06e+00,
386,3.84e-01,1.06e+00,
387,3.92e-01,1.06e+00,
388,3.88e-01,1.06e+00,
389,3.80e-01,1.06e+00,
390,3.84e-01,1.06e+00,
391,3.92e-01,1.06e+00,
392,3.84e-01,1.06e+00,
393,3.96e-01,1.06e+00,
394,3.84e-01,1.06e+00,
395,3.92e-01,1.06e+00,
396,3.92e-01,1.06e+00,
397,3.84e-01,1.06e+00,
398,3.92e-01,1.06e+00,
399,3.84e-01,1.06e+00,
400,3.96e-01,1.06e+00,
401,3.88e-01,1.06e+00,
402,3.88e-01,1.06e+00,
403,4.00e-01,1.06e+00,
404,3.88e-01,1.06e+00,
405,4.00e-01,1.06e+00,
406,3.92e-01,1.06e+00,
407,3.88e-01,1.06e+00,
408,3.92e-01,1.06e+00,
409,3.96e-01,1.06e+00,
410,3.92e-01,1.06e+00,
411,4.00e-01,1.06e+00,
412,4.00e-01,1.06e+00,
413,3.92e-01,1.06e+00,
414,3.92e-01,1.06e+00,
415,4.00e-01,1.06e+00,
416,3.96e-01,1.06e+00,
417,4.04e-01,1.06e+00,
418,3.92e-01,1.06e+00,
419,4.00e-01,1.06e+00,
420,3.96e-01,1.06e+00,
421,4.04e-01,1.06e+00,
422,4.04e-01,1.06e+00,
423,3.96e-01,1.06e+00,
424,4.04e-01,1.06e+00,
425,3.92e-01,1.06e+00,
426,4.08e-01,1.06e+00,
427,3.96e-01,1.06e+00,
428,4.00e-01,1.06e+00,
429,4.08e-01,1.06e+00,
430,4.08e-01,1.06e+00,
431,4.00e-01,1.06e+00,
432,4.04e-01,1.06e+00,
433,4.08e-01,1.06e+00,
434,4.00e-01,1.06e+00,
435,4.08e-01,1.06e+00,
436,4.08e-01,1.06e+00,
437,4.00e-01,1.06e+00,
438,4.08e-01,1.06e+00,
439,4.00e-01,1.06e+00,
440,4.12e-01,1.06e+00,
441,4.04e-01,1.06e+00,
442,4.08e-01,1.06e+00,
443,4.16e-01,1.06e+00,
444,4.08e-01,1.06e+00,
445,4.16e-01,1.06e+00,
446,4.08e-01,1.06e+00,
447,4.16e-01,1.06e+00,
448,4.04e-01,1.06e+00,
449,4.16e-01,1.06e+00,
450,4.16e-01,1.06e+00,
451,4.08e-01,1.06e+00,
452,4.12e-01,1.06e+00,
453,4.20e-01,1.06e+00,
454,4.12e-01,1.06e+00,
455,4.24e-01,1.06e+00,
456,4.12e-01,1.06e+00,
457,4.16e-01,1.06e+00,
458,4.12e-01,1.06e+00,
459,4.24e-01,1.06e+00,
460,4.20e-01,1.06e+00,
461,4.12e-01,1.06e+00,
462,4.16e-01,1.06e+00,
463,4.24e-01,1.06e+00,
464,4.24e-01,1.06e+00,
465,4.12e-01,1.06e+00,
466,4.24e-01,1.06e+00,
467,4.16e-01,1.06e+00,
468,4.28e-01,1.06e+00,
469,4.16e-01,1.06e+00,
470,4.16e-01,1.06e+00,
471,4.28e-01,1.06e+00,
472,4.20e-01,1.06e+00,
473,4.28e-01,1.06e+00,
474,4.20e-01,1.06e+00,
475,4.28e-01,1.06e+00,
476,4.20e-01,1.06e+00,
477,4.28e-01,1.06e+00,
478,4.28e-01,1.06e+00,
479,4.20e-01,1.06e+00,
480,4.20e-01,1.06e+00,
481,4.32e-01,1.06e+00,
482,4.32e-01,1.06e+00,
483,4.24e-01,1.06e+00,
484,4.32e-01,1.06e+00,
485,4.24e-01,1.06e+00,
486,4.28e-01,1.06e+00,
487,4.32e-01,1.06e+00,
488,4.28e-01,1.06e+00,
489,4.36e-01,1.06e+00,
490,4.24e-01,1.06e+00,
491,4.44e-01,1.06e+00,
492,4.28e-01,1.06e+00,
493,4.36e-01,1.06e+00,
494,4.36e-01,1.06e+00,
495,4.32e-01,1.06e+00,
496,4.32e-01,1.06e+00,
497,4.40e-01,1.06e+00,
498,4.36e-01,1.06e+00,
499,4.28e-01,1.06e+00,
500,4.40e-01,1.06e+00,
501,4.28e-01,1.06e+00,
502,4.36e-01,1.06e+00,
503,4.40e-01,1.06e+00,
504,4.44e-01,1.06e+00,
505,4.32e-01,1.06e+00,
506,4.44e-01,1.06e+00,
507,4.32e-01,1.06e+00,
508,4.40e-01,1.06e+00,
509,4.36e-01,1.06e+00,
510,4.36e-01,1.06e+00,
511,4.48e-01,1.06e+00,
512,4.48e-01,1.06e+00,
513,4.36e-01,1.06e+00,
514,4.48e-01,1.06e+00,
515,4.36e-01,1.06e+00,
516,4.48e-01,1.06e+00,
517,4.40e-01,1.06e+00,
518,4.40e-01,1.06e+00,
519,4.52e-01,1.06e+00,
520,4.40e-01,1.06e+00,
521,4.52e-01,1.06e+00,
522,4.40e-01,1.06e+00,
523,4.52e-01,1.06e+00,
524,4.44e-01,1.06e+00,
525,4.52e-01,1.06e+00,
526,4.40e-01,1.06e+00,
527,4.52e-01,1.06e+00,
528,4.44e-01,1.06e+00,
529,4.56e-01,1.06e+00,
530,4.44e-01,1.06e+00,
531,4.56e-01,1.06e+00,
532,4.48e-01,1.06e+00,
533,4.56e-01,1.06e+00,
534,4.56e-01,1.06e+00,
535,4.48e-01,1.06e+00,
536,4.48e-01,1.06e+00,
537,4.56e-01,1.06e+00,
538,4.48e-01,1.06e+00,
539,4.56e-01,1.06e+00,
540,4.48e-01,1.06e+00,
541,4.60e-01,1.06e+00,
542,4.60e-01,1.06e+00,
543,4.48e-01,1.06e+00,
544,4.60e-01,1.06e+00,
545,4.48e-01,1.06e+00,
546,4.60e-01,1.06e+00,
547,4.48e-01,1.06e+00,
548,4.52e-01,1.06e+00,
549,4.60e-01,1.06e+00,
550,4.64e-01,1.06e+00,
551,4.52e-01,1.06e+00,
552,4.60e-01,1.06e+00,
553,4.56e-01,1.06e+00,
554,4.56e-01,1.06e+00,
555,4.64e-01,1.06e+00,
556,4.56e-01,1.06e+00,
557,4.68e-01,1.06e+00,
558,4.64e-01,1.06e+00,
559,4.56e-01,1.06e+00,
560,4.60e-01,1.06e+00,
561,4.72e-01,1.06e+00,
562,4.60e-01,1.06e+00,
563,4.68e-01,1.06e+00,
564,4.60e-01,1.06e+00,
565,4.72e-01,1.06e+00,
566,4.56e-01,1.06e+00,
567,4.72e-01,1.06e+00,
568,4.68e-01,1.06e+00,
569,4.64e-01,1.06e+00,
570,4.72e-01,1.06e+00,
571,4.64e-01,1.06e+00,
572,4.64e-01,1.06e+00,
573,4.76e-01,1.06e+00,
574,4.64e-01,1.06e+00,
575,4.76e-01,1.06e+00,
576,4.64e-01,1.06e+00,
577,4.76e-01,1.06e+00,
578,4.64e-01,1.06e+00,
579,4.76e-01,1.06e+00,
580,4.76e-01,1.06e+00,
581,4.68e-01,1.06e+00,
582,4.80e-01,1.06e+00,
583,4.68e-01,1.06e+00,
584,4.68e-01,1.06e+00,
585,4.80e-01,1.06e+00,
586,4.72e-01,1.06e+00,
587,4.84e-01,1.06e+00,
588,4.80e-01,1.06e+00,
589,4.72e-01,1.06e+00,
590,4.80e-01,1.06e+00,
591,4.72e-01,1.06e+00,
592,4.72e-01,1.06e+00,
593,4.84e-01,1.06e+00,
594,4.72e-01,1.06e+00,
595,4.84e-01,1.06e+00,
596,4.72e-01,1.06e+00,
597,4.84e-01,1.06e+00,
598,4.76e-01,1.06e+00,
599,4.84e-01,1.06e+00,
600,4.76e-01,1.06e+00,
601,4.84e-01,1.06e+00,
602,4.80e-01,1.06e+00,
603,4.88e-01,1.06e+00,
604,4.84e-01,1.06e+00,
605,4.76e-01,1.06e+00,
606,4.88e-01,1.06e+00,
607,4.80e-01,1.06e+00,
608,4.88e-01,1.06e+00,
609,4.76e-01,1.06e+00,
610,4.92e-01,1.06e+00,
611,4.80e-01,1.06e+00,
612,4.80e-01,1.06e+00,
613,4.92e-01,1.06e+00,
614,4.84e-01,1.06e+00,
615,4.96e-01,1.06e+00,
616,4.92e-01,1.06e+00,
617,4.84e-01,1.06e+00,
618,4.88e-01,1.06e+00,
619,4.92e-01,1.06e+00,
620,4.92e-01,1.06e+00,
621,4.88e-01,1.06e+00,
622,4.88e-01,1.06e+00,
623,5.00e-01,1.06e+00,
624,4.88e-01,1.06e+00,
625,4.96e-01,1.06e+00,
626,4.92e-01,1.06e+00,
627,4.96e-01,1.06e+00,
628,4.88e-01,1.06e+00,
629,4.96e-01,1.06e+00,
630,4.92e-01,1.06e+00,
631,4.96e-01,1.06e+00,
632,5.00e-01,1.06e+00,
633,4.92e-01,1.06e+00,
634,5.00e-01,1.06e+00,
635,4.92e-01,1.06e+00,
636,5.00e-01,1.06e+00,
637,4.92e-01,1.06e+00,
638,5.04e-01,1.06e+00,
639,4.92e-01,1.06e+00,
640,4.92e-01,1.06e+00,
641,5.04e-01,1.06e+00,
642,4.96e-01,1.06e+00,
643,5.04e-01,1.06e+00,
644,5.04e-01,1.06e+00,
645,4.96e-01,1.06e+00,
646,5.04e-01,1.06e+00,
647,4.96e-01,1.06e+00,
648,5.08e-01,1.06e+00,
649,4.96e-01,1.06e+00,
650,5.00e-01,1.06e+00,
651,5.12e-01,1.06e+00,
652,5.00e-01,1.06e+00,
653,5.08e-01,1.06e+00,
654,5.00e-01,1.06e+00,
655,5.12e-01,1.06e+00,
656,5.12e-01,1.06e+00,
657,5.00e-01,1.06e+00,
658,5.04e-01,1.06e+00,
659,5.12e-01,1.06e+00,
660,5.04e-01,1.06e+00,
661,5.12e-01,1.06e+00,
662,5.04e-01,1.06e+00,
663,5.16e-01,1.06e+00,
664,5.12e-01,1.06e+00,
665,5.04e-01,1.06e+00,
666,5.12e-01,1.06e+00,
667,5.00e-01,1.06e+00,
668,5.16e-01,1.06e+00,
669,5.08e-01,1.06e+00,
670,5.24e-01,1.06e+00,
671,5.04e-01,1.06e+00,
672,5.04e-01,1.06e+00,
673,5.16e-01,1.06e+00,
674,5.08e-01,1.06e+00,
675,5.20e-01,1.06e+00,
676,5.20e-01,1.06e+00,
677,5.12e-01,1.06e+00,
678,5.24e-01,1.06e+00,
679,5.12e-01,1.06e+00,
680,5.24e-01,1.06e+00,
681,5.12e-01,1.06e+00,
682,5.16e-01,1.06e+00,
683,5.28e-01,1.06e+00,
684,5.16e-01,1.06e+00,
685,5.28e-01,1.06e+00,
686,5.16e-01,1.06e+00,
687,5.28e-01,1.06e+00,
688,5.24e-01,1.06e+00,
689,5.20e-01,1.06e+00,
690,5.16e-01,1.06e+00,
691,5.28e-01,1.06e+00,
692,5.20e-01,1.06e+00,
693,5.28e-01,1.06e+00,
694,5.20e-01,1.06e+00,
695,5.28e-01,1.06e+00,
696,5.28e-01,1.06e+00,
697,5.20e-01,1.06e+00,
698,5.20e-01,1.06e+00,
699,5.32e-01,1.06e+00,
700,5.24e-01,1.06e+00,
701,5.32e-01,1.06e+00,
702,5.32e-01,1.06e+00,
703,5.20e-01,1.06e+00,
704,5.36e-01,1.06e+00,
705,5.20e-01,1.06e+00,
706,5.28e-01,1.06e+00,
707,5.36e-01,1.06e+00,
708,5.24e-01,1.06e+00,
709,5.36e-01,1.06e+00,
710,5.28e-01,1.06e+00,
711,5.36e-01,1.06e+00,
712,5.28e-01,1.06e+00,
713,5.40e-01,1.06e+00,
714,5.28e-01,1.06e+00,
715,5.36e-01,1.06e+00,
716,5.28e-01,1.06e+00,
717,5.40e-01,1.06e+00,
718,5.40e-01,1.06e+00,
719,5.28e-01,1.06e+00,
720,5.40e-01,1.06e+00,
721,5.28e-01,1.06e+00,
722,5.28e-01,1.06e+00,
723,5.44e-01,1.06e+00,
724,5.40e-01,1.06e+00,
725,5.32e-01,1.06e+00,
726,5.44e-01,1.06e+00,
727,5.32e-01,1.06e+00,
728,5.40e-01,1.06e+00,
729,5.32e-01,1.06e+00,
730,5.48e-01,1.06e+00,
731,5.36e-01,1.06e+00,
732,5.32e-01,1.06e+00,
733,5.44e-01,1.06e+00,
734,5.40e-01,1.06e+00,
735,5.48e-01,1.06e+00,
736,5.48e-01,1.06e+00,
737,5.44e-01,1.06e+00,
738,5.40e-01,1.06e+00,
739,5.48e-01,1.06e+00,
740,5.40e-01,1.06e+00,
741,5.52e-01,1.06e+00,
742,5.48e-01,1.06e+00,
743,5.44e-01,1.06e+00,
744,5.52e-01,1.06e+00,
745,5.44e-01,1.06e+00,
746,5.44e-01,1.06e+00,
747,5.52e-01,1.06e+00,
748,5.56e-01,1.06e+00,
749,5.44e-01,1.06e+00,
750,5.52e-01,1.06e+00,
751,5.44e-01,1.06e+00,
752,5.48e-01,1.06e+00,
753,5.56e-01,1.06e+00,
754,5.56e-01,1.06e+00,
755,5.44e-01,1.06e+00,
756,5.56e-01,1.06e+00,
757,5.48e-01,1.06e+00,
758,5.44e-01,1.06e+00,
759,5.60e-01,1.06e+00,
760,5.48e-01,1.06e+00,
761,5.60e-01,1.06e+00,
762,5.60e-01,1.06e+00,
763,5.48e-01,1.06e+00,
764,5.52e-01,1.06e+00,
765,5.60e-01,1.06e+00,
766,5.52e-01,1.06e+00,
767,5.64e-01,1.06e+00,
768,5.64e-01,1.06e+00,
769,5.56e-01,1.06e+00,
770,5.64e-01,1.06e+00,
771,5.52e-01,1.06e+00,
772,5.64e-01,1.06e+00,
773,5.52e-01,1.06e+00,
774,5.64e-01,1.06e+00,
775,5.56e-01,1.06e+00,
776,5.56e-01,1.06e+00,
777,5.68e-01,1.06e+00,
778,5.52e-01,1.06e+00,
779,5.68e-01,1.06e+00,
780,5.68e-01,1.06e+00,
781,5.56e-01,1.06e+00,
782,5.72e-01,1.06e+00,
783,5.56e-01,1.06e+00,
784,5.64e-01,1.06e+00,
785,5.68e-01,1.06e+00,
786,5.72e-01,1.06e+00,
787,5.60e-01,1.06e+00,
788,5.72e-01,1.06e+00,
789,5.60e-01,1.06e+00,
790,5.64e-01,1.06e+00,
791,5.76e-01,1.06e+00,
792,5.64e-01,1.06e+00,
793,5.76e-01,1.06e+00,
794,5.68e-01,1.06e+00,
795,5.80e-01,1.06e+00,
796,5.68e-01,1.06e+00,
797,5.72e-01,1.05e+00,
798,5.68e-01,1.06e+00,
799,5.80e-01,1.05e+00,
800,5.72e-01,1.06e+00,
801,5.76e-01,1.05e+00,
802,5.68e-01,1.05e+00,
803,5.84e-01,1.06e+00,
804,5.76e-01,1.04e+00,
805,5.68e-01,1.05e+00,
806,5.76e-01,1.05e+00,
807,5.80e-01,1.03e+00,
808,5.72e-01,1.03e+00,
809,5.84e-01,1.02e+00,
810,5.80e-01,1.02e+00,
811,5.72e-01,9.92e-01,
812,5.80e-01,1.00e+00,
813,5.72e-01,9.76e-01,
814,5.72e-01,9.76e-01,
815,5.80e-01,9.60e-01,
816,5.72e-01,9.68e-01,
817,5.80e-01,9.60e-01,
818,5.76e-01,9.76e-01,
819,5.84e-01,9.84e-01,
820,5.88e-01,9.84e-01,
821,5.76e-01,1.00e+00,
822,5.84e-01,1.00e+00,
823,5.76e-01,1.02e+00,
824,5.76e-01,1.01e+00,
825,5.88e-01,1.03e+00,
826,5.80e-01,1.03e+00,
827,5.88e-01,1.04e+00,
828,5.92e-01,1.05e+00,
829,5.80e-01,1.04e+00,
830,5.80e-01,1.06e+00,
831,5.92e-01,1.05e+00,
832,5.80e-01,1.05e+00,
833,5.88e-01,1.06e+00,
834,5.92e-01,1.05e+00,
835,5.80e-01,1.06e+00,
836,5.84e-01,1.06e+00,
837,5.96e-01,1.06e+00,
838,5.96e-01,1.06e+00,
839,5.84e-01,1.06e+00,
840,5.84e-01,1.06e+00,
841,5.96e-01,1.06e+00,
842,5.84e-01,1.06e+00,
843,5.96e-01,1.06e+00,
844,5.96e-01,1.06e+00,
845,5.84e-01,1.06e+00,
846,5.96e-01,1.06e+00,
847,5.88e-01,1.06e+00,
848,5.92e-01,1.06e+00,
849,5.96e-01,1.06e+00,
850,5.92e-01,1.06e+00,
851,6.00e-01,1.06e+00,
852,6.00e-01,1.06e+00,
853,5.92e-01,1.06e+00,
854,5.88e-01,1.06e+00,
855,6.00e-01,1.06e+00,
856,6.04e-01,1.06e+00,
857,5.92e-01,1.06e+00,
858,6.04e-01,1.06e+00,
859,5.92e-01,1.06e+00,
860,6.08e-01,1.06e+00,
861,5.96e-01,1.06e+00,
862,5.96e-01,1.06e+00,
863,6.08e-01,1.06e+00,
864,6.00e-01,1.06e+00,
865,5.96e-01,1.06e+00,
866,6.08e-01,1.06e+00,
867,5.96e-01,1.06e+00,
868,6.00e-01,1.06e+00,
869,6.08e-01,1.06e+00,
870,6.12e-01,1.06e+00,
