New Quadratic zeeman data/NewFile2.csv

X,CH1,CH2,Start,Increment,
Sequence,Volt,Volt,-1.100000e-01,5.000000e-03
0,9.12e-01,4.56e-02,
1,9.28e-01,4.50e-02,
2,9.20e-01,4.50e-02,
3,9.36e-01,4.56e-02,
4,9.36e-01,4.56e-02,
5,9.28e-01,4.48e-02,
6,9.28e-01,4.52e-02,
7,9.36e-01,4.58e-02,
8,9.28e-01,4.56e-02,
9,9.20e-01,4.48e-02,
10,9.20e-01,4.52e-02,
11,9.28e-01,4.58e-02,
12,9.28e-01,4.52e-02,
13,9.44e-01,4.60e-02,
14,9.36e-01,4.50e-02,
15,9.44e-01,4.58e-02,
16,9.36e-01,4.58e-02,
17,9.20e-01,4.52e-02,
18,9.36e-01,4.56e-02,
19,9.20e-01,4.50e-02,
20,9.36e-01,4.56e-02,
21,9.52e-01,4.50e-02,
22,9.52e-01,4.54e-02,
23,9.44e-01,4.46e-02,
24,9.52e-01,4.54e-02,
25,9.36e-01,4.46e-02,
26,9.36e-01,4.54e-02,
27,9.60e-01,4.46e-02,
28,9.60e-01,4.50e-02,
29,9.52e-01,4.56e-02,
30,9.44e-01,4.56e-02,
31,9.44e-01,4.50e-02,
32,9.44e-01,4.56e-02,
33,9.68e-01,4.48e-02,
34,9.68e-01,4.48e-02,
35,9.52e-01,4.56e-02,
36,9.60e-01,4.50e-02,
37,9.44e-01,4.56e-02,
38,9.44e-01,4.56e-02,
39,9.68e-01,4.50e-02,
40,9.68e-01,4.56e-02,
41,9.52e-01,4.50e-02,
42,9.60e-01,4.56e-02,
43,9.44e-01,4.48e-02,
44,9.60e-01,4.48e-02,
45,9.68e-01,4.54e-02,
46,9.76e-01,4.48e-02,
47,9.60e-01,4.54e-02,
48,9.60e-01,4.52e-02,
49,9.52e-01,4.46e-02,
50,9.68e-01,4.46e-02,
51,9.76e-01,4.54e-02,
52,9.60e-01,4.54e-02,
53,9.68e-01,4.50e-02,
54,9.68e-01,4.54e-02,
55,9.84e-01,4.46e-02,
56,9.84e-01,4.50e-02,
57,9.68e-01,4.54e-02,
58,9.60e-01,4.56e-02,
59,9.68e-01,4.48e-02,
60,9.84e-01,4.46e-02,
61,9.76e-01,4.54e-02,
62,9.68e-01,4.48e-02,
63,9.84e-01,4.52e-02,
64,9.76e-01,4.46e-02,
65,9.92e-01,4.52e-02,
66,9.84e-01,4.52e-02,
67,9.68e-01,4.46e-02,
68,9.76e-01,4.50e-02,
69,9.92e-01,4.46e-02,
70,9.92e-01,4.48e-02,
71,9.84e-01,4.52e-02,
72,0.00e+00,4.70e-02,
73,-8.00e-03,4.80e-02,
74,-8.00e-03,4.80e-02,
75,8.00e-03,4.94e-02,
76,0.00e+00,4.96e-02,
77,8.00e-03,5.08e-02,
78,0.00e+00,5.04e-02,
79,8.00e-03,5.18e-02,
80,1.60e-02,5.18e-02,
81,0.00e+00,5.24e-02,
82,0.00e+00,5.20e-02,
83,1.60e-02,5.26e-02,
84,8.00e-03,5.20e-02,
85,1.60e-02,5.30e-02,
86,1.60e-02,5.22e-02,
87,8.00e-03,5.28e-02,
88,8.00e-03,5.30e-02,
89,2.40e-02,5.22e-02,
90,8.00e-03,5.24e-02,
91,2.40e-02,5.28e-02,
92,1.60e-02,5.24e-02,
93,2.40e-02,5.28e-02,
94,2.40e-02,5.26e-02,
95,1.60e-02,5.22e-02,
96,1.60e-02,5.28e-02,
97,2.40e-02,5.22e-02,
98,3.20e-02,5.28e-02,
99,1.60e-02,5.20e-02,
100,1.60e-02,5.26e-02,
101,3.20e-02,5.20e-02,
102,1.60e-02,5.20e-02,
103,3.20e-02,5.28e-02,
104,1.60e-02,5.28e-02,
105,3.20e-02,5.20e-02,
106,2.40e-02,5.26e-02,
107,3.20e-02,5.20e-02,
108,3.20e-02,5.24e-02,
109,2.40e-02,5.20e-02,
110,3.20e-02,5.22e-02,
111,4.00e-02,5.28e-02,
112,4.80e-02,5.20e-02,
113,2.40e-02,5.24e-02,
114,4.00e-02,5.26e-02,
115,3.20e-02,5.20e-02,
116,4.00e-02,5.22e-02,
117,4.00e-02,5.28e-02,
118,4.00e-02,5.24e-02,
119,5.60e-02,5.18e-02,
120,4.00e-02,5.26e-02,
121,5.60e-02,5.18e-02,
122,4.00e-02,5.20e-02,
123,4.80e-02,5.26e-02,
124,5.60e-02,5.20e-02,
125,4.80e-02,5.26e-02,
126,5.60e-02,5.20e-02,
127,4.80e-02,5.26e-02,
128,4.80e-02,5.18e-02,
129,5.60e-02,5.26e-02,
130,4.80e-02,5.26e-02,
131,4.80e-02,5.18e-02,
132,4.80e-02,5.18e-02,
133,5.60e-02,5.24e-02,
134,4.80e-02,5.18e-02,
135,6.40e-02,5.26e-02,
136,5.60e-02,5.24e-02,
137,6.40e-02,5.18e-02,
138,6.40e-02,5.22e-02,
139,5.60e-02,5.16e-02,
140,5.60e-02,5.28e-02,
141,7.20e-02,5.18e-02,
142,6.40e-02,5.18e-02,
143,5.60e-02,5.24e-02,
144,7.20e-02,5.20e-02,
145,5.60e-02,5.18e-02,
146,5.60e-02,5.18e-02,
147,7.20e-02,5.28e-02,
148,6.40e-02,5.22e-02,
149,7.20e-02,5.24e-02,
150,6.40e-02,5.24e-02,
151,7.20e-02,5.16e-02,
152,6.40e-02,5.22e-02,
153,8.00e-02,5.18e-02,
154,8.00e-02,5.24e-02,
155,6.40e-02,5.18e-02,
156,8.00e-02,5.24e-02,
157,7.20e-02,5.18e-02,
158,8.00e-02,5.18e-02,
159,7.20e-02,5.24e-02,
160,8.00e-02,5.18e-02,
161,7.20e-02,5.24e-02,
162,7.20e-02,5.22e-02,
163,8.80e-02,5.18e-02,
164,8.80e-02,5.24e-02,
165,7.20e-02,5.16e-02,
166,8.80e-02,5.18e-02,
167,8.00e-02,5.22e-02,
168,8.80e-02,5.16e-02,
169,8.00e-02,5.24e-02,
170,8.80e-02,5.22e-02,
171,9.60e-02,5.16e-02,
172,8.80e-02,5.16e-02,
173,9.60e-02,5.24e-02,
174,8.80e-02,5.24e-02,
175,9.60e-02,5.16e-02,
176,8.80e-02,5.22e-02,
177,1.04e-01,5.14e-02,
178,9.60e-02,5.22e-02,
179,1.04e-01,5.16e-02,
180,9.60e-02,5.16e-02,
181,1.04e-01,5.20e-02,
182,1.04e-01,5.22e-02,
183,9.60e-02,5.14e-02,
184,1.12e-01,5.16e-02,
185,9.60e-02,5.22e-02,
186,1.12e-01,5.16e-02,
187,9.60e-02,5.24e-02,
188,1.12e-01,5.20e-02,
189,1.04e-01,5.18e-02,
190,1.04e-01,5.16e-02,
191,1.12e-01,5.20e-02,
192,1.04e-01,5.20e-02,
193,1.20e-01,5.16e-02,
194,1.04e-01,5.22e-02,
195,1.20e-01,5.14e-02,
196,1.20e-01,5.22e-02,
197,1.12e-01,5.16e-02,
198,1.12e-01,5.14e-02,
199,1.20e-01,5.20e-02,
200,1.20e-01,5.20e-02,
201,1.12e-01,5.16e-02,
202,1.12e-01,5.18e-02,
203,1.20e-01,5.14e-02,
204,1.28e-01,5.18e-02,
205,1.12e-01,5.16e-02,
206,1.12e-01,5.20e-02,
207,1.28e-01,5.12e-02,
208,1.28e-01,5.14e-02,
209,1.20e-01,5.22e-02,
210,1.20e-01,5.18e-02,
211,1.28e-01,5.10e-02,
212,1.20e-01,5.10e-02,
213,1.28e-01,5.02e-02,
214,1.36e-01,5.04e-02,
215,1.20e-01,4.98e-02,
216,1.36e-01,5.02e-02,
217,1.28e-01,4.92e-02,
218,1.36e-01,4.94e-02,
219,1.28e-01,5.04e-02,
220,1.36e-01,5.00e-02,
221,1.28e-01,5.06e-02,
222,1.36e-01,5.02e-02,
223,1.28e-01,5.10e-02,
224,1.36e-01,5.08e-02,
225,1.44e-01,5.14e-02,
226,1.36e-01,5.12e-02,
227,1.52e-01,5.16e-02,
228,1.44e-01,5.10e-02,
229,1.36e-01,5.18e-02,
230,1.44e-01,5.12e-02,
231,1.44e-01,5.18e-02,
232,1.44e-01,5.12e-02,
233,1.44e-01,5.20e-02,
234,1.44e-01,5.18e-02,
235,1.52e-01,5.14e-02,
236,1.60e-01,5.14e-02,
237,1.44e-01,5.18e-02,
238,1.60e-01,5.14e-02,
239,1.44e-01,5.20e-02,
240,1.52e-01,5.16e-02,
241,1.60e-01,5.12e-02,
242,1.52e-01,5.18e-02,
243,1.68e-01,5.12e-02,
244,1.52e-01,5.14e-02,
245,1.60e-01,5.16e-02,
246,1.52e-01,5.12e-02,
247,1.60e-01,5.20e-02,
248,1.68e-01,5.20e-02,
249,1.52e-01,5.12e-02,
250,1.60e-01,5.12e-02,
251,1.68e-01,5.18e-02,
252,1.68e-01,5.12e-02,
253,1.60e-01,5.18e-02,
254,1.68e-01,5.18e-02,
255,1.60e-01,5.12e-02,
256,1.76e-01,5.16e-02,
257,1.60e-01,5.12e-02,
258,1.60e-01,5.16e-02,
259,1.76e-01,5.10e-02,
260,1.76e-01,5.16e-02,
261,1.68e-01,5.12e-02,
262,1.76e-01,5.16e-02,
263,1.68e-01,5.10e-02,
264,1.68e-01,5.16e-02,
265,1.84e-01,5.08e-02,
266,1.84e-01,5.08e-02,
267,1.68e-01,5.18e-02,
268,1.68e-01,5.08e-02,
269,1.84e-01,5.16e-02,
270,1.84e-01,5.16e-02,
271,1.68e-01,5.10e-02,
272,1.84e-01,5.16e-02,
273,1.76e-01,5.10e-02,
274,1.84e-01,5.10e-02,
275,1.76e-01,5.14e-02,
276,1.92e-01,5.14e-02,
277,1.84e-01,5.10e-02,
278,1.92e-01,5.16e-02,
279,1.76e-01,5.08e-02,
280,1.92e-01,5.08e-02,
281,1.84e-01,5.14e-02,
282,1.92e-01,5.16e-02,
283,2.08e-01,5.10e-02,
284,1.92e-01,5.08e-02,
285,2.00e-01,5.14e-02,
286,2.00e-01,5.14e-02,
287,1.92e-01,5.06e-02,
288,1.84e-01,5.10e-02,
289,2.00e-01,5.14e-02,
290,2.08e-01,5.08e-02,
291,1.92e-01,5.14e-02,
292,2.00e-01,5.14e-02,
293,2.16e-01,5.10e-02,
294,2.00e-01,5.12e-02,
295,2.08e-01,5.10e-02,
296,2.00e-01,5.08e-02,
297,2.08e-01,5.14e-02,
298,2.16e-01,5.10e-02,
299,2.00e-01,5.14e-02,
300,2.00e-01,5.10e-02,
301,2.16e-01,5.14e-02,
302,2.00e-01,5.16e-02,
303,2.16e-01,5.08e-02,
304,2.08e-01,5.14e-02,
305,2.16e-01,5.08e-02,
306,2.08e-01,5.06e-02,
307,2.24e-01,5.10e-02,
308,2.08e-01,5.12e-02,
309,2.16e-01,5.04e-02,
310,2.24e-01,5.10e-02,
311,2.16e-01,5.06e-02,
312,2.24e-01,5.14e-02,
313,2.16e-01,5.04e-02,
314,2.16e-01,5.04e-02,
315,2.24e-01,5.10e-02,
316,2.16e-01,5.14e-02,
317,2.32e-01,5.04e-02,
318,2.32e-01,5.12e-02,
319,2.16e-01,5.08e-02,
320,2.16e-01,5.04e-02,
321,2.32e-01,5.12e-02,
322,2.16e-01,5.06e-02,
323,2.32e-01,5.12e-02,
324,2.40e-01,5.04e-02,
325,2.24e-01,5.10e-02,
326,2.24e-01,5.04e-02,
327,2.40e-01,5.10e-02,
328,2.40e-01,5.12e-02,
329,2.24e-01,5.06e-02,
330,2.24e-01,5.06e-02,
331,2.40e-01,5.14e-02,
332,2.24e-01,5.08e-02,
333,2.40e-01,5.04e-02,
334,2.40e-01,5.10e-02,
335,2.40e-01,5.04e-02,
336,2.32e-01,5.10e-02,
337,2.48e-01,5.04e-02,
338,2.48e-01,5.04e-02,
339,2.32e-01,5.10e-02,
340,2.48e-01,5.06e-02,
341,2.32e-01,4.96e-02,
342,2.48e-01,4.98e-02,
343,2.40e-01,4.86e-02,
344,2.48e-01,4.86e-02,
345,2.48e-01,4.78e-02,
346,2.48e-01,4.78e-02,
347,2.56e-01,4.86e-02,
348,2.48e-01,4.82e-02,
349,2.56e-01,4.88e-02,
350,2.48e-01,4.84e-02,
351,2.56e-01,4.94e-02,
352,2.56e-01,4.92e-02,
353,2.64e-01,4.96e-02,
354,2.56e-01,4.96e-02,
355,2.64e-01,5.06e-02,
356,2.64e-01,4.98e-02,
357,2.56e-01,5.04e-02,
358,2.56e-01,5.08e-02,
359,2.72e-01,5.04e-02,
360,2.56e-01,5.04e-02,
361,2.72e-01,5.08e-02,
362,2.72e-01,5.04e-02,
363,2.56e-01,5.10e-02,
364,2.72e-01,5.10e-02,
365,2.64e-01,5.04e-02,
366,2.64e-01,5.02e-02,
367,2.80e-01,5.10e-02,
368,2.64e-01,5.04e-02,
369,2.72e-01,5.08e-02,
370,2.64e-01,5.00e-02,
371,2.80e-01,5.10e-02,
372,2.64e-01,5.08e-02,
373,2.80e-01,5.02e-02,
374,2.64e-01,5.02e-02,
375,2.88e-01,5.08e-02,
376,2.72e-01,5.02e-02,
377,2.80e-01,5.08e-02,
378,2.80e-01,5.02e-02,
379,2.72e-01,5.08e-02,
380,2.88e-01,5.02e-02,
381,2.72e-01,5.08e-02,
382,2.88e-01,5.10e-02,
383,2.72e-01,5.00e-02,
384,2.88e-01,5.10e-02,
385,2.80e-01,5.04e-02,
386,2.80e-01,5.08e-02,
387,2.96e-01,5.02e-02,
388,2.96e-01,5.08e-02,
389,2.80e-01,5.00e-02,
390,2.96e-01,5.02e-02,
391,2.80e-01,5.08e-02,
392,2.96e-01,5.02e-02,
393,2.80e-01,5.06e-02,
394,2.96e-01,5.08e-02,
395,2.80e-01,5.00e-02,
396,2.96e-01,5.10e-02,
397,2.96e-01,5.00e-02,
398,3.12e-01,5.06e-02,
399,2.88e-01,5.00e-02,
400,2.88e-01,5.02e-02,
401,3.04e-01,5.08e-02,
402,3.04e-01,5.08e-02,
403,2.96e-01,5.00e-02,
404,2.96e-01,5.02e-02,
405,3.04e-01,5.06e-02,
406,3.04e-01,5.06e-02,
407,3.04e-01,5.00e-02,
408,3.04e-01,5.08e-02,
409,3.12e-01,5.00e-02,
410,3.04e-01,5.06e-02,
411,3.20e-01,5.00e-02,
412,3.04e-01,5.00e-02,
413,3.20e-01,5.08e-02,
414,3.04e-01,5.06e-02,
415,3.12e-01,5.02e-02,
416,3.04e-01,4.98e-02,
417,3.20e-01,5.08e-02,
418,3.12e-01,5.00e-02,
419,3.28e-01,5.06e-02,
420,3.12e-01,5.00e-02,
421,3.28e-01,5.06e-02,
422,3.12e-01,5.00e-02,
423,3.20e-01,5.06e-02,
424,3.28e-01,5.06e-02,
425,3.12e-01,5.02e-02,
426,3.12e-01,4.96e-02,
427,3.20e-01,5.04e-02,
428,3.20e-01,5.00e-02,
429,3.36e-01,5.08e-02,
430,3.20e-01,5.04e-02,
431,3.36e-01,5.00e-02,
432,3.20e-01,5.04e-02,
433,3.36e-01,5.00e-02,
434,3.36e-01,4.98e-02,
435,3.28e-01,5.04e-02,
436,3.36e-01,5.04e-02,
437,3.28e-01,4.98e-02,
438,3.28e-01,5.06e-02,
439,3.44e-01,5.00e-02,
440,3.28e-01,5.00e-02,
441,3.44e-01,5.06e-02,
442,3.28e-01,5.02e-02,
443,3.44e-01,5.06e-02,
444,3.44e-01,5.04e-02,
445,3.36e-01,5.00e-02,
446,3.44e-01,5.06e-02,
447,3.36e-01,5.00e-02,
448,3.36e-01,5.04e-02,
449,3.52e-01,4.96e-02,
450,3.36e-01,5.02e-02,
451,3.52e-01,4.96e-02,
452,3.52e-01,5.00e-02,
453,3.44e-01,4.96e-02,
454,3.44e-01,5.02e-02,
455,3.52e-01,4.94e-02,
456,3.52e-01,5.00e-02,
457,3.44e-01,4.92e-02,
458,3.52e-01,4.94e-02,
459,3.44e-01,5.00e-02,
460,3.52e-01,4.96e-02,
461,3.52e-01,5.06e-02,
462,3.44e-01,5.04e-02,
463,3.60e-01,4.96e-02,
464,3.44e-01,5.00e-02,
465,3.60e-01,4.96e-02,
466,3.52e-01,5.04e-02,
467,3.68e-01,4.98e-02,
468,3.60e-01,4.98e-02,
469,3.60e-01,5.00e-02,
470,3.60e-01,5.04e-02,
471,3.76e-01,4.96e-02,
472,3.60e-01,5.02e-02,
473,3.76e-01,4.96e-02,
474,3.60e-01,5.00e-02,
475,3.76e-01,4.94e-02,
476,3.60e-01,4.98e-02,
477,3.76e-01,5.00e-02,
478,3.68e-01,4.96e-02,
479,3.76e-01,5.02e-02,
480,3.68e-01,5.00e-02,
481,3.84e-01,4.96e-02,
482,3.84e-01,4.92e-02,
483,3.68e-01,5.00e-02,
484,3.68e-01,5.00e-02,
485,3.84e-01,4.96e-02,
486,3.84e-01,5.00e-02,
487,3.68e-01,4.94e-02,
488,3.84e-01,5.00e-02,
489,3.68e-01,4.92e-02,
490,3.84e-01,5.00e-02,
491,3.68e-01,4.92e-02,
492,3.76e-01,4.96e-02,
493,3.92e-01,4.88e-02,
494,3.92e-01,4.90e-02,
495,3.76e-01,4.72e-02,
496,3.84e-01,4.76e-02,
497,3.92e-01,4.62e-02,
498,3.92e-01,4.64e-02,
499,3.76e-01,4.54e-02,
500,3.92e-01,4.56e-02,
501,3.84e-01,4.66e-02,
502,3.84e-01,4.62e-02,
503,3.92e-01,4.70e-02,
504,4.00e-01,4.66e-02,
505,3.84e-01,4.76e-02,
506,4.00e-01,4.74e-02,
507,3.84e-01,4.88e-02,
508,4.00e-01,4.82e-02,
509,3.92e-01,4.90e-02,
510,3.92e-01,4.86e-02,
511,4.00e-01,4.94e-02,
512,3.92e-01,4.98e-02,
513,4.08e-01,4.90e-02,
514,3.92e-01,4.88e-02,
515,4.08e-01,4.98e-02,
516,4.08e-01,4.92e-02,
517,3.92e-01,4.98e-02,
518,4.08e-01,4.94e-02,
519,4.08e-01,4.98e-02,
520,4.08e-01,5.00e-02,
521,4.08e-01,4.94e-02,
522,4.08e-01,4.92e-02,
523,4.08e-01,4.98e-02,
524,4.16e-01,4.96e-02,
525,4.08e-01,4.94e-02,
526,4.08e-01,4.98e-02,
527,4.24e-01,4.92e-02,
528,4.08e-01,4.98e-02,
529,4.16e-01,4.92e-02,
530,4.08e-01,4.92e-02,
531,4.32e-01,4.96e-02,
532,4.16e-01,4.98e-02,
533,4.32e-01,4.92e-02,
534,4.16e-01,4.96e-02,
535,4.32e-01,4.88e-02,
536,4.16e-01,4.98e-02,
537,4.32e-01,4.92e-02,
538,4.32e-01,4.92e-02,
539,4.16e-01,4.96e-02,
540,4.16e-01,4.98e-02,
541,4.32e-01,4.92e-02,
542,4.24e-01,4.96e-02,
543,4.40e-01,4.92e-02,
544,4.24e-01,4.98e-02,
545,4.40e-01,4.90e-02,
546,4.40e-01,4.98e-02,
547,4.24e-01,4.90e-02,
548,4.24e-01,4.96e-02,
549,4.40e-01,4.90e-02,
550,4.32e-01,4.96e-02,
551,4.48e-01,4.90e-02,
552,4.32e-01,4.90e-02,
553,4.48e-01,4.96e-02,
554,4.32e-01,4.96e-02,
555,4.48e-01,4.88e-02,
556,4.32e-01,4.98e-02,
557,4.48e-01,4.90e-02,
558,4.48e-01,4.94e-02,
559,4.40e-01,4.96e-02,
560,4.48e-01,4.90e-02,
561,4.40e-01,4.96e-02,
562,4.56e-01,4.96e-02,
563,4.40e-01,4.90e-02,
564,4.56e-01,4.96e-02,
565,4.40e-01,4.90e-02,
566,4.56e-01,4.98e-02,
567,4.40e-01,4.90e-02,
568,4.48e-01,4.98e-02,
569,4.56e-01,4.92e-02,
570,4.40e-01,4.96e-02,
571,4.56e-01,4.88e-02,
572,4.48e-01,4.90e-02,
573,4.64e-01,4.96e-02,
574,4.48e-01,4.90e-02,
575,4.64e-01,4.94e-02,
576,4.64e-01,4.90e-02,
577,4.56e-01,4.96e-02,
578,4.64e-01,4.90e-02,
579,4.48e-01,4.98e-02,
580,4.64e-01,4.92e-02,
581,4.64e-01,4.90e-02,
582,4.64e-01,4.88e-02,
583,4.72e-01,4.96e-02,
584,4.64e-01,4.92e-02,
585,4.80e-01,4.88e-02,
586,4.64e-01,4.96e-02,
587,4.80e-01,4.90e-02,
588,4.64e-01,4.96e-02,
589,4.80e-01,4.88e-02,
590,4.88e-01,4.90e-02,
591,4.64e-01,4.96e-02,
592,4.72e-01,4.94e-02,
593,4.80e-01,4.88e-02,
594,4.72e-01,4.96e-02,
595,4.88e-01,4.90e-02,
596,4.72e-01,4.94e-02,
597,4.88e-01,4.88e-02,
598,4.88e-01,4.96e-02,
599,4.72e-01,4.88e-02,
600,4.88e-01,4.96e-02,
601,4.72e-01,4.92e-02,
602,4.80e-01,4.94e-02,
603,4.88e-01,4.84e-02,
604,4.88e-01,4.90e-02,
605,4.80e-01,4.82e-02,
606,4.96e-01,4.90e-02,
607,4.80e-01,4.80e-02,
608,4.80e-01,4.88e-02,
609,4.96e-01,4.82e-02,
610,4.80e-01,4.88e-02,
611,4.96e-01,4.82e-02,
612,5.04e-01,4.86e-02,
613,4.80e-01,4.82e-02,
614,4.88e-01,4.88e-02,
615,5.04e-01,4.84e-02,
616,4.88e-01,4.90e-02,
617,5.04e-01,4.86e-02,
618,4.96e-01,4.86e-02,
619,4.88e-01,4.94e-02,
620,4.88e-01,4.84e-02,
621,5.12e-01,4.92e-02,
622,4.96e-01,4.88e-02,
623,5.12e-01,4.92e-02,
624,5.04e-01,4.86e-02,
625,5.12e-01,4.94e-02,
626,5.12e-01,4.90e-02,
627,4.96e-01,4.84e-02,
628,5.12e-01,4.86e-02,
629,4.96e-01,4.92e-02,
630,5.12e-01,4.84e-02,
631,4.96e-01,4.92e-02,
632,5.20e-01,4.92e-02,
633,4.96e-01,4.84e-02,
634,5.04e-01,4.86e-02,
635,5.20e-01,4.94e-02,
636,5.28e-01,4.90e-02,
637,5.12e-01,4.84e-02,
638,5.12e-01,4.90e-02,
639,5.20e-01,4.84e-02,
640,5.20e-01,4.84e-02,
641,5.12e-01,4.90e-02,
642,5.04e-01,4.90e-02,
643,5.20e-01,4.80e-02,
644,5.20e-01,4.84e-02,
645,5.36e-01,4.90e-02,
646,5.20e-01,4.88e-02,
647,5.36e-01,4.82e-02,
648,5.20e-01,4.86e-02,
649,5.36e-01,4.80e-02,
650,5.36e-01,4.82e-02,
651,5.20e-01,4.86e-02,
652,5.20e-01,4.86e-02,
653,5.36e-01,4.74e-02,
654,5.28e-01,4.74e-02,
655,5.36e-01,4.56e-02,
656,5.28e-01,4.58e-02,
657,5.44e-01,4.36e-02,
658,5.44e-01,4.38e-02,
659,5.28e-01,4.28e-02,
660,5.28e-01,4.26e-02,
661,5.44e-01,4.34e-02,
662,5.44e-01,4.34e-02,
663,5.36e-01,4.42e-02,
664,5.28e-01,4.42e-02,
665,5.44e-01,4.56e-02,
666,5.36e-01,4.52e-02,
667,5.52e-01,4.66e-02,
668,5.36e-01,4.66e-02,
669,5.52e-01,4.78e-02,
670,5.52e-01,4.76e-02,
671,5.36e-01,4.82e-02,
672,5.52e-01,4.78e-02,
673,5.44e-01,4.84e-02,
674,5.36e-01,4.86e-02,
675,5.60e-01,4.82e-02,
676,5.44e-01,4.84e-02,
677,5.60e-01,4.90e-02,
678,5.44e-01,4.90e-02,
679,5.60e-01,4.82e-02,
680,5.60e-01,4.88e-02,
681,5.44e-01,4.80e-02,
682,5.44e-01,4.84e-02,
683,5.60e-01,4.88e-02,
684,5.52e-01,4.86e-02,
685,5.68e-01,4.82e-02,
686,5.68e-01,4.88e-02,
687,5.52e-01,4.82e-02,
688,5.52e-01,4.82e-02,
689,5.68e-01,4.88e-02,
690,5.60e-01,4.88e-02,
691,5.68e-01,4.80e-02,
692,5.68e-01,4.82e-02,
693,5.60e-01,4.88e-02,
694,5.60e-01,4.86e-02,
695,5.76e-01,4.80e-02,
696,5.68e-01,4.90e-02,
697,5.76e-01,4.82e-02,
698,5.84e-01,4.86e-02,
699,5.68e-01,4.80e-02,
700,5.68e-01,4.86e-02,
701,5.84e-01,4.80e-02,
702,5.68e-01,4.86e-02,
703,5.84e-01,4.82e-02,
704,5.84e-01,4.82e-02,
705,5.68e-01,4.86e-02,
706,5.92e-01,4.80e-02,
707,5.68e-01,4.88e-02,
708,5.76e-01,4.86e-02,
709,5.92e-01,4.82e-02,
710,5.76e-01,4.86e-02,
711,5.92e-01,4.80e-02,
712,5.76e-01,4.88e-02,
713,5.84e-01,4.80e-02,
714,5.76e-01,4.84e-02,
715,5.92e-01,4.80e-02,
716,6.00e-01,4.76e-02,
717,5.84e-01,4.86e-02,
718,5.84e-01,4.80e-02,
719,6.00e-01,4.86e-02,
720,6.00e-01,4.80e-02,
721,5.84e-01,4.86e-02,
722,5.84e-01,4.86e-02,
723,6.00e-01,4.78e-02,
724,6.00e-01,4.80e-02,
725,5.92e-01,4.84e-02,
726,5.92e-01,4.78e-02,
727,6.08e-01,4.84e-02,
728,5.92e-01,4.76e-02,
729,6.08e-01,4.84e-02,
730,5.92e-01,4.86e-02,
731,6.08e-01,4.78e-02,
732,6.08e-01,4.86e-02,
733,5.92e-01,4.80e-02,
734,6.00e-01,4.78e-02,
735,6.16e-01,4.84e-02,
736,5.92e-01,4.84e-02,
737,6.16e-01,4.78e-02,
738,5.92e-01,4.84e-02,
739,6.16e-01,4.78e-02,
740,6.08e-01,4.78e-02,
741,6.16e-01,4.86e-02,
742,6.16e-01,4.84e-02,
743,6.00e-01,4.76e-02,
744,6.00e-01,4.84e-02,
745,6.24e-01,4.74e-02,
746,6.08e-01,4.86e-02,
747,6.16e-01,4.78e-02,
748,6.24e-01,4.84e-02,
749,6.08e-01,4.78e-02,
750,6.16e-01,4.82e-02,
751,6.24e-01,4.78e-02,
752,6.08e-01,4.80e-02,
753,6.24e-01,4.78e-02,
754,6.16e-01,4.74e-02,
755,6.32e-01,4.84e-02,
756,6.16e-01,4.82e-02,
757,6.32e-01,4.78e-02,
758,6.24e-01,4.82e-02,
759,6.40e-01,4.74e-02,
760,6.24e-01,4.78e-02,
761,6.40e-01,4.70e-02,
762,6.24e-01,4.74e-02,
763,6.32e-01,4.70e-02,
764,6.24e-01,4.66e-02,
765,6.32e-01,4.72e-02,
766,6.32e-01,4.64e-02,
767,6.40e-01,4.74e-02,
768,6.40e-01,4.74e-02,
769,6.32e-01,4.68e-02,
770,6.32e-01,4.66e-02,
771,6.48e-01,4.76e-02,
772,6.32e-01,4.74e-02,
773,6.48e-01,4.78e-02,
774,6.40e-01,4.74e-02,
775,6.48e-01,4.80e-02,
776,6.32e-01,4.74e-02,
777,6.48e-01,4.82e-02,
778,6.40e-01,4.74e-02,
779,6.56e-01,4.84e-02,
780,6.40e-01,4.76e-02,
781,6.56e-01,4.80e-02,
782,6.56e-01,4.80e-02,
783,6.40e-01,4.72e-02,
784,6.56e-01,4.76e-02,
785,6.40e-01,4.80e-02,
786,6.48e-01,4.76e-02,
787,6.64e-01,4.80e-02,
788,6.48e-01,4.84e-02,
789,6.64e-01,4.74e-02,
790,6.48e-01,4.78e-02,
791,6.64e-01,4.72e-02,
792,6.48e-01,4.80e-02,
793,6.64e-01,4.74e-02,
794,6.64e-01,4.80e-02,
795,6.48e-01,4.76e-02,
796,6.48e-01,4.80e-02,
797,6.72e-01,4.76e-02,
798,6.56e-01,4.76e-02,
799,6.72e-01,4.72e-02,
800,6.72e-01,4.78e-02,
801,6.64e-01,4.74e-02,
802,6.72e-01,4.82e-02,
803,6.56e-01,4.70e-02,
804,6.64e-01,4.76e-02,
805,6.72e-01,4.64e-02,
806,6.64e-01,4.70e-02,
807,6.80e-01,4.56e-02,
808,6.72e-01,4.56e-02,
809,6.80e-01,4.30e-02,
810,6.64e-01,4.30e-02,
811,6.80e-01,4.12e-02,
812,6.88e-01,4.08e-02,
813,6.72e-01,4.16e-02,
814,6.80e-01,4.06e-02,
815,6.72e-01,4.22e-02,
816,6.80e-01,4.16e-02,
817,6.72e-01,4.36e-02,
818,6.80e-01,4.36e-02,
819,6.80e-01,4.50e-02,
820,6.80e-01,4.48e-02,
821,6.96e-01,4.62e-02,
822,6.72e-01,4.60e-02,
823,6.88e-01,4.70e-02,
824,6.88e-01,4.66e-02,
825,6.80e-01,4.74e-02,
826,6.96e-01,4.66e-02,
827,6.80e-01,4.76e-02,
828,6.88e-01,4.72e-02,
829,7.04e-01,4.78e-02,
830,6.80e-01,4.72e-02,
831,6.96e-01,4.78e-02,
832,6.80e-01,4.72e-02,
833,7.04e-01,4.76e-02,
834,7.04e-01,4.72e-02,
835,6.88e-01,4.78e-02,
836,6.88e-01,4.70e-02,
837,7.04e-01,4.78e-02,
838,6.88e-01,4.72e-02,
839,7.12e-01,4.76e-02,
840,7.12e-01,4.78e-02,
841,6.88e-01,4.72e-02,
842,6.96e-01,4.80e-02,
843,7.12e-01,4.70e-02,
844,6.96e-01,4.72e-02,
845,7.12e-01,4.80e-02,
846,7.12e-01,4.76e-02,
847,6.96e-01,4.68e-02,
848,7.04e-01,4.76e-02,
849,7.20e-01,4.70e-02,
850,7.04e-01,4.68e-02,
851,7.20e-01,4.76e-02,
852,7.20e-01,4.76e-02,
853,7.04e-01,4.68e-02,
854,7.20e-01,4.76e-02,
855,7.12e-01,4.68e-02,
856,7.12e-01,4.70e-02,
857,7.28e-01,4.76e-02,
858,7.20e-01,4.72e-02,
859,7.04e-01,4.78e-02,
860,7.12e-01,4.72e-02,
861,7.28e-01,4.78e-02,
862,7.12e-01,4.76e-02,
863,7.28e-01,4.70e-02,
864,7.28e-01,4.70e-02,
865,7.20e-01,4.76e-02,
866,7.20e-01,4.72e-02,
867,7.28e-01,4.68e-02,
868,7.28e-01,4.74e-02,
869,7.20e-01,4.68e-02,
870,7.36e-01,4.76e-02,
