New Quadratic zeeman data/NewFile3.csv

X,CH1,CH2,Start,Increment,
Sequence,Volt,Volt,9.500001e-02,5.000000e-03
0,7.36e-01,5.28e-02,
1,7.52e-01,5.20e-02,
2,7.36e-01,5.24e-02,
3,7.28e-01,5.28e-02,
4,7.36e-01,5.30e-02,
5,7.44e-01,5.22e-02,
6,7.44e-01,5.28e-02,
7,7.36e-01,5.22e-02,
8,7.36e-01,5.30e-02,
9,7.44e-01,5.24e-02,
10,7.44e-01,5.30e-02,
11,7.52e-01,5.22e-02,
12,7.44e-01,5.22e-02,
13,7.52e-01,5.30e-02,
14,7.36e-01,5.24e-02,
15,7.52e-01,5.32e-02,
16,7.44e-01,5.24e-02,
17,7.60e-01,5.30e-02,
18,7.52e-01,5.22e-02,
19,7.60e-01,5.28e-02,
20,7.60e-01,5.28e-02,
21,7.44e-01,5.22e-02,
22,7.44e-01,5.28e-02,
23,7.60e-01,5.22e-02,
24,7.52e-01,5.28e-02,
25,7.68e-01,5.22e-02,
26,7.68e-01,5.28e-02,
27,7.60e-01,5.20e-02,
28,7.68e-01,5.20e-02,
29,7.52e-01,5.28e-02,
30,7.60e-01,5.28e-02,
31,7.52e-01,5.20e-02,
32,7.52e-01,5.28e-02,
33,7.68e-01,5.22e-02,
34,7.60e-01,5.20e-02,
35,7.76e-01,5.28e-02,
36,7.68e-01,5.26e-02,
37,7.60e-01,5.20e-02,
38,7.68e-01,5.28e-02,
39,7.52e-01,5.24e-02,
40,7.52e-01,5.28e-02,
41,7.68e-01,5.22e-02,
42,7.60e-01,5.22e-02,
43,7.76e-01,5.28e-02,
44,7.76e-01,5.20e-02,
45,7.68e-01,5.28e-02,
46,7.76e-01,5.28e-02,
47,7.76e-01,5.20e-02,
48,7.76e-01,5.26e-02,
49,7.60e-01,5.22e-02,
50,7.68e-01,5.22e-02,
51,7.76e-01,5.28e-02,
52,7.60e-01,5.30e-02,
53,7.76e-01,5.20e-02,
54,7.76e-01,5.22e-02,
55,7.76e-01,5.24e-02,
56,7.92e-01,5.18e-02,
57,7.84e-01,5.26e-02,
58,7.84e-01,5.18e-02,
59,7.92e-01,5.24e-02,
60,7.84e-01,5.28e-02,
61,8.00e-01,5.18e-02,
62,7.84e-01,5.20e-02,
63,7.84e-01,5.24e-02,
64,7.84e-01,5.20e-02,
65,7.92e-01,5.26e-02,
66,7.84e-01,5.20e-02,
67,7.76e-01,5.24e-02,
68,7.76e-01,5.20e-02,
69,7.84e-01,5.26e-02,
70,7.92e-01,5.20e-02,
71,-8.00e-03,5.42e-02,
72,-8.00e-03,5.40e-02,
73,8.00e-03,5.48e-02,
74,-8.00e-03,5.46e-02,
75,8.00e-03,5.64e-02,
76,8.00e-03,5.58e-02,
77,0.00e+00,5.70e-02,
78,8.00e-03,5.70e-02,
79,0.00e+00,5.76e-02,
80,8.00e-03,5.76e-02,
81,0.00e+00,5.82e-02,
82,0.00e+00,5.86e-02,
83,8.00e-03,5.80e-02,
84,0.00e+00,5.86e-02,
85,1.60e-02,5.82e-02,
86,8.00e-03,5.82e-02,
87,1.60e-02,5.88e-02,
88,1.60e-02,5.86e-02,
89,8.00e-03,5.80e-02,
90,1.60e-02,5.88e-02,
91,8.00e-03,5.80e-02,
92,8.00e-03,5.82e-02,
93,1.60e-02,5.86e-02,
94,8.00e-03,5.80e-02,
95,1.60e-02,5.88e-02,
96,1.60e-02,5.80e-02,
97,8.00e-03,5.84e-02,
98,8.00e-03,5.86e-02,
99,2.40e-02,5.78e-02,
100,1.60e-02,5.78e-02,
101,2.40e-02,5.86e-02,
102,2.40e-02,5.78e-02,
103,1.60e-02,5.86e-02,
104,1.60e-02,5.86e-02,
105,2.40e-02,5.78e-02,
106,2.40e-02,5.84e-02,
107,1.60e-02,5.80e-02,
108,1.60e-02,5.80e-02,
109,2.40e-02,5.84e-02,
110,2.40e-02,5.86e-02,
111,3.20e-02,5.80e-02,
112,1.60e-02,5.86e-02,
113,3.20e-02,5.78e-02,
114,1.60e-02,5.82e-02,
115,3.20e-02,5.86e-02,
116,3.20e-02,5.78e-02,
117,3.20e-02,5.84e-02,
118,3.20e-02,5.86e-02,
119,2.40e-02,5.78e-02,
120,3.20e-02,5.76e-02,
121,3.20e-02,5.86e-02,
122,2.40e-02,5.86e-02,
123,4.00e-02,5.78e-02,
124,4.00e-02,5.84e-02,
125,2.40e-02,5.78e-02,
126,4.00e-02,5.86e-02,
127,3.20e-02,5.78e-02,
128,4.00e-02,5.78e-02,
129,4.80e-02,5.84e-02,
130,4.00e-02,5.80e-02,
131,4.00e-02,5.84e-02,
132,4.00e-02,5.78e-02,
133,4.00e-02,5.84e-02,
134,4.00e-02,5.84e-02,
135,4.00e-02,5.76e-02,
136,4.00e-02,5.76e-02,
137,5.60e-02,5.84e-02,
138,4.00e-02,5.76e-02,
139,5.60e-02,5.84e-02,
140,4.00e-02,5.82e-02,
141,5.60e-02,5.78e-02,
142,4.80e-02,5.82e-02,
143,5.60e-02,5.76e-02,
144,4.80e-02,5.82e-02,
145,5.60e-02,5.74e-02,
146,5.60e-02,5.82e-02,
147,4.80e-02,5.76e-02,
148,4.80e-02,5.80e-02,
149,6.40e-02,5.76e-02,
150,4.80e-02,5.78e-02,
151,6.40e-02,5.84e-02,
152,4.80e-02,5.76e-02,
153,6.40e-02,5.84e-02,
154,6.40e-02,5.84e-02,
155,4.80e-02,5.78e-02,
156,5.60e-02,5.76e-02,
157,6.40e-02,5.82e-02,
158,7.20e-02,5.80e-02,
159,5.60e-02,5.74e-02,
160,5.60e-02,5.76e-02,
161,6.40e-02,5.82e-02,
162,6.40e-02,5.82e-02,
163,5.60e-02,5.74e-02,
164,7.20e-02,5.82e-02,
165,5.60e-02,5.76e-02,
166,6.40e-02,5.74e-02,
167,7.20e-02,5.78e-02,
168,6.40e-02,5.82e-02,
169,7.20e-02,5.76e-02,
170,7.20e-02,5.80e-02,
171,6.40e-02,5.74e-02,
172,6.40e-02,5.82e-02,
173,7.20e-02,5.74e-02,
174,7.20e-02,5.82e-02,
175,6.40e-02,5.76e-02,
176,7.20e-02,5.80e-02,
177,8.00e-02,5.74e-02,
178,8.00e-02,5.74e-02,
179,7.20e-02,5.80e-02,
180,8.00e-02,5.76e-02,
181,7.20e-02,5.82e-02,
182,8.00e-02,5.74e-02,
183,7.20e-02,5.82e-02,
184,8.00e-02,5.74e-02,
185,7.20e-02,5.80e-02,
186,7.20e-02,5.74e-02,
187,8.80e-02,5.82e-02,
188,7.20e-02,5.78e-02,
189,8.80e-02,5.74e-02,
190,8.80e-02,5.80e-02,
191,8.00e-02,5.72e-02,
192,8.80e-02,5.82e-02,
193,8.00e-02,5.72e-02,
194,8.80e-02,5.72e-02,
195,8.80e-02,5.82e-02,
196,8.80e-02,5.80e-02,
197,8.80e-02,5.72e-02,
198,8.80e-02,5.76e-02,
199,8.80e-02,5.80e-02,
200,8.00e-02,5.78e-02,
201,9.60e-02,5.74e-02,
202,8.80e-02,5.72e-02,
203,9.60e-02,5.80e-02,
204,9.60e-02,5.80e-02,
205,8.80e-02,5.74e-02,
206,9.60e-02,5.78e-02,
207,9.60e-02,5.72e-02,
208,9.60e-02,5.74e-02,
209,9.60e-02,5.80e-02,
210,9.60e-02,5.72e-02,
211,9.60e-02,5.78e-02,
212,1.04e-01,5.72e-02,
213,9.60e-02,5.80e-02,
214,9.60e-02,5.72e-02,
215,1.04e-01,5.78e-02,
216,1.12e-01,5.76e-02,
217,9.60e-02,5.72e-02,
218,1.12e-01,5.78e-02,
219,1.04e-01,5.72e-02,
220,1.04e-01,5.76e-02,
221,1.12e-01,5.74e-02,
222,1.04e-01,5.72e-02,
223,1.20e-01,5.76e-02,
224,1.12e-01,5.70e-02,
225,1.04e-01,5.76e-02,
226,1.04e-01,5.76e-02,
227,1.12e-01,5.70e-02,
228,1.04e-01,5.74e-02,
229,1.20e-01,5.62e-02,
230,1.20e-01,5.68e-02,
231,1.04e-01,5.58e-02,
232,1.12e-01,5.62e-02,
233,1.20e-01,5.54e-02,
234,1.20e-01,5.54e-02,
235,1.12e-01,5.58e-02,
236,1.12e-01,5.58e-02,
237,1.20e-01,5.54e-02,
238,1.12e-01,5.54e-02,
239,1.28e-01,5.62e-02,
240,1.28e-01,5.58e-02,
241,1.12e-01,5.68e-02,
242,1.28e-01,5.60e-02,
243,1.12e-01,5.72e-02,
244,1.28e-01,5.66e-02,
245,1.12e-01,5.72e-02,
246,1.20e-01,5.72e-02,
247,1.28e-01,5.68e-02,
248,1.28e-01,5.68e-02,
249,1.20e-01,5.74e-02,
250,1.28e-01,5.68e-02,
251,1.20e-01,5.76e-02,
252,1.36e-01,5.78e-02,
253,1.20e-01,5.70e-02,
254,1.20e-01,5.78e-02,
255,1.36e-01,5.72e-02,
256,1.36e-01,5.76e-02,
257,1.28e-01,5.68e-02,
258,1.28e-01,5.74e-02,
259,1.36e-01,5.70e-02,
260,1.36e-01,5.76e-02,
261,1.28e-01,5.68e-02,
262,1.36e-01,5.76e-02,
263,1.28e-01,5.70e-02,
264,1.36e-01,5.68e-02,
265,1.44e-01,5.74e-02,
266,1.44e-01,5.70e-02,
267,1.36e-01,5.74e-02,
268,1.44e-01,5.74e-02,
269,1.28e-01,5.70e-02,
270,1.44e-01,5.74e-02,
271,1.28e-01,5.66e-02,
272,1.44e-01,5.68e-02,
273,1.44e-01,5.74e-02,
274,1.44e-01,5.70e-02,
275,1.60e-01,5.76e-02,
276,1.44e-01,5.76e-02,
277,1.60e-01,5.70e-02,
278,1.60e-01,5.76e-02,
279,1.44e-01,5.70e-02,
280,1.44e-01,5.68e-02,
281,1.60e-01,5.76e-02,
282,1.60e-01,5.68e-02,
283,1.44e-01,5.72e-02,
284,1.60e-01,5.70e-02,
285,1.52e-01,5.74e-02,
286,1.52e-01,5.70e-02,
287,1.60e-01,5.74e-02,
288,1.52e-01,5.68e-02,
289,1.60e-01,5.74e-02,
290,1.52e-01,5.74e-02,
291,1.60e-01,5.70e-02,
292,1.52e-01,5.70e-02,
293,1.68e-01,5.74e-02,
294,1.68e-01,5.74e-02,
295,1.52e-01,5.68e-02,
296,1.68e-01,5.76e-02,
297,1.60e-01,5.66e-02,
298,1.68e-01,5.76e-02,
299,1.60e-01,5.68e-02,
300,1.60e-01,5.72e-02,
301,1.68e-01,5.66e-02,
302,1.60e-01,5.66e-02,
303,1.68e-01,5.74e-02,
304,1.60e-01,5.68e-02,
305,1.76e-01,5.74e-02,
306,1.60e-01,5.68e-02,
307,1.76e-01,5.74e-02,
308,1.76e-01,5.64e-02,
309,1.68e-01,5.74e-02,
310,1.68e-01,5.66e-02,
311,1.76e-01,5.74e-02,
312,1.68e-01,5.72e-02,
313,1.76e-01,5.64e-02,
314,1.76e-01,5.68e-02,
315,1.68e-01,5.72e-02,
316,1.68e-01,5.72e-02,
317,1.76e-01,5.68e-02,
318,1.84e-01,5.64e-02,
319,1.68e-01,5.72e-02,
320,1.68e-01,5.70e-02,
321,1.84e-01,5.76e-02,
322,1.84e-01,5.68e-02,
323,1.76e-01,5.76e-02,
324,1.76e-01,5.68e-02,
325,1.84e-01,5.74e-02,
326,1.84e-01,5.68e-02,
327,1.76e-01,5.76e-02,
328,1.76e-01,5.66e-02,
329,1.84e-01,5.70e-02,
330,1.92e-01,5.70e-02,
331,1.76e-01,5.62e-02,
332,1.92e-01,5.60e-02,
333,1.76e-01,5.70e-02,
334,1.84e-01,5.72e-02,
335,1.92e-01,5.62e-02,
336,1.84e-01,5.70e-02,
337,1.92e-01,5.64e-02,
338,1.92e-01,5.72e-02,
339,1.84e-01,5.66e-02,
340,1.84e-01,5.64e-02,
341,2.00e-01,5.70e-02,
342,1.92e-01,5.68e-02,
343,2.00e-01,5.72e-02,
344,1.92e-01,5.66e-02,
345,2.08e-01,5.72e-02,
346,2.00e-01,5.66e-02,
347,1.92e-01,5.72e-02,
348,2.00e-01,5.62e-02,
349,2.00e-01,5.74e-02,
350,2.08e-01,5.70e-02,
351,2.00e-01,5.66e-02,
352,2.00e-01,5.62e-02,
353,2.00e-01,5.70e-02,
354,2.00e-01,5.72e-02,
355,2.08e-01,5.62e-02,
356,2.16e-01,5.72e-02,
357,2.00e-01,5.64e-02,
358,2.16e-01,5.72e-02,
359,2.00e-01,5.64e-02,
360,2.00e-01,5.68e-02,
361,2.16e-01,5.62e-02,
362,2.08e-01,5.70e-02,
363,2.16e-01,5.62e-02,
364,2.08e-01,5.62e-02,
365,2.16e-01,5.66e-02,
366,2.08e-01,5.68e-02,
367,2.16e-01,5.62e-02,
368,2.08e-01,5.62e-02,
369,2.24e-01,5.68e-02,
370,2.24e-01,5.58e-02,
371,2.08e-01,5.70e-02,
372,2.24e-01,5.62e-02,
373,2.08e-01,5.66e-02,
374,2.16e-01,5.62e-02,
375,2.24e-01,5.56e-02,
376,2.24e-01,5.54e-02,
377,2.16e-01,5.46e-02,
378,2.16e-01,5.46e-02,
379,2.24e-01,5.36e-02,
380,2.16e-01,5.32e-02,
381,2.32e-01,5.40e-02,
382,2.32e-01,5.34e-02,
383,2.16e-01,5.42e-02,
384,2.16e-01,5.36e-02,
385,2.32e-01,5.48e-02,
386,2.24e-01,5.42e-02,
387,2.32e-01,5.50e-02,
388,2.32e-01,5.50e-02,
389,2.24e-01,5.58e-02,
390,2.32e-01,5.56e-02,
391,2.24e-01,5.60e-02,
392,2.24e-01,5.60e-02,
393,2.32e-01,5.66e-02,
394,2.24e-01,5.60e-02,
395,2.40e-01,5.66e-02,
396,2.24e-01,5.68e-02,
397,2.40e-01,5.60e-02,
398,2.40e-01,5.68e-02,
399,2.24e-01,5.58e-02,
400,2.40e-01,5.62e-02,
401,2.40e-01,5.70e-02,
402,2.40e-01,5.68e-02,
403,2.32e-01,5.60e-02,
404,2.32e-01,5.64e-02,
405,2.40e-01,5.68e-02,
406,2.48e-01,5.66e-02,
407,2.32e-01,5.60e-02,
408,2.32e-01,5.64e-02,
409,2.48e-01,5.68e-02,
410,2.32e-01,5.62e-02,
411,2.48e-01,5.68e-02,
412,2.48e-01,5.60e-02,
413,2.40e-01,5.66e-02,
414,2.48e-01,5.60e-02,
415,2.48e-01,5.66e-02,
416,2.48e-01,5.64e-02,
417,2.56e-01,5.60e-02,
418,2.40e-01,5.60e-02,
419,2.56e-01,5.62e-02,
420,2.48e-01,5.64e-02,
421,2.56e-01,5.60e-02,
422,2.48e-01,5.68e-02,
423,2.64e-01,5.60e-02,
424,2.56e-01,5.60e-02,
425,2.64e-01,5.66e-02,
426,2.56e-01,5.66e-02,
427,2.64e-01,5.60e-02,
428,2.56e-01,5.58e-02,
429,2.64e-01,5.66e-02,
430,2.56e-01,5.64e-02,
431,2.72e-01,5.60e-02,
432,2.56e-01,5.66e-02,
433,2.64e-01,5.58e-02,
434,2.72e-01,5.64e-02,
435,2.56e-01,5.60e-02,
436,2.72e-01,5.60e-02,
437,2.56e-01,5.64e-02,
438,2.72e-01,5.64e-02,
439,2.56e-01,5.60e-02,
440,2.64e-01,5.66e-02,
441,2.72e-01,5.58e-02,
442,2.64e-01,5.58e-02,
443,2.64e-01,5.64e-02,
444,2.64e-01,5.58e-02,
445,2.80e-01,5.64e-02,
446,2.64e-01,5.64e-02,
447,2.80e-01,5.58e-02,
448,2.80e-01,5.66e-02,
449,2.64e-01,5.58e-02,
450,2.64e-01,5.58e-02,
451,2.80e-01,5.64e-02,
452,2.64e-01,5.64e-02,
453,2.80e-01,5.56e-02,
454,2.72e-01,5.58e-02,
455,2.88e-01,5.66e-02,
456,2.72e-01,5.58e-02,
457,2.88e-01,5.64e-02,
458,2.88e-01,5.56e-02,
459,2.72e-01,5.64e-02,
460,2.88e-01,5.56e-02,
461,2.72e-01,5.64e-02,
462,2.88e-01,5.58e-02,
463,2.72e-01,5.64e-02,
464,2.88e-01,5.58e-02,
465,2.72e-01,5.68e-02,
466,2.80e-01,5.66e-02,
467,2.88e-01,5.58e-02,
468,2.80e-01,5.66e-02,
469,2.96e-01,5.56e-02,
470,2.80e-01,5.64e-02,
471,2.96e-01,5.56e-02,
472,2.80e-01,5.62e-02,
473,2.96e-01,5.54e-02,
474,2.88e-01,5.52e-02,
475,2.96e-01,5.58e-02,
476,2.88e-01,5.60e-02,
477,2.96e-01,5.52e-02,
478,2.88e-01,5.62e-02,
479,3.04e-01,5.54e-02,
480,2.96e-01,5.54e-02,
481,3.04e-01,5.62e-02,
482,2.96e-01,5.54e-02,
483,3.04e-01,5.60e-02,
484,2.96e-01,5.54e-02,
485,3.04e-01,5.62e-02,
486,3.04e-01,5.58e-02,
487,2.88e-01,5.64e-02,
488,2.96e-01,5.56e-02,
489,3.12e-01,5.60e-02,
490,3.04e-01,5.52e-02,
491,3.04e-01,5.62e-02,
492,3.04e-01,5.64e-02,
493,3.20e-01,5.58e-02,
494,3.04e-01,5.54e-02,
495,3.12e-01,5.64e-02,
496,3.04e-01,5.56e-02,
497,3.20e-01,5.62e-02,
498,3.04e-01,5.60e-02,
499,3.20e-01,5.56e-02,
500,3.04e-01,5.60e-02,
501,3.20e-01,5.54e-02,
502,3.12e-01,5.54e-02,
503,3.20e-01,5.62e-02,
504,3.20e-01,5.64e-02,
505,3.12e-01,5.54e-02,
506,3.20e-01,5.56e-02,
507,3.12e-01,5.60e-02,
508,3.20e-01,5.54e-02,
509,3.12e-01,5.60e-02,
510,3.20e-01,5.56e-02,
511,3.28e-01,5.52e-02,
512,3.20e-01,5.56e-02,
513,3.12e-01,5.52e-02,
514,3.20e-01,5.54e-02,
515,3.12e-01,5.58e-02,
516,3.20e-01,5.56e-02,
517,3.28e-01,5.48e-02,
518,3.28e-01,5.54e-02,
519,3.20e-01,5.50e-02,
520,3.36e-01,5.50e-02,
521,3.20e-01,5.40e-02,
522,3.20e-01,5.40e-02,
523,3.36e-01,5.26e-02,
524,3.36e-01,5.26e-02,
525,3.20e-01,5.12e-02,
526,3.20e-01,5.14e-02,
527,3.36e-01,5.10e-02,
528,3.36e-01,5.08e-02,
529,3.20e-01,5.16e-02,
530,3.36e-01,5.16e-02,
531,3.28e-01,5.24e-02,
532,3.36e-01,5.24e-02,
533,3.28e-01,5.32e-02,
534,3.44e-01,5.30e-02,
535,3.28e-01,5.44e-02,
536,3.36e-01,5.40e-02,
537,3.44e-01,5.50e-02,
538,3.44e-01,5.46e-02,
539,3.36e-01,5.52e-02,
540,3.44e-01,5.50e-02,
541,3.44e-01,5.60e-02,
542,3.44e-01,5.58e-02,
543,3.36e-01,5.52e-02,
544,3.44e-01,5.54e-02,
545,3.36e-01,5.56e-02,
546,3.44e-01,5.52e-02,
547,3.36e-01,5.60e-02,
548,3.52e-01,5.52e-02,
549,3.36e-01,5.58e-02,
550,3.36e-01,5.58e-02,
551,3.52e-01,5.54e-02,
552,3.52e-01,5.58e-02,
553,3.44e-01,5.52e-02,
554,3.52e-01,5.54e-02,
555,3.52e-01,5.62e-02,
556,3.52e-01,5.54e-02,
557,3.52e-01,5.58e-02,
558,3.52e-01,5.58e-02,
559,3.52e-01,5.54e-02,
560,3.52e-01,5.60e-02,
561,3.44e-01,5.50e-02,
562,3.52e-01,5.48e-02,
563,3.60e-01,5.60e-02,
564,3.60e-01,5.50e-02,
565,3.44e-01,5.56e-02,
566,3.52e-01,5.56e-02,
567,3.68e-01,5.52e-02,
568,3.60e-01,5.52e-02,
569,3.60e-01,5.56e-02,
570,3.68e-01,5.54e-02,
571,3.60e-01,5.52e-02,
572,3.60e-01,5.52e-02,
573,3.76e-01,5.58e-02,
574,3.60e-01,5.58e-02,
575,3.68e-01,5.52e-02,
576,3.60e-01,5.52e-02,
577,3.76e-01,5.54e-02,
578,3.60e-01,5.58e-02,
579,3.68e-01,5.48e-02,
580,3.60e-01,5.52e-02,
581,3.76e-01,5.58e-02,
582,3.68e-01,5.58e-02,
583,3.76e-01,5.50e-02,
584,3.68e-01,5.56e-02,
585,3.84e-01,5.50e-02,
586,3.68e-01,5.46e-02,
587,3.84e-01,5.56e-02,
588,3.68e-01,5.52e-02,
589,3.84e-01,5.56e-02,
590,3.84e-01,5.50e-02,
591,3.68e-01,5.56e-02,
592,3.68e-01,5.56e-02,
593,3.84e-01,5.50e-02,
594,3.76e-01,5.58e-02,
595,3.92e-01,5.52e-02,
596,3.84e-01,5.52e-02,
597,3.76e-01,5.58e-02,
598,3.76e-01,5.58e-02,
599,3.92e-01,5.48e-02,
600,3.92e-01,5.56e-02,
601,3.76e-01,5.50e-02,
602,3.84e-01,5.54e-02,
603,3.92e-01,5.48e-02,
604,3.84e-01,5.54e-02,
605,3.92e-01,5.50e-02,
606,3.92e-01,5.52e-02,
607,3.84e-01,5.54e-02,
608,3.92e-01,5.56e-02,
609,3.84e-01,5.46e-02,
610,3.84e-01,5.52e-02,
611,4.00e-01,5.56e-02,
612,3.92e-01,5.50e-02,
613,4.00e-01,5.56e-02,
614,3.92e-01,5.54e-02,
615,4.00e-01,5.48e-02,
616,3.84e-01,5.52e-02,
617,4.00e-01,5.46e-02,
618,3.92e-01,5.42e-02,
619,4.00e-01,5.48e-02,
620,3.92e-01,5.40e-02,
621,4.00e-01,5.46e-02,
622,3.92e-01,5.46e-02,
623,4.00e-01,5.42e-02,
624,3.92e-01,5.46e-02,
625,4.08e-01,5.44e-02,
626,4.08e-01,5.42e-02,
627,3.92e-01,5.50e-02,
628,4.08e-01,5.54e-02,
629,3.92e-01,5.40e-02,
630,4.08e-01,5.48e-02,
631,3.92e-01,5.44e-02,
632,4.08e-01,5.52e-02,
633,4.08e-01,5.48e-02,
634,4.08e-01,5.56e-02,
635,4.16e-01,5.46e-02,
636,4.08e-01,5.48e-02,
637,4.16e-01,5.52e-02,
638,4.08e-01,5.46e-02,
639,4.24e-01,5.52e-02,
640,4.08e-01,5.54e-02,
641,4.24e-01,5.48e-02,
642,4.08e-01,5.52e-02,
643,4.24e-01,5.46e-02,
644,4.08e-01,5.52e-02,
645,4.24e-01,5.46e-02,
646,4.16e-01,5.44e-02,
647,4.24e-01,5.50e-02,
648,4.16e-01,5.50e-02,
649,4.16e-01,5.44e-02,
650,4.16e-01,5.48e-02,
651,4.32e-01,5.44e-02,
652,4.32e-01,5.50e-02,
653,4.16e-01,5.46e-02,
654,4.32e-01,5.44e-02,
655,4.16e-01,5.50e-02,
656,4.16e-01,5.44e-02,
657,4.32e-01,5.52e-02,
658,4.40e-01,5.44e-02,
659,4.16e-01,5.52e-02,
660,4.24e-01,5.50e-02,
661,4.40e-01,5.42e-02,
662,4.24e-01,5.48e-02,
663,4.40e-01,5.42e-02,
664,4.24e-01,5.42e-02,
665,4.40e-01,5.46e-02,
666,4.40e-01,5.46e-02,
667,4.24e-01,5.38e-02,
668,4.32e-01,5.42e-02,
669,4.40e-01,5.30e-02,
670,4.40e-01,5.26e-02,
671,4.32e-01,5.12e-02,
672,4.48e-01,5.08e-02,
673,4.32e-01,4.92e-02,
674,4.48e-01,4.92e-02,
675,4.32e-01,4.82e-02,
676,4.48e-01,4.82e-02,
677,4.32e-01,4.88e-02,
678,4.48e-01,4.88e-02,
679,4.32e-01,5.02e-02,
680,4.48e-01,5.02e-02,
681,4.32e-01,5.14e-02,
682,4.48e-01,5.14e-02,
683,4.40e-01,5.24e-02,
684,4.40e-01,5.22e-02,
685,4.56e-01,5.36e-02,
686,4.40e-01,5.34e-02,
687,4.56e-01,5.46e-02,
688,4.40e-01,5.38e-02,
689,4.56e-01,5.46e-02,
690,4.56e-01,5.42e-02,
691,4.40e-01,5.50e-02,
692,4.56e-01,5.50e-02,
693,4.40e-01,5.42e-02,
694,4.56e-01,5.42e-02,
695,4.56e-01,5.50e-02,
696,4.56e-01,5.50e-02,
697,4.64e-01,5.44e-02,
698,4.56e-01,5.50e-02,
699,4.64e-01,5.42e-02,
700,4.48e-01,5.52e-02,
701,4.64e-01,5.44e-02,
702,4.56e-01,5.48e-02,
703,4.64e-01,5.42e-02,
704,4.72e-01,5.42e-02,
705,4.56e-01,5.48e-02,
706,4.72e-01,5.42e-02,
707,4.56e-01,5.48e-02,
708,4.64e-01,5.40e-02,
709,4.64e-01,5.48e-02,
710,4.64e-01,5.48e-02,
711,4.72e-01,5.42e-02,
712,4.80e-01,5.42e-02,
713,4.64e-01,5.48e-02,
714,4.64e-01,5.40e-02,
715,4.80e-01,5.46e-02,
716,4.64e-01,5.48e-02,
717,4.80e-01,5.42e-02,
718,4.64e-01,5.38e-02,
719,4.72e-01,5.50e-02,
720,4.72e-01,5.48e-02,
721,4.64e-01,5.42e-02,
722,4.72e-01,5.40e-02,
723,4.80e-01,5.48e-02,
724,4.72e-01,5.48e-02,
725,4.80e-01,5.40e-02,
726,4.72e-01,5.42e-02,
727,4.80e-01,5.48e-02,
728,4.72e-01,5.46e-02,
729,4.88e-01,5.42e-02,
730,4.88e-01,5.46e-02,
731,4.72e-01,5.40e-02,
732,4.88e-01,5.46e-02,
733,4.72e-01,5.40e-02,
734,4.80e-01,5.46e-02,
735,4.88e-01,5.40e-02,
736,4.88e-01,5.46e-02,
737,4.80e-01,5.40e-02,
738,4.80e-01,5.46e-02,
739,4.96e-01,5.40e-02,
740,4.80e-01,5.46e-02,
741,4.96e-01,5.42e-02,
742,4.96e-01,5.40e-02,
743,4.80e-01,5.48e-02,
744,4.96e-01,5.40e-02,
745,4.80e-01,5.46e-02,
746,4.88e-01,5.40e-02,
747,4.96e-01,5.46e-02,
748,4.96e-01,5.38e-02,
749,4.88e-01,5.46e-02,
750,4.88e-01,5.42e-02,
751,5.04e-01,5.38e-02,
752,5.04e-01,5.46e-02,
753,4.88e-01,5.38e-02,
754,4.88e-01,5.40e-02,
755,5.04e-01,5.46e-02,
756,5.04e-01,5.38e-02,
757,4.88e-01,5.48e-02,
758,5.04e-01,5.36e-02,
759,4.96e-01,5.46e-02,
760,5.04e-01,5.40e-02,
761,4.96e-01,5.48e-02,
762,5.04e-01,5.38e-02,
763,5.12e-01,5.46e-02,
764,5.04e-01,5.44e-02,
765,5.12e-01,5.34e-02,
766,5.12e-01,5.36e-02,
767,5.04e-01,5.32e-02,
768,5.12e-01,5.34e-02,
769,4.96e-01,5.28e-02,
770,4.96e-01,5.28e-02,
771,5.20e-01,5.34e-02,
772,5.12e-01,5.30e-02,
773,5.20e-01,5.36e-02,
774,5.12e-01,5.34e-02,
775,5.12e-01,5.38e-02,
776,5.12e-01,5.40e-02,
777,5.20e-01,5.32e-02,
778,5.12e-01,5.44e-02,
779,5.20e-01,5.36e-02,
780,5.12e-01,5.44e-02,
781,5.28e-01,5.36e-02,
782,5.20e-01,5.38e-02,
783,5.12e-01,5.44e-02,
784,5.20e-01,5.38e-02,
785,5.12e-01,5.44e-02,
786,5.20e-01,5.40e-02,
787,5.36e-01,5.46e-02,
788,5.36e-01,5.38e-02,
789,5.20e-01,5.46e-02,
790,5.20e-01,5.38e-02,
791,5.36e-01,5.46e-02,
792,5.36e-01,5.38e-02,
793,5.20e-01,5.46e-02,
794,5.28e-01,5.44e-02,
795,5.20e-01,5.40e-02,
796,5.20e-01,5.44e-02,
797,5.36e-01,5.38e-02,
798,5.20e-01,5.44e-02,
799,5.36e-01,5.36e-02,
800,5.36e-01,5.36e-02,
801,5.28e-01,5.42e-02,
802,5.28e-01,5.44e-02,
803,5.44e-01,5.38e-02,
804,5.28e-01,5.38e-02,
805,5.44e-01,5.44e-02,
806,5.44e-01,5.36e-02,
807,5.28e-01,5.44e-02,
808,5.36e-01,5.36e-02,
809,5.44e-01,5.40e-02,
810,5.28e-01,5.40e-02,
811,5.52e-01,5.34e-02,
812,5.44e-01,5.40e-02,
813,5.36e-01,5.34e-02,
814,5.36e-01,5.38e-02,
815,5.52e-01,5.28e-02,
816,5.36e-01,5.30e-02,
817,5.52e-01,5.16e-02,
818,5.52e-01,5.12e-02,
819,5.36e-01,4.90e-02,
820,5.36e-01,4.88e-02,
821,5.52e-01,4.62e-02,
822,5.36e-01,4.70e-02,
823,5.52e-01,4.58e-02,
824,5.52e-01,4.58e-02,
825,5.44e-01,4.70e-02,
826,5.52e-01,4.70e-02,
827,5.60e-01,4.84e-02,
828,5.52e-01,4.84e-02,
829,5.44e-01,5.00e-02,
830,5.44e-01,5.00e-02,
831,5.60e-01,5.14e-02,
832,5.60e-01,5.14e-02,
833,5.52e-01,5.24e-02,
834,5.60e-01,5.22e-02,
835,5.52e-01,5.32e-02,
836,5.44e-01,5.30e-02,
837,5.60e-01,5.34e-02,
838,5.60e-01,5.36e-02,
839,5.52e-01,5.40e-02,
840,5.68e-01,5.38e-02,
841,5.52e-01,5.34e-02,
842,5.68e-01,5.36e-02,
843,5.52e-01,5.42e-02,
844,5.68e-01,5.38e-02,
845,5.60e-01,5.34e-02,
846,5.68e-01,5.40e-02,
847,5.52e-01,5.34e-02,
848,5.68e-01,5.34e-02,
849,5.60e-01,5.40e-02,
850,5.68e-01,5.36e-02,
851,5.76e-01,5.38e-02,
852,5.68e-01,5.38e-02,
853,5.84e-01,5.30e-02,
854,5.68e-01,5.36e-02,
855,5.84e-01,5.32e-02,
856,5.68e-01,5.34e-02,
857,5.84e-01,5.42e-02,
858,5.68e-01,5.40e-02,
859,5.84e-01,5.32e-02,
860,5.68e-01,5.32e-02,
861,5.84e-01,5.38e-02,
862,5.76e-01,5.34e-02,
863,5.76e-01,5.38e-02,
864,5.68e-01,5.32e-02,
865,5.92e-01,5.38e-02,
866,5.76e-01,5.34e-02,
867,5.92e-01,5.38e-02,
868,5.76e-01,5.40e-02,
869,5.92e-01,5.32e-02,
870,5.92e-01,5.34e-02,
