linear_zeeman_data/175kHz.csv

X,CH1,CH2,Start,Increment,
Sequence,Volt,Volt,-5.090000e+00,5.000000e-03
0,8.80e+00,-4.00e-01,
1,9.12e+00,-1.00e+00,
2,9.12e+00,-6.00e-01,
3,8.80e+00,-1.60e+00,
4,9.12e+00,-1.40e+00,
5,8.80e+00,-2.40e+00,
6,8.80e+00,-2.00e+00,
7,9.12e+00,-3.60e+00,
8,9.12e+00,-3.20e+00,
9,8.88e+00,-6.40e+00,
10,9.12e+00,-6.20e+00,
11,8.88e+00,-1.04e+01,
12,8.88e+00,-1.00e+01,
13,9.20e+00,-1.96e+01,
14,9.20e+00,-1.98e+01,
15,8.88e+00,-2.36e+01,
16,9.20e+00,-2.36e+01,
17,8.88e+00,-1.84e+01,
18,9.20e+00,-1.82e+01,
19,8.88e+00,-1.20e+01,
20,8.96e+00,-1.20e+01,
21,9.28e+00,-8.00e+00,
22,8.96e+00,-7.80e+00,
23,9.28e+00,-5.20e+00,
24,9.28e+00,-5.40e+00,
25,8.96e+00,-3.40e+00,
26,8.96e+00,-3.60e+00,
27,9.28e+00,-2.20e+00,
28,9.28e+00,-2.60e+00,
29,9.04e+00,-1.20e+00,
30,9.04e+00,-2.00e+00,
31,9.36e+00,-8.00e-01,
32,9.04e+00,-1.20e+00,
33,9.44e+00,-4.00e-01,
34,9.36e+00,-8.00e-01,
35,9.04e+00,0.00e+00,
36,9.36e+00,-6.00e-01,
37,9.04e+00,0.00e+00,
38,9.04e+00,-4.00e-01,
39,9.52e+00,2.00e-01,
40,9.12e+00,2.00e-01,
41,9.52e+00,-4.00e-01,
42,9.52e+00,4.00e-01,
43,9.12e+00,-2.00e-01,
44,9.12e+00,4.00e-01,
45,9.52e+00,-2.00e-01,
46,9.12e+00,4.00e-01,
47,9.52e+00,-2.00e-01,
48,9.20e+00,0.00e+00,
49,9.52e+00,6.00e-01,
50,9.60e+00,0.00e+00,
51,9.20e+00,6.00e-01,
52,9.60e+00,6.00e-01,
53,9.20e+00,0.00e+00,
54,9.60e+00,6.00e-01,
55,9.20e+00,0.00e+00,
56,9.20e+00,6.00e-01,
57,9.60e+00,0.00e+00,
58,9.28e+00,0.00e+00,
59,9.68e+00,6.00e-01,
60,9.36e+00,6.00e-01,
61,9.68e+00,0.00e+00,
62,9.36e+00,0.00e+00,
63,9.68e+00,8.00e-01,
64,9.36e+00,2.00e-01,
65,9.68e+00,8.00e-01,
66,9.68e+00,2.00e-01,
67,9.36e+00,6.00e-01,
68,9.36e+00,2.00e-01,
69,9.76e+00,8.00e-01,
70,9.44e+00,2.00e-01,
71,9.76e+00,8.00e-01,
72,9.76e+00,2.00e-01,
73,9.44e+00,1.00e+00,
74,9.76e+00,2.00e-01,
75,9.44e+00,1.00e+00,
76,9.76e+00,2.00e-01,
77,9.44e+00,8.00e-01,
78,9.52e+00,1.00e+00,
79,9.84e+00,2.00e-01,
80,9.52e+00,1.00e+00,
81,9.84e+00,2.00e-01,
82,9.84e+00,2.00e-01,
83,9.52e+00,1.00e+00,
84,9.52e+00,2.00e-01,
85,9.84e+00,1.00e+00,
86,9.52e+00,1.00e+00,
87,9.84e+00,2.00e-01,
88,9.52e+00,2.00e-01,
89,9.92e+00,1.00e+00,
90,9.92e+00,2.00e-01,
91,9.60e+00,1.00e+00,
92,9.92e+00,2.00e-01,
93,9.60e+00,1.00e+00,
94,9.60e+00,2.00e-01,
95,9.92e+00,1.00e+00,
96,9.92e+00,1.00e+00,
97,9.60e+00,2.00e-01,
98,9.68e+00,2.00e-01,
99,1.00e+01,1.00e+00,
100,1.00e+01,1.00e+00,
101,-8.00e-02,2.00e-01,
102,-1.60e-01,4.00e-01,
103,1.60e-01,-1.82e+01,
104,1.60e-01,-1.50e+01,
105,-8.00e-02,-6.60e+00,
106,1.60e-01,-6.40e+00,
107,-8.00e-02,-1.80e+00,
108,1.60e-01,-2.20e+00,
109,0.00e+00,0.00e+00,
110,0.00e+00,-6.00e-01,
111,1.60e-01,6.00e-01,
112,0.00e+00,2.00e-01,
113,2.40e-01,1.20e+00,
114,0.00e+00,6.00e-01,
115,2.40e-01,1.40e+00,
116,2.40e-01,8.00e-01,
117,8.00e-02,1.40e+00,
118,2.40e-01,8.00e-01,
119,8.00e-02,1.40e+00,
120,8.00e-02,8.00e-01,
121,3.20e-01,1.40e+00,
122,8.00e-02,1.00e+00,
123,3.20e-01,1.60e+00,
124,3.20e-01,1.00e+00,
125,8.00e-02,1.40e+00,
126,3.20e-01,1.60e+00,
127,1.60e-01,8.00e-01,
128,3.20e-01,1.00e+00,
129,1.60e-01,1.40e+00,
130,1.60e-01,1.00e+00,
131,4.00e-01,1.40e+00,
132,1.60e-01,8.00e-01,
133,4.00e-01,1.60e+00,
134,4.00e-01,1.00e+00,
135,1.60e-01,1.40e+00,
136,4.00e-01,1.40e+00,
137,1.60e-01,8.00e-01,
138,4.00e-01,1.40e+00,
139,1.60e-01,8.00e-01,
140,2.40e-01,1.60e+00,
141,4.80e-01,8.00e-01,
142,2.40e-01,1.60e+00,
143,5.60e-01,8.00e-01,
144,2.40e-01,8.00e-01,
145,5.60e-01,1.60e+00,
146,3.20e-01,1.40e+00,
147,6.40e-01,8.00e-01,
148,5.60e-01,1.40e+00,
149,3.20e-01,8.00e-01,
150,4.00e-01,1.40e+00,
151,5.60e-01,8.00e-01,
152,3.20e-01,1.40e+00,
153,5.60e-01,8.00e-01,
154,4.00e-01,1.40e+00,
155,6.40e-01,8.00e-01,
156,6.40e-01,8.00e-01,
157,4.00e-01,1.40e+00,
158,7.20e-01,1.60e+00,
159,4.80e-01,8.00e-01,
160,6.40e-01,1.40e+00,
161,4.80e-01,8.00e-01,
162,4.80e-01,8.00e-01,
163,7.20e-01,1.40e+00,
164,4.80e-01,1.40e+00,
165,7.20e-01,8.00e-01,
166,7.20e-01,8.00e-01,
167,4.80e-01,1.40e+00,
168,7.20e-01,1.40e+00,
169,4.80e-01,8.00e-01,
170,5.60e-01,1.40e+00,
171,8.00e-01,8.00e-01,
172,5.60e-01,1.40e+00,
173,8.00e-01,8.00e-01,
174,5.60e-01,1.40e+00,
175,8.00e-01,8.00e-01,
176,8.00e-01,1.40e+00,
177,5.60e-01,8.00e-01,
178,8.00e-01,8.00e-01,
179,5.60e-01,1.40e+00,
180,6.40e-01,1.40e+00,
181,8.80e-01,8.00e-01,
182,6.40e-01,8.00e-01,
183,8.80e-01,1.60e+00,
184,6.40e-01,1.40e+00,
185,8.80e-01,8.00e-01,
186,8.80e-01,1.40e+00,
187,6.40e-01,8.00e-01,
188,7.20e-01,8.00e-01,
189,9.60e-01,1.40e+00,
190,7.20e-01,8.00e-01,
191,9.60e-01,1.40e+00,
192,7.20e-01,1.40e+00,
193,9.60e-01,8.00e-01,
194,7.20e-01,1.40e+00,
195,9.60e-01,8.00e-01,
196,9.60e-01,1.40e+00,
197,7.20e-01,8.00e-01,
198,9.60e-01,1.40e+00,
199,7.20e-01,8.00e-01,
200,8.00e-01,8.00e-01,
201,1.04e+00,1.40e+00,
202,8.00e-01,8.00e-01,
203,1.04e+00,1.40e+00,
204,8.00e-01,8.00e-01,
205,1.04e+00,1.40e+00,
206,1.04e+00,8.00e-01,
207,8.80e-01,1.40e+00,
208,1.04e+00,8.00e-01,
209,8.80e-01,1.40e+00,
210,8.80e-01,1.40e+00,
211,1.12e+00,8.00e-01,
212,8.80e-01,1.40e+00,
213,1.20e+00,8.00e-01,
214,8.80e-01,8.00e-01,
215,1.20e+00,1.40e+00,
216,9.60e-01,1.40e+00,
217,1.20e+00,8.00e-01,
218,1.20e+00,1.40e+00,
219,9.60e-01,8.00e-01,
220,9.60e-01,8.00e-01,
221,1.28e+00,1.40e+00,
222,9.60e-01,1.40e+00,
223,1.28e+00,8.00e-01,
224,1.28e+00,1.40e+00,
225,9.60e-01,8.00e-01,
226,1.28e+00,8.00e-01,
227,1.04e+00,1.40e+00,
228,1.12e+00,1.40e+00,
229,1.28e+00,8.00e-01,
230,1.12e+00,8.00e-01,
231,1.36e+00,1.60e+00,
232,1.12e+00,8.00e-01,
233,1.36e+00,1.40e+00,
234,1.12e+00,1.40e+00,
235,1.36e+00,8.00e-01,
236,1.36e+00,8.00e-01,
237,1.12e+00,1.40e+00,
238,1.20e+00,1.40e+00,
239,1.36e+00,8.00e-01,
240,1.12e+00,8.00e-01,
241,1.44e+00,1.40e+00,
242,1.20e+00,1.40e+00,
243,1.44e+00,8.00e-01,
244,1.44e+00,1.40e+00,
245,1.20e+00,8.00e-01,
246,1.44e+00,8.00e-01,
247,1.28e+00,1.40e+00,
248,1.28e+00,8.00e-01,
249,1.44e+00,1.40e+00,
250,1.28e+00,8.00e-01,
251,1.44e+00,1.40e+00,
252,1.28e+00,8.00e-01,
253,1.52e+00,1.40e+00,
254,1.52e+00,1.40e+00,
255,1.28e+00,8.00e-01,
256,1.28e+00,8.00e-01,
257,1.52e+00,1.40e+00,
258,1.52e+00,1.40e+00,
259,1.36e+00,8.00e-01,
260,1.36e+00,8.00e-01,
261,1.60e+00,1.40e+00,
262,1.36e+00,8.00e-01,
263,1.60e+00,1.40e+00,
264,1.36e+00,8.00e-01,
265,1.60e+00,1.40e+00,
266,1.60e+00,8.00e-01,
267,1.36e+00,1.40e+00,
268,1.60e+00,8.00e-01,
269,1.44e+00,1.40e+00,
270,1.36e+00,8.00e-01,
271,1.68e+00,1.40e+00,
272,1.44e+00,8.00e-01,
273,1.68e+00,1.40e+00,
274,1.68e+00,8.00e-01,
275,1.44e+00,1.40e+00,
276,1.68e+00,8.00e-01,
277,1.52e+00,1.40e+00,
278,1.68e+00,1.40e+00,
279,1.44e+00,8.00e-01,
280,1.52e+00,8.00e-01,
281,1.76e+00,1.40e+00,
282,1.76e+00,8.00e-01,
283,1.52e+00,1.40e+00,
284,1.76e+00,8.00e-01,
285,1.52e+00,1.40e+00,
286,1.76e+00,8.00e-01,
287,1.60e+00,1.40e+00,
288,1.76e+00,1.40e+00,
289,1.52e+00,8.00e-01,
290,1.60e+00,8.00e-01,
291,1.84e+00,1.40e+00,
292,1.60e+00,8.00e-01,
293,1.92e+00,1.40e+00,
294,1.60e+00,8.00e-01,
295,1.92e+00,1.40e+00,
296,1.68e+00,8.00e-01,
297,1.92e+00,1.40e+00,
298,1.92e+00,8.00e-01,
299,1.68e+00,1.40e+00,
300,1.68e+00,1.40e+00,
301,2.00e+00,8.00e-01,
302,1.68e+00,1.40e+00,
303,2.00e+00,8.00e-01,
304,1.76e+00,8.00e-01,
305,2.00e+00,1.40e+00,
306,2.00e+00,8.00e-01,
307,1.76e+00,1.40e+00,
308,1.76e+00,1.40e+00,
309,2.08e+00,8.00e-01,
310,1.84e+00,8.00e-01,
311,2.08e+00,1.40e+00,
312,1.84e+00,8.00e-01,
313,2.08e+00,1.40e+00,
314,2.08e+00,8.00e-01,
315,1.84e+00,1.40e+00,
316,2.08e+00,8.00e-01,
317,1.84e+00,1.40e+00,
318,1.92e+00,8.00e-01,
319,2.08e+00,1.40e+00,
320,1.92e+00,1.40e+00,
321,2.16e+00,8.00e-01,
322,2.16e+00,1.40e+00,
323,1.92e+00,8.00e-01,
324,2.16e+00,1.40e+00,
325,1.92e+00,8.00e-01,
326,2.16e+00,8.00e-01,
327,1.92e+00,1.40e+00,
328,2.00e+00,8.00e-01,
329,2.24e+00,1.40e+00,
330,2.00e+00,8.00e-01,
331,2.24e+00,1.40e+00,
332,2.00e+00,8.00e-01,
333,2.24e+00,1.40e+00,
334,2.00e+00,8.00e-01,
335,2.24e+00,1.40e+00,
336,2.00e+00,8.00e-01,
337,2.24e+00,1.20e+00,
338,2.24e+00,8.00e-01,
339,2.08e+00,1.40e+00,
340,2.08e+00,6.00e-01,
341,2.32e+00,1.40e+00,
342,2.08e+00,8.00e-01,
343,2.32e+00,1.40e+00,
344,2.32e+00,6.00e-01,
345,2.08e+00,1.40e+00,
346,2.32e+00,1.40e+00,
347,2.08e+00,6.00e-01,
348,2.16e+00,1.20e+00,
349,2.40e+00,6.00e-01,
350,2.16e+00,1.20e+00,
351,2.40e+00,6.00e-01,
352,2.40e+00,6.00e-01,
353,2.16e+00,1.20e+00,
354,2.40e+00,6.00e-01,
355,2.16e+00,1.20e+00,
356,2.16e+00,1.20e+00,
357,2.48e+00,4.00e-01,
358,2.24e+00,1.20e+00,
359,2.48e+00,4.00e-01,
360,2.24e+00,1.20e+00,
361,2.48e+00,4.00e-01,
362,2.48e+00,6.00e-01,
363,2.24e+00,1.20e+00,
364,2.48e+00,6.00e-01,
365,2.24e+00,1.20e+00,
366,2.48e+00,1.20e+00,
367,2.32e+00,4.00e-01,
368,2.48e+00,1.20e+00,
369,2.32e+00,4.00e-01,
370,2.32e+00,1.20e+00,
371,2.64e+00,4.00e-01,
372,2.64e+00,1.20e+00,
373,2.32e+00,2.00e-01,
374,2.32e+00,4.00e-01,
375,2.64e+00,1.00e+00,
376,2.40e+00,1.00e+00,
377,2.64e+00,2.00e-01,
378,2.56e+00,2.00e-01,
379,2.48e+00,1.00e+00,
380,2.48e+00,1.00e+00,
381,2.72e+00,2.00e-01,
382,2.72e+00,8.00e-01,
383,2.48e+00,2.00e-01,
384,2.48e+00,2.00e-01,
385,2.72e+00,1.00e+00,
386,2.72e+00,6.00e-01,
387,2.48e+00,0.00e+00,
388,2.56e+00,0.00e+00,
389,2.72e+00,6.00e-01,
390,2.80e+00,6.00e-01,
391,2.56e+00,0.00e+00,
392,2.56e+00,4.00e-01,
393,2.80e+00,-2.00e-01,
394,2.80e+00,4.00e-01,
395,2.56e+00,-2.00e-01,
396,2.80e+00,4.00e-01,
397,2.56e+00,-4.00e-01,
398,2.80e+00,2.00e-01,
399,2.64e+00,-4.00e-01,
400,2.64e+00,-6.00e-01,
401,2.88e+00,2.00e-01,
402,2.88e+00,0.00e+00,
403,2.64e+00,-8.00e-01,
404,2.64e+00,-8.00e-01,
405,2.88e+00,-2.00e-01,
406,2.64e+00,-4.00e-01,
407,2.96e+00,-1.20e+00,
408,2.72e+00,-6.00e-01,
409,2.96e+00,-1.60e+00,
410,2.72e+00,-1.80e+00,
411,2.96e+00,-1.00e+00,
412,2.96e+00,-1.20e+00,
413,2.72e+00,-2.60e+00,
414,2.96e+00,-2.00e+00,
415,2.72e+00,-3.00e+00,
416,2.80e+00,-2.60e+00,
417,2.96e+00,-4.00e+00,
418,2.80e+00,-3.60e+00,
419,3.04e+00,-5.40e+00,
420,2.80e+00,-5.00e+00,
421,3.04e+00,-6.60e+00,
422,3.04e+00,-6.20e+00,
423,2.80e+00,-9.60e+00,
424,3.04e+00,-9.20e+00,
425,2.80e+00,-1.22e+01,
426,2.88e+00,-1.18e+01,
427,3.12e+00,-1.66e+01,
428,2.88e+00,-1.64e+01,
429,3.12e+00,-2.32e+01,
430,2.88e+00,-2.32e+01,
431,3.12e+00,-2.80e+01,
432,3.12e+00,-2.80e+01,
433,2.88e+00,-3.26e+01,
434,2.88e+00,-3.28e+01,
435,3.12e+00,-3.16e+01,
436,2.96e+00,-3.18e+01,
437,3.20e+00,-2.72e+01,
438,2.96e+00,-2.76e+01,
439,3.20e+00,-2.20e+01,
440,2.96e+00,-2.22e+01,
441,3.28e+00,-1.66e+01,
442,2.96e+00,-1.72e+01,
443,3.28e+00,-1.28e+01,
444,3.28e+00,-1.32e+01,
445,2.96e+00,-9.80e+00,
446,3.04e+00,-1.00e+01,
447,3.28e+00,-7.20e+00,
448,3.28e+00,-7.80e+00,
449,3.04e+00,-6.00e+00,
450,3.36e+00,-6.40e+00,
451,3.04e+00,-4.40e+00,
452,3.12e+00,-4.80e+00,
453,3.36e+00,-3.80e+00,
454,3.12e+00,-4.00e+00,
455,3.36e+00,-2.80e+00,
456,3.36e+00,-3.20e+00,
457,3.12e+00,-2.20e+00,
458,3.20e+00,-2.60e+00,
459,3.44e+00,-1.80e+00,
460,3.20e+00,-2.40e+00,
461,3.44e+00,-1.40e+00,
462,3.20e+00,-1.80e+00,
463,3.44e+00,-1.00e+00,
464,3.20e+00,-1.80e+00,
465,3.44e+00,-6.00e-01,
466,3.44e+00,-1.20e+00,
467,3.28e+00,-6.00e-01,
468,3.28e+00,-1.00e+00,
469,3.52e+00,-4.00e-01,
470,3.28e+00,-1.00e+00,
471,3.52e+00,-2.00e-01,
472,3.28e+00,-2.00e-01,
473,3.52e+00,-8.00e-01,
474,3.52e+00,-6.00e-01,
475,3.28e+00,0.00e+00,
476,3.52e+00,-6.00e-01,
477,3.28e+00,2.00e-01,
478,3.36e+00,-4.00e-01,
479,3.60e+00,2.00e-01,
480,3.36e+00,-4.00e-01,
481,3.60e+00,2.00e-01,
482,3.36e+00,2.00e-01,
483,3.60e+00,-4.00e-01,
484,3.36e+00,-2.00e-01,
485,3.60e+00,4.00e-01,
486,3.44e+00,-2.00e-01,
487,3.68e+00,4.00e-01,
488,3.44e+00,-2.00e-01,
489,3.68e+00,4.00e-01,
490,3.68e+00,-2.00e-01,
491,3.44e+00,4.00e-01,
492,3.68e+00,4.00e-01,
493,3.44e+00,-2.00e-01,
494,3.68e+00,-2.00e-01,
495,3.44e+00,6.00e-01,
496,3.52e+00,0.00e+00,
497,3.76e+00,6.00e-01,
498,3.52e+00,6.00e-01,
499,3.76e+00,0.00e+00,
500,3.52e+00,6.00e-01,
501,3.76e+00,0.00e+00,
502,3.76e+00,6.00e-01,
503,3.52e+00,0.00e+00,
504,3.52e+00,6.00e-01,
505,3.76e+00,0.00e+00,
506,3.60e+00,6.00e-01,
507,3.84e+00,0.00e+00,
508,3.84e+00,6.00e-01,
509,3.60e+00,2.00e-01,
510,3.84e+00,2.00e-01,
511,3.60e+00,6.00e-01,
512,3.84e+00,1.00e+00,
513,3.60e+00,2.00e-01,
514,3.60e+00,2.00e-01,
515,3.84e+00,1.00e+00,
516,3.60e+00,2.00e-01,
517,3.92e+00,1.00e+00,
518,3.68e+00,2.00e-01,
519,4.00e+00,1.00e+00,
520,4.00e+00,1.00e+00,
521,3.68e+00,2.00e-01,
522,4.00e+00,2.00e-01,
523,3.68e+00,1.00e+00,
524,3.68e+00,2.00e-01,
525,4.00e+00,1.00e+00,
526,3.84e+00,2.00e-01,
527,4.08e+00,1.00e+00,
528,3.84e+00,1.00e+00,
529,4.08e+00,2.00e-01,
530,4.08e+00,1.00e+00,
531,3.76e+00,2.00e-01,
532,3.76e+00,2.00e-01,
533,4.08e+00,1.00e+00,
534,3.84e+00,2.00e-01,
535,4.08e+00,1.00e+00,
536,3.84e+00,2.00e-01,
537,4.16e+00,1.00e+00,
538,3.92e+00,2.00e-01,
539,4.16e+00,1.00e+00,
540,3.92e+00,1.00e+00,
541,4.16e+00,2.00e-01,
542,3.92e+00,1.00e+00,
543,4.16e+00,2.00e-01,
544,3.92e+00,1.00e+00,
545,4.16e+00,2.00e-01,
546,4.00e+00,1.00e+00,
547,4.24e+00,4.00e-01,
548,4.00e+00,1.00e+00,
549,4.24e+00,4.00e-01,
550,4.24e+00,4.00e-01,
551,4.00e+00,1.00e+00,
552,4.00e+00,4.00e-01,
553,4.24e+00,1.00e+00,
554,4.00e+00,1.00e+00,
555,4.24e+00,4.00e-01,
556,4.24e+00,2.00e-01,
557,4.08e+00,1.00e+00,
558,4.08e+00,6.00e-01,
559,4.32e+00,1.00e+00,
560,4.08e+00,1.00e+00,
561,4.32e+00,6.00e-01,
562,4.08e+00,4.00e-01,
563,4.32e+00,1.00e+00,
564,4.08e+00,1.00e+00,
565,4.32e+00,4.00e-01,
566,4.32e+00,1.00e+00,
567,4.16e+00,4.00e-01,
568,4.16e+00,6.00e-01,
569,4.40e+00,1.00e+00,
570,4.40e+00,1.20e+00,
571,4.16e+00,4.00e-01,
572,4.16e+00,8.00e-01,
573,4.40e+00,4.00e-01,
574,4.16e+00,4.00e-01,
575,4.40e+00,1.20e+00,
576,4.24e+00,6.00e-01,
577,4.48e+00,1.00e+00,
578,4.48e+00,4.00e-01,
579,4.24e+00,1.20e+00,
580,4.48e+00,6.00e-01,
581,4.24e+00,1.00e+00,
582,4.24e+00,1.20e+00,
583,4.48e+00,4.00e-01,
584,4.24e+00,1.20e+00,
585,4.56e+00,4.00e-01,
586,4.64e+00,6.00e-01,
587,4.24e+00,1.20e+00,
588,4.32e+00,4.00e-01,
589,4.56e+00,1.20e+00,
590,4.32e+00,6.00e-01,
591,4.64e+00,1.20e+00,
592,4.32e+00,4.00e-01,
593,4.64e+00,1.20e+00,
594,4.32e+00,4.00e-01,
595,4.64e+00,1.20e+00,
596,4.40e+00,6.00e-01,
597,4.72e+00,1.20e+00,
598,4.40e+00,1.20e+00,
599,4.72e+00,4.00e-01,
600,4.48e+00,6.00e-01,
601,4.72e+00,1.20e+00,
602,4.72e+00,1.00e+00,
603,4.40e+00,4.00e-01,
604,4.72e+00,1.20e+00,
605,4.40e+00,4.00e-01,
606,4.40e+00,6.00e-01,
607,4.80e+00,1.20e+00,
608,4.56e+00,6.00e-01,
609,4.80e+00,1.20e+00,
610,4.80e+00,6.00e-01,
611,4.56e+00,1.20e+00,
612,4.56e+00,1.20e+00,
613,4.80e+00,4.00e-01,
614,4.56e+00,6.00e-01,
615,4.80e+00,1.00e+00,
616,4.88e+00,4.00e-01,
617,4.56e+00,1.20e+00,
618,4.64e+00,6.00e-01,
619,4.88e+00,1.20e+00,
620,4.88e+00,6.00e-01,
621,4.64e+00,1.20e+00,
622,4.64e+00,1.20e+00,
623,4.88e+00,4.00e-01,
624,4.64e+00,4.00e-01,
625,4.96e+00,1.20e+00,
626,4.64e+00,6.00e-01,
627,4.96e+00,1.20e+00,
628,4.96e+00,6.00e-01,
629,4.72e+00,1.20e+00,
630,4.96e+00,6.00e-01,
631,4.72e+00,1.20e+00,
632,4.96e+00,1.20e+00,
633,4.72e+00,4.00e-01,
634,4.72e+00,4.00e-01,
635,4.96e+00,1.20e+00,
636,5.04e+00,1.20e+00,
637,4.72e+00,4.00e-01,
638,4.80e+00,6.00e-01,
639,5.04e+00,1.20e+00,
640,5.04e+00,6.00e-01,
641,4.80e+00,1.20e+00,
642,4.80e+00,1.20e+00,
643,5.12e+00,4.00e-01,
644,4.80e+00,1.20e+00,
645,5.04e+00,4.00e-01,
646,4.80e+00,1.20e+00,
647,5.12e+00,4.00e-01,
648,5.12e+00,1.20e+00,
649,4.88e+00,4.00e-01,
650,5.12e+00,6.00e-01,
651,4.88e+00,1.20e+00,
652,4.88e+00,6.00e-01,
653,5.12e+00,1.20e+00,
654,4.88e+00,4.00e-01,
655,5.12e+00,1.20e+00,
656,5.20e+00,6.00e-01,
657,4.88e+00,1.20e+00,
658,5.20e+00,6.00e-01,
659,4.96e+00,1.20e+00,
660,5.20e+00,1.20e+00,
661,4.96e+00,6.00e-01,
662,4.96e+00,6.00e-01,
663,5.20e+00,1.20e+00,
664,5.20e+00,4.00e-01,
665,4.96e+00,1.20e+00,
666,5.04e+00,6.00e-01,
667,5.28e+00,1.20e+00,
668,5.04e+00,6.00e-01,
669,5.36e+00,1.20e+00,
670,5.04e+00,1.20e+00,
671,5.36e+00,4.00e-01,
672,5.28e+00,6.00e-01,
673,5.04e+00,1.20e+00,
674,5.04e+00,1.20e+00,
675,5.44e+00,4.00e-01,
676,5.12e+00,4.00e-01,
677,5.44e+00,1.20e+00,
678,5.20e+00,6.00e-01,
679,5.44e+00,1.20e+00,
680,5.44e+00,1.20e+00,
681,5.12e+00,6.00e-01,
682,5.44e+00,6.00e-01,
683,5.12e+00,1.20e+00,
684,5.12e+00,1.20e+00,
685,5.44e+00,6.00e-01,
686,5.28e+00,1.20e+00,
687,5.52e+00,4.00e-01,
688,5.52e+00,6.00e-01,
689,5.28e+00,1.20e+00,
690,5.52e+00,6.00e-01,
691,5.28e+00,1.20e+00,
692,5.28e+00,1.20e+00,
693,5.52e+00,6.00e-01,
694,5.28e+00,4.00e-01,
695,5.60e+00,1.20e+00,
696,5.28e+00,6.00e-01,
697,5.60e+00,1.20e+00,
698,5.36e+00,4.00e-01,
699,5.60e+00,1.20e+00,
700,5.60e+00,6.00e-01,
701,5.36e+00,1.20e+00,
702,5.36e+00,6.00e-01,
703,5.60e+00,1.20e+00,
704,5.60e+00,1.20e+00,
705,5.36e+00,4.00e-01,
706,5.36e+00,6.00e-01,
707,5.68e+00,1.20e+00,
708,5.44e+00,6.00e-01,
709,5.68e+00,1.20e+00,
710,5.68e+00,1.20e+00,
711,5.44e+00,6.00e-01,
712,5.68e+00,6.00e-01,
713,5.44e+00,1.20e+00,
714,5.44e+00,1.00e+00,
715,5.68e+00,4.00e-01,
716,5.44e+00,4.00e-01,
717,5.76e+00,1.20e+00,
718,5.76e+00,1.20e+00,
719,5.44e+00,4.00e-01,
720,5.76e+00,6.00e-01,
721,5.52e+00,1.20e+00,
722,5.52e+00,6.00e-01,
723,5.76e+00,1.00e+00,
724,5.52e+00,1.20e+00,
725,5.84e+00,4.00e-01,
726,5.84e+00,4.00e-01,
727,5.52e+00,1.20e+00,
728,5.84e+00,1.20e+00,
729,5.52e+00,4.00e-01,
730,5.84e+00,1.20e+00,
731,5.60e+00,4.00e-01,
732,5.84e+00,6.00e-01,
733,5.60e+00,1.20e+00,
734,5.60e+00,1.20e+00,
735,5.84e+00,4.00e-01,
736,5.60e+00,1.00e+00,
737,5.92e+00,4.00e-01,
738,5.92e+00,4.00e-01,
739,5.68e+00,1.20e+00,
740,5.68e+00,6.00e-01,
741,6.00e+00,1.20e+00,
742,5.68e+00,4.00e-01,
743,5.92e+00,1.20e+00,
744,5.68e+00,1.20e+00,
745,6.00e+00,4.00e-01,
746,6.08e+00,4.00e-01,
747,5.68e+00,1.20e+00,
748,6.08e+00,6.00e-01,
749,5.76e+00,1.20e+00,
750,6.08e+00,6.00e-01,
751,5.76e+00,1.00e+00,
752,6.00e+00,1.00e+00,
753,5.76e+00,4.00e-01,
754,5.76e+00,1.00e+00,
755,6.16e+00,6.00e-01,
756,5.84e+00,4.00e-01,
757,6.16e+00,1.20e+00,
758,6.16e+00,6.00e-01,
759,5.92e+00,1.20e+00,
760,6.16e+00,6.00e-01,
761,5.92e+00,1.20e+00,
762,5.92e+00,4.00e-01,
763,6.16e+00,1.20e+00,
764,5.92e+00,1.00e+00,
765,6.16e+00,4.00e-01,
766,5.92e+00,1.00e+00,
767,6.24e+00,4.00e-01,
768,6.24e+00,1.00e+00,
769,6.00e+00,4.00e-01,
770,6.24e+00,1.20e+00,
771,6.00e+00,4.00e-01,
772,6.00e+00,6.00e-01,
773,6.32e+00,1.00e+00,
774,6.00e+00,6.00e-01,
775,6.32e+00,1.00e+00,
776,6.32e+00,4.00e-01,
777,6.00e+00,1.00e+00,
778,6.32e+00,1.00e+00,
779,6.08e+00,4.00e-01,
780,6.32e+00,4.00e-01,
781,6.08e+00,1.00e+00,
782,6.08e+00,6.00e-01,
783,6.32e+00,1.00e+00,
784,6.08e+00,1.00e+00,
785,6.40e+00,6.00e-01,
786,6.08e+00,1.00e+00,
787,6.40e+00,4.00e-01,
788,6.40e+00,4.00e-01,
789,6.08e+00,1.20e+00,
790,6.40e+00,1.20e+00,
791,6.08e+00,4.00e-01,
792,6.16e+00,6.00e-01,
793,6.40e+00,1.20e+00,
794,6.16e+00,1.20e+00,
795,6.48e+00,2.00e-01,
796,6.48e+00,1.00e+00,
797,6.16e+00,4.00e-01,
798,6.48e+00,2.00e-01,
799,6.24e+00,1.00e+00,
800,6.48e+00,4.00e-01,
801,6.16e+00,1.00e+00,
802,6.24e+00,1.20e+00,
803,6.48e+00,4.00e-01,
804,6.24e+00,1.00e+00,
805,6.56e+00,4.00e-01,
806,6.56e+00,1.00e+00,
807,6.24e+00,4.00e-01,
808,6.56e+00,1.00e+00,
809,6.32e+00,4.00e-01,
810,6.56e+00,4.00e-01,
811,6.32e+00,1.00e+00,
812,6.56e+00,1.00e+00,
813,6.32e+00,2.00e-01,
814,6.32e+00,1.00e+00,
815,6.72e+00,2.00e-01,
816,6.72e+00,4.00e-01,
817,6.32e+00,1.00e+00,
818,6.40e+00,2.00e-01,
819,6.72e+00,1.00e+00,
820,6.32e+00,1.00e+00,
821,6.72e+00,2.00e-01,
822,6.40e+00,1.00e+00,
823,6.64e+00,4.00e-01,
824,6.40e+00,4.00e-01,
825,6.80e+00,1.00e+00,
826,6.80e+00,1.00e+00,
827,6.48e+00,2.00e-01,
828,6.80e+00,2.00e-01,
829,6.48e+00,1.00e+00,
830,6.80e+00,2.00e-01,
831,6.48e+00,1.00e+00,
832,6.80e+00,1.00e+00,
833,6.48e+00,2.00e-01,
834,6.56e+00,2.00e-01,
835,6.88e+00,1.00e+00,
836,6.88e+00,1.00e+00,
837,6.56e+00,2.00e-01,
838,6.64e+00,2.00e-01,
839,6.88e+00,1.00e+00,
840,6.64e+00,1.00e+00,
841,6.96e+00,2.00e-01,
842,6.64e+00,1.00e+00,
843,6.88e+00,2.00e-01,
844,6.64e+00,2.00e-01,
845,6.96e+00,1.00e+00,
846,6.96e+00,1.00e+00,
847,6.64e+00,2.00e-01,
848,6.96e+00,2.00e-01,
849,6.72e+00,8.00e-01,
850,6.96e+00,2.00e-01,
851,6.72e+00,8.00e-01,
852,6.96e+00,6.00e-01,
853,6.72e+00,0.00e+00,
854,6.72e+00,6.00e-01,
855,7.04e+00,0.00e+00,
856,6.80e+00,6.00e-01,
857,7.04e+00,0.00e+00,
858,7.04e+00,6.00e-01,
859,6.80e+00,0.00e+00,
860,6.80e+00,4.00e-01,
861,7.12e+00,-2.00e-01,
862,6.80e+00,4.00e-01,
863,7.04e+00,-4.00e-01,
864,6.80e+00,2.00e-01,
