linear_zeeman_data/300kHz_15p67mV.csv

X,CH1,CH2,Start,Increment,
Sequence,Volt,Volt,-4.330000e+00,5.000000e-03
0,1.00e+00,9.76e-01,
1,9.84e-01,9.76e-01,
2,9.84e-01,9.76e-01,
3,1.00e+00,9.76e-01,
4,1.00e+00,9.76e-01,
5,9.84e-01,9.76e-01,
6,1.00e+00,9.76e-01,
7,9.88e-01,9.76e-01,
8,9.88e-01,9.76e-01,
9,1.01e+00,9.76e-01,
10,9.88e-01,9.84e-01,
11,1.01e+00,9.76e-01,
12,9.92e-01,9.76e-01,
13,1.01e+00,9.76e-01,
14,9.88e-01,9.76e-01,
15,1.01e+00,9.76e-01,
16,9.92e-01,9.76e-01,
17,1.01e+00,9.76e-01,
18,9.96e-01,9.76e-01,
19,1.01e+00,9.76e-01,
20,1.01e+00,9.76e-01,
21,9.92e-01,9.84e-01,
22,1.01e+00,9.76e-01,
23,9.92e-01,9.84e-01,
24,1.01e+00,9.76e-01,
25,9.96e-01,9.76e-01,
26,1.00e+00,9.84e-01,
27,1.02e+00,9.76e-01,
28,1.02e+00,9.76e-01,
29,1.00e+00,9.76e-01,
30,1.00e+00,9.76e-01,
31,1.02e+00,9.76e-01,
32,9.92e-01,9.76e-01,
33,1.02e+00,9.76e-01,
34,1.02e+00,9.76e-01,
35,1.00e+00,9.84e-01,
36,1.00e+00,9.84e-01,
37,1.02e+00,9.76e-01,
38,1.03e+00,9.76e-01,
39,1.00e+00,9.76e-01,
40,1.00e+00,9.76e-01,
41,1.02e+00,9.76e-01,
42,1.00e+00,9.76e-01,
43,1.02e+00,9.76e-01,
44,1.02e+00,9.76e-01,
45,1.00e+00,9.84e-01,
46,1.01e+00,9.76e-01,
47,1.02e+00,9.84e-01,
48,1.03e+00,9.76e-01,
49,1.01e+00,9.84e-01,
50,1.03e+00,9.76e-01,
51,1.01e+00,9.76e-01,
52,1.01e+00,9.76e-01,
53,1.03e+00,9.84e-01,
54,1.03e+00,9.76e-01,
55,1.01e+00,9.76e-01,
56,1.01e+00,9.76e-01,
57,1.03e+00,9.84e-01,
58,1.02e+00,9.76e-01,
59,1.03e+00,9.76e-01,
60,1.02e+00,9.76e-01,
61,1.03e+00,9.76e-01,
62,1.03e+00,9.76e-01,
63,1.02e+00,9.76e-01,
64,1.02e+00,9.76e-01,
65,1.03e+00,9.76e-01,
66,1.03e+00,9.76e-01,
67,1.02e+00,9.76e-01,
68,1.02e+00,9.76e-01,
69,1.04e+00,9.76e-01,
70,1.04e+00,9.76e-01,
71,1.02e+00,9.84e-01,
72,1.02e+00,9.76e-01,
73,1.04e+00,9.76e-01,
74,1.02e+00,9.76e-01,
75,1.04e+00,9.76e-01,
76,1.02e+00,9.76e-01,
77,1.04e+00,9.76e-01,
78,1.03e+00,9.76e-01,
79,1.04e+00,9.76e-01,
80,1.04e+00,9.76e-01,
81,1.02e+00,9.84e-01,
82,1.04e+00,9.76e-01,
83,4.76e-01,9.76e-01,
84,4.80e-01,9.76e-01,
85,4.92e-01,9.76e-01,
86,4.80e-01,9.76e-01,
87,4.92e-01,9.84e-01,
88,4.80e-01,9.76e-01,
89,4.96e-01,9.84e-01,
90,4.84e-01,9.84e-01,
91,4.96e-01,9.76e-01,
92,4.96e-01,9.76e-01,
93,4.80e-01,9.84e-01,
94,4.84e-01,9.76e-01,
95,4.96e-01,9.76e-01,
96,4.96e-01,9.76e-01,
97,4.88e-01,9.76e-01,
98,4.84e-01,9.76e-01,
99,5.00e-01,9.84e-01,
100,4.96e-01,9.76e-01,
101,4.84e-01,9.76e-01,
102,5.00e-01,9.76e-01,
103,4.84e-01,9.76e-01,
104,5.00e-01,9.76e-01,
105,4.88e-01,9.76e-01,
106,4.92e-01,9.76e-01,
107,5.04e-01,9.84e-01,
108,5.04e-01,9.76e-01,
109,4.88e-01,9.76e-01,
110,4.88e-01,9.76e-01,
111,5.04e-01,9.76e-01,
112,5.04e-01,9.76e-01,
113,4.96e-01,9.84e-01,
114,4.96e-01,9.76e-01,
115,5.08e-01,9.84e-01,
116,5.08e-01,9.76e-01,
117,4.92e-01,9.76e-01,
118,5.04e-01,9.76e-01,
119,4.96e-01,9.84e-01,
120,4.96e-01,9.76e-01,
121,5.12e-01,9.76e-01,
122,5.00e-01,9.76e-01,
123,5.12e-01,9.76e-01,
124,5.00e-01,9.76e-01,
125,5.16e-01,9.76e-01,
126,5.00e-01,9.84e-01,
127,5.12e-01,9.76e-01,
128,5.00e-01,9.76e-01,
129,5.12e-01,9.76e-01,
130,5.00e-01,9.76e-01,
131,5.12e-01,9.76e-01,
132,5.00e-01,9.76e-01,
133,5.16e-01,9.76e-01,
134,5.16e-01,9.76e-01,
135,5.04e-01,9.76e-01,
136,5.04e-01,9.76e-01,
137,5.20e-01,9.84e-01,
138,5.04e-01,9.76e-01,
139,5.20e-01,9.76e-01,
140,5.04e-01,9.76e-01,
141,5.20e-01,9.84e-01,
142,5.08e-01,9.76e-01,
143,5.24e-01,9.84e-01,
144,5.20e-01,9.76e-01,
145,5.08e-01,9.76e-01,
146,5.20e-01,9.76e-01,
147,5.12e-01,9.84e-01,
148,5.12e-01,9.76e-01,
149,5.24e-01,9.76e-01,
150,5.24e-01,9.76e-01,
151,5.12e-01,9.76e-01,
152,5.16e-01,9.76e-01,
153,5.28e-01,9.76e-01,
154,5.16e-01,9.76e-01,
155,5.28e-01,9.84e-01,
156,5.16e-01,9.76e-01,
157,5.32e-01,9.76e-01,
158,5.28e-01,9.76e-01,
159,5.16e-01,9.76e-01,
160,5.28e-01,9.76e-01,
161,5.12e-01,9.84e-01,
162,5.20e-01,9.76e-01,
163,5.32e-01,9.76e-01,
164,5.20e-01,9.76e-01,
165,5.36e-01,9.84e-01,
166,5.20e-01,9.76e-01,
167,5.36e-01,9.76e-01,
168,5.40e-01,9.76e-01,
169,5.24e-01,9.76e-01,
170,5.36e-01,9.76e-01,
171,5.20e-01,9.76e-01,
172,5.24e-01,9.84e-01,
173,5.36e-01,9.76e-01,
174,5.24e-01,9.76e-01,
175,5.40e-01,9.84e-01,
176,5.24e-01,9.76e-01,
177,5.40e-01,9.76e-01,
178,5.28e-01,9.76e-01,
179,5.40e-01,9.84e-01,
180,5.28e-01,9.76e-01,
181,5.40e-01,9.84e-01,
182,5.28e-01,9.76e-01,
183,5.44e-01,9.84e-01,
184,5.32e-01,9.76e-01,
185,5.44e-01,9.84e-01,
186,5.44e-01,9.76e-01,
187,5.32e-01,9.76e-01,
188,5.32e-01,9.84e-01,
189,5.44e-01,9.76e-01,
190,5.36e-01,9.76e-01,
191,5.48e-01,9.76e-01,
192,5.48e-01,9.76e-01,
193,5.32e-01,9.84e-01,
194,5.32e-01,9.84e-01,
195,5.48e-01,9.76e-01,
196,5.48e-01,9.84e-01,
197,5.36e-01,9.76e-01,
198,5.36e-01,9.76e-01,
199,5.52e-01,9.84e-01,
200,5.48e-01,9.76e-01,
201,5.36e-01,9.76e-01,
202,5.48e-01,9.76e-01,
203,5.36e-01,9.76e-01,
204,5.52e-01,9.76e-01,
205,5.40e-01,9.60e-01,
206,5.44e-01,9.68e-01,
207,5.52e-01,9.44e-01,
208,5.44e-01,9.52e-01,
209,5.52e-01,9.28e-01,
210,5.52e-01,9.36e-01,
211,5.40e-01,9.20e-01,
212,5.40e-01,9.20e-01,
213,5.56e-01,9.12e-01,
214,5.56e-01,9.20e-01,
215,5.40e-01,9.36e-01,
216,5.44e-01,9.28e-01,
217,5.56e-01,9.44e-01,
218,5.56e-01,9.36e-01,
219,5.44e-01,9.60e-01,
220,5.48e-01,9.52e-01,
221,5.60e-01,9.68e-01,
222,5.48e-01,9.68e-01,
223,5.60e-01,9.60e-01,
224,5.68e-01,9.68e-01,
225,5.48e-01,9.76e-01,
226,5.52e-01,9.84e-01,
227,5.64e-01,9.76e-01,
228,5.52e-01,9.84e-01,
229,5.68e-01,9.76e-01,
230,5.68e-01,9.76e-01,
231,5.52e-01,9.84e-01,
232,5.68e-01,9.76e-01,
233,5.52e-01,9.76e-01,
234,5.56e-01,9.76e-01,
235,5.68e-01,9.76e-01,
236,5.60e-01,9.76e-01,
237,5.72e-01,9.76e-01,
238,5.68e-01,9.76e-01,
239,5.56e-01,9.84e-01,
240,5.72e-01,9.76e-01,
241,5.56e-01,9.84e-01,
242,5.60e-01,9.76e-01,
243,5.72e-01,9.76e-01,
244,5.60e-01,9.76e-01,
245,5.72e-01,9.76e-01,
246,5.60e-01,9.76e-01,
247,5.72e-01,9.76e-01,
248,5.64e-01,9.76e-01,
249,5.76e-01,9.84e-01,
250,5.76e-01,9.76e-01,
251,5.60e-01,9.84e-01,
252,5.80e-01,9.76e-01,
253,5.64e-01,9.84e-01,
254,5.64e-01,9.76e-01,
255,5.76e-01,9.76e-01,
256,5.64e-01,9.76e-01,
257,5.80e-01,9.84e-01,
258,5.84e-01,9.76e-01,
259,5.68e-01,9.76e-01,
260,5.68e-01,9.76e-01,
261,5.80e-01,9.84e-01,
262,5.68e-01,9.76e-01,
263,5.80e-01,9.76e-01,
264,5.72e-01,9.76e-01,
265,5.88e-01,9.76e-01,
266,5.68e-01,9.76e-01,
267,5.80e-01,9.76e-01,
268,5.76e-01,9.76e-01,
269,5.84e-01,9.76e-01,
270,5.76e-01,9.76e-01,
271,5.88e-01,9.76e-01,
272,5.68e-01,9.76e-01,
273,5.88e-01,9.76e-01,
274,5.88e-01,9.76e-01,
275,5.76e-01,9.84e-01,
276,5.92e-01,9.76e-01,
277,5.76e-01,9.76e-01,
278,5.92e-01,9.76e-01,
279,5.76e-01,9.76e-01,
280,5.92e-01,9.76e-01,
281,5.80e-01,9.76e-01,
282,5.80e-01,9.76e-01,
283,5.92e-01,9.76e-01,
284,5.92e-01,9.76e-01,
285,5.80e-01,9.76e-01,
286,5.84e-01,9.76e-01,
287,5.96e-01,9.84e-01,
288,5.80e-01,9.76e-01,
289,5.96e-01,9.76e-01,
290,5.84e-01,9.76e-01,
291,5.96e-01,9.84e-01,
292,6.00e-01,9.76e-01,
293,5.84e-01,9.76e-01,
294,6.00e-01,9.76e-01,
295,5.84e-01,9.84e-01,
296,6.00e-01,9.76e-01,
297,5.88e-01,9.76e-01,
298,5.88e-01,9.84e-01,
299,6.04e-01,9.76e-01,
300,6.04e-01,9.76e-01,
301,5.88e-01,9.76e-01,
302,6.04e-01,9.76e-01,
303,5.88e-01,9.84e-01,
304,5.92e-01,9.76e-01,
305,6.04e-01,9.76e-01,
306,5.88e-01,9.76e-01,
307,6.04e-01,9.76e-01,
308,5.96e-01,9.76e-01,
309,6.04e-01,9.76e-01,
310,6.08e-01,9.76e-01,
311,5.96e-01,9.84e-01,
312,5.96e-01,9.84e-01,
313,6.08e-01,9.76e-01,
314,5.96e-01,9.76e-01,
315,6.08e-01,9.76e-01,
316,5.92e-01,9.76e-01,
317,6.08e-01,9.76e-01,
318,6.12e-01,9.84e-01,
319,6.00e-01,9.76e-01,
320,6.12e-01,9.84e-01,
321,5.96e-01,9.76e-01,
322,6.16e-01,9.76e-01,
323,6.00e-01,9.84e-01,
324,6.04e-01,9.84e-01,
325,6.16e-01,9.76e-01,
326,6.00e-01,9.76e-01,
327,6.16e-01,9.76e-01,
328,6.04e-01,9.76e-01,
329,6.16e-01,9.76e-01,
330,6.20e-01,9.76e-01,
331,6.04e-01,9.84e-01,
332,6.04e-01,9.76e-01,
333,6.16e-01,9.76e-01,
334,6.08e-01,9.76e-01,
335,6.16e-01,9.76e-01,
336,6.08e-01,9.76e-01,
337,6.24e-01,9.76e-01,
338,6.24e-01,9.76e-01,
339,6.08e-01,9.76e-01,
340,6.20e-01,9.76e-01,
341,6.08e-01,9.84e-01,
342,6.12e-01,9.76e-01,
343,6.24e-01,9.76e-01,
344,6.12e-01,9.76e-01,
345,6.28e-01,9.84e-01,
346,6.28e-01,9.76e-01,
347,6.12e-01,9.84e-01,
348,6.24e-01,9.84e-01,
349,6.12e-01,9.76e-01,
350,6.16e-01,9.76e-01,
351,6.24e-01,9.84e-01,
352,6.28e-01,9.76e-01,
353,6.16e-01,9.84e-01,
354,6.20e-01,9.76e-01,
355,6.32e-01,9.76e-01,
356,6.20e-01,9.76e-01,
357,6.28e-01,9.76e-01,
358,6.20e-01,9.76e-01,
359,6.32e-01,9.84e-01,
360,6.16e-01,9.84e-01,
361,6.32e-01,9.76e-01,
362,6.20e-01,9.76e-01,
363,6.32e-01,9.76e-01,
364,6.20e-01,9.76e-01,
365,6.32e-01,9.84e-01,
366,6.24e-01,9.84e-01,
367,6.36e-01,9.76e-01,
368,6.24e-01,9.76e-01,
369,6.36e-01,9.84e-01,
370,6.24e-01,9.76e-01,
371,6.36e-01,9.76e-01,
372,6.24e-01,9.76e-01,
373,6.40e-01,9.76e-01,
374,6.24e-01,9.76e-01,
375,6.40e-01,9.76e-01,
376,6.28e-01,9.76e-01,
377,6.40e-01,9.84e-01,
378,6.28e-01,9.76e-01,
379,6.40e-01,9.84e-01,
380,6.32e-01,9.84e-01,
381,6.40e-01,9.76e-01,
382,6.32e-01,9.76e-01,
383,6.44e-01,9.76e-01,
384,6.32e-01,9.84e-01,
385,6.48e-01,9.76e-01,
386,6.32e-01,9.84e-01,
387,6.48e-01,9.76e-01,
388,6.32e-01,9.76e-01,
389,6.48e-01,9.84e-01,
390,6.36e-01,9.76e-01,
391,6.48e-01,9.76e-01,
392,6.36e-01,9.76e-01,
393,6.52e-01,9.84e-01,
394,6.52e-01,9.76e-01,
395,6.36e-01,9.76e-01,
396,6.52e-01,9.76e-01,
397,6.36e-01,9.84e-01,
398,6.40e-01,9.76e-01,
399,6.56e-01,9.84e-01,
400,6.44e-01,9.76e-01,
401,6.56e-01,9.84e-01,
402,6.56e-01,9.76e-01,
403,6.40e-01,9.84e-01,
404,6.56e-01,9.76e-01,
405,6.40e-01,9.84e-01,
406,6.48e-01,9.76e-01,
407,6.56e-01,9.84e-01,
408,6.44e-01,9.84e-01,
409,6.60e-01,9.76e-01,
410,6.60e-01,9.76e-01,
411,6.48e-01,9.76e-01,
412,6.56e-01,9.76e-01,
413,6.52e-01,9.84e-01,
414,6.60e-01,9.76e-01,
415,6.44e-01,9.84e-01,
416,6.48e-01,9.84e-01,
417,6.60e-01,9.76e-01,
418,6.48e-01,9.76e-01,
419,6.60e-01,9.84e-01,
420,6.44e-01,9.76e-01,
421,6.60e-01,9.76e-01,
422,6.60e-01,9.76e-01,
423,6.48e-01,9.76e-01,
424,6.60e-01,9.76e-01,
425,6.48e-01,9.76e-01,
426,6.64e-01,9.76e-01,
427,6.52e-01,9.76e-01,
428,6.68e-01,9.76e-01,
429,6.56e-01,9.76e-01,
430,6.68e-01,9.76e-01,
431,6.52e-01,9.76e-01,
432,6.56e-01,9.76e-01,
433,6.72e-01,9.76e-01,
434,6.72e-01,9.76e-01,
435,6.60e-01,9.84e-01,
436,6.72e-01,9.76e-01,
437,6.56e-01,9.76e-01,
438,6.60e-01,9.76e-01,
439,6.76e-01,9.76e-01,
440,6.72e-01,9.76e-01,
441,6.60e-01,9.76e-01,
442,6.76e-01,9.76e-01,
443,6.60e-01,9.76e-01,
444,6.64e-01,9.76e-01,
445,6.80e-01,9.84e-01,
446,6.64e-01,9.76e-01,
447,6.80e-01,9.84e-01,
448,6.64e-01,9.84e-01,
449,6.80e-01,9.76e-01,
450,6.76e-01,9.76e-01,
451,6.64e-01,9.84e-01,
452,6.64e-01,9.76e-01,
453,6.80e-01,9.76e-01,
454,6.80e-01,9.76e-01,
455,6.68e-01,9.76e-01,
456,6.68e-01,9.76e-01,
457,6.80e-01,9.76e-01,
458,6.84e-01,9.76e-01,
459,6.68e-01,9.84e-01,
460,6.80e-01,9.76e-01,
461,6.68e-01,9.84e-01,
462,6.68e-01,9.76e-01,
463,6.84e-01,9.76e-01,
464,6.76e-01,9.76e-01,
465,6.88e-01,9.76e-01,
466,6.84e-01,9.76e-01,
467,6.72e-01,9.76e-01,
468,6.84e-01,9.76e-01,
469,6.72e-01,9.84e-01,
470,6.80e-01,9.76e-01,
471,6.88e-01,9.84e-01,
472,6.76e-01,9.76e-01,
473,6.88e-01,9.84e-01,
474,6.80e-01,9.76e-01,
475,6.92e-01,9.76e-01,
476,6.88e-01,9.76e-01,
477,6.80e-01,9.84e-01,
478,6.92e-01,9.76e-01,
479,6.84e-01,9.76e-01,
480,6.84e-01,9.76e-01,
481,6.96e-01,9.84e-01,
482,6.80e-01,9.76e-01,
483,6.92e-01,9.76e-01,
484,6.84e-01,9.76e-01,
485,6.96e-01,9.76e-01,
486,6.96e-01,9.76e-01,
487,6.84e-01,9.76e-01,
488,6.96e-01,9.76e-01,
489,6.84e-01,9.76e-01,
490,7.00e-01,9.76e-01,
491,6.88e-01,9.76e-01,
492,6.88e-01,9.76e-01,
493,7.00e-01,9.76e-01,
494,7.04e-01,9.76e-01,
495,6.84e-01,9.84e-01,
496,6.92e-01,9.76e-01,
497,7.00e-01,9.76e-01,
498,6.88e-01,9.76e-01,
499,7.04e-01,9.76e-01,
500,6.88e-01,9.76e-01,
501,7.04e-01,9.76e-01,
502,6.92e-01,9.76e-01,
503,7.08e-01,9.76e-01,
504,7.04e-01,9.76e-01,
505,6.92e-01,9.76e-01,
506,6.96e-01,9.84e-01,
507,7.08e-01,9.76e-01,
508,7.04e-01,9.76e-01,
509,6.96e-01,9.76e-01,
510,6.96e-01,9.76e-01,
511,7.08e-01,9.84e-01,
512,7.12e-01,9.76e-01,
513,6.96e-01,9.76e-01,
514,7.00e-01,9.76e-01,
515,7.16e-01,9.84e-01,
516,7.04e-01,9.76e-01,
517,7.12e-01,9.84e-01,
518,7.12e-01,9.84e-01,
519,6.96e-01,9.76e-01,
520,7.12e-01,9.76e-01,
521,7.00e-01,9.76e-01,
522,7.00e-01,9.76e-01,
523,7.16e-01,9.84e-01,
524,7.16e-01,9.76e-01,
525,7.04e-01,9.76e-01,
526,7.00e-01,9.76e-01,
527,7.16e-01,9.76e-01,
528,7.08e-01,9.76e-01,
529,7.24e-01,9.76e-01,
530,7.04e-01,9.76e-01,
531,7.20e-01,9.84e-01,
532,7.08e-01,9.84e-01,
533,7.24e-01,9.76e-01,
534,7.08e-01,9.76e-01,
535,7.20e-01,9.76e-01,
536,7.24e-01,9.76e-01,
537,7.12e-01,9.84e-01,
538,7.24e-01,9.76e-01,
539,7.08e-01,9.84e-01,
540,7.28e-01,9.76e-01,
541,7.12e-01,9.76e-01,
542,7.12e-01,9.76e-01,
543,7.24e-01,9.84e-01,
544,7.24e-01,9.84e-01,
545,7.12e-01,9.76e-01,
546,7.12e-01,9.76e-01,
547,7.28e-01,9.76e-01,
548,7.28e-01,9.76e-01,
549,7.12e-01,9.76e-01,
550,7.16e-01,9.76e-01,
551,7.32e-01,9.84e-01,
552,7.16e-01,9.76e-01,
553,7.32e-01,9.76e-01,
554,7.20e-01,9.76e-01,
555,7.32e-01,9.76e-01,
556,7.16e-01,9.76e-01,
557,7.32e-01,9.76e-01,
558,7.36e-01,9.76e-01,
559,7.24e-01,9.76e-01,
560,7.20e-01,9.76e-01,
561,7.36e-01,9.84e-01,
562,7.32e-01,9.76e-01,
563,7.20e-01,9.76e-01,
564,7.36e-01,9.76e-01,
565,7.28e-01,9.84e-01,
566,7.24e-01,9.76e-01,
567,7.36e-01,9.84e-01,
568,7.36e-01,9.76e-01,
569,7.24e-01,9.76e-01,
570,7.28e-01,9.76e-01,
571,7.36e-01,9.84e-01,
572,7.20e-01,9.84e-01,
573,7.40e-01,9.76e-01,
574,7.40e-01,9.76e-01,
575,7.24e-01,9.76e-01,
576,7.32e-01,9.76e-01,
577,7.44e-01,9.76e-01,
578,7.32e-01,9.76e-01,
579,7.40e-01,9.84e-01,
580,7.32e-01,9.84e-01,
581,7.44e-01,9.76e-01,
582,7.32e-01,9.76e-01,
583,7.48e-01,9.76e-01,
584,7.32e-01,9.76e-01,
585,7.52e-01,9.84e-01,
586,7.32e-01,9.84e-01,
587,7.52e-01,9.76e-01,
588,7.36e-01,9.76e-01,
589,7.48e-01,9.84e-01,
590,7.36e-01,9.76e-01,
591,7.52e-01,9.76e-01,
592,7.52e-01,9.76e-01,
593,7.36e-01,9.76e-01,
594,7.48e-01,9.76e-01,
595,7.40e-01,9.76e-01,
596,7.52e-01,9.76e-01,
597,7.40e-01,9.84e-01,
598,7.36e-01,9.76e-01,
599,7.56e-01,9.84e-01,
600,7.56e-01,9.76e-01,
601,7.40e-01,9.76e-01,
602,7.40e-01,9.76e-01,
603,7.60e-01,9.84e-01,
604,7.48e-01,9.76e-01,
605,7.56e-01,9.84e-01,
606,7.56e-01,9.84e-01,
607,7.44e-01,9.76e-01,
608,7.48e-01,9.76e-01,
609,7.60e-01,9.84e-01,
610,7.60e-01,9.76e-01,
611,7.44e-01,9.76e-01,
612,7.60e-01,9.76e-01,
613,7.48e-01,9.84e-01,
614,7.48e-01,9.76e-01,
615,7.64e-01,9.76e-01,
616,7.48e-01,9.76e-01,
617,7.64e-01,9.84e-01,
618,7.60e-01,9.76e-01,
619,7.52e-01,9.84e-01,
620,7.52e-01,9.76e-01,
621,7.64e-01,9.84e-01,
622,7.64e-01,9.76e-01,
623,7.52e-01,9.84e-01,
624,7.48e-01,9.76e-01,
625,7.64e-01,9.76e-01,
626,7.56e-01,9.76e-01,
627,7.68e-01,9.76e-01,
628,7.68e-01,9.76e-01,
629,7.52e-01,9.76e-01,
630,7.68e-01,9.76e-01,
631,7.60e-01,9.76e-01,
632,7.76e-01,9.76e-01,
633,7.60e-01,9.76e-01,
634,7.72e-01,9.76e-01,
635,7.56e-01,9.76e-01,
636,7.56e-01,9.76e-01,
637,7.72e-01,9.76e-01,
638,7.64e-01,9.76e-01,
639,7.80e-01,9.84e-01,
640,7.64e-01,9.76e-01,
641,7.76e-01,9.84e-01,
642,7.64e-01,9.76e-01,
643,7.80e-01,9.76e-01,
644,7.76e-01,9.76e-01,
645,7.68e-01,9.76e-01,
646,7.80e-01,9.76e-01,
647,7.64e-01,9.76e-01,
648,7.64e-01,9.76e-01,
649,7.80e-01,9.76e-01,
650,7.68e-01,9.76e-01,
651,7.80e-01,9.84e-01,
652,7.68e-01,9.76e-01,
653,7.84e-01,9.84e-01,
654,7.64e-01,9.76e-01,
655,7.84e-01,9.84e-01,
656,7.84e-01,9.76e-01,
657,7.72e-01,9.84e-01,
658,7.72e-01,9.76e-01,
659,7.88e-01,9.76e-01,
660,7.72e-01,9.76e-01,
661,7.84e-01,9.76e-01,
662,7.84e-01,9.76e-01,
663,7.72e-01,9.76e-01,
664,7.84e-01,9.84e-01,
665,7.72e-01,9.76e-01,
666,7.76e-01,9.76e-01,
667,7.88e-01,9.76e-01,
668,7.76e-01,9.76e-01,
669,7.92e-01,9.76e-01,
670,7.92e-01,9.76e-01,
671,7.76e-01,9.76e-01,
672,7.80e-01,9.76e-01,
673,7.92e-01,9.84e-01,
674,7.92e-01,9.76e-01,
675,7.76e-01,9.84e-01,
676,7.76e-01,9.76e-01,
677,7.92e-01,9.84e-01,
678,7.92e-01,9.84e-01,
679,7.84e-01,9.76e-01,
680,7.92e-01,9.76e-01,
681,7.80e-01,9.76e-01,
682,7.84e-01,9.84e-01,
683,7.96e-01,9.76e-01,
684,7.80e-01,9.76e-01,
685,8.00e-01,9.76e-01,
686,7.96e-01,9.76e-01,
687,7.88e-01,9.84e-01,
688,7.88e-01,9.76e-01,
689,8.00e-01,9.76e-01,
690,8.00e-01,9.76e-01,
691,7.88e-01,9.76e-01,
692,7.88e-01,9.76e-01,
693,8.04e-01,9.76e-01,
694,7.88e-01,9.76e-01,
695,8.08e-01,9.76e-01,
696,7.92e-01,9.76e-01,
697,8.04e-01,9.76e-01,
698,7.92e-01,9.76e-01,
699,8.08e-01,9.84e-01,
700,7.92e-01,9.84e-01,
701,8.08e-01,9.76e-01,
702,7.92e-01,9.76e-01,
703,8.08e-01,9.76e-01,
704,8.08e-01,9.76e-01,
705,7.92e-01,9.76e-01,
706,8.08e-01,9.76e-01,
707,7.96e-01,9.76e-01,
708,8.08e-01,9.76e-01,
709,7.96e-01,9.76e-01,
710,8.00e-01,9.76e-01,
711,8.12e-01,9.84e-01,
712,8.00e-01,9.76e-01,
713,8.12e-01,9.76e-01,
714,8.16e-01,9.76e-01,
715,8.00e-01,9.76e-01,
716,8.00e-01,9.84e-01,
717,8.12e-01,9.76e-01,
718,8.16e-01,9.76e-01,
719,8.00e-01,9.84e-01,
720,8.04e-01,9.76e-01,
721,8.16e-01,9.76e-01,
722,8.00e-01,9.76e-01,
723,8.20e-01,9.84e-01,
724,8.04e-01,9.76e-01,
725,8.20e-01,9.76e-01,
726,8.00e-01,9.76e-01,
727,8.20e-01,9.84e-01,
728,8.08e-01,9.84e-01,
729,8.20e-01,9.76e-01,
730,8.04e-01,9.76e-01,
731,8.20e-01,9.76e-01,
732,8.20e-01,9.76e-01,
733,8.04e-01,9.76e-01,
734,8.24e-01,9.76e-01,
735,8.08e-01,9.76e-01,
736,8.12e-01,9.84e-01,
737,8.28e-01,9.76e-01,
738,8.12e-01,9.76e-01,
739,8.28e-01,9.76e-01,
740,8.16e-01,9.76e-01,
741,8.28e-01,9.76e-01,
742,8.16e-01,9.76e-01,
743,8.28e-01,9.84e-01,
744,8.28e-01,9.76e-01,
745,8.16e-01,9.84e-01,
746,8.16e-01,9.76e-01,
747,8.32e-01,9.84e-01,
748,8.16e-01,9.76e-01,
749,8.32e-01,9.84e-01,
750,8.32e-01,9.76e-01,
751,8.16e-01,9.76e-01,
752,8.20e-01,9.76e-01,
753,8.32e-01,9.76e-01,
754,8.16e-01,9.76e-01,
755,8.32e-01,9.84e-01,
756,8.36e-01,9.76e-01,
757,8.20e-01,9.76e-01,
758,8.40e-01,9.76e-01,
759,8.24e-01,9.76e-01,
760,8.40e-01,9.76e-01,
761,8.20e-01,9.76e-01,
762,8.32e-01,9.76e-01,
763,8.24e-01,9.76e-01,
764,8.28e-01,9.76e-01,
765,8.40e-01,9.84e-01,
766,8.24e-01,9.84e-01,
767,8.40e-01,9.76e-01,
768,8.32e-01,9.76e-01,
769,8.40e-01,9.84e-01,
770,8.44e-01,9.76e-01,
771,8.24e-01,9.84e-01,
772,8.24e-01,9.76e-01,
773,8.44e-01,9.84e-01,
774,8.32e-01,9.76e-01,
775,8.44e-01,9.84e-01,
776,8.40e-01,9.76e-01,
777,8.32e-01,9.84e-01,
778,8.28e-01,9.76e-01,
779,8.44e-01,9.76e-01,
780,8.32e-01,9.76e-01,
781,8.44e-01,9.76e-01,
782,8.52e-01,9.76e-01,
783,8.32e-01,9.76e-01,
784,8.48e-01,9.76e-01,
785,8.36e-01,9.84e-01,
786,8.52e-01,9.76e-01,
787,8.40e-01,9.76e-01,
788,8.52e-01,9.76e-01,
789,8.40e-01,9.76e-01,
790,8.36e-01,9.76e-01,
791,8.52e-01,9.84e-01,
792,8.32e-01,9.76e-01,
793,8.56e-01,9.84e-01,
794,8.40e-01,9.76e-01,
795,8.52e-01,9.76e-01,
796,8.56e-01,9.76e-01,
797,8.40e-01,9.76e-01,
798,8.40e-01,9.76e-01,
799,8.56e-01,9.76e-01,
800,8.52e-01,9.76e-01,
801,8.44e-01,9.84e-01,
802,8.40e-01,9.76e-01,
803,8.56e-01,9.84e-01,
804,8.60e-01,9.84e-01,
805,8.44e-01,9.76e-01,
806,8.56e-01,9.76e-01,
807,8.44e-01,9.76e-01,
808,8.48e-01,9.76e-01,
809,8.64e-01,9.84e-01,
810,8.48e-01,9.76e-01,
811,8.64e-01,9.84e-01,
812,8.64e-01,9.76e-01,
813,8.48e-01,9.84e-01,
814,8.52e-01,9.76e-01,
815,8.68e-01,9.76e-01,
816,8.52e-01,9.76e-01,
817,8.64e-01,9.84e-01,
818,8.52e-01,9.84e-01,
819,8.68e-01,9.76e-01,
820,8.52e-01,9.76e-01,
821,8.68e-01,9.84e-01,
822,8.68e-01,9.84e-01,
823,8.52e-01,9.76e-01,
824,8.56e-01,9.76e-01,
825,8.68e-01,9.84e-01,
826,8.64e-01,9.76e-01,
827,8.56e-01,9.84e-01,
828,8.68e-01,9.76e-01,
829,8.56e-01,9.76e-01,
830,8.56e-01,9.76e-01,
831,8.72e-01,9.76e-01,
832,8.72e-01,9.76e-01,
833,8.60e-01,9.76e-01,
834,8.56e-01,9.76e-01,
835,8.72e-01,9.76e-01,
836,8.80e-01,9.76e-01,
837,8.64e-01,9.76e-01,
838,8.76e-01,9.76e-01,
839,8.60e-01,9.76e-01,
840,8.56e-01,9.76e-01,
841,8.76e-01,9.76e-01,
842,8.80e-01,9.76e-01,
843,8.64e-01,9.84e-01,
844,8.80e-01,9.76e-01,
845,8.60e-01,9.84e-01,
846,8.68e-01,9.76e-01,
847,8.80e-01,9.76e-01,
848,8.68e-01,9.76e-01,
849,8.84e-01,9.76e-01,
850,8.80e-01,9.76e-01,
851,8.68e-01,9.76e-01,
852,8.68e-01,9.76e-01,
853,8.84e-01,9.76e-01,
854,8.72e-01,9.76e-01,
855,8.84e-01,9.84e-01,
856,8.72e-01,9.76e-01,
857,8.88e-01,9.84e-01,
858,8.88e-01,9.76e-01,
859,8.72e-01,9.84e-01,
860,8.88e-01,9.76e-01,
861,8.72e-01,9.84e-01,
862,8.88e-01,9.76e-01,
863,8.72e-01,9.76e-01,
864,8.84e-01,9.76e-01,
865,8.76e-01,9.76e-01,
866,8.92e-01,9.76e-01,
867,8.72e-01,9.76e-01,
868,8.92e-01,9.76e-01,
869,8.80e-01,9.84e-01,
870,8.76e-01,9.76e-01,
