linear_zeeman_data/NewFile50kHz.csv

X,CH1,CH2,Start,Increment,
Sequence,Volt,Volt,-5.585000e+00,5.000000e-03
0,8.80e+00,-1.80e+00,
1,9.12e+00,-2.40e+00,
2,9.12e+00,-1.80e+00,
3,8.80e+00,-2.40e+00,
4,9.12e+00,-1.80e+00,
5,8.80e+00,-2.20e+00,
6,9.12e+00,-2.40e+00,
7,8.88e+00,-1.60e+00,
8,8.88e+00,-1.80e+00,
9,9.20e+00,-2.40e+00,
10,8.88e+00,-2.40e+00,
11,9.20e+00,-1.80e+00,
12,9.20e+00,-1.80e+00,
13,8.88e+00,-2.40e+00,
14,9.20e+00,-1.80e+00,
15,8.88e+00,-2.40e+00,
16,9.20e+00,-1.80e+00,
17,8.96e+00,-2.40e+00,
18,8.96e+00,-1.80e+00,
19,9.28e+00,-2.40e+00,
20,8.96e+00,-1.80e+00,
21,9.28e+00,-2.40e+00,
22,9.28e+00,-1.80e+00,
23,8.96e+00,-2.40e+00,
24,8.96e+00,-1.80e+00,
25,9.28e+00,-2.40e+00,
26,9.04e+00,-2.40e+00,
27,9.36e+00,-1.80e+00,
28,9.04e+00,-2.40e+00,
29,9.36e+00,-1.80e+00,
30,9.04e+00,-1.80e+00,
31,9.44e+00,-2.40e+00,
32,9.04e+00,-2.40e+00,
33,9.44e+00,-1.80e+00,
34,9.04e+00,-2.40e+00,
35,9.36e+00,-1.80e+00,
36,9.04e+00,-1.80e+00,
37,9.36e+00,-2.40e+00,
38,9.12e+00,-1.80e+00,
39,9.52e+00,-2.40e+00,
40,9.52e+00,-2.40e+00,
41,9.12e+00,-1.80e+00,
42,9.12e+00,-1.80e+00,
43,9.52e+00,-2.40e+00,
44,9.12e+00,-2.40e+00,
45,9.52e+00,-1.80e+00,
46,9.52e+00,-2.40e+00,
47,9.20e+00,-1.80e+00,
48,9.60e+00,-1.80e+00,
49,9.20e+00,-2.40e+00,
50,9.28e+00,-2.40e+00,
51,9.60e+00,-1.80e+00,
52,9.60e+00,-1.80e+00,
53,9.20e+00,-2.40e+00,
54,9.20e+00,-1.80e+00,
55,9.60e+00,-2.40e+00,
56,9.60e+00,-1.80e+00,
57,9.28e+00,-2.40e+00,
58,9.36e+00,-2.40e+00,
59,9.68e+00,-1.80e+00,
60,9.36e+00,-1.80e+00,
61,9.68e+00,-2.40e+00,
62,9.68e+00,-1.80e+00,
63,9.36e+00,-2.40e+00,
64,9.68e+00,-1.80e+00,
65,9.36e+00,-2.40e+00,
66,9.68e+00,-1.80e+00,
67,9.36e+00,-2.40e+00,
68,9.44e+00,-1.80e+00,
69,9.76e+00,-2.40e+00,
70,9.76e+00,-2.40e+00,
71,9.44e+00,-1.80e+00,
72,9.44e+00,-2.40e+00,
73,9.76e+00,-1.80e+00,
74,9.76e+00,-1.80e+00,
75,9.44e+00,-2.40e+00,
76,9.44e+00,-1.80e+00,
77,9.76e+00,-2.40e+00,
78,9.52e+00,-1.80e+00,
79,9.84e+00,-2.40e+00,
80,9.84e+00,-1.80e+00,
81,9.52e+00,-2.40e+00,
82,9.52e+00,-1.80e+00,
83,9.84e+00,-2.40e+00,
84,9.52e+00,-2.40e+00,
85,9.84e+00,-1.80e+00,
86,9.60e+00,-1.80e+00,
87,9.92e+00,-2.40e+00,
88,9.92e+00,-1.80e+00,
89,9.60e+00,-2.40e+00,
90,9.92e+00,-2.40e+00,
91,9.60e+00,-1.80e+00,
92,9.60e+00,-1.80e+00,
93,9.92e+00,-2.40e+00,
94,9.92e+00,-2.40e+00,
95,9.60e+00,-1.80e+00,
96,9.68e+00,-1.80e+00,
97,1.00e+01,-2.40e+00,
98,9.68e+00,-1.80e+00,
99,1.00e+01,-2.40e+00,
100,1.00e+01,-1.80e+00,
101,-1.60e-01,-5.20e+00,
102,-1.60e-01,-7.00e+00,
103,1.60e-01,-3.20e+01,
104,1.60e-01,-1.70e+01,
105,-8.00e-02,-8.00e+00,
106,-8.00e-02,-8.20e+00,
107,1.60e-01,-4.40e+00,
108,1.60e-01,-4.80e+00,
109,-8.00e-02,-2.60e+00,
110,1.60e-01,-3.20e+00,
111,0.00e+00,-2.00e+00,
112,2.40e-01,-2.40e+00,
113,-8.00e-02,-1.60e+00,
114,2.40e-01,-2.20e+00,
115,0.00e+00,-1.40e+00,
116,0.00e+00,-2.00e+00,
117,2.40e-01,-1.20e+00,
118,2.40e-01,-2.00e+00,
119,0.00e+00,-1.20e+00,
120,2.40e-01,-1.20e+00,
121,8.00e-02,-1.80e+00,
122,8.00e-02,-1.80e+00,
123,3.20e-01,-1.20e+00,
124,3.20e-01,-1.80e+00,
125,8.00e-02,-1.20e+00,
126,8.00e-02,-1.60e+00,
127,3.20e-01,-1.20e+00,
128,3.20e-01,-1.80e+00,
129,8.00e-02,-1.00e+00,
130,3.20e-01,-1.80e+00,
131,1.60e-01,-1.00e+00,
132,1.60e-01,-1.60e+00,
133,4.00e-01,-1.20e+00,
134,4.00e-01,-1.80e+00,
135,1.60e-01,-1.00e+00,
136,4.00e-01,-1.80e+00,
137,1.60e-01,-1.20e+00,
138,4.00e-01,-1.40e+00,
139,1.60e-01,-1.80e+00,
140,4.00e-01,-1.20e+00,
141,2.40e-01,-1.80e+00,
142,2.40e-01,-1.80e+00,
143,4.80e-01,-1.00e+00,
144,2.40e-01,-1.20e+00,
145,5.60e-01,-1.80e+00,
146,2.40e-01,-1.80e+00,
147,5.60e-01,-1.20e+00,
148,5.60e-01,-1.20e+00,
149,2.40e-01,-1.80e+00,
150,3.20e-01,-1.00e+00,
151,6.40e-01,-2.00e+00,
152,3.20e-01,-1.40e+00,
153,6.40e-01,-2.00e+00,
154,4.00e-01,-1.20e+00,
155,6.40e-01,-2.00e+00,
156,6.40e-01,-1.20e+00,
157,3.20e-01,-2.00e+00,
158,6.40e-01,-2.00e+00,
159,4.00e-01,-1.20e+00,
160,6.40e-01,-1.80e+00,
161,4.80e-01,-1.20e+00,
162,4.80e-01,-1.20e+00,
163,7.20e-01,-1.80e+00,
164,7.20e-01,-1.20e+00,
165,4.80e-01,-2.00e+00,
166,7.20e-01,-1.80e+00,
167,4.80e-01,-1.20e+00,
168,7.20e-01,-1.40e+00,
169,4.80e-01,-2.00e+00,
170,5.60e-01,-1.20e+00,
171,8.00e-01,-2.00e+00,
172,8.00e-01,-1.20e+00,
173,5.60e-01,-2.00e+00,
174,5.60e-01,-2.00e+00,
175,8.00e-01,-1.20e+00,
176,5.60e-01,-1.20e+00,
177,8.00e-01,-2.00e+00,
178,8.00e-01,-1.40e+00,
179,5.60e-01,-2.00e+00,
180,6.40e-01,-2.00e+00,
181,8.80e-01,-1.20e+00,
182,6.40e-01,-2.00e+00,
183,8.80e-01,-1.40e+00,
184,6.40e-01,-1.20e+00,
185,8.80e-01,-2.00e+00,
186,6.40e-01,-1.20e+00,
187,8.80e-01,-2.00e+00,
188,6.40e-01,-1.40e+00,
189,8.80e-01,-2.00e+00,
190,7.20e-01,-2.00e+00,
191,9.60e-01,-1.40e+00,
192,7.20e-01,-2.00e+00,
193,9.60e-01,-1.20e+00,
194,7.20e-01,-2.00e+00,
195,9.60e-01,-1.20e+00,
196,9.60e-01,-2.00e+00,
197,7.20e-01,-1.20e+00,
198,9.60e-01,-2.00e+00,
199,7.20e-01,-1.20e+00,
200,8.00e-01,-2.00e+00,
201,1.04e+00,-1.20e+00,
202,8.00e-01,-1.20e+00,
203,1.04e+00,-2.00e+00,
204,1.04e+00,-1.40e+00,
205,8.00e-01,-2.00e+00,
206,1.04e+00,-1.20e+00,
207,8.00e-01,-2.00e+00,
208,1.04e+00,-1.40e+00,
209,8.00e-01,-2.20e+00,
210,8.80e-01,-2.00e+00,
211,1.12e+00,-1.20e+00,
212,8.80e-01,-2.20e+00,
213,1.12e+00,-1.40e+00,
214,8.80e-01,-1.60e+00,
215,1.12e+00,-2.20e+00,
216,8.80e-01,-1.60e+00,
217,1.20e+00,-2.20e+00,
218,1.12e+00,-1.60e+00,
219,8.80e-01,-2.20e+00,
220,1.28e+00,-1.60e+00,
221,9.60e-01,-2.20e+00,
222,9.60e-01,-1.80e+00,
223,1.28e+00,-2.40e+00,
224,9.60e-01,-1.80e+00,
225,1.28e+00,-2.40e+00,
226,1.28e+00,-1.80e+00,
227,1.04e+00,-2.60e+00,
228,1.04e+00,-2.60e+00,
229,1.28e+00,-2.00e+00,
230,1.12e+00,-2.20e+00,
231,1.28e+00,-2.80e+00,
232,1.12e+00,-2.40e+00,
233,1.36e+00,-3.20e+00,
234,1.12e+00,-2.60e+00,
235,1.36e+00,-3.60e+00,
236,1.12e+00,-3.20e+00,
237,1.36e+00,-4.40e+00,
238,1.36e+00,-4.00e+00,
239,1.20e+00,-5.80e+00,
240,1.36e+00,-5.40e+00,
241,1.20e+00,-9.20e+00,
242,1.20e+00,-8.60e+00,
243,1.44e+00,-1.44e+01,
244,1.20e+00,-1.46e+01,
245,1.44e+00,-2.46e+01,
246,1.20e+00,-2.46e+01,
247,1.44e+00,-2.66e+01,
248,1.44e+00,-2.54e+01,
249,1.20e+00,-1.72e+01,
250,1.20e+00,-1.74e+01,
251,1.44e+00,-1.12e+01,
252,1.52e+00,-1.12e+01,
253,1.20e+00,-8.00e+00,
254,1.28e+00,-8.40e+00,
255,1.52e+00,-5.80e+00,
256,1.52e+00,-6.40e+00,
257,1.28e+00,-4.60e+00,
258,1.52e+00,-4.80e+00,
259,1.28e+00,-3.80e+00,
260,1.36e+00,-4.20e+00,
261,1.60e+00,-3.00e+00,
262,1.36e+00,-3.60e+00,
263,1.60e+00,-2.60e+00,
264,1.60e+00,-3.20e+00,
265,1.36e+00,-2.40e+00,
266,1.60e+00,-3.00e+00,
267,1.36e+00,-2.20e+00,
268,1.60e+00,-2.80e+00,
269,1.36e+00,-2.00e+00,
270,1.44e+00,-2.60e+00,
271,1.68e+00,-2.00e+00,
272,1.44e+00,-2.60e+00,
273,1.68e+00,-2.00e+00,
274,1.44e+00,-2.40e+00,
275,1.68e+00,-1.80e+00,
276,1.68e+00,-2.40e+00,
277,1.44e+00,-1.80e+00,
278,1.68e+00,-1.80e+00,
279,1.44e+00,-2.40e+00,
280,1.68e+00,-2.40e+00,
281,1.52e+00,-1.80e+00,
282,1.52e+00,-2.40e+00,
283,1.76e+00,-1.80e+00,
284,1.76e+00,-2.40e+00,
285,1.52e+00,-1.80e+00,
286,1.76e+00,-1.80e+00,
287,1.52e+00,-2.40e+00,
288,1.76e+00,-2.40e+00,
289,1.60e+00,-1.80e+00,
290,1.60e+00,-1.80e+00,
291,1.84e+00,-2.40e+00,
292,1.60e+00,-2.40e+00,
293,1.92e+00,-1.80e+00,
294,1.60e+00,-2.00e+00,
295,1.84e+00,-2.60e+00,
296,1.60e+00,-2.00e+00,
297,1.92e+00,-2.80e+00,
298,1.92e+00,-2.20e+00,
299,1.68e+00,-3.00e+00,
300,1.68e+00,-2.40e+00,
301,2.00e+00,-3.40e+00,
302,1.68e+00,-2.80e+00,
303,2.00e+00,-4.00e+00,
304,2.00e+00,-3.80e+00,
305,1.76e+00,-6.00e+00,
306,1.76e+00,-5.80e+00,
307,2.00e+00,-9.80e+00,
308,2.00e+00,-9.80e+00,
309,1.76e+00,-1.32e+01,
310,1.84e+00,-1.34e+01,
311,2.08e+00,-1.06e+01,
312,1.84e+00,-1.10e+01,
313,2.08e+00,-7.00e+00,
314,2.08e+00,-7.40e+00,
315,1.84e+00,-4.80e+00,
316,2.08e+00,-5.00e+00,
317,1.84e+00,-3.60e+00,
318,2.08e+00,-4.00e+00,
319,1.84e+00,-2.60e+00,
320,1.92e+00,-3.20e+00,
321,2.16e+00,-2.40e+00,
322,1.92e+00,-2.80e+00,
323,2.16e+00,-2.20e+00,
324,1.92e+00,-2.00e+00,
325,2.16e+00,-2.80e+00,
326,2.16e+00,-2.60e+00,
327,1.92e+00,-1.80e+00,
328,2.16e+00,-1.80e+00,
329,2.00e+00,-2.40e+00,
330,2.16e+00,-1.80e+00,
331,2.00e+00,-2.40e+00,
332,2.00e+00,-2.40e+00,
333,2.24e+00,-1.80e+00,
334,2.00e+00,-1.80e+00,
335,2.24e+00,-2.40e+00,
336,2.00e+00,-1.60e+00,
337,2.24e+00,-2.20e+00,
338,2.08e+00,-1.60e+00,
339,2.32e+00,-2.40e+00,
340,2.08e+00,-1.80e+00,
341,2.32e+00,-2.20e+00,
342,2.08e+00,-2.20e+00,
343,2.32e+00,-1.60e+00,
344,2.08e+00,-1.60e+00,
345,2.32e+00,-2.40e+00,
346,2.32e+00,-1.60e+00,
347,2.08e+00,-2.40e+00,
348,2.08e+00,-1.80e+00,
349,2.40e+00,-2.40e+00,
350,2.16e+00,-1.80e+00,
351,2.40e+00,-2.20e+00,
352,2.16e+00,-1.80e+00,
353,2.40e+00,-2.40e+00,
354,2.40e+00,-1.80e+00,
355,2.16e+00,-2.40e+00,
356,2.16e+00,-1.80e+00,
357,2.40e+00,-2.40e+00,
358,2.24e+00,-1.80e+00,
359,2.48e+00,-2.40e+00,
360,2.24e+00,-1.80e+00,
361,2.48e+00,-2.40e+00,
362,2.24e+00,-1.80e+00,
363,2.48e+00,-2.40e+00,
364,2.48e+00,-1.80e+00,
365,2.24e+00,-2.40e+00,
366,2.48e+00,-1.80e+00,
367,2.24e+00,-2.40e+00,
368,2.48e+00,-1.80e+00,
369,2.40e+00,-2.60e+00,
370,2.32e+00,-1.80e+00,
371,2.64e+00,-2.60e+00,
372,2.32e+00,-2.00e+00,
373,2.64e+00,-2.60e+00,
374,2.32e+00,-2.60e+00,
375,2.64e+00,-2.00e+00,
376,2.32e+00,-2.60e+00,
377,2.64e+00,-2.00e+00,
378,2.64e+00,-2.60e+00,
379,2.40e+00,-2.00e+00,
380,2.48e+00,-2.00e+00,
381,2.72e+00,-2.80e+00,
382,2.48e+00,-2.20e+00,
383,2.72e+00,-2.80e+00,
384,2.48e+00,-2.80e+00,
385,2.72e+00,-2.20e+00,
386,2.72e+00,-2.20e+00,
387,2.48e+00,-3.00e+00,
388,2.72e+00,-3.00e+00,
389,2.56e+00,-2.40e+00,
390,2.56e+00,-2.40e+00,
391,2.80e+00,-3.20e+00,
392,2.56e+00,-3.20e+00,
393,2.80e+00,-2.60e+00,
394,2.56e+00,-2.60e+00,
395,2.80e+00,-3.40e+00,
396,2.56e+00,-2.80e+00,
397,2.80e+00,-3.60e+00,
398,2.64e+00,-3.60e+00,
399,2.88e+00,-3.00e+00,
400,2.88e+00,-3.20e+00,
401,2.64e+00,-4.20e+00,
402,2.64e+00,-3.60e+00,
403,2.88e+00,-4.40e+00,
404,2.64e+00,-3.80e+00,
405,2.88e+00,-4.60e+00,
406,2.88e+00,-4.00e+00,
407,2.64e+00,-5.00e+00,
408,2.64e+00,-4.60e+00,
409,2.96e+00,-5.20e+00,
410,2.72e+00,-4.80e+00,
411,2.96e+00,-6.20e+00,
412,2.72e+00,-5.60e+00,
413,2.96e+00,-6.60e+00,
414,2.96e+00,-6.20e+00,
415,2.72e+00,-7.40e+00,
416,2.72e+00,-7.00e+00,
417,2.96e+00,-8.80e+00,
418,2.72e+00,-8.40e+00,
419,3.04e+00,-9.60e+00,
420,2.80e+00,-9.40e+00,
421,3.04e+00,-1.18e+01,
422,3.04e+00,-1.14e+01,
423,2.80e+00,-1.36e+01,
424,3.04e+00,-1.36e+01,
425,2.80e+00,-1.70e+01,
426,3.04e+00,-1.66e+01,
427,2.80e+00,-2.10e+01,
428,2.88e+00,-2.10e+01,
429,3.12e+00,-2.46e+01,
430,3.12e+00,-2.42e+01,
431,2.88e+00,-3.02e+01,
432,3.12e+00,-2.98e+01,
433,2.88e+00,-3.36e+01,
434,2.88e+00,-3.30e+01,
435,3.12e+00,-3.50e+01,
436,2.88e+00,-3.50e+01,
437,3.12e+00,-3.42e+01,
438,3.12e+00,-3.44e+01,
439,2.96e+00,-3.12e+01,
440,2.96e+00,-3.14e+01,
441,3.28e+00,-2.70e+01,
442,3.28e+00,-2.70e+01,
443,2.96e+00,-2.32e+01,
444,2.96e+00,-2.36e+01,
445,3.28e+00,-1.90e+01,
446,2.96e+00,-1.96e+01,
447,3.36e+00,-1.64e+01,
448,3.04e+00,-1.64e+01,
449,3.36e+00,-1.34e+01,
450,3.12e+00,-1.40e+01,
451,3.36e+00,-1.14e+01,
452,3.36e+00,-1.18e+01,
453,3.04e+00,-1.00e+01,
454,3.36e+00,-1.02e+01,
455,3.04e+00,-8.40e+00,
456,3.12e+00,-8.80e+00,
457,3.36e+00,-7.60e+00,
458,3.20e+00,-8.20e+00,
459,3.44e+00,-6.60e+00,
460,3.20e+00,-7.00e+00,
461,3.44e+00,-6.00e+00,
462,3.20e+00,-6.40e+00,
463,3.44e+00,-5.60e+00,
464,3.20e+00,-6.00e+00,
465,3.44e+00,-5.00e+00,
466,3.20e+00,-5.40e+00,
467,3.52e+00,-4.60e+00,
468,3.28e+00,-5.20e+00,
469,3.52e+00,-4.20e+00,
470,3.28e+00,-4.80e+00,
471,3.52e+00,-4.00e+00,
472,3.52e+00,-4.60e+00,
473,3.28e+00,-3.80e+00,
474,3.28e+00,-4.40e+00,
475,3.52e+00,-3.60e+00,
476,3.28e+00,-4.00e+00,
477,3.60e+00,-3.40e+00,
478,3.36e+00,-3.20e+00,
479,3.60e+00,-4.00e+00,
480,3.36e+00,-3.60e+00,
481,3.60e+00,-3.00e+00,
482,3.60e+00,-3.60e+00,
483,3.36e+00,-3.00e+00,
484,3.36e+00,-2.80e+00,
485,3.60e+00,-3.40e+00,
486,3.36e+00,-3.40e+00,
487,3.60e+00,-2.60e+00,
488,3.44e+00,-3.20e+00,
489,3.68e+00,-2.60e+00,
490,3.44e+00,-3.20e+00,
491,3.68e+00,-2.60e+00,
492,3.68e+00,-3.00e+00,
493,3.36e+00,-2.40e+00,
494,3.44e+00,-3.00e+00,
495,3.68e+00,-2.40e+00,
496,3.68e+00,-3.00e+00,
497,3.52e+00,-2.40e+00,
498,3.52e+00,-2.40e+00,
499,3.76e+00,-3.00e+00,
500,3.52e+00,-3.00e+00,
501,3.76e+00,-2.20e+00,
502,3.76e+00,-2.80e+00,
503,3.52e+00,-2.20e+00,
504,3.52e+00,-2.20e+00,
505,3.76e+00,-2.80e+00,
506,3.76e+00,-2.80e+00,
507,3.52e+00,-2.20e+00,
508,3.84e+00,-2.20e+00,
509,3.52e+00,-2.80e+00,
510,3.84e+00,-2.80e+00,
511,3.60e+00,-2.00e+00,
512,3.84e+00,-2.60e+00,
513,3.60e+00,-2.00e+00,
514,3.60e+00,-2.60e+00,
515,3.84e+00,-2.00e+00,
516,3.60e+00,-2.60e+00,
517,3.92e+00,-2.00e+00,
518,3.68e+00,-2.00e+00,
519,3.92e+00,-2.60e+00,
520,3.68e+00,-2.00e+00,
521,4.00e+00,-2.60e+00,
522,3.68e+00,-2.00e+00,
523,4.00e+00,-2.60e+00,
524,3.68e+00,-2.00e+00,
525,4.00e+00,-2.60e+00,
526,4.00e+00,-2.00e+00,
527,3.76e+00,-2.60e+00,
528,4.08e+00,-2.00e+00,
529,3.84e+00,-2.60e+00,
530,3.84e+00,-2.00e+00,
531,4.08e+00,-2.60e+00,
532,4.08e+00,-2.60e+00,
533,3.84e+00,-2.00e+00,
534,3.76e+00,-2.00e+00,
535,4.08e+00,-2.60e+00,
536,3.92e+00,-2.00e+00,
537,4.16e+00,-2.60e+00,
538,3.92e+00,-2.60e+00,
539,4.16e+00,-2.00e+00,
540,3.92e+00,-2.60e+00,
541,4.16e+00,-2.00e+00,
542,4.16e+00,-2.00e+00,
543,3.92e+00,-2.60e+00,
544,3.92e+00,-2.00e+00,
545,4.16e+00,-2.80e+00,
546,4.16e+00,-2.80e+00,
547,3.92e+00,-2.20e+00,
548,4.24e+00,-2.20e+00,
549,4.00e+00,-2.80e+00,
550,4.00e+00,-2.40e+00,
551,4.24e+00,-3.20e+00,
552,4.24e+00,-2.60e+00,
553,4.00e+00,-3.60e+00,
554,4.00e+00,-3.00e+00,
555,4.24e+00,-4.40e+00,
556,4.24e+00,-4.00e+00,
557,4.00e+00,-6.40e+00,
558,4.08e+00,-6.20e+00,
559,4.32e+00,-9.80e+00,
560,4.32e+00,-1.02e+01,
561,4.08e+00,-1.36e+01,
562,4.32e+00,-1.36e+01,
563,4.08e+00,-1.06e+01,
564,4.08e+00,-1.06e+01,
565,4.32e+00,-7.00e+00,
566,4.16e+00,-7.20e+00,
567,4.40e+00,-5.00e+00,
568,4.40e+00,-5.20e+00,
569,4.16e+00,-3.80e+00,
570,4.40e+00,-4.20e+00,
571,4.16e+00,-3.20e+00,
572,4.16e+00,-3.60e+00,
573,4.40e+00,-2.60e+00,
574,4.40e+00,-3.20e+00,
575,4.16e+00,-2.40e+00,
576,4.16e+00,-3.00e+00,
577,4.48e+00,-2.20e+00,
578,4.24e+00,-2.20e+00,
579,4.48e+00,-2.80e+00,
580,4.48e+00,-2.80e+00,
581,4.24e+00,-2.20e+00,
582,4.24e+00,-2.60e+00,
583,4.48e+00,-2.00e+00,
584,4.24e+00,-2.60e+00,
585,4.48e+00,-2.00e+00,
586,4.24e+00,-2.60e+00,
587,4.56e+00,-2.00e+00,
588,4.24e+00,-2.00e+00,
589,4.64e+00,-2.60e+00,
590,4.56e+00,-2.00e+00,
591,4.32e+00,-2.60e+00,
592,4.64e+00,-2.60e+00,
593,4.32e+00,-2.00e+00,
594,4.32e+00,-2.00e+00,
595,4.64e+00,-2.60e+00,
596,4.40e+00,-2.60e+00,
597,4.72e+00,-2.00e+00,
598,4.40e+00,-2.20e+00,
599,4.72e+00,-2.80e+00,
600,4.72e+00,-2.20e+00,
601,4.40e+00,-2.80e+00,
602,4.72e+00,-2.80e+00,
603,4.40e+00,-2.20e+00,
604,4.40e+00,-2.20e+00,
605,4.80e+00,-3.00e+00,
606,4.48e+00,-3.00e+00,
607,4.72e+00,-2.40e+00,
608,4.80e+00,-2.60e+00,
609,4.48e+00,-3.40e+00,
610,4.80e+00,-2.80e+00,
611,4.56e+00,-3.60e+00,
612,4.80e+00,-3.00e+00,
613,4.48e+00,-4.20e+00,
614,4.56e+00,-3.60e+00,
615,4.80e+00,-5.00e+00,
616,4.56e+00,-4.60e+00,
617,4.88e+00,-6.40e+00,
618,4.64e+00,-6.00e+00,
619,4.88e+00,-9.20e+00,
620,4.64e+00,-8.60e+00,
621,4.88e+00,-1.62e+01,
622,4.88e+00,-1.64e+01,
623,4.56e+00,-2.42e+01,
624,4.64e+00,-2.70e+01,
625,4.96e+00,-2.44e+01,
626,4.96e+00,-2.44e+01,
627,4.64e+00,-1.68e+01,
628,4.72e+00,-1.64e+01,
629,4.96e+00,-1.14e+01,
630,4.72e+00,-1.14e+01,
631,4.96e+00,-8.00e+00,
632,4.96e+00,-8.40e+00,
633,4.72e+00,-6.00e+00,
634,4.72e+00,-6.20e+00,
635,4.96e+00,-4.60e+00,
636,4.72e+00,-5.00e+00,
637,5.04e+00,-3.80e+00,
638,5.04e+00,-4.20e+00,
639,4.80e+00,-3.20e+00,
640,5.04e+00,-3.60e+00,
641,4.80e+00,-2.80e+00,
642,4.80e+00,-3.20e+00,
643,5.04e+00,-2.60e+00,
644,4.80e+00,-3.00e+00,
645,5.12e+00,-2.40e+00,
646,5.12e+00,-2.80e+00,
647,4.80e+00,-2.20e+00,
648,4.88e+00,-2.80e+00,
649,5.12e+00,-2.00e+00,
650,5.12e+00,-2.00e+00,
651,4.88e+00,-2.60e+00,
652,4.88e+00,-2.60e+00,
653,5.12e+00,-2.00e+00,
654,4.88e+00,-2.00e+00,
655,5.12e+00,-2.60e+00,
656,4.88e+00,-2.40e+00,
657,5.20e+00,-1.80e+00,
658,4.96e+00,-2.40e+00,
659,5.20e+00,-1.80e+00,
660,5.20e+00,-1.80e+00,
661,4.96e+00,-2.40e+00,
662,4.96e+00,-1.80e+00,
663,5.20e+00,-2.40e+00,
664,4.96e+00,-1.80e+00,
665,5.28e+00,-2.40e+00,
666,4.96e+00,-1.80e+00,
667,5.36e+00,-2.40e+00,
668,5.04e+00,-2.40e+00,
669,5.36e+00,-1.60e+00,
670,5.36e+00,-1.80e+00,
671,5.04e+00,-2.20e+00,
672,5.04e+00,-1.60e+00,
673,5.44e+00,-2.40e+00,
674,5.04e+00,-2.40e+00,
675,5.36e+00,-1.60e+00,
676,5.12e+00,-2.20e+00,
677,5.44e+00,-1.60e+00,
678,5.12e+00,-2.20e+00,
679,5.44e+00,-1.60e+00,
680,5.44e+00,-2.20e+00,
681,5.12e+00,-1.60e+00,
682,5.44e+00,-2.20e+00,
683,5.12e+00,-1.60e+00,
684,5.12e+00,-2.20e+00,
685,5.44e+00,-1.60e+00,
686,5.20e+00,-2.20e+00,
687,5.52e+00,-1.60e+00,
688,5.28e+00,-1.60e+00,
689,5.52e+00,-2.20e+00,
690,5.52e+00,-2.20e+00,
691,5.28e+00,-1.60e+00,
692,5.28e+00,-2.20e+00,
693,5.52e+00,-1.60e+00,
694,5.28e+00,-2.20e+00,
695,5.60e+00,-1.60e+00,
696,5.60e+00,-1.60e+00,
697,5.28e+00,-2.20e+00,
698,5.60e+00,-1.60e+00,
699,5.36e+00,-2.20e+00,
700,5.60e+00,-1.60e+00,
701,5.36e+00,-2.20e+00,
702,5.36e+00,-2.20e+00,
703,5.60e+00,-1.60e+00,
704,5.36e+00,-2.20e+00,
705,5.68e+00,-1.60e+00,
706,5.36e+00,-1.60e+00,
707,5.68e+00,-2.20e+00,
708,5.68e+00,-1.60e+00,
709,5.44e+00,-2.20e+00,
710,5.68e+00,-1.60e+00,
711,5.44e+00,-2.20e+00,
712,5.44e+00,-2.20e+00,
713,5.68e+00,-1.60e+00,
714,5.44e+00,-1.60e+00,
715,5.76e+00,-2.20e+00,
716,5.76e+00,-2.20e+00,
717,5.44e+00,-1.60e+00,
718,5.76e+00,-1.60e+00,
719,5.52e+00,-2.20e+00,
720,5.52e+00,-1.60e+00,
721,5.76e+00,-2.20e+00,
722,5.52e+00,-1.60e+00,
723,5.84e+00,-2.20e+00,
724,5.52e+00,-1.60e+00,
725,5.84e+00,-2.20e+00,
726,5.84e+00,-1.60e+00,
727,5.52e+00,-2.20e+00,
728,5.84e+00,-1.60e+00,
729,5.68e+00,-2.20e+00,
730,5.60e+00,-2.20e+00,
731,5.84e+00,-1.60e+00,
732,5.60e+00,-1.60e+00,
733,5.84e+00,-2.20e+00,
734,5.60e+00,-1.60e+00,
735,5.92e+00,-2.20e+00,
736,5.68e+00,-1.60e+00,
737,5.92e+00,-2.20e+00,
738,6.00e+00,-1.60e+00,
739,5.68e+00,-2.20e+00,
740,5.92e+00,-1.60e+00,
741,5.68e+00,-2.20e+00,
742,5.68e+00,-1.60e+00,
743,5.92e+00,-2.20e+00,
744,5.68e+00,-1.60e+00,
745,6.08e+00,-2.20e+00,
746,5.76e+00,-2.20e+00,
747,6.08e+00,-1.60e+00,
748,6.08e+00,-2.20e+00,
749,5.68e+00,-1.60e+00,
750,5.76e+00,-1.60e+00,
751,6.08e+00,-2.20e+00,
752,6.00e+00,-1.60e+00,
753,5.76e+00,-2.20e+00,
754,6.08e+00,-1.60e+00,
755,5.76e+00,-2.20e+00,
756,6.16e+00,-1.60e+00,
757,5.84e+00,-2.20e+00,
758,6.16e+00,-1.60e+00,
759,5.84e+00,-2.20e+00,
760,5.92e+00,-2.20e+00,
761,6.16e+00,-1.60e+00,
762,5.92e+00,-1.60e+00,
763,6.24e+00,-2.20e+00,
764,5.92e+00,-1.60e+00,
765,6.24e+00,-2.20e+00,
766,5.92e+00,-1.60e+00,
767,6.24e+00,-2.20e+00,
768,6.24e+00,-1.60e+00,
769,6.00e+00,-2.20e+00,
770,6.24e+00,-2.20e+00,
771,6.00e+00,-1.60e+00,
772,6.00e+00,-1.60e+00,
773,6.32e+00,-2.20e+00,
774,6.00e+00,-1.60e+00,
775,6.32e+00,-2.20e+00,
776,6.32e+00,-1.60e+00,
777,6.00e+00,-2.20e+00,
778,6.32e+00,-1.60e+00,
779,6.08e+00,-2.20e+00,
780,6.32e+00,-1.60e+00,
781,6.08e+00,-2.20e+00,
782,6.08e+00,-1.60e+00,
783,6.32e+00,-2.20e+00,
784,6.08e+00,-1.60e+00,
785,6.40e+00,-2.20e+00,
786,6.08e+00,-2.20e+00,
787,6.40e+00,-1.60e+00,
788,6.40e+00,-2.20e+00,
789,6.16e+00,-1.60e+00,
790,6.40e+00,-1.60e+00,
791,6.16e+00,-2.20e+00,
792,6.16e+00,-1.60e+00,
793,6.40e+00,-2.20e+00,
794,6.16e+00,-1.60e+00,
795,6.48e+00,-2.20e+00,
796,6.48e+00,-1.60e+00,
797,6.16e+00,-2.20e+00,
798,6.48e+00,-1.60e+00,
799,6.16e+00,-2.20e+00,
800,6.48e+00,-2.20e+00,
801,6.24e+00,-1.60e+00,
802,6.24e+00,-1.60e+00,
803,6.56e+00,-2.20e+00,
804,6.24e+00,-2.20e+00,
805,6.56e+00,-1.60e+00,
806,6.56e+00,-2.20e+00,
807,6.24e+00,-1.60e+00,
808,6.56e+00,-1.60e+00,
809,6.32e+00,-2.20e+00,
810,6.56e+00,-1.60e+00,
811,6.32e+00,-2.20e+00,
812,6.32e+00,-1.60e+00,
813,6.56e+00,-2.20e+00,
814,6.32e+00,-1.60e+00,
815,6.72e+00,-2.20e+00,
816,6.72e+00,-1.60e+00,
817,6.40e+00,-2.20e+00,
818,6.40e+00,-1.60e+00,
819,6.72e+00,-2.20e+00,
820,6.40e+00,-2.20e+00,
821,6.80e+00,-1.60e+00,
822,6.40e+00,-1.60e+00,
823,6.72e+00,-2.20e+00,
824,6.40e+00,-1.60e+00,
825,6.80e+00,-2.20e+00,
826,6.80e+00,-1.60e+00,
827,6.40e+00,-2.20e+00,
828,6.40e+00,-1.60e+00,
829,6.80e+00,-2.20e+00,
830,6.80e+00,-1.60e+00,
831,6.48e+00,-2.20e+00,
832,6.48e+00,-1.60e+00,
833,6.80e+00,-2.20e+00,
