linear_zeeman_data/Trial_Data_post_caliberation.csv

X,CH1,CH2,Start,Increment,
Sequence,Volt,Volt,-1.505000e+00,5.000000e-03
0,9.76e-01,-4.40e-01,
1,9.28e-01,-5.20e-01,
2,9.76e-01,-5.20e-01,
3,9.28e-01,-4.40e-01,
4,9.28e-01,-5.20e-01,
5,9.76e-01,-4.40e-01,
6,9.76e-01,-4.40e-01,
7,9.28e-01,-5.20e-01,
8,9.76e-01,-4.40e-01,
9,9.28e-01,-5.20e-01,
10,9.44e-01,-4.40e-01,
11,9.76e-01,-5.20e-01,
12,9.76e-01,-4.40e-01,
13,9.44e-01,-5.20e-01,
14,9.60e-01,-4.40e-01,
15,9.92e-01,-5.20e-01,
16,9.60e-01,-5.20e-01,
17,9.92e-01,-4.40e-01,
18,9.60e-01,-4.40e-01,
19,9.92e-01,-5.20e-01,
20,9.60e-01,-4.40e-01,
21,9.92e-01,-5.20e-01,
22,9.60e-01,-4.40e-01,
23,9.92e-01,-5.20e-01,
24,9.60e-01,-4.40e-01,
25,9.92e-01,-5.20e-01,
26,9.92e-01,-4.40e-01,
27,9.60e-01,-5.20e-01,
28,9.92e-01,-4.40e-01,
29,9.60e-01,-5.20e-01,
30,9.60e-01,-4.40e-01,
31,1.01e+00,-5.20e-01,
32,9.76e-01,-4.40e-01,
33,1.01e+00,-5.20e-01,
34,9.76e-01,-4.40e-01,
35,1.01e+00,-5.20e-01,
36,1.01e+00,-4.40e-01,
37,9.76e-01,-5.20e-01,
38,9.76e-01,-4.40e-01,
39,1.01e+00,-5.20e-01,
40,9.76e-01,-5.20e-01,
41,1.01e+00,-4.40e-01,
42,9.76e-01,-5.20e-01,
43,1.01e+00,-4.40e-01,
44,1.01e+00,-4.40e-01,
45,-3.20e-02,-2.44e+00,
46,-3.20e-02,-3.24e+00,
47,3.20e-02,-1.64e+00,
48,0.00e+00,-2.24e+00,
49,3.20e-02,-1.48e+00,
50,0.00e+00,-1.48e+00,
51,3.20e-02,-8.40e-01,
52,0.00e+00,-8.80e-01,
53,3.20e-02,-6.00e-01,
54,0.00e+00,-6.40e-01,
55,3.20e-02,-4.80e-01,
56,0.00e+00,-5.20e-01,
57,3.20e-02,-4.40e-01,
58,0.00e+00,-4.40e-01,
59,3.20e-02,-4.80e-01,
60,3.20e-02,-4.80e-01,
61,0.00e+00,-4.00e-01,
62,3.20e-02,-4.00e-01,
63,0.00e+00,-4.80e-01,
64,1.60e-02,-4.80e-01,
65,3.20e-02,-4.00e-01,
66,1.60e-02,-4.80e-01,
67,3.20e-02,-4.00e-01,
68,1.60e-02,-4.00e-01,
69,4.80e-02,-4.80e-01,
70,1.60e-02,-4.00e-01,
71,4.80e-02,-4.80e-01,
72,1.60e-02,-4.40e-01,
73,4.80e-02,-4.00e-01,
74,1.60e-02,-4.00e-01,
75,4.80e-02,-4.80e-01,
76,1.60e-02,-4.00e-01,
77,4.80e-02,-4.80e-01,
78,4.80e-02,-4.00e-01,
79,1.60e-02,-4.80e-01,
80,4.80e-02,-4.00e-01,
81,1.60e-02,-4.80e-01,
82,1.60e-02,-4.00e-01,
83,4.80e-02,-4.80e-01,
84,4.80e-02,-4.00e-01,
85,1.60e-02,-4.80e-01,
86,3.20e-02,-4.00e-01,
87,4.80e-02,-4.80e-01,
88,3.20e-02,-4.00e-01,
89,6.40e-02,-4.80e-01,
90,3.20e-02,-4.00e-01,
91,6.40e-02,-4.80e-01,
92,3.20e-02,-4.00e-01,
93,6.40e-02,-4.80e-01,
94,3.20e-02,-4.00e-01,
95,6.40e-02,-4.80e-01,
96,3.20e-02,-4.00e-01,
97,6.40e-02,-4.80e-01,
98,6.40e-02,-4.00e-01,
99,3.20e-02,-4.80e-01,
100,6.40e-02,-4.00e-01,
101,3.20e-02,-4.80e-01,
102,3.20e-02,-4.00e-01,
103,8.00e-02,-4.80e-01,
104,4.80e-02,-4.00e-01,
105,8.00e-02,-4.80e-01,
106,4.80e-02,-4.00e-01,
107,8.00e-02,-4.80e-01,
108,4.80e-02,-4.00e-01,
109,8.00e-02,-4.80e-01,
110,8.00e-02,-4.00e-01,
111,4.80e-02,-4.80e-01,
112,4.80e-02,-4.00e-01,
113,8.00e-02,-4.80e-01,
114,4.80e-02,-4.80e-01,
115,8.00e-02,-4.00e-01,
116,8.00e-02,-4.00e-01,
117,4.80e-02,-4.80e-01,
118,8.00e-02,-4.00e-01,
119,4.80e-02,-4.80e-01,
120,9.60e-02,-4.00e-01,
121,4.80e-02,-4.80e-01,
122,6.40e-02,-4.00e-01,
123,9.60e-02,-4.80e-01,
124,6.40e-02,-4.00e-01,
125,9.60e-02,-4.80e-01,
126,6.40e-02,-4.00e-01,
127,9.60e-02,-4.80e-01,
128,6.40e-02,-4.00e-01,
129,9.60e-02,-4.80e-01,
130,9.60e-02,-4.00e-01,
131,6.40e-02,-4.80e-01,
132,9.60e-02,-4.00e-01,
133,6.40e-02,-4.80e-01,
134,6.40e-02,-4.00e-01,
135,9.60e-02,-4.80e-01,
136,1.12e-01,-4.80e-01,
137,6.40e-02,-4.00e-01,
138,6.40e-02,-4.00e-01,
139,1.12e-01,-4.80e-01,
140,8.00e-02,-4.00e-01,
141,1.12e-01,-4.80e-01,
142,8.00e-02,-4.00e-01,
143,1.12e-01,-4.80e-01,
144,8.00e-02,-4.80e-01,
145,1.12e-01,-4.00e-01,
146,8.00e-02,-4.00e-01,
147,1.12e-01,-4.80e-01,
148,1.12e-01,-4.00e-01,
149,8.00e-02,-4.80e-01,
150,1.12e-01,-4.00e-01,
151,8.00e-02,-4.80e-01,
152,8.00e-02,-4.00e-01,
153,1.12e-01,-4.80e-01,
154,8.00e-02,-4.80e-01,
155,1.12e-01,-4.00e-01,
156,8.00e-02,-4.00e-01,
157,1.12e-01,-4.80e-01,
158,1.12e-01,-4.00e-01,
159,8.00e-02,-4.80e-01,
160,1.12e-01,-4.00e-01,
161,8.00e-02,-4.80e-01,
162,1.12e-01,-4.80e-01,
163,9.60e-02,-4.00e-01,
164,9.60e-02,-4.80e-01,
165,1.28e-01,-4.00e-01,
166,9.60e-02,-4.00e-01,
167,1.28e-01,-4.80e-01,
168,9.60e-02,-4.80e-01,
169,1.28e-01,-4.00e-01,
170,9.60e-02,-4.00e-01,
171,1.28e-01,-4.80e-01,
172,9.60e-02,-4.80e-01,
173,1.28e-01,-4.00e-01,
174,1.28e-01,-4.80e-01,
175,9.60e-02,-4.00e-01,
176,1.28e-01,-4.80e-01,
177,9.60e-02,-4.00e-01,
178,1.28e-01,-4.00e-01,
179,9.60e-02,-4.80e-01,
180,1.28e-01,-4.80e-01,
181,9.60e-02,-4.00e-01,
182,9.60e-02,-4.80e-01,
183,1.44e-01,-4.00e-01,
184,1.12e-01,-4.80e-01,
185,1.44e-01,-4.00e-01,
186,1.12e-01,-4.80e-01,
187,1.44e-01,-4.00e-01,
188,1.12e-01,-4.80e-01,
189,1.44e-01,-4.00e-01,
190,1.12e-01,-4.80e-01,
191,1.44e-01,-4.00e-01,
192,1.44e-01,-4.80e-01,
193,1.12e-01,-4.00e-01,
194,1.12e-01,-4.80e-01,
195,1.44e-01,-4.00e-01,
196,1.44e-01,-4.80e-01,
197,1.12e-01,-4.00e-01,
198,1.44e-01,-4.80e-01,
199,1.12e-01,-4.00e-01,
200,1.28e-01,-4.40e-01,
201,1.60e-01,-4.80e-01,
202,1.28e-01,-4.80e-01,
203,1.60e-01,-4.00e-01,
204,1.28e-01,-4.80e-01,
205,1.60e-01,-4.40e-01,
206,1.28e-01,-4.80e-01,
207,1.76e-01,-4.00e-01,
208,1.60e-01,-4.80e-01,
209,1.28e-01,-4.40e-01,
210,1.28e-01,-4.40e-01,
211,1.76e-01,-4.80e-01,
212,1.28e-01,-4.80e-01,
213,1.76e-01,-4.40e-01,
214,1.28e-01,-4.80e-01,
215,1.76e-01,-4.40e-01,
216,1.44e-01,-4.40e-01,
217,1.76e-01,-4.80e-01,
218,1.44e-01,-4.80e-01,
219,1.76e-01,-4.40e-01,
220,1.60e-01,-4.80e-01,
221,1.44e-01,-4.40e-01,
222,1.44e-01,-4.40e-01,
223,1.92e-01,-4.80e-01,
224,1.60e-01,-4.40e-01,
225,1.92e-01,-4.80e-01,
226,1.60e-01,-4.80e-01,
227,1.92e-01,-4.40e-01,
228,1.92e-01,-4.80e-01,
229,1.60e-01,-4.40e-01,
230,1.60e-01,-4.40e-01,
231,1.92e-01,-4.80e-01,
232,1.60e-01,-4.80e-01,
233,1.92e-01,-4.40e-01,
234,1.92e-01,-4.40e-01,
235,1.60e-01,-4.80e-01,
236,1.92e-01,-4.40e-01,
237,1.60e-01,-4.80e-01,
238,1.76e-01,-4.80e-01,
239,2.08e-01,-4.40e-01,
240,1.76e-01,-4.80e-01,
241,2.08e-01,-4.40e-01,
242,1.76e-01,-4.40e-01,
243,2.08e-01,-4.80e-01,
244,2.08e-01,-4.80e-01,
245,1.76e-01,-4.40e-01,
246,2.08e-01,-4.80e-01,
247,1.76e-01,-4.40e-01,
248,1.76e-01,-4.80e-01,
249,2.08e-01,-4.40e-01,
250,1.76e-01,-4.40e-01,
251,2.08e-01,-4.80e-01,
252,2.08e-01,-4.80e-01,
253,1.76e-01,-4.40e-01,
254,2.08e-01,-4.40e-01,
255,1.76e-01,-4.80e-01,
256,2.08e-01,-4.80e-01,
257,1.76e-01,-4.40e-01,
258,1.92e-01,-4.80e-01,
259,2.08e-01,-4.40e-01,
260,1.92e-01,-4.40e-01,
261,2.24e-01,-4.80e-01,
262,1.92e-01,-4.40e-01,
263,2.24e-01,-5.20e-01,
264,1.92e-01,-5.20e-01,
265,2.24e-01,-4.40e-01,
266,1.92e-01,-5.20e-01,
267,2.24e-01,-4.40e-01,
268,1.92e-01,-4.40e-01,
269,2.24e-01,-5.20e-01,
270,1.92e-01,-4.40e-01,
271,2.24e-01,-5.20e-01,
272,2.24e-01,-4.40e-01,
273,1.92e-01,-5.20e-01,
274,2.24e-01,-5.20e-01,
275,1.92e-01,-4.40e-01,
276,2.24e-01,-5.20e-01,
277,1.92e-01,-4.40e-01,
278,1.92e-01,-5.20e-01,
279,2.40e-01,-4.40e-01,
280,2.40e-01,-5.20e-01,
281,1.92e-01,-4.80e-01,
282,2.08e-01,-4.80e-01,
283,2.24e-01,-5.20e-01,
284,2.08e-01,-5.20e-01,
285,2.40e-01,-4.80e-01,
286,2.08e-01,-5.20e-01,
287,2.40e-01,-4.80e-01,
288,2.40e-01,-5.20e-01,
289,2.08e-01,-4.80e-01,
290,2.40e-01,-5.20e-01,
291,2.08e-01,-4.80e-01,
292,2.40e-01,-5.20e-01,
293,2.08e-01,-4.80e-01,
294,2.40e-01,-5.20e-01,
295,2.08e-01,-4.80e-01,
296,2.40e-01,-4.80e-01,
297,2.08e-01,-5.60e-01,
298,2.08e-01,-4.80e-01,
299,2.56e-01,-5.60e-01,
300,2.24e-01,-4.80e-01,
301,2.56e-01,-5.60e-01,
302,2.56e-01,-5.60e-01,
303,2.24e-01,-4.80e-01,
304,2.24e-01,-4.80e-01,
305,2.56e-01,-5.60e-01,
306,2.24e-01,-5.60e-01,
307,2.56e-01,-5.20e-01,
308,2.56e-01,-5.60e-01,
309,2.24e-01,-5.20e-01,
310,2.24e-01,-5.60e-01,
311,2.56e-01,-5.20e-01,
312,2.56e-01,-5.20e-01,
313,2.24e-01,-6.00e-01,
314,2.56e-01,-5.20e-01,
315,2.24e-01,-6.00e-01,
316,2.40e-01,-6.00e-01,
317,2.72e-01,-5.20e-01,
318,2.40e-01,-6.00e-01,
319,2.72e-01,-5.60e-01,
320,2.40e-01,-5.60e-01,
321,2.72e-01,-6.00e-01,
322,2.40e-01,-5.60e-01,
323,2.72e-01,-6.80e-01,
324,2.40e-01,-5.60e-01,
325,2.72e-01,-6.80e-01,
326,2.72e-01,-6.40e-01,
327,2.40e-01,-6.80e-01,
328,2.72e-01,-6.40e-01,
329,2.40e-01,-6.80e-01,
330,2.72e-01,-6.40e-01,
331,2.40e-01,-7.20e-01,
332,2.72e-01,-6.80e-01,
333,2.40e-01,-7.20e-01,
334,2.56e-01,-6.80e-01,
335,2.88e-01,-7.60e-01,
336,2.56e-01,-7.60e-01,
337,2.88e-01,-7.20e-01,
338,2.56e-01,-7.20e-01,
339,2.88e-01,-8.00e-01,
340,2.56e-01,-7.60e-01,
341,2.88e-01,-8.40e-01,
342,2.56e-01,-8.00e-01,
343,2.88e-01,-8.80e-01,
344,2.56e-01,-8.40e-01,
345,2.88e-01,-9.20e-01,
346,2.88e-01,-8.80e-01,
347,2.56e-01,-9.60e-01,
348,2.88e-01,-9.20e-01,
349,2.56e-01,-1.00e+00,
350,2.88e-01,-9.60e-01,
351,2.56e-01,-1.12e+00,
352,2.88e-01,-1.08e+00,
353,2.56e-01,-1.20e+00,
354,2.88e-01,-1.16e+00,
355,2.56e-01,-1.32e+00,
356,2.72e-01,-1.28e+00,
357,3.04e-01,-1.40e+00,
358,2.88e-01,-1.36e+00,
359,2.72e-01,-1.60e+00,
360,2.72e-01,-1.56e+00,
361,3.04e-01,-1.76e+00,
362,3.04e-01,-1.72e+00,
363,2.72e-01,-2.00e+00,
364,2.72e-01,-1.96e+00,
365,3.04e-01,-2.24e+00,
366,3.04e-01,-2.20e+00,
367,2.72e-01,-2.56e+00,
368,3.04e-01,-2.52e+00,
369,2.72e-01,-2.92e+00,
370,3.04e-01,-2.88e+00,
371,2.72e-01,-3.28e+00,
372,3.04e-01,-3.24e+00,
373,2.72e-01,-3.56e+00,
374,2.72e-01,-3.52e+00,
375,3.20e-01,-3.76e+00,
376,3.04e-01,-3.72e+00,
377,2.72e-01,-3.80e+00,
378,3.04e-01,-3.76e+00,
379,2.72e-01,-3.56e+00,
380,3.20e-01,-3.56e+00,
381,2.88e-01,-3.28e+00,
382,2.88e-01,-3.32e+00,
383,3.36e-01,-2.92e+00,
384,2.88e-01,-2.96e+00,
385,3.20e-01,-2.60e+00,
386,3.20e-01,-2.64e+00,
387,2.88e-01,-2.24e+00,
388,3.36e-01,-2.28e+00,
389,2.88e-01,-2.00e+00,
390,2.88e-01,-2.04e+00,
391,3.36e-01,-1.76e+00,
392,2.88e-01,-1.80e+00,
393,3.36e-01,-1.56e+00,
394,3.36e-01,-1.60e+00,
395,3.04e-01,-1.40e+00,
396,3.20e-01,-1.44e+00,
397,3.36e-01,-1.24e+00,
398,3.20e-01,-1.28e+00,
399,3.36e-01,-1.16e+00,
400,3.20e-01,-1.20e+00,
401,3.52e-01,-1.00e+00,
402,3.20e-01,-1.08e+00,
403,3.52e-01,-9.60e-01,
404,3.52e-01,-1.00e+00,
405,3.20e-01,-9.20e-01,
406,3.20e-01,-9.60e-01,
407,3.52e-01,-8.40e-01,
408,3.52e-01,-8.80e-01,
409,3.20e-01,-8.00e-01,
410,3.52e-01,-8.40e-01,
411,3.20e-01,-7.60e-01,
412,3.52e-01,-8.00e-01,
413,3.20e-01,-7.20e-01,
414,3.20e-01,-7.20e-01,
415,3.68e-01,-7.60e-01,
416,3.36e-01,-7.60e-01,
417,3.68e-01,-6.80e-01,
418,3.36e-01,-6.80e-01,
419,3.68e-01,-7.20e-01,
420,3.36e-01,-7.20e-01,
421,3.68e-01,-6.40e-01,
422,3.68e-01,-6.40e-01,
423,3.36e-01,-6.80e-01,
424,3.68e-01,-6.80e-01,
425,3.36e-01,-5.60e-01,
426,3.68e-01,-6.40e-01,
427,3.36e-01,-5.60e-01,
428,3.68e-01,-6.00e-01,
429,3.36e-01,-5.60e-01,
430,3.68e-01,-6.00e-01,
431,3.36e-01,-5.20e-01,
432,3.52e-01,-6.00e-01,
433,3.84e-01,-5.20e-01,
434,3.52e-01,-5.20e-01,
435,3.84e-01,-6.00e-01,
436,3.52e-01,-5.60e-01,
437,3.84e-01,-5.20e-01,
438,3.52e-01,-5.60e-01,
439,3.84e-01,-5.20e-01,
440,3.52e-01,-5.60e-01,
441,3.84e-01,-5.20e-01,
442,3.84e-01,-5.60e-01,
443,3.52e-01,-4.80e-01,
444,3.84e-01,-5.60e-01,
445,3.52e-01,-4.80e-01,
446,3.84e-01,-4.80e-01,
447,3.52e-01,-5.60e-01,
448,3.84e-01,-4.80e-01,
449,3.52e-01,-5.60e-01,
450,3.84e-01,-4.80e-01,
451,3.52e-01,-5.20e-01,
452,3.84e-01,-4.80e-01,
453,3.52e-01,-5.20e-01,
454,3.68e-01,-5.20e-01,
455,4.00e-01,-4.80e-01,
456,3.68e-01,-5.20e-01,
457,4.00e-01,-4.80e-01,
458,3.68e-01,-5.20e-01,
459,4.00e-01,-4.80e-01,
460,3.68e-01,-5.20e-01,
461,4.00e-01,-4.80e-01,
462,3.68e-01,-5.20e-01,
463,4.00e-01,-4.80e-01,
464,4.00e-01,-5.20e-01,
465,3.68e-01,-4.40e-01,
466,4.00e-01,-5.20e-01,
467,3.68e-01,-4.40e-01,
468,3.68e-01,-5.20e-01,
469,4.00e-01,-4.40e-01,
470,3.68e-01,-4.40e-01,
471,4.00e-01,-5.20e-01,
472,4.00e-01,-4.40e-01,
473,3.68e-01,-5.20e-01,
474,3.84e-01,-4.40e-01,
475,4.16e-01,-5.20e-01,
476,3.84e-01,-4.40e-01,
477,4.16e-01,-5.20e-01,
478,3.84e-01,-5.20e-01,
479,4.16e-01,-4.40e-01,
480,3.84e-01,-4.40e-01,
481,4.16e-01,-5.20e-01,
482,4.16e-01,-4.40e-01,
483,3.84e-01,-5.20e-01,
484,4.16e-01,-4.40e-01,
485,3.84e-01,-5.20e-01,
486,4.16e-01,-4.40e-01,
487,3.84e-01,-4.80e-01,
488,4.16e-01,-4.80e-01,
489,3.84e-01,-4.40e-01,
490,3.84e-01,-4.80e-01,
491,4.32e-01,-4.40e-01,
492,4.00e-01,-4.80e-01,
493,4.32e-01,-4.40e-01,
494,4.00e-01,-4.40e-01,
495,4.32e-01,-4.80e-01,
496,4.00e-01,-4.80e-01,
497,4.32e-01,-4.40e-01,
498,4.00e-01,-4.80e-01,
499,4.32e-01,-4.40e-01,
500,4.32e-01,-4.80e-01,
501,4.00e-01,-4.40e-01,
502,4.32e-01,-4.40e-01,
503,4.00e-01,-4.80e-01,
504,4.00e-01,-4.40e-01,
505,4.32e-01,-4.80e-01,
506,4.32e-01,-4.40e-01,
507,4.00e-01,-4.80e-01,
508,4.32e-01,-4.40e-01,
509,4.00e-01,-4.80e-01,
510,4.00e-01,-4.80e-01,
511,4.32e-01,-4.40e-01,
512,4.16e-01,-4.40e-01,
513,4.48e-01,-4.80e-01,
514,4.16e-01,-4.40e-01,
515,4.48e-01,-4.80e-01,
516,4.16e-01,-4.80e-01,
517,4.48e-01,-4.40e-01,
518,4.16e-01,-4.80e-01,
519,4.48e-01,-4.40e-01,
520,4.16e-01,-4.40e-01,
521,4.48e-01,-4.80e-01,
522,4.48e-01,-4.80e-01,
523,4.16e-01,-4.40e-01,
524,4.48e-01,-4.40e-01,
525,4.16e-01,-4.80e-01,
526,4.64e-01,-4.80e-01,
527,4.16e-01,-4.40e-01,
528,4.48e-01,-4.40e-01,
529,4.16e-01,-4.80e-01,
530,4.16e-01,-4.80e-01,
531,4.64e-01,-4.40e-01,
532,4.32e-01,-4.40e-01,
533,4.64e-01,-4.80e-01,
534,4.32e-01,-4.80e-01,
535,4.64e-01,-4.40e-01,
536,4.64e-01,-4.80e-01,
537,4.32e-01,-4.40e-01,
538,4.64e-01,-4.40e-01,
539,4.32e-01,-4.80e-01,
540,4.32e-01,-4.40e-01,
541,4.64e-01,-4.80e-01,
542,4.64e-01,-4.40e-01,
543,4.32e-01,-4.80e-01,
544,4.64e-01,-4.80e-01,
545,4.32e-01,-4.40e-01,
546,4.64e-01,-4.80e-01,
547,4.32e-01,-4.40e-01,
548,4.64e-01,-4.80e-01,
549,4.48e-01,-4.40e-01,
550,4.64e-01,-4.40e-01,
551,4.48e-01,-4.80e-01,
552,4.48e-01,-4.80e-01,
553,4.80e-01,-4.40e-01,
554,4.48e-01,-4.80e-01,
555,4.80e-01,-4.40e-01,
556,4.96e-01,-4.80e-01,
557,4.48e-01,-4.40e-01,
558,4.80e-01,-4.80e-01,
559,4.48e-01,-4.40e-01,
560,4.48e-01,-4.40e-01,
561,4.96e-01,-4.80e-01,
562,4.48e-01,-4.80e-01,
563,4.96e-01,-4.40e-01,
564,4.96e-01,-4.80e-01,
565,4.48e-01,-4.40e-01,
566,4.48e-01,-4.80e-01,
567,4.96e-01,-4.40e-01,
568,4.96e-01,-4.40e-01,
569,4.48e-01,-4.80e-01,
570,4.96e-01,-4.80e-01,
571,4.64e-01,-4.40e-01,
572,4.80e-01,-4.40e-01,
573,5.12e-01,-4.80e-01,
574,4.80e-01,-4.40e-01,
575,5.12e-01,-4.80e-01,
576,4.80e-01,-4.80e-01,
577,5.12e-01,-4.40e-01,
578,4.80e-01,-4.80e-01,
579,5.12e-01,-4.40e-01,
580,5.12e-01,-4.80e-01,
581,4.80e-01,-4.40e-01,
582,4.80e-01,-4.80e-01,
583,5.12e-01,-4.40e-01,
584,5.12e-01,-4.80e-01,
585,4.80e-01,-4.40e-01,
586,5.12e-01,-4.80e-01,
587,4.80e-01,-4.40e-01,
588,5.12e-01,-4.80e-01,
589,4.80e-01,-4.40e-01,
590,4.96e-01,-4.80e-01,
591,5.12e-01,-4.40e-01,
592,4.96e-01,-4.80e-01,
593,5.28e-01,-4.40e-01,
594,4.96e-01,-4.80e-01,
595,5.28e-01,-4.40e-01,
596,4.96e-01,-4.80e-01,
597,5.28e-01,-4.40e-01,
598,4.96e-01,-4.80e-01,
599,5.28e-01,-4.40e-01,
600,4.96e-01,-4.40e-01,
601,5.28e-01,-4.80e-01,
602,5.28e-01,-4.80e-01,
603,4.96e-01,-4.40e-01,
604,5.28e-01,-4.80e-01,
605,4.96e-01,-4.40e-01,
606,5.12e-01,-4.80e-01,
607,5.28e-01,-4.40e-01,
608,5.12e-01,-4.80e-01,
609,5.44e-01,-4.40e-01,
610,5.12e-01,-4.40e-01,
611,5.44e-01,-4.80e-01,
612,5.12e-01,-4.80e-01,
613,5.44e-01,-4.40e-01,
614,5.44e-01,-4.40e-01,
615,5.12e-01,-4.80e-01,
616,5.44e-01,-4.80e-01,
617,5.12e-01,-4.40e-01,
618,5.12e-01,-4.40e-01,
619,5.44e-01,-4.80e-01,
620,5.12e-01,-4.80e-01,
621,5.44e-01,-4.40e-01,
622,5.44e-01,-4.80e-01,
623,5.12e-01,-4.40e-01,
624,5.28e-01,-4.40e-01,
625,5.60e-01,-4.80e-01,
626,5.28e-01,-4.80e-01,
627,5.60e-01,-4.40e-01,
628,5.60e-01,-4.80e-01,
629,5.28e-01,-4.40e-01,
630,5.28e-01,-4.40e-01,
631,5.60e-01,-4.80e-01,
632,5.28e-01,-4.40e-01,
633,5.60e-01,-4.80e-01,
634,5.60e-01,-4.80e-01,
635,5.28e-01,-4.40e-01,
636,5.60e-01,-4.40e-01,
637,5.28e-01,-4.80e-01,
638,5.60e-01,-4.40e-01,
639,5.28e-01,-4.80e-01,
640,5.60e-01,-4.80e-01,
641,5.28e-01,-4.40e-01,
642,5.60e-01,-4.80e-01,
643,5.28e-01,-4.40e-01,
644,5.44e-01,-4.40e-01,
645,5.76e-01,-4.80e-01,
646,5.60e-01,-4.80e-01,
647,5.44e-01,-4.40e-01,
648,5.60e-01,-4.80e-01,
649,5.28e-01,-4.40e-01,
650,5.44e-01,-4.80e-01,
651,5.76e-01,-4.40e-01,
652,5.44e-01,-4.40e-01,
653,5.76e-01,-4.80e-01,
654,5.44e-01,-4.40e-01,
655,5.76e-01,-4.80e-01,
656,5.44e-01,-4.40e-01,
657,5.76e-01,-4.80e-01,
658,5.44e-01,-4.80e-01,
659,5.76e-01,-4.40e-01,
660,5.76e-01,-4.80e-01,
661,5.44e-01,-4.40e-01,
662,5.76e-01,-4.80e-01,
663,5.44e-01,-4.40e-01,
664,5.44e-01,-4.80e-01,
665,5.76e-01,-4.40e-01,
666,5.44e-01,-4.80e-01,
667,5.92e-01,-4.40e-01,
668,5.60e-01,-4.80e-01,
669,5.92e-01,-4.40e-01,
670,5.60e-01,-4.40e-01,
671,5.92e-01,-4.80e-01,
672,5.60e-01,-4.80e-01,
673,5.92e-01,-4.40e-01,
674,5.60e-01,-4.80e-01,
675,5.92e-01,-4.40e-01,
676,5.60e-01,-4.40e-01,
677,5.92e-01,-4.80e-01,
678,5.92e-01,-4.40e-01,
679,5.60e-01,-4.80e-01,
680,5.60e-01,-4.40e-01,
681,5.92e-01,-4.80e-01,
682,5.92e-01,-4.40e-01,
683,5.60e-01,-4.80e-01,
684,5.92e-01,-4.80e-01,
685,5.60e-01,-4.40e-01,
686,5.76e-01,-4.80e-01,
687,6.08e-01,-4.40e-01,
688,5.76e-01,-4.40e-01,
689,6.08e-01,-4.80e-01,
690,5.76e-01,-4.40e-01,
691,6.08e-01,-4.80e-01,
692,6.08e-01,-4.80e-01,
693,5.76e-01,-4.40e-01,
694,5.76e-01,-4.40e-01,
695,6.08e-01,-4.80e-01,
696,6.08e-01,-4.40e-01,
697,5.76e-01,-4.80e-01,
698,6.08e-01,-4.40e-01,
699,5.76e-01,-4.80e-01,
700,5.76e-01,-4.40e-01,
701,6.24e-01,-4.80e-01,
702,6.08e-01,-4.80e-01,
703,5.92e-01,-4.40e-01,
704,5.92e-01,-4.80e-01,
705,6.24e-01,-4.40e-01,
706,5.92e-01,-4.80e-01,
707,6.24e-01,-4.40e-01,
708,6.24e-01,-4.80e-01,
709,5.92e-01,-4.40e-01,
710,6.24e-01,-4.80e-01,
711,5.92e-01,-4.40e-01,
712,6.24e-01,-4.40e-01,
713,5.92e-01,-4.80e-01,
714,6.24e-01,-4.40e-01,
715,5.92e-01,-4.80e-01,
716,6.24e-01,-4.40e-01,
717,5.92e-01,-4.80e-01,
718,6.24e-01,-4.40e-01,
719,5.92e-01,-5.20e-01,
720,5.92e-01,-4.80e-01,
721,6.40e-01,-4.40e-01,
722,6.40e-01,-4.40e-01,
723,6.08e-01,-4.80e-01,
724,6.08e-01,-4.40e-01,
725,6.40e-01,-5.20e-01,
726,6.40e-01,-4.40e-01,
727,6.08e-01,-5.20e-01,
728,6.08e-01,-4.40e-01,
729,6.56e-01,-5.20e-01,
730,6.56e-01,-4.40e-01,
731,6.08e-01,-5.20e-01,
732,6.08e-01,-5.20e-01,
733,6.56e-01,-4.40e-01,
734,6.08e-01,-5.20e-01,
735,6.56e-01,-4.80e-01,
736,6.24e-01,-5.20e-01,
737,6.56e-01,-4.80e-01,
738,6.08e-01,-4.80e-01,
739,6.56e-01,-5.60e-01,
740,6.56e-01,-4.80e-01,
741,6.08e-01,-5.60e-01,
742,6.56e-01,-5.20e-01,
743,6.08e-01,-6.00e-01,
744,6.56e-01,-5.60e-01,
745,6.24e-01,-6.80e-01,
746,6.40e-01,-6.40e-01,
747,6.56e-01,-7.20e-01,
748,6.40e-01,-6.80e-01,
749,6.72e-01,-8.40e-01,
750,6.40e-01,-8.00e-01,
751,6.72e-01,-1.08e+00,
752,6.40e-01,-1.08e+00,
753,6.72e-01,-1.44e+00,
754,6.40e-01,-1.40e+00,
755,6.72e-01,-1.64e+00,
756,6.40e-01,-1.64e+00,
757,6.72e-01,-1.36e+00,
758,6.72e-01,-1.40e+00,
759,6.40e-01,-1.12e+00,
760,6.72e-01,-1.12e+00,
761,6.40e-01,-8.80e-01,
762,6.72e-01,-9.20e-01,
763,6.40e-01,-7.60e-01,
764,6.72e-01,-8.00e-01,
765,6.40e-01,-6.80e-01,
766,6.40e-01,-7.20e-01,
767,6.88e-01,-5.60e-01,
768,6.56e-01,-6.40e-01,
769,6.88e-01,-5.20e-01,
770,6.56e-01,-5.20e-01,
771,6.88e-01,-6.00e-01,
772,6.88e-01,-5.60e-01,
773,6.56e-01,-4.80e-01,
774,6.88e-01,-5.60e-01,
775,6.56e-01,-4.80e-01,
776,6.56e-01,-5.20e-01,
777,6.88e-01,-4.80e-01,
778,6.56e-01,-4.80e-01,
779,6.88e-01,-5.20e-01,
780,6.56e-01,-4.80e-01,
781,6.88e-01,-5.20e-01,
782,6.88e-01,-5.20e-01,
783,6.56e-01,-4.40e-01,
784,6.72e-01,-5.20e-01,
785,7.04e-01,-4.40e-01,
786,6.72e-01,-4.40e-01,
787,7.04e-01,-5.20e-01,
788,7.04e-01,-4.40e-01,
789,6.72e-01,-5.20e-01,
790,7.04e-01,-4.40e-01,
791,6.72e-01,-5.20e-01,
792,6.72e-01,-4.40e-01,
793,7.04e-01,-5.20e-01,
794,6.72e-01,-4.40e-01,
795,7.04e-01,-5.20e-01,
796,7.04e-01,-5.20e-01,
797,6.72e-01,-4.40e-01,
798,6.72e-01,-4.40e-01,
799,7.20e-01,-5.20e-01,
800,7.04e-01,-4.40e-01,
801,6.88e-01,-5.20e-01,
802,6.88e-01,-4.40e-01,
803,7.20e-01,-4.80e-01,
804,6.88e-01,-4.80e-01,
805,7.20e-01,-4.40e-01,
806,6.88e-01,-4.40e-01,
807,7.20e-01,-5.20e-01,
808,6.88e-01,-4.40e-01,
809,7.20e-01,-4.80e-01,
810,7.20e-01,-4.40e-01,
811,6.88e-01,-5.20e-01,
812,7.20e-01,-4.40e-01,
813,6.88e-01,-4.80e-01,
814,7.20e-01,-4.40e-01,
815,6.88e-01,-4.80e-01,
816,7.20e-01,-4.80e-01,
817,6.88e-01,-4.40e-01,
818,6.88e-01,-4.80e-01,
819,7.36e-01,-4.40e-01,
820,7.04e-01,-4.80e-01,
821,7.36e-01,-4.40e-01,
822,7.04e-01,-4.80e-01,
823,7.36e-01,-4.40e-01,
824,7.36e-01,-4.40e-01,
825,7.04e-01,-4.80e-01,
826,7.36e-01,-4.40e-01,
827,7.04e-01,-4.80e-01,
828,7.04e-01,-4.40e-01,
829,7.36e-01,-5.20e-01,
830,7.04e-01,-4.80e-01,
831,7.36e-01,-4.40e-01,
832,7.04e-01,-4.80e-01,
833,7.36e-01,-4.40e-01,
